time,[HUME],[TEMP],[PRES],[RADI],[RAPV],[DIRV],[PREC]
2020-03-12T00:00:00-05:00,81.6,13.09,737.07,-2.99,0.51,57.86,0
2020-03-12T00:01:00-05:00,82.46,13.1,736.8,-2.11,0.56,57.37,0
2020-03-12T00:02:00-05:00,82.89,13.12,735.93,-2.11,0.61,103.25,0
2020-03-12T00:03:00-05:00,82.63,13.13,735.9,-0.49,0.56,108.99,0
2020-03-12T00:04:00-05:00,82.67,13.16,736.2,-2.26,0.59,37.54,0
2020-03-12T00:05:00-05:00,83.12,13.16,736.43,-1.97,0.23,345.52,0
2020-03-12T00:06:00-05:00,82.96,13.16,736.13,-0.64,0.29,95.33,0
2020-03-12T00:07:00-05:00,81.18,13.15,735.7,-0.35,0.6,73.97,0
2020-03-12T00:08:00-05:00,81.59,13.15,736.43,-2.26,0.72,83.7,0
2020-03-12T00:09:00-05:00,80.45,13.12,736,0.09,1.23,74.8,0
2020-03-12T00:10:00-05:00,81.2,13.12,735.56,-0.79,0.76,74.51,0
2020-03-12T00:11:00-05:00,81.2,13.09,735.83,-1.82,1.03,33.95,0
2020-03-12T00:12:00-05:00,81.56,13.08,735.67,-0.49,0.6,48.47,0
2020-03-12T00:13:00-05:00,81.85,13.09,735.2,-1.08,0.63,37.91,0
2020-03-12T00:14:00-05:00,81.89,13.08,736.47,-1.82,0.64,46.33,0
2020-03-12T00:15:00-05:00,82.15,13.07,736.23,0.39,0.24,85.79,0
2020-03-12T00:16:00-05:00,82.52,13.08,736.1,-0.79,0.58,71.31,0
2020-03-12T00:17:00-05:00,82.21,13.06,736.07,0.24,0.92,61,0
2020-03-12T00:18:00-05:00,81.74,13.06,736.07,-0.79,0.66,66.34,0
2020-03-12T00:19:00-05:00,81.13,13.06,735.53,-1.08,0.96,68.09,0
2020-03-12T00:20:00-05:00,79.69,13.06,735.9,-0.94,1.88,86.09,0
2020-03-12T00:21:00-05:00,79.45,13.06,737,-0.49,2.02,22.79,0
2020-03-12T00:22:00-05:00,78.22,13.09,735.56,-0.79,1.25,36.61,0
2020-03-12T00:23:00-05:00,77.76,13.13,736.1,0.09,2.74,47.46,0
2020-03-12T00:24:00-05:00,77.78,13.16,735.87,0.24,1.32,21.07,0
2020-03-12T00:25:00-05:00,77.75,13.15,736.64,-1.08,2.39,40.06,0
2020-03-12T00:26:00-05:00,78.08,13.15,735.8,-0.49,0.8,344.82,0
2020-03-12T00:27:00-05:00,78.46,13.14,736.13,0.53,0.6,164.42,0
2020-03-12T00:28:00-05:00,79.19,13.12,735.97,-2.11,0.61,101.44,0
2020-03-12T00:29:00-05:00,79.59,13.12,736.17,-2.26,0.24,323.58,0
2020-03-12T00:30:00-05:00,79.92,13.13,736.5,-1.52,0.37,76.85,0
2020-03-12T00:31:00-05:00,79.81,13.11,736.37,-1.97,0.28,206.01,0
2020-03-12T00:32:00-05:00,79.91,13.08,735.6,-1.52,0.24,172.13,0
2020-03-12T00:33:00-05:00,78.98,13.05,736.37,-1.08,0.47,121.4,0
2020-03-12T00:34:00-05:00,79.07,13.04,735.7,-1.23,0.62,103.91,0
2020-03-12T00:35:00-05:00,79.92,13.03,735.83,-0.79,0.16,91.84,0
2020-03-12T00:36:00-05:00,80.58,13.02,735.5,-0.05,0.41,21.93,0
2020-03-12T00:37:00-05:00,80.68,13.01,736.1,-1.97,0.43,12.72,0
2020-03-12T00:38:00-05:00,80.72,13,735.93,-1.38,0.25,23.2,0
2020-03-12T00:39:00-05:00,80.72,13.01,735.3,-1.82,0.54,19.46,0
2020-03-12T00:40:00-05:00,80.94,12.99,735.83,-1.67,0.64,36.62,0
2020-03-12T00:41:00-05:00,81.65,13.01,736.57,-1.38,0.5,49.71,0
2020-03-12T00:42:00-05:00,81.76,13.02,735.33,-1.38,0.59,56.76,0
2020-03-12T00:43:00-05:00,82.41,13.02,736.27,0.24,0.23,127.17,0
2020-03-12T00:44:00-05:00,82.13,13.03,735.26,-1.23,0.23,76.11,0
2020-03-12T00:45:00-05:00,82.19,13.04,735.6,0.39,0.06,44.45,0
2020-03-12T00:46:00-05:00,82.7,13.05,736.13,-0.79,0.24,154.52,0
2020-03-12T00:47:00-05:00,82.09,13.06,736.37,-1.82,0.66,144.22,0
2020-03-12T00:48:00-05:00,82.03,13.06,736.03,0.09,0.24,63.97,0
2020-03-12T00:49:00-05:00,82.23,13.06,736,-0.79,0.52,69.23,0
2020-03-12T00:50:00-05:00,82.02,13.06,735.36,0.53,0.72,37.86,0
2020-03-12T00:51:00-05:00,82.37,13.07,735.16,-1.23,0.6,22.88,0
2020-03-12T00:52:00-05:00,82.13,13.06,735.83,-0.94,0.57,13.53,0
2020-03-12T00:53:00-05:00,81.3,13.06,735.46,-0.05,0.27,48.68,0
2020-03-12T00:54:00-05:00,81.97,13.07,735.4,0.09,0.73,21.04,0
2020-03-12T00:55:00-05:00,80.92,13.06,735.8,-0.64,1.06,71.24,0
2020-03-12T00:56:00-05:00,80.6,13.06,735.23,-1.23,0.88,68.36,0
2020-03-12T00:57:00-05:00,81.42,13.04,735.9,-0.49,0.61,353.86,0
2020-03-12T00:58:00-05:00,81.32,13.04,736.2,0.83,0.59,160.14,0
2020-03-12T00:59:00-05:00,79.91,13.05,735.2,-0.2,2.37,59.89,0
2020-03-12T01:00:00-05:00,78.5,13.08,736.07,0.09,2.37,16.72,0
2020-03-12T01:01:00-05:00,77.55,13.09,736.37,-1.67,2.02,51.85,0
2020-03-12T01:02:00-05:00,77.47,13.12,736.33,-0.94,1.83,29.77,0
2020-03-12T01:03:00-05:00,77.85,13.14,735.87,-1.82,0.73,94.03,0
2020-03-12T01:04:00-05:00,78.04,13.18,736.4,-1.38,0.82,27.95,0
2020-03-12T01:05:00-05:00,77.47,13.18,735.67,-1.52,0.84,26.47,0
2020-03-12T01:06:00-05:00,77.59,13.21,736.77,1.12,1.39,80.98,0
2020-03-12T01:07:00-05:00,77.48,13.21,736.1,-0.94,2.33,51.34,0
2020-03-12T01:08:00-05:00,77.38,13.24,736.43,0.83,1.61,47.4,0
2020-03-12T01:09:00-05:00,76.43,13.24,736.37,-0.64,0.54,34.82,0
2020-03-12T01:10:00-05:00,76.48,13.28,736.8,-0.05,1.02,57.86,0
2020-03-12T01:11:00-05:00,76.97,13.3,736.23,-1.82,1.76,70.65,0
2020-03-12T01:12:00-05:00,76.32,13.31,736.64,-0.49,1.78,55,0
2020-03-12T01:13:00-05:00,75.94,13.35,736.2,-1.67,1.09,58.76,0
2020-03-12T01:14:00-05:00,75.38,13.38,736.8,-0.79,2.87,36,0
2020-03-12T01:15:00-05:00,74.37,13.39,736.84,-2.26,2.41,5.93,0
2020-03-12T01:16:00-05:00,74.81,13.43,736.47,-0.79,2.35,36.49,0
2020-03-12T01:17:00-05:00,74.69,13.42,736.37,-3.14,0.58,354.46,0
2020-03-12T01:18:00-05:00,74.26,13.44,736.37,-2.99,0.74,80.21,0
2020-03-12T01:19:00-05:00,74.05,13.46,736.03,-1.08,1.28,110.18,0
2020-03-12T01:20:00-05:00,74.16,13.46,736.47,-2.55,0.77,160.49,0
2020-03-12T01:21:00-05:00,74.17,13.46,735.7,-0.79,1.4,344.54,0
2020-03-12T01:22:00-05:00,74.08,13.47,737.34,-2.7,1.01,158.54,0
2020-03-12T01:23:00-05:00,74.31,13.47,736.17,-1.23,0.55,317.61,0
2020-03-12T01:24:00-05:00,74.68,13.46,736.77,-3.88,0.72,354.76,0
2020-03-12T01:25:00-05:00,74.47,13.46,736.3,-2.11,0.57,329.53,0
2020-03-12T01:26:00-05:00,74.31,13.44,735.2,-3.44,0.32,306.6,0
2020-03-12T01:27:00-05:00,74.65,13.44,735.5,-2.85,0.14,232.86,0
2020-03-12T01:28:00-05:00,74.72,13.42,735.93,-3.73,0.11,68.91,0
2020-03-12T01:29:00-05:00,74.77,13.4,734.86,-4.17,0.6,10.66,0
2020-03-12T01:30:00-05:00,75.26,13.37,735.77,-4.17,0.61,352.53,0
2020-03-12T01:31:00-05:00,75.67,13.32,735.4,-4.76,0.24,318.56,0
2020-03-12T01:32:00-05:00,75.84,13.3,735.06,-4.61,0.07,277.68,0
2020-03-12T01:33:00-05:00,76.34,13.26,735.03,-3.44,0.3,124.61,0
2020-03-12T01:34:00-05:00,76.95,13.22,734.76,-4.32,0.57,96.89,0
2020-03-12T01:35:00-05:00,77.19,13.16,734.46,-4.76,0.48,46.99,0
2020-03-12T01:36:00-05:00,77.92,13.1,734.09,-4.91,0.48,61.42,0
2020-03-12T01:37:00-05:00,77.21,13.07,733.99,-3.58,0.7,67.51,0
2020-03-12T01:38:00-05:00,77.09,13.02,734.96,-4.32,0.86,93.34,0
2020-03-12T01:39:00-05:00,76.97,13,734.83,-4.61,0.56,136.68,0
2020-03-12T01:40:00-05:00,77.48,12.97,733.05,-5.49,0.25,93.22,0
2020-03-12T01:41:00-05:00,77.91,12.97,734.36,-4.02,0.58,345.86,0
2020-03-12T01:42:00-05:00,78.4,12.89,734.13,-3.44,1.22,84.27,0
2020-03-12T01:43:00-05:00,78,12.89,733.96,-4.32,0.96,46.68,0
2020-03-12T01:44:00-05:00,78.06,12.95,733.76,-4.17,1.23,70.2,0
2020-03-12T01:45:00-05:00,78.25,12.92,733.72,-3.44,0.64,104.89,0
2020-03-12T01:46:00-05:00,79.53,12.88,733.82,-4.61,0.44,100.93,0
2020-03-12T01:47:00-05:00,79.27,12.83,732.35,-4.61,0.22,130.21,0
2020-03-12T01:48:00-05:00,79.21,12.79,733.89,-3.29,0.57,60,0
2020-03-12T01:49:00-05:00,79.22,12.74,734.36,-4.46,0.84,123.89,0
2020-03-12T01:50:00-05:00,79.37,12.73,733.96,-3.58,0.65,54.17,0
2020-03-12T01:51:00-05:00,79.89,12.71,734.19,-1.82,0.73,49.19,0
2020-03-12T01:52:00-05:00,79.83,12.68,733.36,-2.85,0.57,35.83,0
2020-03-12T01:53:00-05:00,79.82,12.67,732.72,-1.52,0.51,29.54,0
2020-03-12T01:54:00-05:00,79.82,12.65,732.59,-3.44,0.45,19.01,0
2020-03-12T01:55:00-05:00,79.77,12.63,733.09,-4.02,0.37,85.17,0
2020-03-12T01:56:00-05:00,80.05,12.6,733.02,-4.76,0.5,114.75,0
2020-03-12T01:57:00-05:00,80.72,12.56,732.69,-3.58,0.5,51.16,0
2020-03-12T01:58:00-05:00,80.9,12.52,732.62,-3.14,1.68,67.76,0
2020-03-12T01:59:00-05:00,80.7,12.5,732.65,-3.73,0.85,68.93,0
2020-03-12T02:00:00-05:00,80.91,12.45,731.98,-0.79,0.26,133.56,0
2020-03-12T02:01:00-05:00,81.43,12.45,732.99,-1.52,0.39,75.25,0
2020-03-12T02:02:00-05:00,81.92,12.42,732.48,-2.11,0.62,103.24,0
2020-03-12T02:03:00-05:00,79.72,12.41,732.28,-0.64,3.03,53.69,0
2020-03-12T02:04:00-05:00,77.86,12.56,733.36,-1.67,1.55,31.7,0
2020-03-12T02:05:00-05:00,77.95,12.63,732.95,-1.23,0.84,142.23,0
2020-03-12T02:06:00-05:00,78.14,12.67,733.09,0.39,0.94,62.54,0
2020-03-12T02:07:00-05:00,78.56,12.66,733.32,0.24,2.96,43.97,0
2020-03-12T02:08:00-05:00,78.55,12.69,733.05,0.24,0.44,142.19,0
2020-03-12T02:09:00-05:00,78.05,12.71,734.36,-0.2,0.93,74.37,0
2020-03-12T02:10:00-05:00,77.1,12.74,733.46,-1.08,3.1,50.27,0
2020-03-12T02:11:00-05:00,76.56,12.78,734.33,0.68,3.44,54.84,0
2020-03-12T02:12:00-05:00,76.21,12.83,735.3,0.83,3.52,50.13,0
2020-03-12T02:13:00-05:00,75.83,12.86,734.26,-0.64,1.24,59.09,0
2020-03-12T02:14:00-05:00,75.8,12.91,734.33,-0.05,2.23,60.73,0
2020-03-12T02:15:00-05:00,75.94,12.91,735.33,-0.49,0.3,246.1,0
2020-03-12T02:16:00-05:00,76.78,12.89,734.23,-1.38,0.8,192.03,0
2020-03-12T02:17:00-05:00,76.87,12.87,734.33,-1.08,0.58,15.13,0
2020-03-12T02:18:00-05:00,77.33,12.88,734.53,-1.38,0.96,170.09,0
2020-03-12T02:19:00-05:00,77.03,12.85,735.1,0.09,1.44,42.94,0
2020-03-12T02:20:00-05:00,76.89,12.87,734.86,-1.23,0.6,167.11,0
2020-03-12T02:21:00-05:00,77.19,12.87,734.33,-1.08,0.3,76.27,0
2020-03-12T02:22:00-05:00,76.69,12.87,734.36,0.09,0.57,291.71,0
2020-03-12T02:23:00-05:00,77.17,12.87,734.79,0.83,0.69,132.58,0
2020-03-12T02:24:00-05:00,77.37,12.86,735,0.09,0.74,10.74,0
2020-03-12T02:25:00-05:00,77.13,12.88,735.46,-0.49,1.46,91.13,0
2020-03-12T02:26:00-05:00,76.99,12.89,735.13,-0.35,2.34,38.44,0
2020-03-12T02:27:00-05:00,77.54,12.91,735.33,-1.23,0.69,71.7,0
2020-03-12T02:28:00-05:00,76.55,12.91,735.4,-1.82,1.65,69.55,0
2020-03-12T02:29:00-05:00,76.01,12.93,735.36,-1.52,3.42,54.89,0
2020-03-12T02:30:00-05:00,75.68,12.96,735.03,0.68,1.34,56.7,0
2020-03-12T02:31:00-05:00,76.02,12.98,735.36,-0.94,2.46,45.95,0
2020-03-12T02:32:00-05:00,75.83,12.98,735.2,-0.94,0.49,17.6,0
2020-03-12T02:33:00-05:00,76.86,13,735.77,0.98,0.93,111.05,0
2020-03-12T02:34:00-05:00,77.15,12.97,736,0.09,0.66,61.35,0
2020-03-12T02:35:00-05:00,76.74,12.96,735.8,-0.05,1.43,45.02,0
2020-03-12T02:36:00-05:00,77.2,12.97,734.96,-0.49,0.62,124.53,0
2020-03-12T02:37:00-05:00,76.7,12.98,735.93,-0.49,0.72,59.23,0
2020-03-12T02:38:00-05:00,77.69,12.97,734.9,-1.82,0.74,60.82,0
2020-03-12T02:39:00-05:00,77.45,12.95,735.56,0.24,0.78,48.53,0
2020-03-12T02:40:00-05:00,77.11,13.02,735.26,-1.08,1.04,68.95,0
2020-03-12T02:41:00-05:00,77.14,13.03,735.36,-0.2,0.62,93.16,0
2020-03-12T02:42:00-05:00,77.09,13.04,735.63,1.12,0.6,103.52,0
2020-03-12T02:43:00-05:00,77.1,13.06,735.6,0.98,0.9,60.44,0
2020-03-12T02:44:00-05:00,77.38,13.05,735.26,0.39,1.9,71.37,0
2020-03-12T02:45:00-05:00,76.68,13.04,736.03,-1.08,3.17,39.66,0
2020-03-12T02:46:00-05:00,76.55,13.06,736.37,-0.2,1.47,74.72,0
2020-03-12T02:47:00-05:00,77.27,13.08,735.67,0.68,0.84,17.21,0
2020-03-12T02:48:00-05:00,77.67,13.07,735.6,-0.35,1.25,76.05,0
2020-03-12T02:49:00-05:00,77.51,13.04,735.06,-1.97,0.55,176.39,0
2020-03-12T02:50:00-05:00,77.82,13.04,735.97,-1.67,1.46,65.15,0
2020-03-12T02:51:00-05:00,77.29,13.03,735.36,-0.05,2.98,48.72,0
2020-03-12T02:52:00-05:00,77.03,13.02,735.43,-1.67,0.17,287.63,0
2020-03-12T02:53:00-05:00,78.28,13.02,735.03,-2.26,1.27,75.44,0
2020-03-12T02:54:00-05:00,78.06,13,735.53,-0.64,1.99,41.12,0
2020-03-12T02:55:00-05:00,77.61,12.99,735.46,-1.52,2.12,42.09,0
2020-03-12T02:56:00-05:00,76.96,13,735.8,0.68,1.02,6.45,0
2020-03-12T02:57:00-05:00,76.97,13.04,735.7,-1.97,2.12,31.78,0
2020-03-12T02:58:00-05:00,76.93,13.04,735.5,-0.64,0.89,90.89,0
2020-03-12T02:59:00-05:00,77.55,13.04,735.63,0.09,0.94,65.84,0
2020-03-12T03:00:00-05:00,76.53,13.05,735.8,-1.67,0.93,104.11,0
2020-03-12T03:01:00-05:00,76.53,13.05,735.97,-1.38,1.36,57.09,0
2020-03-12T03:02:00-05:00,75.98,13.1,735.46,0.53,2.91,58.81,0
2020-03-12T03:03:00-05:00,76.48,13.1,735.97,-0.2,0.68,110.49,0
2020-03-12T03:04:00-05:00,77.02,13.1,736.37,-0.49,0.82,59.49,0
2020-03-12T03:05:00-05:00,75.84,13.12,736.23,-0.2,6.37,57.68,0
2020-03-12T03:06:00-05:00,75.72,13.16,735.33,0.68,2.55,76.64,0
2020-03-12T03:07:00-05:00,75.76,13.17,736.77,-0.64,2.53,52.29,0
2020-03-12T03:08:00-05:00,75.95,13.16,736.2,-0.2,1.57,7.35,0
2020-03-12T03:09:00-05:00,76.01,13.18,735.83,-1.23,0.72,42.59,0
2020-03-12T03:10:00-05:00,75.98,13.2,736.4,-0.94,1.34,75.21,0
2020-03-12T03:11:00-05:00,75.74,13.2,735.46,-0.35,2.32,59.11,0
2020-03-12T03:12:00-05:00,75.76,13.21,736.1,1.12,0.71,18.89,0
2020-03-12T03:13:00-05:00,75.57,13.24,736.54,-1.08,0.44,82.68,0
2020-03-12T03:14:00-05:00,75.93,13.24,735.5,1.27,0.64,57.52,0
2020-03-12T03:15:00-05:00,76.74,13.22,736.27,-1.82,2.77,41.18,0
2020-03-12T03:16:00-05:00,76.15,13.21,736.7,0.53,0.61,130.81,0
2020-03-12T03:17:00-05:00,76.05,13.21,736.67,0.24,0.25,174.13,0
2020-03-12T03:18:00-05:00,75.96,13.23,736.47,-1.82,0.99,124.51,0
2020-03-12T03:19:00-05:00,76.9,13.22,736,-0.35,2.37,57.63,0
2020-03-12T03:20:00-05:00,76.91,13.19,735.87,-2.11,1.03,55.04,0
2020-03-12T03:21:00-05:00,76.34,13.19,735.73,-0.49,0.57,48.85,0
2020-03-12T03:22:00-05:00,76.4,13.2,736.54,-1.08,2.47,53.18,0
2020-03-12T03:23:00-05:00,76,13.2,736.43,-0.79,2,37.5,0
2020-03-12T03:24:00-05:00,75.69,13.21,736.2,-1.08,3.51,115.29,0
2020-03-12T03:25:00-05:00,75.54,13.24,735.93,-1.23,1.05,65.48,0
2020-03-12T03:26:00-05:00,75.82,13.24,736.5,0.24,2.6,50.37,0
2020-03-12T03:27:00-05:00,75.88,13.23,736.5,0.68,1.14,32.27,0
2020-03-12T03:28:00-05:00,75.92,13.24,736.9,-1.38,1.85,19.39,0
2020-03-12T03:29:00-05:00,75.87,13.24,736.33,-0.05,3.55,25.6,0
2020-03-12T03:30:00-05:00,75.8,13.24,735.6,-1.38,1.7,174.1,0
2020-03-12T03:31:00-05:00,76.22,13.23,736.27,-0.05,1.54,88.35,0
2020-03-12T03:32:00-05:00,76.16,13.22,737.04,0.53,3.18,67.09,0
2020-03-12T03:33:00-05:00,75.42,13.26,735.9,0.83,1.59,29.53,0
2020-03-12T03:34:00-05:00,74.96,13.29,736.17,0.24,3.84,84.48,0
2020-03-12T03:35:00-05:00,74.47,13.34,737.14,-1.38,2.55,74.53,0
2020-03-12T03:36:00-05:00,74.25,13.38,736.57,-0.64,1.29,24.49,0
2020-03-12T03:37:00-05:00,74.36,13.4,736.27,-0.64,0.89,41.76,0
2020-03-12T03:38:00-05:00,74.49,13.4,736.4,-1.38,1.44,34.11,0
2020-03-12T03:39:00-05:00,74.81,13.4,736.47,-1.97,0.86,77.69,0
2020-03-12T03:40:00-05:00,74.75,13.4,736.2,-0.35,0.84,285.66,0
2020-03-12T03:41:00-05:00,74.49,13.4,736.94,-1.82,0.86,117.18,0
2020-03-12T03:42:00-05:00,74.3,13.42,735.3,-2.26,1.25,44.49,0
2020-03-12T03:43:00-05:00,74.8,13.43,736.5,0.24,0.29,308.64,0
2020-03-12T03:44:00-05:00,75.68,13.42,736.13,-0.2,0.22,73.53,0
2020-03-12T03:45:00-05:00,74.47,13.44,737.24,-0.79,0.97,134.99,0
2020-03-12T03:46:00-05:00,74.71,13.43,735.8,-0.94,0.63,244.79,0
2020-03-12T03:47:00-05:00,75.12,13.42,735.67,-1.82,1.8,76.89,0
2020-03-12T03:48:00-05:00,75.1,13.38,735.5,-2.85,0.79,13.45,0
2020-03-12T03:49:00-05:00,75.06,13.37,735.36,-3.14,0.11,257.75,0
2020-03-12T03:50:00-05:00,75.71,13.36,735.56,-4.17,0.23,216.26,0
2020-03-12T03:51:00-05:00,76.51,13.32,735.97,-4.02,0.66,224.92,0
2020-03-12T03:52:00-05:00,77.03,13.25,734.46,-3.73,0.53,170.43,0
2020-03-12T03:53:00-05:00,77.59,13.14,734.53,-4.17,0.64,180.11,0
2020-03-12T03:54:00-05:00,76.73,13.1,734.86,-2.7,0.52,267.09,0
2020-03-12T03:55:00-05:00,76.65,13.04,733.82,-3.58,0.75,223.89,0
2020-03-12T03:56:00-05:00,76.21,13.04,734.66,-4.61,0.23,2.99,0
2020-03-12T03:57:00-05:00,76.59,13.03,734.69,-4.17,0.3,260.99,0
2020-03-12T03:58:00-05:00,76.92,13.02,734.43,-2.99,0.22,22.7,0
2020-03-12T03:59:00-05:00,77.9,13.01,733.52,-3.73,0.14,78.84,0
2020-03-12T04:00:00-05:00,77.35,12.97,732.52,-4.91,0.13,239.85,0
2020-03-12T04:01:00-05:00,77.29,12.95,733.66,-3.88,0.21,301.63,0
2020-03-12T04:02:00-05:00,77.98,12.91,733.25,-3.58,0.23,51.17,0
2020-03-12T04:03:00-05:00,78.42,12.87,732.85,-6.23,0.55,98.13,0
2020-03-12T04:04:00-05:00,78.74,12.81,732.12,-5.2,0.06,13.84,0
2020-03-12T04:05:00-05:00,79.09,12.78,731.78,-6.23,0.28,159.18,0
2020-03-12T04:06:00-05:00,79.02,12.73,732.38,-4.46,0.42,143.19,0
2020-03-12T04:07:00-05:00,79.31,12.69,732.35,-6.08,0.14,241.16,0
2020-03-12T04:08:00-05:00,79.31,12.65,731.85,-4.17,0.48,100.94,0
2020-03-12T04:09:00-05:00,79.17,12.63,732.28,-5.05,0.22,179.46,0
2020-03-12T04:10:00-05:00,79.56,12.62,731.65,-5.35,0.22,15.57,0
2020-03-12T04:11:00-05:00,79.42,12.57,731.48,-3.58,0.3,37.5,0
2020-03-12T04:12:00-05:00,79.71,12.55,731.88,-3.73,0.28,98.3,0
2020-03-12T04:13:00-05:00,79.47,12.55,730.61,-4.91,0.24,346.83,0
2020-03-12T04:14:00-05:00,79.99,12.53,731.95,-4.91,0.53,71.68,0
2020-03-12T04:15:00-05:00,80.2,12.5,731.58,-4.17,0.48,84.46,0
2020-03-12T04:16:00-05:00,80.19,12.45,730.61,-5.05,0.7,80.72,0
2020-03-12T04:17:00-05:00,79.95,12.47,730.51,-2.55,1.01,79.23,0
2020-03-12T04:18:00-05:00,80.38,12.48,731.28,-4.46,0.59,32.38,0
2020-03-12T04:19:00-05:00,79.97,12.52,730.71,-1.97,0.62,108.82,0
2020-03-12T04:20:00-05:00,79.48,12.54,731.31,-0.79,0.61,143.15,0
2020-03-12T04:21:00-05:00,79.83,12.53,731.21,-0.94,0.5,122.43,0
2020-03-12T04:22:00-05:00,79.77,12.47,731.45,-3.29,0.56,123.23,0
2020-03-12T04:23:00-05:00,79.96,12.45,731.65,-2.55,0.6,77.88,0
2020-03-12T04:24:00-05:00,80.07,12.4,731.21,-1.82,0.61,73.37,0
2020-03-12T04:25:00-05:00,80.81,12.38,731.45,-2.11,0.6,105.2,0
2020-03-12T04:26:00-05:00,80.95,12.35,732.08,0.53,0.32,146.59,0
2020-03-12T04:27:00-05:00,80.94,12.35,731.51,-0.64,0.56,118.42,0
2020-03-12T04:28:00-05:00,81,12.33,732.55,-0.35,0.32,94.67,0
2020-03-12T04:29:00-05:00,81.16,12.33,731.68,-1.52,0.59,110.44,0
2020-03-12T04:30:00-05:00,81.2,12.34,732.05,-1.67,0.28,92.14,0
2020-03-12T04:31:00-05:00,81.43,12.32,731.41,-1.67,0.24,63.73,0
2020-03-12T04:32:00-05:00,81.87,12.31,731.61,0.68,0.26,93.47,0
2020-03-12T04:33:00-05:00,82.05,12.33,731.88,-1.23,0.35,99.69,0
2020-03-12T04:34:00-05:00,81.85,12.3,731.45,0.39,0.6,148.58,0
2020-03-12T04:35:00-05:00,82.15,12.33,732.08,-2.11,0.45,146.24,0
2020-03-12T04:36:00-05:00,81.98,12.33,732.32,-0.49,0.38,176.09,0
2020-03-12T04:37:00-05:00,81.91,12.31,731.75,-2.11,0.67,150.21,0
2020-03-12T04:38:00-05:00,81.81,12.29,732.55,-1.38,0.93,153.16,0
2020-03-12T04:39:00-05:00,81.91,12.33,732.28,0.09,0.79,174.12,0
2020-03-12T04:40:00-05:00,82.16,12.36,732.69,0.24,0.17,146.58,0
2020-03-12T04:41:00-05:00,82.16,12.37,733.25,-0.94,0.66,301.64,0
2020-03-12T04:42:00-05:00,82.23,12.39,732.65,0.39,0.46,279.64,0
2020-03-12T04:43:00-05:00,82,12.39,732.99,-2.11,0.17,291.69,0
2020-03-12T04:44:00-05:00,82.02,12.42,733.12,-0.05,0.16,39.66,0
2020-03-12T04:45:00-05:00,82.56,12.43,732.22,-0.79,0.38,97.05,0
2020-03-12T04:46:00-05:00,82.47,12.41,732.25,-1.08,0.18,79.29,0
2020-03-12T04:47:00-05:00,82.76,12.43,731.88,-2.55,0.53,354.85,0
2020-03-12T04:48:00-05:00,82.4,12.44,732.15,-1.08,0.21,49.48,0
2020-03-12T04:49:00-05:00,82.21,12.45,732.59,-1.52,0.1,192.29,0
2020-03-12T04:50:00-05:00,82.39,12.47,732.69,-0.2,0.11,191.97,0
2020-03-12T04:51:00-05:00,82.28,12.47,732.08,0.09,0.19,176.41,0
2020-03-12T04:52:00-05:00,82.31,12.46,732.82,0.39,0.27,237.79,0
2020-03-12T04:53:00-05:00,82.42,12.49,732.95,-1.67,0.16,188.39,0
2020-03-12T04:54:00-05:00,82.69,12.5,732.05,0.09,0.23,193.93,0
2020-03-12T04:55:00-05:00,82.29,12.45,732.45,-0.05,0.79,183.06,0
2020-03-12T04:56:00-05:00,82.54,12.45,732.59,-0.05,0.45,185,0
2020-03-12T04:57:00-05:00,82.93,12.45,731.85,-0.64,0.49,167.11,0
2020-03-12T04:58:00-05:00,82.98,12.44,732.35,-1.38,0.61,108.41,0
2020-03-12T04:59:00-05:00,83.17,12.43,733.02,-1.67,0.55,141.25,0
2020-03-12T05:00:00-05:00,83.34,12.42,733.19,0.09,0.41,140.25,0
2020-03-12T05:01:00-05:00,83.48,12.41,732.69,-0.79,0.42,118.01,0
2020-03-12T05:02:00-05:00,83.98,12.41,732.22,-1.08,0.29,102.39,0
2020-03-12T05:03:00-05:00,83.69,12.39,732.45,-1.67,0.56,110.48,0
2020-03-12T05:04:00-05:00,83.51,12.37,733.09,-0.05,0.59,121.44,0
2020-03-12T05:05:00-05:00,83.19,12.37,732.48,-1.23,0.61,107.81,0
2020-03-12T05:06:00-05:00,83.14,12.38,732.75,0.68,0.34,103.79,0
2020-03-12T05:07:00-05:00,83.28,12.37,732.65,-1.38,0.25,134.21,0
2020-03-12T05:08:00-05:00,83.7,12.39,732.35,-1.23,0.15,66.96,0
2020-03-12T05:09:00-05:00,83.8,12.39,733.05,-1.67,0.21,123.23,0
2020-03-12T05:10:00-05:00,83.84,12.38,732.08,-1.52,0.16,94.43,0
2020-03-12T05:11:00-05:00,83.99,12.37,732.72,-0.79,0.26,112.24,0
2020-03-12T05:12:00-05:00,84.24,12.37,732.35,-2.26,0.11,196.27,0
2020-03-12T05:13:00-05:00,84.42,12.38,731.68,-1.23,0.18,161.14,0
2020-03-12T05:14:00-05:00,84.21,12.36,731.88,0.53,0.26,120.67,0
2020-03-12T05:15:00-05:00,84.28,12.36,732.12,-1.97,0.42,60.01,0
2020-03-12T05:16:00-05:00,84.12,12.36,732.59,0.24,0.52,80.14,0
2020-03-12T05:17:00-05:00,83.5,12.35,732.35,-0.79,0.3,114.59,0
2020-03-12T05:18:00-05:00,83.3,12.34,732.48,-1.52,0.22,89.02,0
2020-03-12T05:19:00-05:00,83.21,12.36,731.78,-1.08,0.29,112.38,0
2020-03-12T05:20:00-05:00,83.68,12.38,732.42,-1.67,0.41,118.16,0
2020-03-12T05:21:00-05:00,83.65,12.37,732.45,-0.35,0.27,67.14,0
2020-03-12T05:22:00-05:00,83.92,12.38,732.89,0.39,0.53,61.13,0
2020-03-12T05:23:00-05:00,84.2,12.39,732.69,-0.05,0.56,61.6,0
2020-03-12T05:24:00-05:00,83.93,12.39,732.55,-1.97,0.22,91.44,0
2020-03-12T05:25:00-05:00,83.82,12.37,732.35,-1.82,0.49,85.42,0
2020-03-12T05:26:00-05:00,84.77,12.37,733.22,-0.79,0.44,83.78,0
2020-03-12T05:27:00-05:00,84.93,12.37,732.89,-0.79,0.32,47.78,0
2020-03-12T05:28:00-05:00,85.45,12.37,732.48,-1.82,0.18,11.47,0
2020-03-12T05:29:00-05:00,85.66,12.37,732.05,-1.97,0.4,18.45,0
2020-03-12T05:30:00-05:00,85.49,12.36,732.72,-0.49,0.23,117.67,0
2020-03-12T05:31:00-05:00,85.27,12.33,731.88,-2.26,0.29,133.57,0
2020-03-12T05:32:00-05:00,85.06,12.33,732.38,-1.67,0.23,95.76,0
2020-03-12T05:33:00-05:00,85.3,12.32,732.05,0.09,0.25,115.21,0
2020-03-12T05:34:00-05:00,84.92,12.31,732.79,-1.52,0.5,87.44,0
2020-03-12T05:35:00-05:00,85.24,12.29,731.85,0.24,0.27,77.98,0
2020-03-12T05:36:00-05:00,85.73,12.31,733.12,-0.35,0.22,56.86,0
2020-03-12T05:37:00-05:00,85.62,12.29,732.89,-0.05,0.11,115.59,0
2020-03-12T05:38:00-05:00,85.66,12.3,732.52,-0.2,0.08,220.15,0
2020-03-12T05:39:00-05:00,85.95,12.3,732.69,-0.49,0.31,71.8,0
2020-03-12T05:40:00-05:00,86.14,12.29,732.99,-0.2,0.19,94.7,0
2020-03-12T05:41:00-05:00,86.09,12.29,732.52,-1.97,0.22,140.27,0
2020-03-12T05:42:00-05:00,84.81,12.27,733.12,-1.52,0.63,164.41,0
2020-03-12T05:43:00-05:00,84.16,12.27,733.15,0.53,0.52,156.18,0
2020-03-12T05:44:00-05:00,83.93,12.31,732.85,-0.64,0.58,147.55,0
2020-03-12T05:45:00-05:00,83.59,12.3,732.62,-1.67,0.55,140.25,0
2020-03-12T05:46:00-05:00,84.01,12.32,731.88,-1.52,0.3,126.55,0
2020-03-12T05:47:00-05:00,84.54,12.33,732.48,-0.64,0.54,115.19,0
2020-03-12T05:48:00-05:00,84.55,12.34,733.02,0.53,0.6,74.42,0
2020-03-12T05:49:00-05:00,84.3,12.31,732.05,-0.49,0.19,109.16,0
2020-03-12T05:50:00-05:00,84.73,12.33,731.88,-1.67,0.29,55.2,0
2020-03-12T05:51:00-05:00,85.01,12.31,732.82,0.09,0.55,97.76,0
2020-03-12T05:52:00-05:00,84.32,12.32,732.52,-1.97,0.57,114.26,0
2020-03-12T05:53:00-05:00,84.24,12.32,732.08,-1.97,0.58,121.25,0
2020-03-12T05:54:00-05:00,84.03,12.33,731.98,-1.67,0.33,127.2,0
2020-03-12T05:55:00-05:00,84.52,12.32,732.82,-0.79,0.34,84.98,0
2020-03-12T05:56:00-05:00,84.77,12.31,733.05,0.53,0.65,125.62,0
2020-03-12T05:57:00-05:00,84.71,12.31,733.15,-0.49,0.58,94.05,0
2020-03-12T05:58:00-05:00,85.15,12.31,732.55,-1.38,0.22,117.26,0
2020-03-12T05:59:00-05:00,85.63,12.3,733.05,-1.23,0.14,174.14,0
2020-03-12T06:00:00-05:00,85.83,12.31,731.58,-1.08,0.17,67.48,0
2020-03-12T06:01:00-05:00,85.67,12.29,731.45,0.39,0.61,99.54,0
2020-03-12T06:02:00-05:00,85.11,12.25,732.28,1.86,0.67,92.58,0
2020-03-12T06:03:00-05:00,85.26,12.26,732.52,2.59,0.67,98.06,0
2020-03-12T06:04:00-05:00,85.25,12.25,732.35,0.39,0.53,128.43,0
2020-03-12T06:05:00-05:00,85.45,12.25,732.35,2.74,0.33,91.11,0
2020-03-12T06:06:00-05:00,85.45,12.23,732.28,1.86,0.28,103.57,0
2020-03-12T06:07:00-05:00,85.31,12.23,732.15,0.24,0.22,137.46,0
2020-03-12T06:08:00-05:00,85.37,12.21,732.55,3.18,0.52,101.25,0
2020-03-12T06:09:00-05:00,85.02,12.21,732.02,3.03,0.27,60.78,0
2020-03-12T06:10:00-05:00,84.52,12.19,731.75,3.92,0.56,94.57,0
2020-03-12T06:11:00-05:00,84.32,12.22,732.18,3.62,0.62,102.3,0
2020-03-12T06:12:00-05:00,84.36,12.21,732.45,3.03,0.56,140.56,0
2020-03-12T06:13:00-05:00,84.74,12.23,732.48,4.65,0.43,111.65,0
2020-03-12T06:14:00-05:00,84.75,12.25,731.68,4.8,0.22,124.19,0
2020-03-12T06:15:00-05:00,84.69,12.23,732.72,4.65,0.56,123.06,0
2020-03-12T06:16:00-05:00,84.89,12.25,732.12,6.71,0.53,142.02,0
2020-03-12T06:17:00-05:00,84.57,12.25,731.88,5.68,0.6,149.18,0
2020-03-12T06:18:00-05:00,84.46,12.25,732.89,3.33,0.55,153.16,0
2020-03-12T06:19:00-05:00,84.44,12.27,732.35,3.62,0.58,160.17,0
2020-03-12T06:20:00-05:00,84.01,12.27,732.92,4.21,0.57,163.52,0
2020-03-12T06:21:00-05:00,83.96,12.27,731.78,5.53,0.62,163.19,0
2020-03-12T06:22:00-05:00,83.97,12.29,733.46,5.09,0.61,151.47,0
2020-03-12T06:23:00-05:00,83.76,12.31,732.48,6.12,0.59,151.16,0
2020-03-12T06:24:00-05:00,83.66,12.33,732.69,6.56,0.62,129.53,0
2020-03-12T06:25:00-05:00,84.08,12.37,732.42,4.65,0.82,133.24,0
2020-03-12T06:26:00-05:00,83.36,12.4,733.19,6.27,0.64,119.44,0
2020-03-12T06:27:00-05:00,83.26,12.45,733.56,5.53,0.64,128.31,0
2020-03-12T06:28:00-05:00,82.99,12.49,733.86,6.86,0.59,139.33,0
2020-03-12T06:29:00-05:00,83.14,12.5,733.02,9.5,0.83,82.87,0
2020-03-12T06:30:00-05:00,83.17,12.51,733.29,11.71,0.73,113.2,0
2020-03-12T06:31:00-05:00,83.21,12.51,733.59,14.21,0.57,46.69,0
2020-03-12T06:32:00-05:00,83.27,12.51,733.02,15.97,0.61,77.09,0
2020-03-12T06:33:00-05:00,83.71,12.52,733.12,15.68,0.18,96.68,0
2020-03-12T06:34:00-05:00,83.92,12.53,733.25,15.68,0.08,71.24,0
2020-03-12T06:35:00-05:00,83.98,12.5,733.02,14.06,0.12,59.48,0
2020-03-12T06:36:00-05:00,84.25,12.51,732.85,14.35,0.06,128.3,0
2020-03-12T06:37:00-05:00,84.7,12.49,733.96,17.15,0.14,53.52,0
2020-03-12T06:38:00-05:00,84.95,12.53,732.85,18.77,0.33,49.75,0
2020-03-12T06:39:00-05:00,85.59,12.53,733.32,19.79,0.15,57.32,0
2020-03-12T06:40:00-05:00,85.59,12.52,733.09,19.94,0.22,102.36,0
2020-03-12T06:41:00-05:00,85.59,12.51,733.49,20.38,0.27,146.58,0
2020-03-12T06:42:00-05:00,85.53,12.49,733.32,21.26,0.42,110.3,0
2020-03-12T06:43:00-05:00,85.75,12.49,734.02,23.91,0.25,94.45,0
2020-03-12T06:44:00-05:00,85.95,12.47,734.02,25.68,0.4,95.47,0
2020-03-12T06:45:00-05:00,86.26,12.47,733.79,25.23,1.02,52.44,0
2020-03-12T06:46:00-05:00,85.47,12.46,733.82,27.73,0.89,66.3,0
2020-03-12T06:47:00-05:00,85.64,12.47,733.69,27,0.72,48.41,0
2020-03-12T06:48:00-05:00,86.26,12.49,733.66,30.38,0.58,84.1,0
2020-03-12T06:49:00-05:00,86,12.48,734.19,30.38,1.04,67.33,0
2020-03-12T06:50:00-05:00,86.34,12.49,733.89,31.85,0.58,78.27,0
2020-03-12T06:51:00-05:00,86.36,12.49,734.13,32.14,0.95,72.88,0
2020-03-12T06:52:00-05:00,85.71,12.47,733.15,34.5,0.96,60.78,0
2020-03-12T06:53:00-05:00,85.45,12.48,734.06,35.53,0.77,52.32,0
2020-03-12T06:54:00-05:00,85.64,12.47,733.52,37,0.8,40.63,0
2020-03-12T06:55:00-05:00,85.89,12.48,734.76,36.7,1.04,38.79,0
2020-03-12T06:56:00-05:00,86.17,12.49,734.93,40.08,0.97,71.89,0
2020-03-12T06:57:00-05:00,84.57,12.5,735.06,40.82,1.47,39.5,0
2020-03-12T06:58:00-05:00,81.8,12.55,735.2,43.91,0.25,317.91,0
2020-03-12T06:59:00-05:00,81.32,12.61,735.23,45.82,1.55,45.85,0
2020-03-12T07:00:00-05:00,81.04,12.66,735.5,48.61,1.78,34.27,0
2020-03-12T07:01:00-05:00,80.6,12.73,735.06,49.35,0.84,62.19,0
2020-03-12T07:02:00-05:00,80.85,12.77,734.46,50.38,0.51,103.6,0
2020-03-12T07:03:00-05:00,81.59,12.79,735.06,53.17,0.62,18.28,0
2020-03-12T07:04:00-05:00,80.23,12.79,735.8,53.32,1.06,37.83,0
2020-03-12T07:05:00-05:00,80.13,12.85,735.16,57.73,2.15,20.15,0
2020-03-12T07:06:00-05:00,79.24,12.86,735.5,58.17,2.28,43.04,0
2020-03-12T07:07:00-05:00,79.27,12.89,736.03,62.87,1.2,35.77,0
2020-03-12T07:08:00-05:00,79.65,12.93,735.77,64.78,0.61,317.61,0
2020-03-12T07:09:00-05:00,79.65,12.95,736.54,68.16,0.29,216.91,0
2020-03-12T07:10:00-05:00,80.48,12.99,735.97,71.25,0.58,199.96,0
2020-03-12T07:11:00-05:00,81.58,13,736.2,71.55,0.24,193.93,0
2020-03-12T07:12:00-05:00,81.59,13,735.87,73.6,0.43,180.13,0
2020-03-12T07:13:00-05:00,81.8,13.02,736.6,76.1,0.09,166.12,0
2020-03-12T07:14:00-05:00,81.19,13.04,736.9,77.13,0.56,245.79,0
2020-03-12T07:15:00-05:00,80.98,13.06,737.61,79.19,0.19,16.02,0
2020-03-12T07:16:00-05:00,81.04,13.05,737.61,84.48,0.61,51.57,0
2020-03-12T07:17:00-05:00,79.59,13.07,737.84,87.72,0.45,39.99,0
2020-03-12T07:18:00-05:00,79.41,13.09,737.94,89.78,0.55,51.77,0
2020-03-12T07:19:00-05:00,80.43,13.12,738.04,92.42,1.3,32.71,0
2020-03-12T07:20:00-05:00,81.3,13.14,737.71,96.25,0.52,41.69,0
2020-03-12T07:21:00-05:00,81.42,13.16,738.21,102.42,0.6,34.52,0
2020-03-12T07:22:00-05:00,81.17,13.19,738.44,106.39,0.57,295.65,0
2020-03-12T07:23:00-05:00,82.09,13.23,738.18,108.3,0.32,12.24,0
2020-03-12T07:24:00-05:00,79.04,13.24,739.25,111.83,1.28,2.7,0
2020-03-12T07:25:00-05:00,79.75,13.28,738.14,115.07,0.71,289.87,0
2020-03-12T07:26:00-05:00,79.87,13.32,739.58,117.27,0.21,311.61,0
2020-03-12T07:27:00-05:00,80.14,13.37,738.28,120.65,0.64,190.01,0
2020-03-12T07:28:00-05:00,78.37,13.34,739.88,122.71,0.61,299.69,0
2020-03-12T07:29:00-05:00,77.26,13.36,739.41,125.36,0.77,293.68,0
2020-03-12T07:30:00-05:00,77.55,13.41,739.62,129.91,0.61,293.67,0
2020-03-12T07:31:00-05:00,77.45,13.45,740.75,131.09,0.23,287.65,0
2020-03-12T07:32:00-05:00,77.94,13.52,740.08,137.56,0.14,252.77,0
2020-03-12T07:33:00-05:00,77.56,13.58,739.95,143.44,0.24,322.53,0
2020-03-12T07:34:00-05:00,76.98,13.63,736.1,148.15,0.61,5.91,0
2020-03-12T07:35:00-05:00,75.52,13.66,735.43,156.53,0.77,108.09,0
2020-03-12T07:36:00-05:00,75.23,13.7,735.06,163.14,0.62,63.45,0
2020-03-12T07:37:00-05:00,74.55,13.74,735.46,166.67,0.22,18.39,0
2020-03-12T07:38:00-05:00,74.98,13.78,734.83,166.52,0.27,226.23,0
2020-03-12T07:39:00-05:00,75.23,13.84,735.63,167.41,0.59,284.66,0
2020-03-12T07:40:00-05:00,75.53,13.91,735.73,166.38,0.33,310.96,0
2020-03-12T07:41:00-05:00,75.78,13.94,736.8,166.52,0.71,353.46,0
2020-03-12T07:42:00-05:00,76.23,13.97,736.9,170.49,0.59,293.04,0
2020-03-12T07:43:00-05:00,75.29,14,736,176.08,0.28,226.86,0
2020-03-12T07:44:00-05:00,75,14.03,736.54,179.61,0.57,143.27,0
2020-03-12T07:45:00-05:00,76.42,14.06,736.84,177.4,0.63,285.67,0
2020-03-12T07:46:00-05:00,75.36,14.1,737.44,173.73,0.59,207.01,0
2020-03-12T07:47:00-05:00,75.76,14.12,737.41,170.79,0.66,307.67,0
2020-03-12T07:48:00-05:00,74.63,14.14,737.97,170.2,0.73,317.59,0
2020-03-12T07:49:00-05:00,74.84,14.19,737.84,171.38,0.24,267.76,0
2020-03-12T07:50:00-05:00,75.63,14.23,738.34,177.84,0.26,34.94,0
2020-03-12T07:51:00-05:00,74.85,14.28,737.34,187.99,0.25,295.63,0
2020-03-12T07:52:00-05:00,75.26,14.3,737.71,196.81,0.49,185.96,0
2020-03-12T07:53:00-05:00,75.6,14.35,738.04,202.99,0.14,238.09,0
2020-03-12T07:54:00-05:00,75.88,14.42,738.74,207.98,0.58,236.11,0
2020-03-12T07:55:00-05:00,75.06,14.45,738.28,211.22,0.6,207.34,0
2020-03-12T07:56:00-05:00,75.75,14.5,738.95,210.34,0.24,272.69,0
2020-03-12T07:57:00-05:00,75.5,14.5,739.35,206.07,0.57,235.18,0
2020-03-12T07:58:00-05:00,74.68,14.53,738.95,201.22,0.24,69.73,0
2020-03-12T07:59:00-05:00,75.4,14.52,739.48,195.34,0.64,270.08,0
2020-03-12T08:00:00-05:00,74.68,14.51,739.25,189.31,0.72,291.7,0
2020-03-12T08:01:00-05:00,75.5,14.52,740.08,187.4,0.71,195.28,0
2020-03-12T08:02:00-05:00,74.71,14.49,739.21,181.37,0.76,220.88,0
2020-03-12T08:03:00-05:00,73.49,14.49,738.58,178.29,0.64,302.62,0
2020-03-12T08:04:00-05:00,72.73,14.49,739.45,173.73,0.62,155.21,0
2020-03-12T08:05:00-05:00,73.74,14.5,738.54,166.08,0.56,154.24,0
2020-03-12T08:06:00-05:00,74.28,14.51,739.25,165.05,0.21,303.64,0
2020-03-12T08:07:00-05:00,74.92,14.57,739.55,163,0.06,117.27,0
2020-03-12T08:08:00-05:00,74.09,14.62,738.95,171.82,0.78,325.6,0
2020-03-12T08:09:00-05:00,73.63,14.63,739.72,209.6,0.29,243.81,0
2020-03-12T08:10:00-05:00,72.54,14.65,738.91,473.21,1.01,316.89,0
2020-03-12T08:11:00-05:00,73,14.73,739.62,593.19,0.62,271.71,0
2020-03-12T08:12:00-05:00,73.33,14.93,741.19,479.98,0.14,46.76,0
2020-03-12T08:13:00-05:00,74.45,15.09,736.84,275.47,0.53,262.68,0
2020-03-12T08:14:00-05:00,73.74,15.24,736,250.77,0.34,353.86,0
2020-03-12T08:15:00-05:00,72.94,15.35,737.44,255.62,0.26,200.94,0
2020-03-12T08:16:00-05:00,71.98,15.43,737.34,269.88,1.09,274.13,0
2020-03-12T08:17:00-05:00,70.29,15.41,737.67,283.26,1,183.03,0
2020-03-12T08:18:00-05:00,70.08,15.3,736.47,267.38,0.85,164.52,0
2020-03-12T08:19:00-05:00,70.41,15.27,737.91,261.65,0.27,173.13,0
2020-03-12T08:20:00-05:00,69.89,15.29,736.5,271.06,1.19,167.38,0
2020-03-12T08:21:00-05:00,70.08,15.25,737.04,288.55,0.53,206.96,0
2020-03-12T08:22:00-05:00,70.87,15.22,736.84,334.72,0.6,260.69,0
2020-03-12T08:23:00-05:00,72.26,15.24,737.54,547.9,0.56,235.79,0
2020-03-12T08:24:00-05:00,72.36,15.33,737.97,318.1,0.92,214.92,0
2020-03-12T08:25:00-05:00,71.57,15.38,738.21,328.25,1.44,286.66,0
2020-03-12T08:26:00-05:00,69.99,15.44,739.85,647.14,0.64,288.6,0
2020-03-12T08:27:00-05:00,70.14,15.53,738.88,425.58,0.24,188.32,0
2020-03-12T08:28:00-05:00,70.2,15.62,740.72,507.62,0.57,231.19,0
2020-03-12T08:29:00-05:00,71.57,15.7,741.22,384.12,1.83,244.8,0
2020-03-12T08:30:00-05:00,70.56,15.83,736.77,665.96,0.35,214.93,0
2020-03-12T08:31:00-05:00,69.63,15.99,737.17,862.39,0.63,316.94,0
2020-03-12T08:32:00-05:00,70.15,16.24,738.51,821.66,0.84,305.59,0
2020-03-12T08:33:00-05:00,66.7,16.47,740.75,903.7,0.17,339.86,0
2020-03-12T08:34:00-05:00,66.77,16.7,740.79,908.26,0.64,250.75,0
2020-03-12T08:35:00-05:00,65.62,16.86,736.97,905.02,0.68,222.29,0
2020-03-12T08:36:00-05:00,66.43,17.02,738.14,897.08,0.57,190,0
2020-03-12T08:37:00-05:00,65.65,17.16,739.75,890.03,0.27,241.17,0
2020-03-12T08:38:00-05:00,64.81,17.26,740.18,826.07,1.08,198,0
2020-03-12T08:39:00-05:00,65.67,17.35,740.75,870.18,2.12,336.52,0
2020-03-12T08:40:00-05:00,64.2,17.36,736.07,857.24,1.49,261.71,0
2020-03-12T08:41:00-05:00,66.07,17.47,735.56,568.93,0.42,238.88,0
2020-03-12T08:42:00-05:00,65.35,17.61,736.1,872.68,1.97,283.65,0
2020-03-12T08:43:00-05:00,65.95,17.79,739.11,877.53,0.33,281.72,0
2020-03-12T08:44:00-05:00,64.22,17.99,734.76,887.67,0.86,269.69,0
2020-03-12T08:45:00-05:00,65.89,18.07,736.54,896.64,0.51,307.66,0
2020-03-12T08:46:00-05:00,64.86,18.2,736.77,872.53,0.41,338.51,0
2020-03-12T08:47:00-05:00,64.36,18.41,736,889.59,0.38,253.73,0
2020-03-12T08:48:00-05:00,62.54,18.55,735.56,869,0.69,146.62,0
2020-03-12T08:49:00-05:00,61.86,18.66,737.31,728.01,1.11,320.55,0
2020-03-12T08:50:00-05:00,60.77,18.65,736.43,536.88,1.44,287.96,0
2020-03-12T08:51:00-05:00,59.93,18.53,734.76,927.22,0.54,240.82,0
2020-03-12T08:52:00-05:00,60.08,18.38,734.36,502.18,0.62,210.29,0
2020-03-12T08:53:00-05:00,61.68,18.29,733.79,423.82,1.21,201.92,0
2020-03-12T08:54:00-05:00,62.3,18.05,732.92,435.28,1.19,204.29,0
2020-03-12T08:55:00-05:00,61.5,17.9,732.62,432.49,1.66,292.66,0
2020-03-12T08:56:00-05:00,63.93,17.77,733.02,792.99,1.06,169.09,0
2020-03-12T08:57:00-05:00,61.3,17.69,732.55,571.13,0.64,180.11,0
2020-03-12T08:58:00-05:00,61.55,17.56,730.68,435.28,0.61,293.68,0
2020-03-12T08:59:00-05:00,63.13,17.51,732.55,419.26,2.49,246.75,0
2020-03-12T09:00:00-05:00,61.78,17.4,730.61,416.61,0.33,312.55,0
2020-03-12T09:01:00-05:00,61.54,17.35,731.45,432.49,0.52,171.42,0
2020-03-12T09:02:00-05:00,62.64,17.35,735.43,423.67,0.89,201.22,0
2020-03-12T09:03:00-05:00,62.44,17.23,735.5,432.93,0.51,340.47,0
2020-03-12T09:04:00-05:00,62.3,17.11,735.36,480.71,0.84,292.67,0
2020-03-12T09:05:00-05:00,64.12,17.06,734.66,445.13,0.64,261.07,0
2020-03-12T09:06:00-05:00,64,17.01,733.59,647,1.01,225.84,0
2020-03-12T09:07:00-05:00,63.41,16.88,732.25,670.67,2.81,86.92,0
2020-03-12T09:08:00-05:00,63.31,16.63,729.24,860.18,0.91,27.69,0
2020-03-12T09:09:00-05:00,64.48,16.48,731.48,457.19,3.26,52.15,0
2020-03-12T09:10:00-05:00,64.44,16.34,729.87,670.81,0.93,330.51,0
2020-03-12T09:11:00-05:00,65.07,16.29,735.63,922.67,1.78,254.1,0
2020-03-12T09:12:00-05:00,65.24,16.37,736.57,672.58,0.56,28.43,0
2020-03-12T09:13:00-05:00,64.67,16.46,736.17,584.81,1,235.81,0
2020-03-12T09:14:00-05:00,66.03,16.55,736.6,430.14,0.77,255.71,0
2020-03-12T09:15:00-05:00,66,16.63,737.1,484.24,1.02,266.77,0
2020-03-12T09:16:00-05:00,66.13,16.74,737.61,470.57,0.62,267.76,0
2020-03-12T09:17:00-05:00,67.1,16.9,735.77,969.42,0.67,220.83,0
2020-03-12T09:18:00-05:00,66.08,17.06,735.67,842.39,0.81,284.65,0
2020-03-12T09:19:00-05:00,63.69,17.17,735.87,907.23,2.39,245.76,0
2020-03-12T09:20:00-05:00,63.63,17.2,736.07,706.54,1.8,219.87,0
2020-03-12T09:21:00-05:00,63.71,17.21,736.57,466.45,2.2,291.65,0
2020-03-12T09:22:00-05:00,63.39,17.14,735.33,466.75,2.83,231.22,0
2020-03-12T09:23:00-05:00,64.84,17.06,734.49,446.9,2.04,216.85,0
2020-03-12T09:24:00-05:00,64.54,17.06,734.69,588.48,0.69,263.04,0
2020-03-12T09:25:00-05:00,66.39,17.16,735.6,1112.91,0.78,199.95,0
2020-03-12T09:26:00-05:00,61.65,17.17,735.56,480.27,2.13,69.27,0
2020-03-12T09:27:00-05:00,60.17,17.13,736.37,1003.53,0.83,40.74,0
2020-03-12T09:28:00-05:00,62.14,17.19,735.56,854.59,0.61,288.94,0
2020-03-12T09:29:00-05:00,61.48,17.29,735.9,867.53,0.62,312.59,0
2020-03-12T09:30:00-05:00,60.85,17.37,736.2,364.27,0.57,325.85,0
2020-03-12T09:31:00-05:00,62.51,17.45,737.2,426.17,0.6,159.17,0
2020-03-12T09:32:00-05:00,65.95,17.57,737.14,947.95,0.12,134.95,0
2020-03-12T09:33:00-05:00,64.46,17.73,738.58,953.39,0.62,214.94,0
2020-03-12T09:34:00-05:00,64.62,17.93,738.98,302.67,0.47,207.94,0
2020-03-12T09:35:00-05:00,64.69,18.08,739.18,419.11,1.05,301.62,0
2020-03-12T09:36:00-05:00,63.51,18.2,736.3,1018.82,0.89,277.68,0
2020-03-12T09:37:00-05:00,60.85,18.33,736.13,771.38,0.47,272.67,0
2020-03-12T09:38:00-05:00,60.05,18.43,736.77,321.34,0.96,314.55,0
2020-03-12T09:39:00-05:00,59.79,18.43,734.86,887.09,0.83,204.23,0
2020-03-12T09:40:00-05:00,60.59,18.39,734.39,386.47,1.8,171.16,0
2020-03-12T09:41:00-05:00,59.56,18.25,733.76,921.93,0.66,254.14,0
2020-03-12T09:42:00-05:00,58.71,18.25,733.46,884.59,0.65,310.6,0
2020-03-12T09:43:00-05:00,58.19,18.21,734.43,572.9,0.63,25.25,0
2020-03-12T09:44:00-05:00,58.39,18.22,735.13,863.12,1.6,24.36,0
2020-03-12T09:45:00-05:00,58.88,18.11,735.36,923.69,1.51,330.86,0
2020-03-12T09:46:00-05:00,59.87,18.21,736.54,919.73,1.62,327.53,0
2020-03-12T09:47:00-05:00,60.41,18.28,737.54,916.64,0.86,306.79,0
2020-03-12T09:48:00-05:00,60.19,18.37,737.57,924.28,0.48,281.73,0
2020-03-12T09:49:00-05:00,59.07,18.46,738.24,935.75,0.59,155.19,0
2020-03-12T09:50:00-05:00,59.4,18.54,737.91,941.93,0.48,226.83,0
2020-03-12T09:51:00-05:00,59.8,18.5,737.61,955.6,0.64,326.57,0
2020-03-12T09:52:00-05:00,58.74,18.31,737.14,932.66,1.6,24.21,0
2020-03-12T09:53:00-05:00,59.5,18.24,738.38,1014.26,0.6,333.57,0
2020-03-12T09:54:00-05:00,59.04,18.21,738.61,1054.84,2.48,349.43,0
2020-03-12T09:55:00-05:00,60.03,18.22,739.65,919.14,2.12,26.23,0
2020-03-12T09:56:00-05:00,60.71,18.28,736.03,995.74,2.7,9.22,0
2020-03-12T09:57:00-05:00,59.16,18.35,735.73,793.87,0.52,26.53,0
2020-03-12T09:58:00-05:00,63.34,18.47,737.44,742.12,0.57,222.3,0
2020-03-12T09:59:00-05:00,61.92,18.62,737.64,1174.96,0.67,164.18,0
2020-03-12T10:00:00-05:00,59.78,18.79,739.11,1140.41,0.86,240.21,0
2020-03-12T10:01:00-05:00,57.54,18.89,736.87,1322.57,1.3,209.95,0
2020-03-12T10:02:00-05:00,58.3,18.92,737.14,1068.66,0.65,247.07,0
2020-03-12T10:03:00-05:00,56.78,18.88,736.74,698.75,0.75,310.6,0
2020-03-12T10:04:00-05:00,59.93,18.88,736.64,1154.67,2.35,272.95,0
2020-03-12T10:05:00-05:00,59.16,18.92,737.61,744.77,1.65,183.99,0
2020-03-12T10:06:00-05:00,56.12,18.76,734.36,811.22,0.9,66.6,0
2020-03-12T10:07:00-05:00,56.85,18.64,734.69,840.92,1.53,136.21,0
2020-03-12T10:08:00-05:00,57.99,18.6,733.89,690.52,1.45,356.44,0
2020-03-12T10:09:00-05:00,58.16,18.56,733.52,648.32,2.26,201.92,0
2020-03-12T10:10:00-05:00,58.88,18.42,732.45,742.56,0.18,30.06,0
2020-03-12T10:11:00-05:00,60.25,18.51,733.56,843.57,2.17,349.39,0
2020-03-12T10:12:00-05:00,58.99,18.56,733.39,682.28,2.38,353.48,0
2020-03-12T10:13:00-05:00,58.76,18.51,733.12,684.34,2.79,64.14,0
2020-03-12T10:14:00-05:00,59.22,18.37,734.19,716.98,0.63,302.6,0
2020-03-12T10:15:00-05:00,61.59,18.37,733.69,769.76,1.71,320.92,0
2020-03-12T10:16:00-05:00,60.66,18.44,732.89,1278.02,1.97,281.72,0
2020-03-12T10:17:00-05:00,60.31,18.56,734.02,1013.67,0.69,207.35,0
2020-03-12T10:18:00-05:00,61.19,18.72,734.53,1157.61,0.52,153.31,0
2020-03-12T10:19:00-05:00,62.68,18.95,734.86,875.32,1.36,159.53,0
2020-03-12T10:20:00-05:00,58.96,19.04,733.82,814.46,0.4,120.02,0
2020-03-12T10:21:00-05:00,56.86,19.08,734.73,655.52,2.43,53.05,0
2020-03-12T10:22:00-05:00,55.88,18.88,733.89,611.71,3.47,32.5,0
2020-03-12T10:23:00-05:00,55.69,18.7,732.62,582.75,2.23,67.66,0
2020-03-12T10:24:00-05:00,58.47,18.72,732.75,632.74,0.84,75.22,0
2020-03-12T10:25:00-05:00,57.57,18.86,733.29,1062.34,1.73,274.73,0
2020-03-12T10:26:00-05:00,59.01,19.07,734.23,877.24,0.48,339.47,0
2020-03-12T10:27:00-05:00,57.43,19.28,735.56,887.82,0.74,296.6,0
2020-03-12T10:28:00-05:00,59.41,19.5,736.1,772.55,1.09,278.67,0
2020-03-12T10:29:00-05:00,56.84,19.66,737.14,811.96,1.24,243.77,0
2020-03-12T10:30:00-05:00,54.82,19.68,735.97,774.17,1.43,189.38,0
2020-03-12T10:31:00-05:00,55.65,19.68,737.44,669.93,0.33,259.75,0
2020-03-12T10:32:00-05:00,56.18,19.76,738.48,443.66,0.25,330.86,0
2020-03-12T10:33:00-05:00,56.46,19.8,736.74,417.49,2.82,220.86,0
2020-03-12T10:34:00-05:00,56.01,19.7,736.5,403.67,0.2,79.16,0
2020-03-12T10:35:00-05:00,56.85,19.58,735.1,397.79,1.07,280.62,0
2020-03-12T10:36:00-05:00,58.94,19.53,733.22,385,1.27,143.54,0
2020-03-12T10:37:00-05:00,55.69,19.42,733.12,389.41,0.51,30.2,0
2020-03-12T10:38:00-05:00,58.36,19.42,732.38,390,0.61,185.99,0
2020-03-12T10:39:00-05:00,59.68,19.36,732.85,395.44,2.59,213.96,0
2020-03-12T10:40:00-05:00,60.09,19.18,729.91,396.62,0.78,228.83,0
2020-03-12T10:41:00-05:00,57.85,19.1,731.41,433.52,0.84,251.76,0
2020-03-12T10:42:00-05:00,58.26,19.06,731.61,483.95,0.29,245.74,0
2020-03-12T10:43:00-05:00,59.9,19.06,731.05,702.57,0.44,248.79,0
2020-03-12T10:44:00-05:00,57.16,19.1,732.45,937.22,0.6,345.47,0
2020-03-12T10:45:00-05:00,57.39,19.22,733.59,834.3,1.03,337.51,0
2020-03-12T10:46:00-05:00,57.5,19.36,733.86,603.04,1.04,43.03,0
2020-03-12T10:47:00-05:00,57.43,19.47,734.39,796.37,2.92,314.86,0
2020-03-12T10:48:00-05:00,56.82,19.48,733.09,394.12,2.7,312.54,0
2020-03-12T10:49:00-05:00,55.77,19.28,731.68,390.29,1.34,23.59,0
2020-03-12T10:50:00-05:00,57.21,19.04,730.14,441.31,0.61,343.51,0
2020-03-12T10:51:00-05:00,58.4,18.94,730.41,707.72,3.07,70.57,0
2020-03-12T10:52:00-05:00,58.23,18.78,735.67,427.05,2.91,348.73,0
2020-03-12T10:53:00-05:00,58.25,18.75,734.53,348.39,3.3,21.74,0
2020-03-12T10:54:00-05:00,57.76,18.6,733.96,321.78,2.14,336.53,0
2020-03-12T10:55:00-05:00,58.65,18.46,732.95,293.85,3.46,351.53,0
2020-03-12T10:56:00-05:00,61.22,18.35,731.38,278.11,0.76,211.88,0
2020-03-12T10:57:00-05:00,62.65,18.34,730.58,276.94,0.24,305.57,0
2020-03-12T10:58:00-05:00,61.14,18.29,730.18,453.66,0.65,276.71,0
2020-03-12T10:59:00-05:00,61.17,18.27,729.14,275.03,0.68,260.73,0
2020-03-12T11:00:00-05:00,59.48,18.24,730.81,259,1.03,261.72,0
2020-03-12T11:01:00-05:00,61.52,18.21,735.97,263.56,0.62,128.1,0
2020-03-12T11:02:00-05:00,59.82,18.18,734.19,273.12,2.03,308.63,0
2020-03-12T11:03:00-05:00,60.35,18.03,733.92,356.04,3.1,20.52,0
2020-03-12T11:04:00-05:00,60.93,17.91,733.02,955.01,1.92,6.94,0
2020-03-12T11:05:00-05:00,61.57,17.87,732.32,386.76,1.54,12.69,0
2020-03-12T11:06:00-05:00,60.66,17.8,730.91,305.31,2.23,13.29,0
2020-03-12T11:07:00-05:00,61.17,17.75,731.31,285.32,1.26,319.57,0
2020-03-12T11:08:00-05:00,62.96,17.77,731.48,284.58,1.91,185.32,0
2020-03-12T11:09:00-05:00,64.01,17.78,731.21,282.53,0.68,262.71,0
2020-03-12T11:10:00-05:00,62.08,17.8,731.11,274.44,2.37,90.81,0
2020-03-12T11:11:00-05:00,59.72,17.77,730.84,285.02,0.7,328.54,0
2020-03-12T11:12:00-05:00,60.29,17.82,731.38,315.46,0.54,127.46,0
2020-03-12T11:13:00-05:00,59.88,17.86,730.71,531,0.6,181.07,0
2020-03-12T11:14:00-05:00,59.99,17.83,729.27,975.45,3.45,330.55,0
2020-03-12T11:15:00-05:00,61.94,17.88,729.51,364.27,0.61,217.88,0
2020-03-12T11:16:00-05:00,62.2,17.97,731.18,257.24,0.59,268.73,0
2020-03-12T11:17:00-05:00,63.95,18.07,731.08,223.72,0.56,221.94,0
2020-03-12T11:18:00-05:00,62.02,18.13,731.31,209.31,0.69,173.11,0
2020-03-12T11:19:00-05:00,58.66,18.13,731.08,213.42,0.28,68.15,0
2020-03-12T11:20:00-05:00,59.22,18.1,729.44,219.6,0.52,245.75,0
2020-03-12T11:21:00-05:00,61.24,18.13,729.27,231.65,0.76,238.88,0
2020-03-12T11:22:00-05:00,61.37,18.15,729.54,264.15,0.47,181.09,0
2020-03-12T11:23:00-05:00,62.4,18.15,729.97,933.4,0.81,293.98,0
2020-03-12T11:24:00-05:00,59.92,18.19,730.88,869.74,2.08,10.83,0
2020-03-12T11:25:00-05:00,58.74,18.18,732.32,1035.29,1.67,331.85,0
2020-03-12T11:26:00-05:00,60.99,18.31,732.32,955.6,0.61,322.82,0
2020-03-12T11:27:00-05:00,61.58,18.5,734.56,781.52,1.01,227.21,0
2020-03-12T11:28:00-05:00,61.82,18.68,734.49,1276.26,1.07,6.34,0
2020-03-12T11:29:00-05:00,61.71,18.93,736.84,1311.54,3.07,44.45,0
2020-03-12T11:30:00-05:00,58.91,18.96,737.27,1308.01,4.02,17.24,0
2020-03-12T11:31:00-05:00,60.22,18.8,737.41,1295.08,0.65,229.8,0
2020-03-12T11:32:00-05:00,59.43,18.83,734.16,1300.66,0.59,287.62,0
2020-03-12T11:33:00-05:00,60.23,18.84,734.23,1306.4,0.53,87.33,0
2020-03-12T11:34:00-05:00,59.17,18.88,735.3,1278.02,0.64,120.22,0
2020-03-12T11:35:00-05:00,60.59,18.97,736.23,1262.58,2.23,23.91,0
2020-03-12T11:36:00-05:00,60.03,19.1,736.87,1234.06,2.18,289.56,0
2020-03-12T11:37:00-05:00,61.54,19.34,737.27,1202.45,0.13,308.64,0
2020-03-12T11:38:00-05:00,60.18,19.39,737.41,1174.08,0.38,182.07,0
2020-03-12T11:39:00-05:00,57.23,19.44,735.13,338.98,1.38,175.09,0
2020-03-12T11:40:00-05:00,57.28,19.39,734.33,431.46,2.53,142.54,0
2020-03-12T11:41:00-05:00,57,19.05,730.95,414.99,1.04,183.05,0
2020-03-12T11:42:00-05:00,59.06,18.86,729.91,1178.63,4.32,30.9,0
2020-03-12T11:43:00-05:00,60.32,18.66,729.74,1175.99,0.87,3.66,0
2020-03-12T11:44:00-05:00,62.14,18.78,731.98,1180.54,3.3,22.78,0
2020-03-12T11:45:00-05:00,59.72,18.87,732.15,1172.75,3.65,41.1,0
2020-03-12T11:46:00-05:00,58.58,18.95,732.79,1181.13,0.6,215.29,0
2020-03-12T11:47:00-05:00,60.51,18.99,732.55,1172.46,2.23,325.6,0
2020-03-12T11:48:00-05:00,60.19,19.1,732.95,1174.37,1.65,15.94,0
2020-03-12T11:49:00-05:00,57.04,19.08,734.39,1180.84,2.59,9.18,0
2020-03-12T11:50:00-05:00,58.05,18.97,733.25,1175.69,0.3,126.35,0
2020-03-12T11:51:00-05:00,59.62,19.12,735.16,1162.02,4.6,26.11,0
2020-03-12T11:52:00-05:00,59.3,19.1,734.49,1178.78,2.57,33.17,0
2020-03-12T11:53:00-05:00,58.86,19.09,734.46,1208.77,5.81,33.68,0
2020-03-12T11:54:00-05:00,59.78,19.12,735.06,1191.13,3.72,32.23,0
2020-03-12T11:55:00-05:00,59.89,18.84,733.52,1192.01,4.27,29.86,0
2020-03-12T11:56:00-05:00,60.95,18.76,733.39,1184.51,1.9,55.9,0
2020-03-12T11:57:00-05:00,60.47,18.67,731.92,1183.19,3.44,57.38,0
2020-03-12T11:58:00-05:00,58.56,18.63,732.72,1184.81,2.52,44.37,0
2020-03-12T11:59:00-05:00,61.14,18.58,732.02,1187.9,1.18,45.49,0
2020-03-12T12:00:00-05:00,59.62,18.58,731.61,1196.72,4.55,84.79,0
2020-03-12T12:01:00-05:00,60.09,18.5,732.08,1189.07,1.37,142.61,0
2020-03-12T12:02:00-05:00,59.7,18.51,732.59,261.35,4.63,42.02,0
2020-03-12T12:03:00-05:00,60.87,18.56,732.08,1163.49,1.24,317.98,0
2020-03-12T12:04:00-05:00,60.21,18.57,731.58,1176.13,4.12,29.36,0
2020-03-12T12:05:00-05:00,58.41,18.52,731.58,1166.43,1.28,21.86,0
2020-03-12T12:06:00-05:00,59.97,18.5,731.15,1171.58,3.56,30.45,0
2020-03-12T12:07:00-05:00,58.15,18.58,731.58,1166.28,0.48,2.74,0
2020-03-12T12:08:00-05:00,58.62,18.68,733.49,1162.46,0.81,29.23,0
2020-03-12T12:09:00-05:00,60.16,18.77,732.75,1169.81,1.79,54.72,0
2020-03-12T12:10:00-05:00,58.39,18.95,733.86,1177.9,3.04,42.7,0
2020-03-12T12:11:00-05:00,57.87,18.96,733.69,1175.99,2.34,14.68,0
2020-03-12T12:12:00-05:00,57.29,18.95,733.49,1185.4,2.36,94.29,0
2020-03-12T12:13:00-05:00,57.43,18.98,733.59,1186.72,1.09,72.4,0
2020-03-12T12:14:00-05:00,58.42,19.04,733.52,1215.68,2.88,351.5,0
2020-03-12T12:15:00-05:00,56.85,18.94,734.16,1158.93,0.95,337.5,0
2020-03-12T12:16:00-05:00,58.23,18.94,732.85,1192.01,3.71,20.42,0
2020-03-12T12:17:00-05:00,58.45,18.82,733.49,1189.51,2.92,345.49,0
2020-03-12T12:18:00-05:00,59.01,18.84,732.69,1199.22,3.5,7.5,0
2020-03-12T12:19:00-05:00,58.72,18.96,732.69,1199.66,4.78,1.77,0
2020-03-12T12:20:00-05:00,57.85,18.92,732.72,1198.04,3.67,333.97,0
2020-03-12T12:21:00-05:00,57.42,18.92,733.46,1196.42,1.57,63.94,0
2020-03-12T12:22:00-05:00,58.48,19.13,733.76,1189.22,1.24,12.57,0
2020-03-12T12:23:00-05:00,60.45,19.32,734.69,1196.42,1.24,38.55,0
2020-03-12T12:24:00-05:00,55.99,19.48,734.16,1210.39,2.87,63.28,0
2020-03-12T12:25:00-05:00,54.77,19.64,735.23,1216.12,2.07,356.45,0
2020-03-12T12:26:00-05:00,60.25,19.89,736.03,1247.15,0.97,347.48,0
2020-03-12T12:27:00-05:00,57.29,20.15,737.77,1258.76,0.75,15.98,0
2020-03-12T12:28:00-05:00,59.89,20.5,733.39,1263.76,0.7,268.73,0
2020-03-12T12:29:00-05:00,57.51,20.87,734.83,1267.44,2.61,353.48,0
2020-03-12T12:30:00-05:00,53.24,21.12,733.99,1295.22,1.13,93.26,0
2020-03-12T12:31:00-05:00,55.59,21.3,734.36,681.99,0.61,238.86,0
2020-03-12T12:32:00-05:00,54.07,21.54,736.23,770.64,0.95,279.62,0
2020-03-12T12:33:00-05:00,49.89,21.52,735.46,593.48,0.54,49.68,0
2020-03-12T12:34:00-05:00,51.81,21.43,735.53,553.2,0.6,208.23,0
2020-03-12T12:35:00-05:00,53.16,21.45,734.93,530.55,1.26,35.13,0
2020-03-12T12:36:00-05:00,51.32,21.47,735.36,459.54,0.58,275.75,0
2020-03-12T12:37:00-05:00,50.21,21.37,734.13,763.73,1.66,270.06,0
2020-03-12T12:38:00-05:00,54.67,21.29,734.33,654.79,0.72,296.59,0
2020-03-12T12:39:00-05:00,51.63,21.18,733.36,433.81,2.37,199.39,0
2020-03-12T12:40:00-05:00,53.37,20.97,732.85,578.63,0.7,227.86,0
2020-03-12T12:41:00-05:00,49.78,20.8,732.62,586.13,1.07,7.61,0
2020-03-12T12:42:00-05:00,49.93,20.53,731.11,570.25,1.21,25.61,0
2020-03-12T12:43:00-05:00,51.63,20.49,731.58,465.57,1.46,30.59,0
2020-03-12T12:44:00-05:00,54.56,20.55,732.15,534.67,1.06,185.97,0
2020-03-12T12:45:00-05:00,55.1,20.62,731.92,462.78,0.78,307.67,0
2020-03-12T12:46:00-05:00,54.78,20.67,732.02,550.84,0.6,281.72,0
2020-03-12T12:47:00-05:00,56.18,20.73,731.45,336.19,0.75,190,0
2020-03-12T12:48:00-05:00,55,20.75,732.92,321.63,0.56,264.8,0
2020-03-12T12:49:00-05:00,52.72,20.72,731.31,329.43,0.52,240.86,0
2020-03-12T12:50:00-05:00,52.67,20.67,732.18,323.4,0.68,181.07,0
2020-03-12T12:51:00-05:00,51.44,20.58,731.82,303.99,0.71,291.7,0
2020-03-12T12:52:00-05:00,49.08,20.5,732.35,313.69,0.6,332.82,0
2020-03-12T12:53:00-05:00,49.33,20.47,732.69,322.07,0.24,22.82,0
2020-03-12T12:54:00-05:00,52.13,20.43,732.18,315.31,0.57,134.99,0
2020-03-12T12:55:00-05:00,50.09,20.42,731.75,293.85,0.5,75.67,0
2020-03-12T12:56:00-05:00,54.4,20.41,731.45,286.49,0.23,257.14,0
2020-03-12T12:57:00-05:00,53.04,20.45,732.15,286.35,0.92,311.61,0
2020-03-12T12:58:00-05:00,54.49,20.35,731.85,276.79,0.66,197.37,0
2020-03-12T12:59:00-05:00,50.77,20.28,729.97,265.32,0.62,255.66,0
2020-03-12T13:00:00-05:00,50.58,20.15,729.1,254.15,0.75,243.78,0
2020-03-12T13:01:00-05:00,50.62,20.03,729.44,218.13,0.63,262.69,0
2020-03-12T13:02:00-05:00,52.61,19.94,727.83,202.4,0.5,190.98,0
2020-03-12T13:03:00-05:00,53.75,19.84,733.29,185.78,0.34,173.11,0
2020-03-12T13:04:00-05:00,53.74,19.82,733.86,182.26,0.21,299.67,0
2020-03-12T13:05:00-05:00,53.16,19.84,732.95,176.96,0.96,298.68,0
2020-03-12T13:06:00-05:00,52.29,19.78,732.85,170.49,0.29,180.09,0
2020-03-12T13:07:00-05:00,53.38,19.7,732.25,163,0.74,66.38,0
2020-03-12T13:08:00-05:00,55.15,19.54,731.35,154.91,0.6,141.54,0
2020-03-12T13:09:00-05:00,55.79,19.46,730.34,153.73,0.48,245.1,0
2020-03-12T13:10:00-05:00,56.73,19.43,730.48,154.17,1.26,311.56,0
2020-03-12T13:11:00-05:00,57.81,19.33,729.51,152.7,0.41,5.01,0
2020-03-12T13:12:00-05:00,58.16,19.23,730.38,151.67,0.46,288.6,0
2020-03-12T13:13:00-05:00,59.91,19.2,729.74,148.73,0.66,67.01,0
2020-03-12T13:14:00-05:00,61.47,19.19,728.37,145.5,0.57,5.63,0
2020-03-12T13:15:00-05:00,58.11,19.09,728.53,146.68,0.76,41.77,0
2020-03-12T13:16:00-05:00,58.62,18.98,734.19,145.94,1.9,4.65,0
2020-03-12T13:17:00-05:00,57.43,18.79,733.02,145.94,2.81,50.04,0
2020-03-12T13:18:00-05:00,57.97,18.6,732.18,152.26,2.84,7.43,0
2020-03-12T13:19:00-05:00,58.56,18.4,731.55,159.76,2.46,85.95,0
2020-03-12T13:20:00-05:00,59.33,18.29,730.48,164.17,2.59,5.56,0
2020-03-12T13:21:00-05:00,59.22,18.13,730.18,154.76,0.87,66.04,0
2020-03-12T13:22:00-05:00,59.87,18.11,729.91,145.06,0.35,322.55,0
2020-03-12T13:23:00-05:00,61.99,18.11,731.35,140.06,0.22,191.95,0
2020-03-12T13:24:00-05:00,60.44,18.13,730.24,139.77,0.67,17.32,0
2020-03-12T13:25:00-05:00,59.4,18.11,730.44,140.79,1.98,294.66,0
2020-03-12T13:26:00-05:00,59.28,18.05,729.04,140.94,2.05,37.37,0
2020-03-12T13:27:00-05:00,60.73,17.99,729.37,144.18,0.99,78.11,0
2020-03-12T13:28:00-05:00,61.05,17.98,728.7,146.53,2.56,46.21,0
2020-03-12T13:29:00-05:00,60.01,17.94,727.87,150.94,1.36,66.58,0
2020-03-12T13:30:00-05:00,61.48,17.93,727.66,156.82,2.48,43.1,0
2020-03-12T13:31:00-05:00,60.35,17.89,734.19,161.97,3.17,54.11,0
2020-03-12T13:32:00-05:00,60.45,17.79,734.26,165.05,0.97,72.41,0
2020-03-12T13:33:00-05:00,61.46,17.76,732.75,171.38,1.7,45.39,0
2020-03-12T13:34:00-05:00,62.9,17.79,733.66,174.76,1.25,65.21,0
2020-03-12T13:35:00-05:00,61.75,17.8,733.32,188.28,1.1,17,0
2020-03-12T13:36:00-05:00,61.28,17.8,733.79,202.84,3.26,82.67,0
2020-03-12T13:37:00-05:00,61.22,17.72,733.59,216.95,2.24,33.74,0
2020-03-12T13:38:00-05:00,60.71,17.67,733.19,225.33,2.56,6.72,0
2020-03-12T13:39:00-05:00,60.91,17.63,732.82,227.1,1.02,306.56,0
2020-03-12T13:40:00-05:00,61.44,17.61,732.62,221.22,0.64,270.73,0
2020-03-12T13:41:00-05:00,62.61,17.68,732.69,217.69,0.97,293.66,0
2020-03-12T13:42:00-05:00,62.81,17.73,734.09,211.07,0.93,354.75,0
2020-03-12T13:43:00-05:00,62.87,17.76,732.99,203.57,1.43,1.73,0
2020-03-12T13:44:00-05:00,63.52,17.78,734.13,198.43,2.22,351.53,0
2020-03-12T13:45:00-05:00,62.42,17.75,732.52,197.69,1.96,11.03,0
2020-03-12T13:46:00-05:00,63.15,17.66,732.79,197.4,2.76,54.09,0
2020-03-12T13:47:00-05:00,63.23,17.62,733.19,203.28,2.61,53.6,0
2020-03-12T13:48:00-05:00,62.99,17.59,732.45,211.22,2.65,6.09,0
2020-03-12T13:49:00-05:00,62.34,17.61,732.35,224.74,2.86,16.87,0
2020-03-12T13:50:00-05:00,63.09,17.61,731.92,233.27,2.6,30.26,0
2020-03-12T13:51:00-05:00,63.81,17.67,732.92,237.68,2.42,51.5,0
2020-03-12T13:52:00-05:00,62.72,17.68,733.25,231.51,1.36,14.27,0
2020-03-12T13:53:00-05:00,63.17,17.63,732.82,225.33,0.72,45.1,0
2020-03-12T13:54:00-05:00,63.8,17.68,733.09,226.07,1,351.52,0
2020-03-12T13:55:00-05:00,62.08,17.73,732.72,235.77,0.6,325.6,0
2020-03-12T13:56:00-05:00,63.26,17.77,733.25,243.27,0.37,108.12,0
2020-03-12T13:57:00-05:00,63.45,17.81,733.12,271.06,3.96,19.88,0
2020-03-12T13:58:00-05:00,63.43,17.9,732.85,283.41,0.79,61.3,0
2020-03-12T13:59:00-05:00,62.67,17.85,733.89,285.61,1.7,13.75,0
2020-03-12T14:00:00-05:00,62.37,17.84,733.25,279.29,2.78,18.33,0
2020-03-12T14:01:00-05:00,62.79,17.8,733.22,260.32,1.44,47.4,0
2020-03-12T14:02:00-05:00,63.34,17.72,732.62,244.89,2.33,31.31,0
2020-03-12T14:03:00-05:00,63.21,17.73,731.75,241.06,1.78,31.67,0
2020-03-12T14:04:00-05:00,63.01,17.73,731.51,240.77,2.24,26.88,0
2020-03-12T14:05:00-05:00,62.3,17.71,732.75,245.03,1.14,57.8,0
2020-03-12T14:06:00-05:00,61.97,17.71,732.52,257.24,0.55,15.28,0
2020-03-12T14:07:00-05:00,62,17.69,733.02,298.26,2.18,18.75,0
2020-03-12T14:08:00-05:00,62.08,17.71,733.46,285.61,2.41,350.92,0
2020-03-12T14:09:00-05:00,61.96,17.73,733.56,335.6,2.02,72.42,0
2020-03-12T14:10:00-05:00,61.86,17.77,733.59,430.73,2.21,9.18,0
2020-03-12T14:11:00-05:00,61.48,17.74,734.43,817.54,0.81,1.76,0
2020-03-12T14:12:00-05:00,63.16,17.78,737,323.1,2.83,1.02,0
2020-03-12T14:13:00-05:00,62.02,17.77,736.2,293.55,2.65,350.56,0
2020-03-12T14:14:00-05:00,62.07,17.69,734.53,263.71,3.44,24.16,0
2020-03-12T14:15:00-05:00,63.1,17.65,734.59,243.27,1.77,53.93,0
2020-03-12T14:16:00-05:00,63.31,17.64,733.19,213.28,2.55,62.85,0
2020-03-12T14:17:00-05:00,63.62,17.61,732.89,195.19,1.02,20.82,0
2020-03-12T14:18:00-05:00,63.82,17.56,732.42,183.87,2.11,66.65,0
2020-03-12T14:19:00-05:00,63.09,17.53,731.05,166.23,2.09,51.4,0
2020-03-12T14:20:00-05:00,63.11,17.49,731.01,151.23,4.11,28.4,0
2020-03-12T14:21:00-05:00,63.49,17.42,730.95,137.85,2.33,350.55,0
2020-03-12T14:22:00-05:00,63.22,17.4,730.21,130.36,1.21,18.67,0
2020-03-12T14:23:00-05:00,63.49,17.35,729.81,124.62,0.85,33.1,0
2020-03-12T14:24:00-05:00,63.95,17.35,729.67,119.62,1.34,10.29,0
2020-03-12T14:25:00-05:00,63.34,17.34,729.61,119.33,3.57,45.61,0
2020-03-12T14:26:00-05:00,63.45,17.27,727.56,114.62,0.3,150.22,0
2020-03-12T14:27:00-05:00,64.06,17.2,727.5,115.51,3.69,17.56,0
2020-03-12T14:28:00-05:00,63.88,17.12,733.12,122.27,5.19,26.73,0
2020-03-12T14:29:00-05:00,64.11,17,734.09,122.86,2.61,47.67,0
2020-03-12T14:30:00-05:00,65.23,16.94,733.76,122.27,5.43,50.62,0
2020-03-12T14:31:00-05:00,65.89,16.86,733.89,109.92,2.76,49.21,0
2020-03-12T14:32:00-05:00,66.14,16.82,732.95,95.81,1.39,129.24,0
2020-03-12T14:33:00-05:00,67.06,16.79,732.72,87.13,1.97,54.97,0
2020-03-12T14:34:00-05:00,66.78,16.73,732.35,84.19,1.36,36.09,0
2020-03-12T14:35:00-05:00,67.86,16.69,732.92,81.25,2.51,65.33,0
2020-03-12T14:36:00-05:00,67.34,16.64,732.89,75.08,2.33,16.38,0
2020-03-12T14:37:00-05:00,68.13,16.59,732.95,70.22,1.87,111.84,0
2020-03-12T14:38:00-05:00,68.67,16.56,732.62,65.96,1.09,63.69,0
2020-03-12T14:39:00-05:00,67.44,16.55,732.28,63.75,1.15,161.13,0
2020-03-12T14:40:00-05:00,67.92,16.52,731.18,64.2,2.46,143.21,0
2020-03-12T14:41:00-05:00,68.19,16.51,731.35,65.52,2.25,66.79,0
2020-03-12T14:42:00-05:00,67.54,16.48,731.01,72.13,2.37,59.88,0
2020-03-12T14:43:00-05:00,68.01,16.42,731.35,74.05,0.74,121.38,0
2020-03-12T14:44:00-05:00,68.45,16.4,731.58,75.52,1.48,95.45,0
2020-03-12T14:45:00-05:00,68.9,16.41,732.02,73.31,1.88,56.78,0
2020-03-12T14:46:00-05:00,68.55,16.44,731.65,75.96,0.45,215.29,0
2020-03-12T14:47:00-05:00,68.88,16.45,731.18,79.78,2.79,52.82,0
2020-03-12T14:48:00-05:00,68.95,16.46,730.18,81.84,3.47,60.58,0
2020-03-12T14:49:00-05:00,68.61,16.42,729.81,79.78,2.29,36.07,0
2020-03-12T14:50:00-05:00,70.18,16.39,728.23,77.87,1.34,30.8,0
2020-03-12T14:51:00-05:00,71.31,16.35,727.9,79.34,0.77,26.08,0
2020-03-12T14:52:00-05:00,72.19,16.3,733.92,78.9,2.58,65.65,0.1
2020-03-12T14:53:00-05:00,72.58,16.24,733.42,63.61,1.63,50.31,0
2020-03-12T14:54:00-05:00,73.95,16.14,732.99,51.55,3.1,59.19,0.1
2020-03-12T14:55:00-05:00,74.27,16.03,733.02,45.23,2.68,20.45,0.1
2020-03-12T14:56:00-05:00,73.54,15.95,732.35,41.41,2.07,34.61,0
2020-03-12T14:57:00-05:00,74.84,15.89,732.08,42.88,2.81,57.7,0
2020-03-12T14:58:00-05:00,75.42,15.86,732.65,42.14,3.06,115.53,0
2020-03-12T14:59:00-05:00,75.96,15.8,731.72,42.29,1.63,59.1,0
2020-03-12T15:00:00-05:00,75.38,15.7,731.35,43.02,1.1,30.59,0
2020-03-12T15:01:00-05:00,76.63,15.61,732.42,45.82,2.28,39.64,0
2020-03-12T15:02:00-05:00,77.6,15.56,731.15,48.46,3.09,39.16,0
2020-03-12T15:03:00-05:00,79.75,15.51,730.84,49.64,0.77,93.99,0
2020-03-12T15:04:00-05:00,81.41,15.45,731.88,52.73,0.95,59.65,0
2020-03-12T15:05:00-05:00,83.79,15.38,731.08,52.87,1.34,45.45,0
2020-03-12T15:06:00-05:00,83.82,15.27,731.51,53.61,0.73,37.24,0
2020-03-12T15:07:00-05:00,84.56,15.23,731.85,48.02,0.61,71.09,0
2020-03-12T15:08:00-05:00,83.78,15.15,730.64,45.82,1.37,40.75,0
2020-03-12T15:09:00-05:00,86.2,15.16,731.25,45.08,0.81,97.83,0
2020-03-12T15:10:00-05:00,83,15.09,730.58,46.11,0.63,44.75,0
2020-03-12T15:11:00-05:00,83.77,15.07,730.48,49.2,1.5,83.99,0
2020-03-12T15:12:00-05:00,84.12,15.05,731.28,53.46,2.27,44.81,0.1
2020-03-12T15:13:00-05:00,84.56,15.04,731.68,58.61,0.9,114.2,0
2020-03-12T15:14:00-05:00,85.15,15.01,731.18,52.58,0.72,91.91,0
2020-03-12T15:15:00-05:00,85.11,14.98,730.98,44.64,0.9,66.37,0
2020-03-12T15:16:00-05:00,84.43,14.97,730.21,41.7,0.95,71.5,0
2020-03-12T15:17:00-05:00,85.36,15.01,730.41,37.29,0.56,112.43,0
2020-03-12T15:18:00-05:00,84.31,15.01,731.58,32.29,0.98,123.23,0
2020-03-12T15:19:00-05:00,83.98,14.99,730.64,30.23,0.27,39.02,0
2020-03-12T15:20:00-05:00,84.82,15.03,730.71,29.79,0.24,167.48,0
2020-03-12T15:21:00-05:00,85.68,15.04,730.61,30.23,0.22,96.94,0
2020-03-12T15:22:00-05:00,86.32,15.09,732.12,32.44,0.63,124.59,0
2020-03-12T15:23:00-05:00,85.8,15.07,731.01,30.53,0.19,124.02,0
2020-03-12T15:24:00-05:00,86.3,15.11,731.35,28.76,1.47,101.57,0
2020-03-12T15:25:00-05:00,87.07,15.18,731.92,24.5,0.61,269.73,0
2020-03-12T15:26:00-05:00,86.48,15.18,731.68,24.5,0.46,48.67,0
2020-03-12T15:27:00-05:00,86.51,15.21,731.82,24.79,0.17,116.18,0
2020-03-12T15:28:00-05:00,86.84,15.27,731.78,29.94,0.52,149.5,0
2020-03-12T15:29:00-05:00,86.58,15.29,732.59,31.41,0.41,127.2,0
2020-03-12T15:30:00-05:00,85.08,15.26,731.98,34.5,0.61,147.25,0
2020-03-12T15:31:00-05:00,86.6,15.31,732.65,33.03,1.03,74.75,0
2020-03-12T15:32:00-05:00,85.98,15.29,731.82,32.73,0.82,103,0
2020-03-12T15:33:00-05:00,86.07,15.31,731.78,31.56,0.65,96.6,0
2020-03-12T15:34:00-05:00,84.58,15.29,732.05,29.94,0.71,84.66,0
2020-03-12T15:35:00-05:00,85.19,15.31,731.92,26.12,0.63,53.48,0
2020-03-12T15:36:00-05:00,85.69,15.35,731.72,24.65,0.62,325.57,0
2020-03-12T15:37:00-05:00,84.85,15.36,731.92,23.47,0.31,25.43,0
2020-03-12T15:38:00-05:00,84.93,15.39,732.75,20.82,0.25,44.39,0
2020-03-12T15:39:00-05:00,84.91,15.43,733.32,20.97,1.46,355.82,0
2020-03-12T15:40:00-05:00,83.8,15.43,733.02,19.35,0.76,13.33,0
2020-03-12T15:41:00-05:00,82.52,15.46,732.92,16.12,2.27,49.21,0
2020-03-12T15:42:00-05:00,81.42,15.45,732.69,16.85,0.65,332.52,0
2020-03-12T15:43:00-05:00,79.26,15.45,733.42,16.56,1.74,355.84,0
2020-03-12T15:44:00-05:00,80.05,15.49,733.32,14.8,0.95,304.59,0
2020-03-12T15:45:00-05:00,80.35,15.51,732.89,14.5,0.1,146.63,0
2020-03-12T15:46:00-05:00,81.07,15.5,732.59,13.47,0.57,135.38,0
2020-03-12T15:47:00-05:00,81.63,15.49,733.05,11.56,0.77,102.94,0
2020-03-12T15:48:00-05:00,82.49,15.49,732.45,10.53,0.07,104.42,0.3
2020-03-12T15:49:00-05:00,83.53,15.47,731.05,10.53,0.84,84.41,0.7
2020-03-12T15:50:00-05:00,85.05,15.35,730.01,13.18,2.19,72.84,0.8
2020-03-12T15:51:00-05:00,85.79,15.17,728.84,10.68,1.68,110.2,0.4
2020-03-12T15:52:00-05:00,86.88,15.03,728.37,13.33,0.86,117.18,0.3
2020-03-12T15:53:00-05:00,87.65,14.89,728.2,15.38,1.28,58.08,0.1
2020-03-12T15:54:00-05:00,89.35,14.87,729.57,15.09,1.81,34.06,0.1
2020-03-12T15:55:00-05:00,88.37,14.71,728.4,16.71,2.53,59.47,0
2020-03-12T15:56:00-05:00,87.22,14.67,730.74,14.5,0.73,146.93,0.1
2020-03-12T15:57:00-05:00,88.88,14.67,732.32,15.97,1.08,38.88,0
2020-03-12T15:58:00-05:00,89.11,14.63,732.38,16.71,1.27,59.47,0
2020-03-12T15:59:00-05:00,89.84,14.55,731.28,17,0.62,268.75,0
2020-03-12T16:00:00-05:00,90.39,14.51,731.08,16.27,0.25,25.76,0
2020-03-12T16:01:00-05:00,90.92,14.43,732.32,17.15,0.58,157.21,0
2020-03-12T16:02:00-05:00,89.68,14.32,731.38,16.71,0.61,57.93,0
2020-03-12T16:03:00-05:00,87.28,14.22,731.55,18.32,1.31,54.02,0
2020-03-12T16:04:00-05:00,87.51,14.26,730.11,16.41,0.8,179.46,0
2020-03-12T16:05:00-05:00,89.29,14.25,731.01,16.85,0.54,247.02,0
2020-03-12T16:06:00-05:00,89.99,14.26,730.48,20.53,0.68,183.34,0
2020-03-12T16:07:00-05:00,89.73,14.16,730.14,23.76,1.77,217.92,0
2020-03-12T16:08:00-05:00,90.33,14.04,729.71,25.38,1.19,210.95,0
2020-03-12T16:09:00-05:00,90.75,13.94,729.47,24.94,0.95,134.03,0
2020-03-12T16:10:00-05:00,90.82,13.85,730.48,24.35,1.09,140.28,0
2020-03-12T16:11:00-05:00,91.22,13.84,730.68,24.35,0.98,209.96,0
2020-03-12T16:12:00-05:00,91.07,13.81,730.71,25.53,0.96,127.4,0
2020-03-12T16:13:00-05:00,90.95,13.82,731.01,27,1.73,131.25,0
2020-03-12T16:14:00-05:00,90.6,14.01,730.01,29.2,0.51,29.5,0
2020-03-12T16:15:00-05:00,90.01,14.09,730.64,26.85,1.23,355.47,0
2020-03-12T16:16:00-05:00,89.46,14.19,730.41,25.97,0.51,44.14,0
2020-03-12T16:17:00-05:00,88.67,14.23,730.58,24.2,0.77,197.37,0
2020-03-12T16:18:00-05:00,87.83,14.3,731.05,26.12,2.27,14.76,0
2020-03-12T16:19:00-05:00,87.85,14.35,731.82,25.82,0.19,313.93,0
2020-03-12T16:20:00-05:00,88.39,14.37,731.78,28.17,0.47,241.83,0
2020-03-12T16:21:00-05:00,88.78,14.35,731.01,30.97,0.86,203.33,0
2020-03-12T16:22:00-05:00,88.72,14.31,731.35,34.06,0.6,178.05,0
2020-03-12T16:23:00-05:00,87.91,14.27,730.98,36.55,0.83,206.39,0
2020-03-12T16:24:00-05:00,88.15,14.28,731.25,37,0.92,129.23,0
2020-03-12T16:25:00-05:00,88.89,14.29,732.22,37.14,0.68,114.46,0
2020-03-12T16:26:00-05:00,88.74,14.26,732.52,35.08,1.27,32.2,0
2020-03-12T16:27:00-05:00,89.89,14.25,732.15,30.67,1.51,47.39,0
2020-03-12T16:28:00-05:00,90.52,14.24,731.01,28.76,0.73,18.04,0
2020-03-12T16:29:00-05:00,90.97,14.21,732.38,28.62,0.68,43.15,0
2020-03-12T16:30:00-05:00,91.1,14.19,731.08,26.56,0.81,198.96,0
2020-03-12T16:31:00-05:00,91.01,14.14,731.65,28.47,0.6,223.9,0
2020-03-12T16:32:00-05:00,90.85,14.09,731.78,27.44,0.62,143.18,0
2020-03-12T16:33:00-05:00,90.87,14.06,731.51,30.09,0.52,151.16,0
2020-03-12T16:34:00-05:00,91.26,14.08,731.35,30.23,0.53,58.97,0
2020-03-12T16:35:00-05:00,91.11,14.07,731.41,27.44,0.52,336.55,0
2020-03-12T16:36:00-05:00,91.01,14.08,732.59,27.44,0.74,53.24,0
2020-03-12T16:37:00-05:00,90.82,14.12,732.69,29.5,0.74,32.87,0
2020-03-12T16:38:00-05:00,90.53,14.13,733.22,27.15,1.46,45.76,0
2020-03-12T16:39:00-05:00,90.39,14.13,731.72,25.53,1.14,68.83,0
2020-03-12T16:40:00-05:00,89.86,14.18,732.42,25.38,0.65,108.69,0
2020-03-12T16:41:00-05:00,89.99,14.18,732.89,23.18,0.57,105.19,0
2020-03-12T16:42:00-05:00,90.34,14.19,731.95,24.35,0.65,47.71,0
2020-03-12T16:43:00-05:00,90.97,14.21,732.69,24.35,0.5,315.53,0
2020-03-12T16:44:00-05:00,91.27,14.24,733.25,22.88,0.63,341.83,0
2020-03-12T16:45:00-05:00,91.6,14.26,732.72,23.62,0.55,296.62,0
2020-03-12T16:46:00-05:00,92.12,14.27,732.32,23.03,0.66,285.64,0
2020-03-12T16:47:00-05:00,92.07,14.28,731.98,22.29,0.62,340.47,0
2020-03-12T16:48:00-05:00,91.6,14.24,731.92,23.03,0.77,36.38,0
2020-03-12T16:49:00-05:00,91.96,14.23,732.69,19.65,0.56,112.24,0
2020-03-12T16:50:00-05:00,92.71,14.28,732.45,20.24,0.12,234.82,0
2020-03-12T16:51:00-05:00,92.85,14.31,732.59,16.85,0.48,342.54,0
2020-03-12T16:52:00-05:00,92.56,14.29,732.55,18.47,0.6,132.26,0
2020-03-12T16:53:00-05:00,92.56,14.28,732.65,15.97,0.57,108.82,0
2020-03-12T16:54:00-05:00,92.19,14.24,732.05,18.18,0.67,191.02,0
2020-03-12T16:55:00-05:00,91.81,14.19,731.58,15.24,0.39,200.3,0
2020-03-12T16:56:00-05:00,92.27,14.18,732.45,15.82,0.22,129.97,0
2020-03-12T16:57:00-05:00,92.08,14.16,732.35,14.94,0.7,159.48,0
2020-03-12T16:58:00-05:00,91.74,14.13,732.32,16.41,0.84,175.12,0
2020-03-12T16:59:00-05:00,91.47,14.06,732.59,14.94,0.89,163.51,0
2020-03-12T17:00:00-05:00,92.08,14.04,732.32,16.27,0.88,142.78,0
2020-03-12T17:01:00-05:00,91.88,14.02,732.48,18.47,1.04,103.36,0
2020-03-12T17:02:00-05:00,92.03,14.07,732.35,19.21,0.14,199.99,0
2020-03-12T17:03:00-05:00,92.08,14.12,732.18,21.12,0.6,68.5,0
2020-03-12T17:04:00-05:00,92.24,14.14,732.92,19.94,0.58,101.05,0
2020-03-12T17:05:00-05:00,91.68,14.15,732.28,19.21,0.97,66.65,0
2020-03-12T17:06:00-05:00,91.29,14.12,731.35,17.74,0.65,79.61,0
2020-03-12T17:07:00-05:00,91.25,14.13,732.85,18.03,0.73,107.99,0.1
2020-03-12T17:08:00-05:00,91.61,14.12,732.05,23.03,0.84,114.11,0
2020-03-12T17:09:00-05:00,91.35,14.12,732.82,26.26,0.57,75.9,0
2020-03-12T17:10:00-05:00,91.38,14.14,731.05,31.26,0.8,76.34,0
2020-03-12T17:11:00-05:00,91.66,14.19,732.08,32.73,0.67,148.25,0
2020-03-12T17:12:00-05:00,91.74,14.21,732.05,36.7,0.63,152.45,0
2020-03-12T17:13:00-05:00,91.81,14.2,731.61,40.23,0.19,170.39,0
2020-03-12T17:14:00-05:00,92.41,14.24,732.08,42.58,0.57,188.44,0
2020-03-12T17:15:00-05:00,92.52,14.24,733.49,42.73,0.72,58.44,0
2020-03-12T17:16:00-05:00,92.64,14.26,732.72,68.31,1.23,128.9,0
2020-03-12T17:17:00-05:00,92.56,14.27,733.66,63.46,0.89,127.3,0
2020-03-12T17:18:00-05:00,92.02,14.25,732.12,63.61,0.83,200.31,0
2020-03-12T17:19:00-05:00,91.92,14.25,732.25,65.81,1.27,47.85,0
2020-03-12T17:20:00-05:00,91.21,14.28,733.72,70.81,1.11,36.84,0
2020-03-12T17:21:00-05:00,91.56,14.33,732.82,74.19,0.77,93.67,0
2020-03-12T17:22:00-05:00,91.43,14.37,733.52,77.28,0.66,133.18,0
2020-03-12T17:23:00-05:00,91.5,14.41,734.19,76.69,0.87,70.22,0
2020-03-12T17:24:00-05:00,91.2,14.42,734.49,77.72,0.76,59.77,0
2020-03-12T17:25:00-05:00,91.13,14.43,734.79,78.46,0.63,83.6,0
2020-03-12T17:26:00-05:00,91.43,14.47,734.43,83.16,0.76,70.41,0
2020-03-12T17:27:00-05:00,91.96,14.49,735.13,86.98,0.51,309.64,0
2020-03-12T17:28:00-05:00,92.34,14.54,735.46,87.57,0.57,155.21,0
2020-03-12T17:29:00-05:00,92.62,14.59,735.33,87.13,0.53,257.8,0
2020-03-12T17:30:00-05:00,91.9,14.58,737.31,84.34,0.48,183.06,0
2020-03-12T17:31:00-05:00,91.98,14.62,737.27,87.57,0.07,136.3,0
2020-03-12T17:32:00-05:00,92.31,14.65,737.74,92.28,0.66,28.66,0
2020-03-12T17:33:00-05:00,92.29,14.67,735.6,88.45,0.21,50.86,0
2020-03-12T17:34:00-05:00,92.54,14.75,734.33,81.54,0.5,56.86,0
2020-03-12T17:35:00-05:00,92.63,14.82,734.43,78.16,0.24,193.3,0
2020-03-12T17:36:00-05:00,93.23,14.92,735.67,73.02,0.19,285.66,0
2020-03-12T17:37:00-05:00,93.01,14.96,734.66,66.99,0.29,297.96,0
2020-03-12T17:38:00-05:00,92.88,15.03,734.69,63.17,0.3,95.81,0
2020-03-12T17:39:00-05:00,92.26,15.06,735.36,53.32,0.77,108.54,0
2020-03-12T17:40:00-05:00,90.67,15.01,735.53,44.05,0.72,93.95,0
2020-03-12T17:41:00-05:00,89.9,14.99,733.89,35.08,0.73,122.19,0
2020-03-12T17:42:00-05:00,89.83,14.99,735.13,28.32,0.47,109.58,0
2020-03-12T17:43:00-05:00,90.05,15.01,734.39,26.41,0.52,259.76,0
2020-03-12T17:44:00-05:00,90.27,15.02,735.43,24.5,0.55,172.13,0
2020-03-12T17:45:00-05:00,89.82,14.99,734.63,19.94,0.71,192.97,0
2020-03-12T17:46:00-05:00,89.07,14.93,733.66,18.62,0.14,9.73,0
2020-03-12T17:47:00-05:00,88.46,14.91,734.53,16.56,1.45,10.19,0
2020-03-12T17:48:00-05:00,86.36,14.89,733.92,16.27,0.69,24.31,0
2020-03-12T17:49:00-05:00,86.23,14.91,733.72,12.15,0.36,23.07,0
2020-03-12T17:50:00-05:00,87.24,14.96,734.09,10.24,0.22,117.37,0
2020-03-12T17:51:00-05:00,87.92,14.99,732.75,7.74,0.54,245.76,0
2020-03-12T17:52:00-05:00,88.4,14.98,733.82,8.18,0.22,211.27,0
2020-03-12T17:53:00-05:00,88.81,14.99,733.32,8.91,0.26,102.21,0
2020-03-12T17:54:00-05:00,89.12,14.97,733.15,11.27,0.66,187.31,0
2020-03-12T17:55:00-05:00,88.74,14.9,732.08,11.86,0.72,153.13,0
2020-03-12T17:56:00-05:00,89.16,14.84,731.98,9.21,0.63,170.39,0
2020-03-12T17:57:00-05:00,89.75,14.8,732.02,10.38,0.53,155.2,0
2020-03-12T17:58:00-05:00,89.98,14.75,732.08,9.65,0.63,150.55,0
2020-03-12T17:59:00-05:00,90.64,14.73,730.91,9.21,0.58,144.03,0
2020-03-12T18:00:00-05:00,91.02,14.72,731.58,8.18,0.5,23.79,0
2020-03-12T18:01:00-05:00,91.5,14.71,730.81,6.27,0.56,47.12,0
2020-03-12T18:02:00-05:00,91.48,14.69,730.48,3.92,0.79,82.49,0
2020-03-12T18:03:00-05:00,91.31,14.66,730.61,3.77,0.79,101.75,0
2020-03-12T18:04:00-05:00,90.04,14.54,729.87,3.18,0.6,113.57,0
2020-03-12T18:05:00-05:00,90.29,14.54,731.05,2.15,1.23,105.02,0
2020-03-12T18:06:00-05:00,90.27,14.54,730.54,0.83,0.18,224.9,0
2020-03-12T18:07:00-05:00,90.27,14.51,730.51,-0.2,0.55,129.13,0
2020-03-12T18:08:00-05:00,89.6,14.47,730.11,2.15,0.48,143.24,0
2020-03-12T18:09:00-05:00,89.7,14.47,729.41,0.24,0.25,109.4,0
2020-03-12T18:10:00-05:00,89.94,14.47,729.1,1.71,0.26,210.95,0
2020-03-12T18:11:00-05:00,90.04,14.46,729.91,1.56,0.4,135.52,0
2020-03-12T18:12:00-05:00,89.97,14.45,730.14,-0.49,0.61,100.17,0
2020-03-12T18:13:00-05:00,90.55,14.43,734.23,-0.05,0.47,63.03,0
2020-03-12T18:14:00-05:00,90.37,14.4,732.92,-0.79,0.73,83.16,0
2020-03-12T18:15:00-05:00,89.62,14.36,733.42,1.12,0.83,72.7,0
2020-03-12T18:16:00-05:00,89.28,14.32,734.19,1.56,0.7,56.48,0
2020-03-12T18:17:00-05:00,90.56,14.37,732.99,-0.49,0.68,75.98,0
2020-03-12T18:18:00-05:00,90.58,14.34,733.29,0.39,0.47,8.86,0
2020-03-12T18:19:00-05:00,91.25,14.37,734.43,0.98,0.78,39.88,0
2020-03-12T18:20:00-05:00,91.82,14.37,732.92,0.39,0.62,81.39,0
2020-03-12T18:21:00-05:00,91.73,14.36,733.39,-0.35,0.53,56.4,0
2020-03-12T18:22:00-05:00,91.5,14.34,732.95,-0.35,0.6,100.15,0
2020-03-12T18:23:00-05:00,91.33,14.3,733.25,-0.05,0.22,185.99,0
2020-03-12T18:24:00-05:00,91.7,14.3,732.95,-0.2,0.38,126.71,0
2020-03-12T18:25:00-05:00,91.47,14.26,733.09,-1.67,0.45,141.81,0
2020-03-12T18:26:00-05:00,91.27,14.22,733.32,0.09,0.8,142.53,0
2020-03-12T18:27:00-05:00,91.21,14.17,732.15,-0.79,0.81,151.15,0
2020-03-12T18:28:00-05:00,91.01,14.13,733.15,-0.05,0.72,137.6,0
2020-03-12T18:29:00-05:00,91.04,14.07,732.85,-2.7,0.6,133.62,0
2020-03-12T18:30:00-05:00,91.61,14.06,732.69,-2.7,0.3,131.62,0
2020-03-12T18:31:00-05:00,92.06,14.06,732.89,-0.79,0.73,97.61,0
2020-03-12T18:32:00-05:00,91.73,14.04,730.98,-2.7,0.73,104.59,0
2020-03-12T18:33:00-05:00,91.8,14,732.05,-2.55,0.53,90.53,0
2020-03-12T18:34:00-05:00,91.7,13.95,731.92,-2.26,0.67,89.03,0
2020-03-12T18:35:00-05:00,92.04,13.95,731.85,-3.14,0.5,128.29,0
2020-03-12T18:36:00-05:00,92.19,13.93,731.31,-3.14,0.52,99.39,0
2020-03-12T18:37:00-05:00,92.4,13.88,731.82,-0.79,0.7,115.11,0
2020-03-12T18:38:00-05:00,92.3,13.86,731.72,-1.82,0.58,91.13,0
2020-03-12T18:39:00-05:00,92.16,13.85,731.45,-2.99,0.7,60.9,0
2020-03-12T18:40:00-05:00,92.06,13.83,731.35,-2.7,0.6,79.82,0
2020-03-12T18:41:00-05:00,91.8,13.8,731.21,-2.41,0.63,109.75,0
2020-03-12T18:42:00-05:00,91.99,13.81,730.84,-0.2,0.58,80.33,0
2020-03-12T18:43:00-05:00,91.95,13.78,730.91,-2.11,0.65,75.74,0
2020-03-12T18:44:00-05:00,91.74,13.76,730.48,-0.49,0.76,64.56,0
2020-03-12T18:45:00-05:00,91.85,13.75,730.11,-2.7,0.5,132.23,0
2020-03-12T18:46:00-05:00,91.79,13.72,730.24,-0.35,0.63,116.48,0
2020-03-12T18:47:00-05:00,92.11,13.74,730.88,-1.82,0.86,130.67,0
2020-03-12T18:48:00-05:00,91.87,13.72,728.87,-2.7,0.66,105.24,0
2020-03-12T18:49:00-05:00,91.7,13.68,728.84,-2.26,0.65,74,0
2020-03-12T18:50:00-05:00,91.98,13.69,730.34,-2.7,0.67,85.89,0
2020-03-12T18:51:00-05:00,91.97,13.65,730.48,-1.38,0.6,96.82,0
2020-03-12T18:52:00-05:00,92.1,13.68,730.04,-0.2,0.73,41.97,0
2020-03-12T18:53:00-05:00,92.47,13.66,729.17,-0.35,0.95,25.69,0
2020-03-12T18:54:00-05:00,92.62,13.68,728.67,-0.94,0.94,44.96,0
2020-03-12T18:55:00-05:00,92.51,13.66,729.47,-0.35,0.66,46.34,0
2020-03-12T18:56:00-05:00,92.58,13.64,729,-0.2,1.16,84.76,0
2020-03-12T18:57:00-05:00,92.42,13.62,729.74,-1.38,0.6,44.75,0
2020-03-12T18:58:00-05:00,92.2,13.62,729.27,-0.94,0.57,126.21,0
2020-03-12T18:59:00-05:00,92.38,13.62,729.41,-0.79,0.8,117.27,0
2020-03-12T19:00:00-05:00,92.08,13.6,729.3,-2.11,0.59,135.19,0
2020-03-12T19:01:00-05:00,92.28,13.59,729.27,-1.67,0.56,105.42,0
2020-03-12T19:02:00-05:00,92.27,13.57,729.77,-0.2,0.79,134.48,0
2020-03-12T19:03:00-05:00,91.72,13.52,730.01,-0.05,0.7,135.38,0
2020-03-12T19:04:00-05:00,91.86,13.48,729.24,-0.79,0.73,158.18,0
2020-03-12T19:05:00-05:00,92.11,13.48,729.51,-2.7,0.56,88.7,0
2020-03-12T19:06:00-05:00,92.31,13.46,729.57,-1.67,0.7,89.17,0
2020-03-12T19:07:00-05:00,91.93,13.43,728.74,-1.23,0.67,119.27,0
2020-03-12T19:08:00-05:00,92.05,13.4,728.47,-1.52,0.49,60.19,0
2020-03-12T19:09:00-05:00,92.45,13.44,728.77,-2.7,0.62,55.44,0
2020-03-12T19:10:00-05:00,92.32,13.42,729.51,-3.58,0.7,73.97,0
2020-03-12T19:11:00-05:00,91.91,13.38,728.23,-1.52,0.71,73.21,0
2020-03-12T19:12:00-05:00,91.76,13.37,734.13,-1.23,0.94,85.6,0
2020-03-12T19:13:00-05:00,91.59,13.34,732.79,-2.26,0.63,57.58,0
2020-03-12T19:14:00-05:00,91.22,13.34,733.09,-1.08,0.6,116.42,0
2020-03-12T19:15:00-05:00,91.29,13.32,733.69,-2.55,0.66,118.89,0
2020-03-12T19:16:00-05:00,91.17,13.31,733.12,-0.79,0.75,135.24,0
2020-03-12T19:17:00-05:00,91.17,13.3,733.59,-0.64,0.58,168.12,0
2020-03-12T19:18:00-05:00,91.2,13.3,733.15,0.09,0.74,143.24,0
2020-03-12T19:19:00-05:00,91.21,13.27,733.19,-0.94,0.7,144.19,0
2020-03-12T19:20:00-05:00,91.03,13.3,733.99,1.12,0.57,129.46,0
2020-03-12T19:21:00-05:00,91.39,13.32,733.69,-0.2,0.57,127.45,0
2020-03-12T19:22:00-05:00,90.96,13.33,733.69,1.56,0.39,76.39,0
2020-03-12T19:23:00-05:00,91.16,13.35,734.06,1.27,0.57,48.03,0
2020-03-12T19:24:00-05:00,91.39,13.35,733.62,-1.52,1.03,110.48,0
2020-03-12T19:25:00-05:00,90.56,13.34,733.05,-0.94,0.66,75.44,0
2020-03-12T19:26:00-05:00,90.41,13.37,733.22,-0.79,0.75,57.56,0
2020-03-12T19:27:00-05:00,90.85,13.39,732.45,-1.52,0.61,82.21,0
2020-03-12T19:28:00-05:00,90.85,13.4,733.69,-0.05,0.55,73.32,0
2020-03-12T19:29:00-05:00,90.71,13.38,732.79,-1.23,0.64,95.77,0
2020-03-12T19:30:00-05:00,90.47,13.39,734.9,0.39,0.61,113.25,0
2020-03-12T19:31:00-05:00,90.45,13.4,734.63,0.09,0.6,75.55,0
2020-03-12T19:32:00-05:00,90.67,13.4,735,-2.11,0.55,93.71,0
2020-03-12T19:33:00-05:00,90.78,13.38,734.02,-2.41,0.63,106.82,0
2020-03-12T19:34:00-05:00,90.95,13.38,735.16,-0.79,0.66,97.59,0
2020-03-12T19:35:00-05:00,91.13,13.37,734.13,-1.82,0.61,83.91,0
2020-03-12T19:36:00-05:00,91.34,13.37,732.32,-2.26,0.59,92.23,0
2020-03-12T19:37:00-05:00,91.25,13.35,734.19,-3.73,0.24,50.21,0
2020-03-12T19:38:00-05:00,91.52,13.34,732.45,-3.73,0.44,65.7,0
2020-03-12T19:39:00-05:00,91.54,13.32,732.69,-2.99,0.44,48.6,0
2020-03-12T19:40:00-05:00,91.64,13.29,733.86,-2.55,0.81,37.5,0
2020-03-12T19:41:00-05:00,91.58,13.25,732.92,-3.29,0.71,46.3,0
2020-03-12T19:42:00-05:00,91.66,13.22,733.89,-1.82,0.75,31.67,0
2020-03-12T19:43:00-05:00,91.58,13.16,733.76,-4.61,0.75,49.91,0
2020-03-12T19:44:00-05:00,91.28,13.1,732.12,-4.32,0.6,81.74,0
2020-03-12T19:45:00-05:00,91.52,13.03,732.72,-3.14,1.15,46.96,0
2020-03-12T19:46:00-05:00,91.88,13.02,733.05,-3.14,0.94,49.65,0
2020-03-12T19:47:00-05:00,92.22,12.99,732.32,-1.82,0.88,34.66,0
2020-03-12T19:48:00-05:00,92.53,12.95,732.28,-2.99,0.56,77.64,0
2020-03-12T19:49:00-05:00,92.93,12.95,733.36,-1.97,0.54,42.24,0
2020-03-12T19:50:00-05:00,93.25,12.93,732.45,-3.14,0.36,67.85,0
2020-03-12T19:51:00-05:00,93.29,12.91,732.45,-2.55,0.54,53.04,0
2020-03-12T19:52:00-05:00,93.18,12.87,732.82,-4.17,0.63,56.07,0
2020-03-12T19:53:00-05:00,93.22,12.83,733.19,-2.7,0.62,42.77,0
2020-03-12T19:54:00-05:00,93.23,12.81,731.85,-1.97,1.02,41.04,0
2020-03-12T19:55:00-05:00,93.05,12.75,731.15,-1.38,0.84,26.47,0
2020-03-12T19:56:00-05:00,92.76,12.7,732.85,-4.17,0.98,28.47,0
2020-03-12T19:57:00-05:00,92.84,12.67,732.25,-2.41,0.76,50.19,0
2020-03-12T19:58:00-05:00,93.04,12.68,731.61,-2.85,0.6,56.72,0
2020-03-12T19:59:00-05:00,93.36,12.66,731.85,-2.85,0.57,95.77,0
2020-03-12T20:00:00-05:00,93.49,12.68,731.95,-3.44,0.6,86.14,0
2020-03-12T20:01:00-05:00,93.32,12.67,731.15,-3.88,0.56,88.5,0
2020-03-12T20:02:00-05:00,93.41,12.65,730.38,-3.44,0.57,88.69,0
2020-03-12T20:03:00-05:00,93.5,12.67,730.58,-2.11,0.63,44.11,0
2020-03-12T20:04:00-05:00,93.35,12.66,732.32,-3.44,0.61,46.39,0
2020-03-12T20:05:00-05:00,93.57,12.68,731.01,-2.99,0.63,71.63,0
2020-03-12T20:06:00-05:00,93.75,12.71,730.91,-2.55,0.48,98.29,0
2020-03-12T20:07:00-05:00,93.5,12.72,731.11,-2.26,0.69,161.44,0
2020-03-12T20:08:00-05:00,93.39,12.73,731.85,-2.99,0.49,134.22,0
2020-03-12T20:09:00-05:00,93.43,12.71,732.55,-3.14,0.62,64.98,0
2020-03-12T20:10:00-05:00,93.62,12.74,732.72,-3.88,0.59,59.57,0
2020-03-12T20:11:00-05:00,93.42,12.76,731.75,-3.58,0.66,98.02,0
2020-03-12T20:12:00-05:00,93.49,12.74,731.78,-3.14,0.56,152.1,0
2020-03-12T20:13:00-05:00,93.48,12.73,730.64,-3.88,0.59,118.75,0
2020-03-12T20:14:00-05:00,93.51,12.71,730.95,-4.32,0.6,114.24,0
2020-03-12T20:15:00-05:00,93.39,12.67,732.18,-3.73,0.55,94.44,0
2020-03-12T20:16:00-05:00,92.98,12.63,730.95,-2.7,0.67,144.19,0
2020-03-12T20:17:00-05:00,92.89,12.62,730.54,-3.14,0.68,145.29,0
2020-03-12T20:18:00-05:00,92.51,12.61,731.05,-2.55,0.69,153.15,0
2020-03-12T20:19:00-05:00,92.08,12.59,730.78,-3.73,0.48,130.27,0
2020-03-12T20:20:00-05:00,91.84,12.58,731.45,-4.17,0.74,152.16,0
2020-03-12T20:21:00-05:00,91.55,12.59,729.84,-5.2,0.35,162.18,0
2020-03-12T20:22:00-05:00,91.07,12.57,732.18,-2.55,0.62,140.28,0
2020-03-12T20:23:00-05:00,90.81,12.56,731.68,-4.76,0.81,133.21,0
2020-03-12T20:24:00-05:00,90.08,12.52,731.28,-2.99,0.61,151.52,0
2020-03-12T20:25:00-05:00,89.76,12.5,731.68,-2.99,0.64,146.25,0
2020-03-12T20:26:00-05:00,89.98,12.49,731.61,-4.61,0.64,123.3,0
2020-03-12T20:27:00-05:00,89.81,12.47,730.41,-3.88,0.68,147.25,0
2020-03-12T20:28:00-05:00,89.88,12.42,730.24,-4.17,0.88,104.62,0
2020-03-12T20:29:00-05:00,89.64,12.4,730.44,-5.2,0.69,140.25,0
2020-03-12T20:30:00-05:00,89.12,12.41,731.15,-1.97,0.64,96.87,0
2020-03-12T20:31:00-05:00,88.59,12.41,730.81,-4.46,0.9,127.2,0
2020-03-12T20:32:00-05:00,88.09,12.45,729.91,-3.14,0.23,139.63,0
2020-03-12T20:33:00-05:00,87.97,12.46,730.41,-3.88,0.72,133.22,0
2020-03-12T20:34:00-05:00,87.92,12.49,730.98,-3.88,1.16,48.54,0
2020-03-12T20:35:00-05:00,88.32,12.51,730.48,-2.11,0.57,104.24,0
2020-03-12T20:36:00-05:00,88.08,12.53,731.68,-4.02,0.28,117.98,0
2020-03-12T20:37:00-05:00,87.77,12.53,730.24,-3.29,0.26,156.21,0
2020-03-12T20:38:00-05:00,88,12.53,731.61,-3.73,1.23,146.27,0
2020-03-12T20:39:00-05:00,87.79,12.52,730.58,-1.97,0.68,171.13,0
2020-03-12T20:40:00-05:00,87.68,12.51,731.55,-2.85,0.59,155.2,0
2020-03-12T20:41:00-05:00,88.42,12.56,730.04,-1.82,0.67,106.25,0
2020-03-12T20:42:00-05:00,88.57,12.59,730.34,-2.55,0.68,5.59,0
2020-03-12T20:43:00-05:00,89.37,12.65,730.61,-3.14,0.59,32.59,0
2020-03-12T20:44:00-05:00,89.57,12.67,730.71,-4.32,0.42,157.52,0
2020-03-12T20:45:00-05:00,89.29,12.63,730.51,-2.99,0.34,156.52,0
2020-03-12T20:46:00-05:00,88.96,12.61,731.45,-2.85,0.63,79.41,0
2020-03-12T20:47:00-05:00,89.14,12.63,731.25,-2.26,1.02,32.5,0
2020-03-12T20:48:00-05:00,89.15,12.61,730.07,-1.38,0.58,95.49,0
2020-03-12T20:49:00-05:00,89.28,12.6,731.85,-1.97,0.66,42.3,0
2020-03-12T20:50:00-05:00,89.33,12.57,735.83,-3.73,0.6,286.68,0
2020-03-12T20:51:00-05:00,89.32,12.55,736.3,-4.46,0.6,170.34,0
2020-03-12T20:52:00-05:00,89.39,12.53,735.83,-3.44,0.92,52.44,0
2020-03-12T20:53:00-05:00,88.39,12.53,735.5,-4.32,0.9,6.98,0
2020-03-12T20:54:00-05:00,86.52,12.65,736.47,-1.38,1.75,189.99,0
2020-03-12T20:55:00-05:00,85.09,12.73,736.84,-3.44,0.75,159.18,0
2020-03-12T20:56:00-05:00,85.55,12.75,736.57,-3.44,1.22,76.12,0
2020-03-12T20:57:00-05:00,85.91,12.75,736.5,-3.44,1.49,144.19,0
2020-03-12T20:58:00-05:00,86.08,12.76,737.94,-2.7,2,293.67,0
2020-03-12T20:59:00-05:00,84.06,12.95,737.37,-2.11,1.53,76.09,0
2020-03-12T21:00:00-05:00,83.6,13.05,738.54,-2.55,0.9,176.13,0
2020-03-12T21:01:00-05:00,83.76,13.1,737.94,-1.82,0.49,171.15,0
2020-03-12T21:02:00-05:00,84.84,13.11,738.81,-3.14,0.59,146.59,0
2020-03-12T21:03:00-05:00,86.02,13.08,738.78,-1.97,0.71,140.28,0
2020-03-12T21:04:00-05:00,87.46,13.02,737.84,-1.52,1.34,214.28,0
2020-03-12T21:05:00-05:00,87.47,13.04,737.64,0.68,0.62,40.1,0
2020-03-12T21:06:00-05:00,87.04,13.06,737.67,-1.38,1.39,197.39,0
2020-03-12T21:07:00-05:00,88.62,12.98,737.54,-1.23,0.78,149.2,0
2020-03-12T21:08:00-05:00,88.74,12.97,735.83,0.39,3.2,137.99,0
2020-03-12T21:09:00-05:00,82.03,13.12,736.5,0.98,0.85,66.01,0
2020-03-12T21:10:00-05:00,83.52,13.28,736.87,0.39,0.58,116.95,0
2020-03-12T21:11:00-05:00,84.81,13.3,736.27,-0.2,0.65,66.37,0
2020-03-12T21:12:00-05:00,83.22,13.3,736.5,-0.05,0.33,74.59,0
2020-03-12T21:13:00-05:00,81.27,13.3,736.6,1.27,0.56,86.35,0
2020-03-12T21:14:00-05:00,83.95,13.33,736.97,1.56,0.49,102.7,0
2020-03-12T21:15:00-05:00,83.59,13.33,737.44,1.42,0.46,312.59,0
2020-03-12T21:16:00-05:00,83.07,13.31,737.2,0.83,0.13,227.86,0
2020-03-12T21:17:00-05:00,84.48,13.32,736.9,-0.64,0.3,19.16,0
2020-03-12T21:18:00-05:00,83.82,13.31,737.31,0.24,0.71,107.46,0
2020-03-12T21:19:00-05:00,83.3,13.3,737.44,2.15,0.69,93.33,0
2020-03-12T21:20:00-05:00,82.25,13.28,737.91,3.03,0.57,268.73,0
2020-03-12T21:21:00-05:00,83.81,13.3,736.74,2.59,0.26,257.13,0
2020-03-12T21:22:00-05:00,84.1,13.27,737.71,0.68,0.94,175.12,0
2020-03-12T21:23:00-05:00,83.21,13.24,737.41,2,0.87,221.18,0
2020-03-12T21:24:00-05:00,84.28,13.22,738.14,0.98,0.61,282.69,0
2020-03-12T21:25:00-05:00,85.25,13.2,737.17,1.56,0.44,147.6,0
2020-03-12T21:26:00-05:00,85.86,13.18,736.13,2.15,0.33,254.73,0
2020-03-12T21:27:00-05:00,86.13,13.16,736.64,0.68,0.65,146.59,0
2020-03-12T21:28:00-05:00,85.64,13.12,737.44,3.03,0.75,193,0
2020-03-12T21:29:00-05:00,84.95,13.17,738.61,1.42,0.4,210.95,0
2020-03-12T21:30:00-05:00,84.97,13.2,737.17,2.89,0.69,221.94,0
2020-03-12T21:31:00-05:00,86.14,13.22,736.9,2.89,0.54,206.99,0
2020-03-12T21:32:00-05:00,85.74,13.19,737.47,0.24,0.33,291.67,0
2020-03-12T21:33:00-05:00,86.52,13.15,737.91,1.56,0.12,309.62,0
2020-03-12T21:34:00-05:00,87.44,13.13,738.44,1.86,0.57,76.09,0
2020-03-12T21:35:00-05:00,88.09,13.1,738.08,-0.49,0.41,104.4,0
2020-03-12T21:36:00-05:00,87.83,13.08,737.54,0.68,0.61,175.13,0
2020-03-12T21:37:00-05:00,87,13.06,737.14,1.27,0.53,39.87,0
2020-03-12T21:38:00-05:00,87.42,13.05,737.44,0.53,0.97,44.85,0
2020-03-12T21:39:00-05:00,86.92,13.08,738.21,0.83,0.99,73.44,0
2020-03-12T21:40:00-05:00,86.87,13.11,738.31,0.98,0.34,348.74,0
2020-03-12T21:41:00-05:00,87.2,13.11,737.84,2.74,0.62,148.25,0
2020-03-12T21:42:00-05:00,86.16,13.07,737.24,3.03,0.37,78.27,0
2020-03-12T21:43:00-05:00,86.4,13.1,738.51,0.98,0.27,48.95,0
2020-03-12T21:44:00-05:00,86.45,13.1,736.4,0.83,0.58,54.22,0
2020-03-12T21:45:00-05:00,86.43,13.1,736.84,1.56,0.56,13.84,0
2020-03-12T21:46:00-05:00,87.18,13.11,737.51,-0.2,0.24,156.55,0
2020-03-12T21:47:00-05:00,86.37,13.11,737.17,0.09,0.53,77.32,0
2020-03-12T21:48:00-05:00,85.55,13.1,738.08,0.39,0.45,48.24,0
2020-03-12T21:49:00-05:00,85.73,13.08,736.87,2.59,0.6,135.02,0
2020-03-12T21:50:00-05:00,85.08,13.1,737.2,2.74,0.57,74.51,0
2020-03-12T21:51:00-05:00,85.49,13.12,738.14,2.3,0.63,135.23,0
2020-03-12T21:52:00-05:00,86.08,13.14,736.94,2.3,0.28,109.31,0
2020-03-12T21:53:00-05:00,85.99,13.16,738.44,2.74,0.62,137.28,0
2020-03-12T21:54:00-05:00,85.96,13.14,737.37,2.3,0.59,130.84,0
2020-03-12T21:55:00-05:00,86,13.16,737.34,0.68,0.62,136.2,0
2020-03-12T21:56:00-05:00,85.47,13.15,737.17,0.53,0.67,93.51,0
2020-03-12T21:57:00-05:00,84.31,13.19,737.71,1.42,0.69,77.23,0
2020-03-12T21:58:00-05:00,85.15,13.24,737.34,2.59,0.62,52.24,0
2020-03-12T21:59:00-05:00,85.19,13.25,738.28,1.12,0.61,112.26,0
2020-03-12T22:00:00-05:00,85.39,13.23,738.64,2.15,0.56,53.63,0
2020-03-12T22:01:00-05:00,86.22,13.23,737.31,1.12,0.6,59.4,0
2020-03-12T22:02:00-05:00,86.94,13.2,737.94,-0.49,0.86,60.3,0
2020-03-12T22:03:00-05:00,86.79,13.16,737.2,2.45,0.72,128.67,0
2020-03-12T22:04:00-05:00,86.9,13.14,737.91,1.86,0.58,91.31,0
2020-03-12T22:05:00-05:00,87.29,13.13,737.71,2.3,0.58,61.56,0
2020-03-12T22:06:00-05:00,87.85,13.13,737.71,0.39,0.54,64.15,0
2020-03-12T22:07:00-05:00,88.36,13.12,737.2,2.45,0.65,74.15,0
2020-03-12T22:08:00-05:00,87.85,13.12,737.57,1.71,0.74,44.34,0
2020-03-12T22:09:00-05:00,88.84,13.12,737.04,2.45,0.39,93.6,0
2020-03-12T22:10:00-05:00,88.95,13.12,738.41,0.53,0.57,56.76,0
2020-03-12T22:11:00-05:00,89.06,13.1,737.71,-0.05,0.33,86.67,0
2020-03-12T22:12:00-05:00,88.94,13.08,738.18,1.56,0.54,60.87,0
2020-03-12T22:13:00-05:00,89.23,13.09,738.14,1.42,0.93,44.04,0
2020-03-12T22:14:00-05:00,89.36,13.06,737.1,0.53,0.22,84.45,0
2020-03-12T22:15:00-05:00,89.33,13.03,737.47,-0.49,0.34,87.68,0
2020-03-12T22:16:00-05:00,88.57,13,737.61,1.42,0.61,102.68,0
2020-03-12T22:17:00-05:00,88.65,12.98,737.31,0.53,0.48,85.82,0
2020-03-12T22:18:00-05:00,88.77,12.97,737.41,2,0.66,67.84,0
2020-03-12T22:19:00-05:00,88.45,12.97,736.67,1.71,0.58,105.2,0
2020-03-12T22:20:00-05:00,87.91,12.97,738.14,0.39,0.4,90.1,0
2020-03-12T22:21:00-05:00,87.74,12.98,737.64,0.09,0.62,133.15,0
2020-03-12T22:22:00-05:00,87.48,12.99,738.58,0.98,0.81,174.49,0
2020-03-12T22:23:00-05:00,86.38,13,738.28,2.3,0.72,202.92,0
2020-03-12T22:24:00-05:00,86.96,13.06,737,0.98,0.35,171.17,0
2020-03-12T22:25:00-05:00,86.4,13.05,737.61,0.39,0.66,205.3,0
2020-03-12T22:26:00-05:00,85.24,13.08,737.47,1.71,0.22,119.61,0
2020-03-12T22:27:00-05:00,86,13.11,737.94,-0.05,0.59,177.09,0
2020-03-12T22:28:00-05:00,84.75,13.12,737.37,0.98,0.64,229.8,0
2020-03-12T22:29:00-05:00,84.46,13.18,738.48,2.89,0.24,93.78,0
2020-03-12T22:30:00-05:00,84.99,13.2,737.84,2.89,3.38,108.18,0
2020-03-12T22:31:00-05:00,82.59,13.36,738.81,2.59,2.03,119.78,0
2020-03-12T22:32:00-05:00,82.31,13.5,739.15,2.59,2.29,108.2,0
2020-03-12T22:33:00-05:00,81.87,13.6,739.28,2.45,0.61,20.09,0
2020-03-12T22:34:00-05:00,81.17,13.65,739.41,4.8,1.35,140.29,0
2020-03-12T22:35:00-05:00,82.01,13.7,738.31,3.18,2.37,169.38,0
2020-03-12T22:36:00-05:00,82.53,13.64,739.15,2.3,2.89,226.85,0
2020-03-12T22:37:00-05:00,82.18,13.62,739.55,1.12,1.35,178.4,0
2020-03-12T22:38:00-05:00,81.48,13.62,738.71,1.71,0.22,20.28,0
2020-03-12T22:39:00-05:00,82.57,13.62,739.82,1.56,1.99,256.08,0
2020-03-12T22:40:00-05:00,82.41,13.58,739.58,0.39,0.5,39.06,0
2020-03-12T22:41:00-05:00,82.62,13.55,738.78,1.71,0.53,22.34,0
2020-03-12T22:42:00-05:00,82.45,13.54,738.38,2.3,1.66,207.01,0
2020-03-12T22:43:00-05:00,81.51,13.6,739.65,0.53,0.56,234.11,0
2020-03-12T22:44:00-05:00,81.96,13.63,740.02,2.74,0.77,105.41,0
2020-03-12T22:45:00-05:00,82.24,13.61,738.85,2,2.25,45.85,0
2020-03-12T22:46:00-05:00,81,13.63,739.55,0.68,0.56,14.06,0
2020-03-12T22:47:00-05:00,82.14,13.65,739.38,-0.49,0.61,169.11,0
2020-03-12T22:48:00-05:00,81.78,13.62,739.05,0.83,1.07,86.49,0
2020-03-12T22:49:00-05:00,82.22,13.6,739.41,0.53,1.39,210.93,0
2020-03-12T22:50:00-05:00,82.02,13.52,738.78,-1.82,0.58,74.6,0
2020-03-12T22:51:00-05:00,81.35,13.55,738.91,-1.08,1.1,135.19,0
2020-03-12T22:52:00-05:00,81.1,13.5,739.05,-0.94,1.63,192.97,0
2020-03-12T22:53:00-05:00,81.08,13.54,738.01,-0.49,0.84,30.99,0
2020-03-12T22:54:00-05:00,80.48,13.57,737.64,0.24,2.6,78.97,0
2020-03-12T22:55:00-05:00,80.46,13.62,738.71,-0.05,2.32,26.1,0
2020-03-12T22:56:00-05:00,80.4,13.62,738.81,0.09,0.9,13.25,0
2020-03-12T22:57:00-05:00,80.13,13.62,737.64,-0.49,1.08,257.8,0
2020-03-12T22:58:00-05:00,80.03,13.62,738.51,-0.79,0.68,38.33,0
2020-03-12T22:59:00-05:00,79.86,13.63,737,-1.67,2.77,283,0
2020-03-12T23:00:00-05:00,80.98,13.6,738.28,-2.41,1.59,287.93,0
2020-03-12T23:01:00-05:00,81.38,13.54,739.01,-2.7,1.15,177.05,0
2020-03-12T23:02:00-05:00,80.63,13.5,738.28,-1.97,2.41,36.23,0
2020-03-12T23:03:00-05:00,80.71,13.48,738.38,-1.97,0.64,174.1,0
2020-03-12T23:04:00-05:00,81.08,13.5,738.34,-1.38,1.27,200.97,0
2020-03-12T23:05:00-05:00,81.32,13.47,738.21,-1.97,0.22,41.96,0
2020-03-12T23:06:00-05:00,80.91,13.44,736.84,0.98,2.14,16.38,0
2020-03-12T23:07:00-05:00,81.48,13.44,737.31,-0.35,1.16,268.72,0
2020-03-12T23:08:00-05:00,81.65,13.4,737.17,-1.08,0.68,172.14,0
2020-03-12T23:09:00-05:00,80.94,13.36,737.47,-1.97,2.39,173.09,0
2020-03-12T23:10:00-05:00,79.93,13.42,737.44,-0.05,0.59,40.66,0
2020-03-12T23:11:00-05:00,80.46,13.45,737.84,0.39,1.38,202.97,0
2020-03-12T23:12:00-05:00,80.42,13.44,737.74,1.86,1.16,335.58,0
2020-03-12T23:13:00-05:00,80.98,13.44,737.84,-0.2,0.74,356.77,0
2020-03-12T23:14:00-05:00,81.53,13.42,737.31,0.98,1.15,2.7,0
2020-03-12T23:15:00-05:00,81.64,13.38,737.07,-0.79,0.14,40.28,0
2020-03-12T23:16:00-05:00,81.48,13.37,738.28,1.56,1.49,158.17,0
2020-03-12T23:17:00-05:00,82.12,13.34,738.24,-0.64,0.93,204.25,0
2020-03-12T23:18:00-05:00,82.75,13.3,737.51,1.27,1.36,182.07,0
2020-03-12T23:19:00-05:00,83.36,13.2,736.97,-1.38,1.64,82.88,0
2020-03-12T23:20:00-05:00,84.42,13.15,737.57,-0.35,2,274.77,0
2020-03-12T23:21:00-05:00,84.55,13.07,737.27,-0.79,1.71,266.04,0
2020-03-12T23:22:00-05:00,84.79,13.01,737.24,-2.11,0.54,173.13,0
2020-03-12T23:23:00-05:00,85.52,12.98,735.87,-2.41,1.06,137.51,0
2020-03-12T23:24:00-05:00,86.32,12.89,737.41,-2.85,0.75,139.27,0
2020-03-12T23:25:00-05:00,86.53,12.85,735.77,-0.94,0.26,314.53,0
2020-03-12T23:26:00-05:00,86.46,12.82,736.47,-2.41,0.59,83.74,0
2020-03-12T23:27:00-05:00,86.31,12.78,735.6,-0.79,0.92,154.25,0
2020-03-12T23:28:00-05:00,86.2,12.79,736.2,-2.55,0.67,55.95,0
2020-03-12T23:29:00-05:00,86,12.78,734.83,-1.38,0.71,210.96,0
2020-03-12T23:30:00-05:00,85.23,12.79,736.47,-1.38,1.29,350.54,0
2020-03-12T23:31:00-05:00,85.47,12.83,735.36,0.83,0.57,132.25,0
2020-03-12T23:32:00-05:00,85.47,12.82,736.1,-1.08,0.57,229.17,0
2020-03-12T23:33:00-05:00,85.31,12.83,735.93,-1.67,0.65,53.67,0
2020-03-12T23:34:00-05:00,85.07,12.81,736.17,-1.38,0.24,285.02,0
2020-03-12T23:35:00-05:00,85.44,12.83,735.8,0.53,0.57,140.29,0
2020-03-12T23:36:00-05:00,84.88,12.81,736.33,-0.05,0.6,32.57,0
2020-03-12T23:37:00-05:00,84.64,12.83,736.17,-0.64,1.21,23.11,0
2020-03-12T23:38:00-05:00,83.52,12.9,735.87,1.12,1.01,339.82,0
2020-03-12T23:39:00-05:00,82.99,12.97,736.9,1.12,1.01,346.5,0
2020-03-12T23:40:00-05:00,83.3,13.03,736.27,1.42,2.35,48.08,0
2020-03-12T23:41:00-05:00,82.4,13.09,736.84,1.27,0.77,165.16,0
2020-03-12T23:42:00-05:00,83.33,13.09,736.77,0.98,0.86,176.09,0
2020-03-12T23:43:00-05:00,83,13.06,736.94,0.98,0.08,306.58,0
2020-03-12T23:44:00-05:00,84.18,13.06,736.13,-0.35,0.59,162.19,0
2020-03-12T23:45:00-05:00,84.18,13.02,736.37,1.56,0.06,172.12,0
2020-03-12T23:46:00-05:00,84.48,13.01,736.33,1.42,0.29,298.7,0
2020-03-12T23:47:00-05:00,83.99,13,737.07,1.27,0.06,281.72,0
2020-03-12T23:48:00-05:00,84.52,12.97,736.94,1.12,0.29,163.21,0
2020-03-12T23:49:00-05:00,84.65,12.97,736.13,-0.35,0.59,152.18,0
2020-03-12T23:50:00-05:00,84.94,12.92,736.8,-1.38,0.76,133.22,0
2020-03-12T23:51:00-05:00,84.47,12.91,736.2,0.68,0.35,146.6,0
2020-03-12T23:52:00-05:00,85.27,12.89,736.23,0.53,0.64,13.51,0
2020-03-12T23:53:00-05:00,85.4,12.9,737.04,0.53,0.26,133.56,0
2020-03-12T23:54:00-05:00,85.65,12.88,737.04,-0.35,0.6,85.96,0
2020-03-12T23:55:00-05:00,86.28,12.87,736.8,1.42,0.62,56.28,0
2020-03-12T23:56:00-05:00,86.9,12.86,736.33,-1.08,0.78,48.56,0
2020-03-12T23:57:00-05:00,87.02,12.83,736.4,0.68,0.68,68.25,0
2020-03-12T23:58:00-05:00,86.66,12.82,736.5,-1.23,0.85,28.94,0
2020-03-12T23:59:00-05:00,87.04,12.82,736.27,0.68,0.5,43.3,0
