time,[HUME],[TEMP],[PRES],[RADI],[RAPV],[DIRV],[PREC]
2020-03-22T00:00:00-05:00,88.64,10.22,734.33,-2.11,0.39,112.19,0
2020-03-22T00:01:00-05:00,88.72,10.23,733.52,-3.14,0.51,86.9,0
2020-03-22T00:02:00-05:00,88.8,10.21,733.36,-0.49,0.52,70.52,0
2020-03-22T00:03:00-05:00,88.86,10.19,734.06,-4.91,0.57,118.14,0
2020-03-22T00:04:00-05:00,88.92,10.17,733.12,-4.91,0.61,89.22,0
2020-03-22T00:05:00-05:00,89.04,10.18,732.85,-4.61,0.53,87.91,0
2020-03-22T00:06:00-05:00,89.16,10.15,733.39,-5.2,0.56,119.35,0
2020-03-22T00:07:00-05:00,88.93,10.13,732.55,-4.91,0.54,155.21,0
2020-03-22T00:08:00-05:00,88.79,10.13,732.72,-5.2,0.64,160.14,0
2020-03-22T00:09:00-05:00,88.72,10.15,733.15,-2.85,0.62,135.22,0
2020-03-22T00:10:00-05:00,88.61,10.12,732.55,-3.29,0.6,107.21,0
2020-03-22T00:11:00-05:00,88.37,10.15,732.28,-3.73,0.57,124.23,0
2020-03-22T00:12:00-05:00,88.17,10.17,733.25,-2.7,0.63,90.22,0
2020-03-22T00:13:00-05:00,88.25,10.15,733.12,-5.05,0.58,123.23,0
2020-03-22T00:14:00-05:00,88.15,10.15,737.97,-3.44,0.67,112.33,0
2020-03-22T00:15:00-05:00,88.35,10.11,736.87,-4.76,0.63,109.4,0
2020-03-22T00:16:00-05:00,88.38,10.1,738.01,-2.41,0.46,149.2,0
2020-03-22T00:17:00-05:00,88.37,10.08,737.24,-3.14,0.61,122.55,0
2020-03-22T00:18:00-05:00,88.51,10.07,737.34,-3.29,0.6,134.05,0
2020-03-22T00:19:00-05:00,88.51,10.04,737.34,-3.29,0.61,138.37,0
2020-03-22T00:20:00-05:00,88.57,10.03,738.04,-2.99,0.56,141.28,0
2020-03-22T00:21:00-05:00,88.65,10.01,738.01,-1.97,0.56,142.55,0
2020-03-22T00:22:00-05:00,88.69,10,736.9,-1.82,0.46,121.75,0
2020-03-22T00:23:00-05:00,88.8,9.98,737.91,-4.02,0.6,132.53,0
2020-03-22T00:24:00-05:00,88.87,9.98,737.71,-1.82,0.59,145.27,0
2020-03-22T00:25:00-05:00,88.86,9.95,736.57,-0.79,0.62,116.19,0
2020-03-22T00:26:00-05:00,89.11,9.95,736.94,-1.67,0.62,113.43,0
2020-03-22T00:27:00-05:00,88.98,9.97,736.7,-1.38,0.56,83.35,0
2020-03-22T00:28:00-05:00,89.02,9.98,737.04,-4.17,0.68,99.18,0
2020-03-22T00:29:00-05:00,88.64,9.97,736.87,-5.49,0.57,127.21,0
2020-03-22T00:30:00-05:00,88.49,9.99,737.94,-4.02,0.59,96.84,0
2020-03-22T00:31:00-05:00,88.38,9.98,736.74,-4.32,0.78,79.9,0
2020-03-22T00:32:00-05:00,88.59,10.01,736.6,-3.73,0.58,66.07,0
2020-03-22T00:33:00-05:00,88.97,10.01,736.43,-3.73,0.66,75.31,0
2020-03-22T00:34:00-05:00,88.92,10.01,737.2,-5.2,0.57,87.12,0
2020-03-22T00:35:00-05:00,88.76,9.98,737.1,-5.05,0.58,68.4,0
2020-03-22T00:36:00-05:00,88.46,9.97,736.64,-5.2,0.57,86.41,0
2020-03-22T00:37:00-05:00,88.09,9.98,736.13,-4.32,0.51,102.23,0
2020-03-22T00:38:00-05:00,87.86,9.97,736.97,-4.32,0.61,106.81,0
2020-03-22T00:39:00-05:00,87.45,9.97,736.17,-2.85,0.64,91.4,0
2020-03-22T00:40:00-05:00,86.93,9.97,736.97,-2.7,0.59,70.76,0
2020-03-22T00:41:00-05:00,86.73,9.96,736.74,-5.49,0.33,75.64,0
2020-03-22T00:42:00-05:00,86.96,9.96,735.83,-3.73,0.28,128.67,0
2020-03-22T00:43:00-05:00,86.74,9.97,735.6,-4.02,0.45,141.25,0
2020-03-22T00:44:00-05:00,86.6,9.95,736.3,-2.99,0.58,95.53,0
2020-03-22T00:45:00-05:00,86.54,9.97,736.4,-3.29,0.45,80.19,0
2020-03-22T00:46:00-05:00,86.48,9.96,735.93,-5.05,0.58,72.89,0
2020-03-22T00:47:00-05:00,86.26,9.95,736.54,-4.91,0.6,76.2,0
2020-03-22T00:48:00-05:00,86.4,9.95,736.07,-3.14,0.75,73.74,0
2020-03-22T00:49:00-05:00,86.07,9.97,736.03,-4.76,0.57,40.81,0
2020-03-22T00:50:00-05:00,85.99,9.99,735.6,-4.46,0.57,84.4,0
2020-03-22T00:51:00-05:00,86.14,9.97,735.13,-2.7,0.64,53.06,0
2020-03-22T00:52:00-05:00,86.86,9.94,735.9,-4.46,0.6,57.02,0
2020-03-22T00:53:00-05:00,86.94,9.9,735.1,-5.2,0.66,77.81,0
2020-03-22T00:54:00-05:00,86.7,9.9,735.77,-2.99,0.23,105.42,0
2020-03-22T00:55:00-05:00,86.56,9.89,735.73,-2.99,0.36,39.2,0
2020-03-22T00:56:00-05:00,86.86,9.88,735.33,-4.61,0.72,43.19,0
2020-03-22T00:57:00-05:00,86.98,9.86,735.8,-4.76,0.79,40.49,0
2020-03-22T00:58:00-05:00,87.18,9.81,735.67,-2.85,0.59,52.05,0
2020-03-22T00:59:00-05:00,87.29,9.79,735.43,-2.85,0.72,82.22,0
2020-03-22T01:00:00-05:00,87.26,9.77,734.63,-3.44,0.61,89.46,0
2020-03-22T01:01:00-05:00,86.64,9.76,735.7,-4.61,0.54,82.05,0
2020-03-22T01:02:00-05:00,87,9.76,735.23,-5.49,0.69,56.28,0
2020-03-22T01:03:00-05:00,87.34,9.72,735.33,-2.99,0.63,73.5,0
2020-03-22T01:04:00-05:00,87.26,9.69,735.43,-2.99,0.81,76.32,0
2020-03-22T01:05:00-05:00,87.26,9.69,735.23,-4.91,0.8,73.46,0
2020-03-22T01:06:00-05:00,86.84,9.71,735.13,-4.91,0.71,85.1,0
2020-03-22T01:07:00-05:00,86.57,9.7,735.06,-4.91,0.6,94.55,0
2020-03-22T01:08:00-05:00,86.4,9.71,734.53,-4.61,0.53,95.67,0
2020-03-22T01:09:00-05:00,86.18,9.71,734.49,-3.88,0.58,115.96,0
2020-03-22T01:10:00-05:00,86.08,9.72,735.43,-5.05,0.69,75.66,0
2020-03-22T01:11:00-05:00,86.2,9.71,734.79,-4.91,0.86,97.45,0
2020-03-22T01:12:00-05:00,86.18,9.75,735,-4.32,0.74,110.46,0
2020-03-22T01:13:00-05:00,85.91,9.77,735,-4.76,0.6,124.2,0
2020-03-22T01:14:00-05:00,85.91,9.79,735.2,-2.41,0.61,114.52,0
2020-03-22T01:15:00-05:00,85.89,9.78,735.2,-3.73,0.61,77.71,0
2020-03-22T01:16:00-05:00,86.03,9.8,735.56,-2.85,0.79,95.1,0
2020-03-22T01:17:00-05:00,86.07,9.79,735.23,-3.88,0.62,64.48,0
2020-03-22T01:18:00-05:00,86.27,9.79,735.87,-4.32,0.66,73.56,0
2020-03-22T01:19:00-05:00,86.31,9.77,735.63,-2.85,0.61,73.26,0
2020-03-22T01:20:00-05:00,86.38,9.77,735.03,-2.85,0.68,96.54,0
2020-03-22T01:21:00-05:00,86.32,9.78,735.5,-4.02,0.63,76.49,0
2020-03-22T01:22:00-05:00,86.36,9.77,734.96,-4.61,0.68,39.86,0
2020-03-22T01:23:00-05:00,86.57,9.71,734.73,-3.44,1.06,49.71,0
2020-03-22T01:24:00-05:00,86.33,9.69,735.5,-5.05,0.81,47.94,0
2020-03-22T01:25:00-05:00,86.81,9.65,735.46,-5.49,0.77,61.73,0
2020-03-22T01:26:00-05:00,87,9.65,735.73,-4.46,0.74,44.7,0
2020-03-22T01:27:00-05:00,87.42,9.63,734.49,-4.91,0.66,66.65,0
2020-03-22T01:28:00-05:00,87.2,9.63,735.1,-4.76,0.58,40.07,0
2020-03-22T01:29:00-05:00,87.45,9.63,734.73,-3.29,0.7,54,0
2020-03-22T01:30:00-05:00,87.5,9.63,734.96,-2.85,0.6,54.98,0
2020-03-22T01:31:00-05:00,87.7,9.59,734.93,-3.29,0.62,49.86,0
2020-03-22T01:32:00-05:00,87.69,9.57,734.53,-5.05,0.59,66.53,0
2020-03-22T01:33:00-05:00,87.69,9.55,734.59,-5.64,0.59,48.85,0
2020-03-22T01:34:00-05:00,88.01,9.52,733.76,-3.58,0.59,44.47,0
2020-03-22T01:35:00-05:00,88.19,9.47,733.62,-4.17,0.69,56.18,0
2020-03-22T01:36:00-05:00,88.33,9.43,734.09,-5.64,0.58,50.98,0
2020-03-22T01:37:00-05:00,88.45,9.38,733.82,-5.05,0.68,34.59,0
2020-03-22T01:38:00-05:00,88.88,9.35,734.49,-5.05,0.69,37.39,0
2020-03-22T01:39:00-05:00,89.03,9.31,733.76,-4.76,0.79,38.05,0
2020-03-22T01:40:00-05:00,89.21,9.27,733.76,-2.85,0.62,49.91,0
2020-03-22T01:41:00-05:00,89.56,9.23,734.06,-5.79,0.74,47.75,0
2020-03-22T01:42:00-05:00,89.5,9.22,733.69,-4.61,0.31,114.21,0
2020-03-22T01:43:00-05:00,89.75,9.19,734.09,-3.58,0.45,91.13,0
2020-03-22T01:44:00-05:00,89.68,9.19,733.92,-2.85,0.87,96.86,0
2020-03-22T01:45:00-05:00,89.42,9.21,734.23,-3.29,0.74,70.58,0
2020-03-22T01:46:00-05:00,89.33,9.24,734.59,-3.88,0.66,102.84,0
2020-03-22T01:47:00-05:00,89.24,9.25,733.89,-2.55,0.68,111.26,0
2020-03-22T01:48:00-05:00,89.34,9.27,733.62,-4.61,0.57,65.54,0
2020-03-22T01:49:00-05:00,89.41,9.29,734.29,-4.91,0.55,93.67,0
2020-03-22T01:50:00-05:00,89.42,9.28,733.82,-5.05,0.5,45.52,0
2020-03-22T01:51:00-05:00,89.37,9.27,734.26,-2.26,0.57,45.91,0
2020-03-22T01:52:00-05:00,89.4,9.25,733.99,-4.76,0.42,46.39,0
2020-03-22T01:53:00-05:00,89.28,9.23,733.76,-4.32,0.71,30.19,0
2020-03-22T01:54:00-05:00,89.35,9.18,733.19,-4.46,0.84,31.91,0
2020-03-22T01:55:00-05:00,89.5,9.16,733.46,-3.88,0.72,39.05,0
2020-03-22T01:56:00-05:00,89.96,9.13,733.69,-4.02,0.59,54.46,0
2020-03-22T01:57:00-05:00,90.15,9.14,733.96,-2.99,0.65,36,0
2020-03-22T01:58:00-05:00,90.51,9.13,734.13,-3.14,0.95,45.33,0
2020-03-22T01:59:00-05:00,90.87,9.14,733.12,-4.02,0.9,46.39,0
2020-03-22T02:00:00-05:00,90.69,9.14,733.02,-2.26,0.84,53.61,0
2020-03-22T02:01:00-05:00,90.9,9.16,733.46,-3.73,0.81,70.52,0
2020-03-22T02:02:00-05:00,90.95,9.17,734.46,-4.46,0.58,64.34,0
2020-03-22T02:03:00-05:00,90.91,9.17,733.12,-2.99,0.67,61.08,0
2020-03-22T02:04:00-05:00,90.86,9.15,732.52,-3.29,0.62,81.68,0
2020-03-22T02:05:00-05:00,91.2,9.19,733.59,-3.44,0.61,62.07,0
2020-03-22T02:06:00-05:00,91.25,9.2,733.36,-2.26,0.62,96.86,0
2020-03-22T02:07:00-05:00,91.42,9.22,733.72,-4.32,0.61,51.64,0
2020-03-22T02:08:00-05:00,91.25,9.22,733.76,-2.7,0.59,55.77,0
2020-03-22T02:09:00-05:00,91.11,9.23,733.59,-4.17,0.41,133.24,0
2020-03-22T02:10:00-05:00,90.99,9.21,733.29,-2.55,0.28,86.96,0
2020-03-22T02:11:00-05:00,91.28,9.22,734.49,-3.88,0.54,146.59,0
2020-03-22T02:12:00-05:00,91.39,9.24,734.16,-2.41,0.58,90.62,0
2020-03-22T02:13:00-05:00,91.34,9.27,733.46,-3.44,0.72,119.55,0
2020-03-22T02:14:00-05:00,91.29,9.29,734.36,-4.76,0.6,42.07,0
2020-03-22T02:15:00-05:00,90.87,9.25,734.59,-4.61,0.79,36.01,0
2020-03-22T02:16:00-05:00,90.81,9.21,733.59,-3.29,0.6,41.01,0
2020-03-22T02:17:00-05:00,91.16,9.17,733.46,-4.76,0.6,88.46,0
2020-03-22T02:18:00-05:00,91.41,9.17,733.59,-4.17,0.59,103.27,0
2020-03-22T02:19:00-05:00,91.54,9.18,733.89,-2.26,0.68,113.45,0
2020-03-22T02:20:00-05:00,91.43,9.17,734.06,-3.73,0.64,85.54,0
2020-03-22T02:21:00-05:00,91.52,9.19,734.13,-3.88,0.58,58.1,0
2020-03-22T02:22:00-05:00,91.41,9.17,733.25,-1.82,0.64,54.46,0
2020-03-22T02:23:00-05:00,91.46,9.17,734.29,-3.58,0.58,99.44,0
2020-03-22T02:24:00-05:00,91.56,9.16,734.29,-2.85,0.21,82.33,0
2020-03-22T02:25:00-05:00,91.56,9.16,733.82,-2.85,0.64,109.48,0
2020-03-22T02:26:00-05:00,91.6,9.17,734.06,-4.32,0.41,70.57,0
2020-03-22T02:27:00-05:00,91.65,9.15,733.49,-2.26,0.69,53.83,0
2020-03-22T02:28:00-05:00,91.45,9.14,734.36,-1.67,0.76,32.71,0
2020-03-22T02:29:00-05:00,91.27,9.13,734.46,-4.02,0.66,45.06,0
2020-03-22T02:30:00-05:00,91.03,9.1,733.19,-4.32,0.67,46.81,0
2020-03-22T02:31:00-05:00,91.14,9.08,733.29,-2.85,0.62,62.04,0
2020-03-22T02:32:00-05:00,91.38,9.08,733.62,-1.82,0.55,53.39,0
2020-03-22T02:33:00-05:00,91.58,9.08,734.26,-2.85,0.55,51.57,0
2020-03-22T02:34:00-05:00,91.88,9.08,733.36,-1.82,0.36,45.79,0
2020-03-22T02:35:00-05:00,92,9.09,733.22,-1.23,0.29,75.02,0
2020-03-22T02:36:00-05:00,91.96,9.1,734.36,-3.44,0.61,86.26,0
2020-03-22T02:37:00-05:00,92.1,9.11,734.39,-1.97,0.8,86.09,0
2020-03-22T02:38:00-05:00,92.04,9.12,734.13,-2.41,0.53,60.56,0
2020-03-22T02:39:00-05:00,92.16,9.13,733.86,-2.99,0.45,65.37,0
2020-03-22T02:40:00-05:00,92.2,9.13,732.92,-1.23,0.52,44.44,0
2020-03-22T02:41:00-05:00,92.22,9.1,734.49,-2.55,0.81,33.54,0
2020-03-22T02:42:00-05:00,91.69,9.07,734.06,-4.46,1.12,38.04,0
2020-03-22T02:43:00-05:00,91.55,9.04,733.19,-2.7,0.94,32.33,0
2020-03-22T02:44:00-05:00,91.67,9.03,733.46,-3.73,0.68,54.2,0
2020-03-22T02:45:00-05:00,91.59,9.02,734.16,-3.73,0.59,26.22,0
2020-03-22T02:46:00-05:00,91.52,8.99,733.19,-4.32,0.52,10.04,0
2020-03-22T02:47:00-05:00,91.28,8.99,732.99,-4.32,0.55,38.34,0
2020-03-22T02:48:00-05:00,91.1,8.93,733.92,-5.49,0.57,32.98,0
2020-03-22T02:49:00-05:00,91.14,8.91,733.36,-5.35,0.76,20.63,0
2020-03-22T02:50:00-05:00,91,8.87,733.15,-4.76,0.13,133.22,0
2020-03-22T02:51:00-05:00,90.96,8.86,732.89,-4.76,0.81,54.77,0
2020-03-22T02:52:00-05:00,91.35,8.87,733.19,-4.17,0.71,52.9,0
2020-03-22T02:53:00-05:00,91.54,8.86,734.33,-4.17,0.74,59.43,0
2020-03-22T02:54:00-05:00,92.22,8.88,733.56,-5.05,0.6,83.47,0
2020-03-22T02:55:00-05:00,92.47,8.93,733.52,-4.17,0.74,115.4,0
2020-03-22T02:56:00-05:00,92.6,8.97,732.99,-2.55,0.52,89.89,0
2020-03-22T02:57:00-05:00,92.48,8.97,733.56,-5.05,0.54,84.77,0
2020-03-22T02:58:00-05:00,92.43,8.95,733.12,-4.76,0.53,52.57,0
2020-03-22T02:59:00-05:00,92.1,8.93,732.72,-2.41,0.61,44.56,0
2020-03-22T03:00:00-05:00,92.04,8.9,733.02,-2.85,0.57,64.68,0
2020-03-22T03:01:00-05:00,92.01,8.87,732.79,-4.17,0.39,60.19,0
2020-03-22T03:02:00-05:00,92.22,8.87,733.59,-3.44,0.25,104.1,0
2020-03-22T03:03:00-05:00,92.32,8.85,732.85,-3.73,0.27,103.3,0
2020-03-22T03:04:00-05:00,92.46,8.84,733.72,-5.49,0.41,137.16,0
2020-03-22T03:05:00-05:00,92.56,8.85,733.56,-4.61,0.35,156.21,0
2020-03-22T03:06:00-05:00,92.71,8.82,733.76,-3.73,0.61,129.67,0
2020-03-22T03:07:00-05:00,92.76,8.82,733.66,-5.05,0.64,136.2,0
2020-03-22T03:08:00-05:00,92.59,8.81,733.42,-4.02,0.57,137.44,0
2020-03-22T03:09:00-05:00,92.58,8.79,732.69,-4.46,0.48,87.26,0
2020-03-22T03:10:00-05:00,92.68,8.78,732.79,-2.85,0.54,113.17,0
2020-03-22T03:11:00-05:00,92.58,8.76,732.45,-2.85,0.64,103.34,0
2020-03-22T03:12:00-05:00,92.66,8.75,732.59,-1.82,0.59,116.78,0
2020-03-22T03:13:00-05:00,92.75,8.76,733.46,-2.41,0.59,102.89,0
2020-03-22T03:14:00-05:00,92.71,8.76,733.32,-2.7,0.64,88.56,0
2020-03-22T03:15:00-05:00,92.72,8.76,732.89,-3.29,0.57,98.82,0
2020-03-22T03:16:00-05:00,92.63,8.77,733.22,-4.76,0.55,79.02,0
2020-03-22T03:17:00-05:00,92.4,8.76,732.62,-4.17,0.59,106.86,0
2020-03-22T03:18:00-05:00,92.4,8.78,732.55,-3.29,0.43,81.04,0
2020-03-22T03:19:00-05:00,92.5,8.76,733.19,-4.46,0.62,124.06,0
2020-03-22T03:20:00-05:00,92.36,8.78,732.52,-2.41,0.62,130.27,0
2020-03-22T03:21:00-05:00,92.26,8.76,733.62,-5.05,0.33,135.56,0
2020-03-22T03:22:00-05:00,92.34,8.76,732.48,-3.58,0.58,144.17,0
2020-03-22T03:23:00-05:00,92.38,8.76,733.46,-4.17,0.58,124.13,0
2020-03-22T03:24:00-05:00,92.33,8.76,732.75,-3.29,0.67,133.48,0
2020-03-22T03:25:00-05:00,92.27,8.73,732.92,-4.46,0.37,75.87,0
2020-03-22T03:26:00-05:00,92.29,8.75,732.59,-4.32,0.53,53.47,0
2020-03-22T03:27:00-05:00,92.25,8.74,733.66,-1.97,0.68,54.09,0
2020-03-22T03:28:00-05:00,92.44,8.74,732.42,-3.73,0.63,41.84,0
2020-03-22T03:29:00-05:00,92.36,8.72,732.35,-3.44,0.41,44.08,0
2020-03-22T03:30:00-05:00,92.46,8.72,732.52,-4.17,0.5,82.25,0
2020-03-22T03:31:00-05:00,92.62,8.71,733.39,-2.41,0.66,98.05,0
2020-03-22T03:32:00-05:00,92.74,8.73,732.55,-2.99,0.68,95.93,0
2020-03-22T03:33:00-05:00,92.83,8.71,733.12,-2.7,0.62,108.08,0
2020-03-22T03:34:00-05:00,92.76,8.72,733.59,-3.88,0.62,87.51,0
2020-03-22T03:35:00-05:00,92.76,8.7,732.32,-2.85,0.62,102.53,0
2020-03-22T03:36:00-05:00,92.6,8.7,732.95,-1.82,0.53,108.81,0
2020-03-22T03:37:00-05:00,92.43,8.71,733.62,-4.32,0.55,106.78,0
2020-03-22T03:38:00-05:00,92.43,8.7,732.99,-3.58,0.58,85.58,0
2020-03-22T03:39:00-05:00,92.58,8.71,733.29,-3.58,0.52,133.2,0
2020-03-22T03:40:00-05:00,92.54,8.7,733.52,-1.82,0.62,114.51,0
2020-03-22T03:41:00-05:00,92.44,8.7,732.69,-2.7,0.59,72.79,0
2020-03-22T03:42:00-05:00,92.37,8.68,733.86,-3.14,0.5,67.53,0
2020-03-22T03:43:00-05:00,92.36,8.67,732.72,-2.99,0.41,113.07,0
2020-03-22T03:44:00-05:00,92.46,8.66,733.69,-4.17,0.47,140.6,0
2020-03-22T03:45:00-05:00,92.44,8.66,732.25,-4.46,0.22,111.14,0
2020-03-22T03:46:00-05:00,92.25,8.64,733.19,-3.73,0.34,119.62,0
2020-03-22T03:47:00-05:00,92.28,8.65,732.72,-3.58,0.24,149.2,0
2020-03-22T03:48:00-05:00,92.23,8.64,732.45,-4.76,0.6,151.5,0
2020-03-22T03:49:00-05:00,92.43,8.62,732.85,-4.32,0.38,106.46,0
2020-03-22T03:50:00-05:00,92.22,8.61,732.82,-4.91,0.28,113.53,0
2020-03-22T03:51:00-05:00,92.34,8.61,733.22,-4.91,0.54,148.2,0
2020-03-22T03:52:00-05:00,92.75,8.62,732.59,-4.46,0.72,157.51,0
2020-03-22T03:53:00-05:00,93.22,8.64,733.72,-4.61,0.6,148.22,0
2020-03-22T03:54:00-05:00,93.24,8.67,732.59,-4.76,0.63,145.29,0
2020-03-22T03:55:00-05:00,93.43,8.66,734.06,-2.26,0.53,129.3,0
2020-03-22T03:56:00-05:00,93.09,8.64,733.25,-2.99,0.25,136.11,0
2020-03-22T03:57:00-05:00,93.09,8.62,732.32,-4.17,0.18,117.62,0
2020-03-22T03:58:00-05:00,92.83,8.62,732.18,-3.73,0.59,157.21,0
2020-03-22T03:59:00-05:00,93.01,8.6,733.39,-3.73,0.64,140.51,0
2020-03-22T04:00:00-05:00,93.27,8.6,732.62,-3.29,0.71,146.29,0
2020-03-22T04:01:00-05:00,93.19,8.6,733.46,-3.88,0.86,147.24,0
2020-03-22T04:02:00-05:00,93.03,8.61,732.72,-2.26,0.58,139.28,0
2020-03-22T04:03:00-05:00,93.1,8.62,733.42,-2.26,0.55,129.73,0
2020-03-22T04:04:00-05:00,93.09,8.62,732.45,-3.73,0.57,114,0
2020-03-22T04:05:00-05:00,92.9,8.6,732.32,-2.26,0.47,160.44,0
2020-03-22T04:06:00-05:00,93.05,8.6,733.39,-1.97,0.19,129.06,0
2020-03-22T04:07:00-05:00,92.99,8.6,732.65,-2.7,0.6,145.62,0
2020-03-22T04:08:00-05:00,93.04,8.61,732.42,-4.46,0.6,142.19,0
2020-03-22T04:09:00-05:00,93.26,8.62,732.79,-3.88,0.57,150.52,0
2020-03-22T04:10:00-05:00,93.47,8.64,732.48,-2.99,0.61,154.23,0
2020-03-22T04:11:00-05:00,93.71,8.66,732.62,-4.02,0.69,148.59,0
2020-03-22T04:12:00-05:00,93.89,8.69,733.02,-4.32,0.54,150.16,0
2020-03-22T04:13:00-05:00,93.55,8.66,732.82,-2.26,0.55,165.17,0
2020-03-22T04:14:00-05:00,93.69,8.67,733.62,-4.17,0.66,152.17,0
2020-03-22T04:15:00-05:00,93.95,8.67,732.69,-3.44,0.57,144.2,0
2020-03-22T04:16:00-05:00,94,8.68,733.59,-3.58,0.24,135.95,0
2020-03-22T04:17:00-05:00,93.99,8.66,732.02,-1.82,0.62,139.26,0
2020-03-22T04:18:00-05:00,93.96,8.67,732.89,-3.58,0.53,141.55,0
2020-03-22T04:19:00-05:00,93.87,8.66,732.62,-1.67,0.56,93.81,0
2020-03-22T04:20:00-05:00,93.83,8.66,732.79,-2.99,0.41,129.31,0
2020-03-22T04:21:00-05:00,94.04,8.65,733.56,-3.44,0.49,141.23,0
2020-03-22T04:22:00-05:00,94.09,8.67,733.49,-1.97,0.57,130.53,0
2020-03-22T04:23:00-05:00,93.93,8.68,734.23,-3.44,0.52,133.23,0
2020-03-22T04:24:00-05:00,93.85,8.68,732.48,-2.55,0.55,91.64,0
2020-03-22T04:25:00-05:00,93.85,8.67,733.46,-3.73,0.55,110.16,0
2020-03-22T04:26:00-05:00,93.87,8.7,732.69,-3.88,0.55,114.51,0
2020-03-22T04:27:00-05:00,93.77,8.72,734.29,-4.32,0.59,122.22,0
2020-03-22T04:28:00-05:00,93.37,8.73,733.66,-4.46,0.6,109.3,0
2020-03-22T04:29:00-05:00,93.42,8.74,733.05,-2.11,0.57,107.8,0
2020-03-22T04:30:00-05:00,93.38,8.78,732.85,-3.14,0.66,100.94,0
2020-03-22T04:31:00-05:00,93.25,8.78,733.12,-2.85,0.63,119.29,0
2020-03-22T04:32:00-05:00,93.33,8.79,733.89,-3.58,0.6,130.23,0
2020-03-22T04:33:00-05:00,93.35,8.83,732.89,-2.7,0.5,122.25,0
2020-03-22T04:34:00-05:00,93.21,8.82,733.66,-3.29,0.59,110.02,0
2020-03-22T04:35:00-05:00,92.93,8.82,733.82,-4.32,0.63,133.2,0
2020-03-22T04:36:00-05:00,92.95,8.79,733.05,-4.46,0.59,155.21,0
2020-03-22T04:37:00-05:00,92.87,8.79,732.75,-3.88,0.71,156.22,0
2020-03-22T04:38:00-05:00,93.01,8.78,732.92,-5.05,0.3,167.12,0
2020-03-22T04:39:00-05:00,92.86,8.77,733.86,-4.02,0.62,159.17,0
2020-03-22T04:40:00-05:00,93.25,8.75,732.99,-4.91,0.59,150.19,0
2020-03-22T04:41:00-05:00,93.31,8.76,733.89,-2.85,0.69,155.48,0
2020-03-22T04:42:00-05:00,93.56,8.75,733.99,-1.82,0.7,160.17,0
2020-03-22T04:43:00-05:00,93.38,8.74,733.96,-1.52,0.73,149.54,0
2020-03-22T04:44:00-05:00,93.15,8.72,733.42,-2.55,0.6,151.16,0
2020-03-22T04:45:00-05:00,93.14,8.7,733.89,-3.73,0.82,163.49,0
2020-03-22T04:46:00-05:00,93.06,8.66,732.65,-4.46,0.58,153.16,0
2020-03-22T04:47:00-05:00,92.85,8.63,733.66,-4.02,0.61,159.49,0
2020-03-22T04:48:00-05:00,92.91,8.6,733.19,-2.7,0.7,154.25,0
2020-03-22T04:49:00-05:00,92.63,8.59,733.32,-3.58,0.59,154.59,0
2020-03-22T04:50:00-05:00,92.58,8.57,733.76,-5.49,0.51,120.14,0
2020-03-22T04:51:00-05:00,92.29,8.54,732.25,-3.29,0.52,137.9,0
2020-03-22T04:52:00-05:00,92.56,8.53,732.22,-3.44,0.38,150.45,0
2020-03-22T04:53:00-05:00,92.76,8.53,732.65,-3.73,0.18,109.89,0
2020-03-22T04:54:00-05:00,92.55,8.51,732.15,-5.35,0.33,114.47,0
2020-03-22T04:55:00-05:00,92.86,8.52,732.52,-2.85,0.61,141.25,0
2020-03-22T04:56:00-05:00,92.99,8.55,731.88,-5.2,0.34,128.78,0
2020-03-22T04:57:00-05:00,93.24,8.56,732.92,-2.85,0.63,115.21,0
2020-03-22T04:58:00-05:00,93.45,8.6,732.02,-4.17,0.6,114.64,0
2020-03-22T04:59:00-05:00,93.61,8.63,732.95,-4.32,0.35,73.68,0
2020-03-22T05:00:00-05:00,93.39,8.63,732.32,-3.44,0.53,44.37,0
2020-03-22T05:01:00-05:00,93.43,8.61,731.72,-4.32,0.48,97.22,0
2020-03-22T05:02:00-05:00,93.22,8.61,732.18,-3.29,0.61,82.97,0
2020-03-22T05:03:00-05:00,93.2,8.6,732.22,-4.91,0.54,104.84,0
2020-03-22T05:04:00-05:00,93.07,8.6,732.89,-4.91,0.62,146.59,0
2020-03-22T05:05:00-05:00,92.59,8.62,731.88,-3.14,0.66,44.44,0
2020-03-22T05:06:00-05:00,91.96,8.6,732.05,-4.76,0.67,43.49,0
2020-03-22T05:07:00-05:00,91.78,8.58,731.92,-3.44,0.59,56.7,0
2020-03-22T05:08:00-05:00,91.92,8.6,732.35,-5.49,0.61,52.12,0
2020-03-22T05:09:00-05:00,91.72,8.59,732.42,-5.05,0.84,43.77,0
2020-03-22T05:10:00-05:00,91.74,8.59,732.38,-2.99,0.61,124.31,0
2020-03-22T05:11:00-05:00,91.52,8.6,731.72,-5.64,2.55,77.03,0
2020-03-22T05:12:00-05:00,91.98,8.62,737,-5.05,0.27,67.45,0
2020-03-22T05:13:00-05:00,91.64,8.63,736.03,-4.17,0.81,30.6,0
2020-03-22T05:14:00-05:00,91.42,8.6,736.13,-3.44,0.13,12.39,0
2020-03-22T05:15:00-05:00,91.28,8.59,737.17,-4.17,1.19,35.29,0
2020-03-22T05:16:00-05:00,90.99,8.56,737.34,-4.17,0.74,55.92,0
2020-03-22T05:17:00-05:00,90.83,8.56,737.2,-5.35,0.26,141.85,0
2020-03-22T05:18:00-05:00,90.7,8.53,737.54,-5.49,0.29,61.66,0
2020-03-22T05:19:00-05:00,90.95,8.52,737.41,-4.46,1.41,52.81,0
2020-03-22T05:20:00-05:00,91.16,8.52,736.97,-4.61,0.5,86.54,0
2020-03-22T05:21:00-05:00,91.33,8.52,736.33,-3.58,0.62,75.48,0
2020-03-22T05:22:00-05:00,91.71,8.52,736.77,-2.41,0.25,123.7,0
2020-03-22T05:23:00-05:00,91.47,8.5,736.2,-4.76,0.62,61.66,0
2020-03-22T05:24:00-05:00,91.99,8.5,737.41,-2.55,0.62,27.53,0
2020-03-22T05:25:00-05:00,92.33,8.5,736.3,-4.02,0.61,43.63,0
2020-03-22T05:26:00-05:00,92.05,8.52,736.97,-3.29,0.32,31.63,0
2020-03-22T05:27:00-05:00,92.14,8.5,736.27,-2.41,0.6,26.09,0
2020-03-22T05:28:00-05:00,92.16,8.47,737.67,-4.61,0.68,21.71,0
2020-03-22T05:29:00-05:00,92.3,8.49,736.87,-3.58,0.5,19.72,0
2020-03-22T05:30:00-05:00,92.24,8.5,737.1,-4.02,0.16,158.17,0
2020-03-22T05:31:00-05:00,92.08,8.48,736.94,-3.44,0.62,95.7,0
2020-03-22T05:32:00-05:00,91.91,8.47,736.33,-4.02,1.05,24.85,0
2020-03-22T05:33:00-05:00,91.86,8.46,737.2,-3.44,0.23,132.08,0
2020-03-22T05:34:00-05:00,91.78,8.46,737.51,-3.58,0.7,49.73,0
2020-03-22T05:35:00-05:00,91.58,8.49,737.57,-3.73,0.77,68.42,0
2020-03-22T05:36:00-05:00,91.58,8.5,736.33,-2.41,0.56,17.64,0
2020-03-22T05:37:00-05:00,91.61,8.52,737.04,-4.02,0.7,52.41,0
2020-03-22T05:38:00-05:00,91.48,8.51,736.43,-2.11,0.29,86.78,0
2020-03-22T05:39:00-05:00,91.55,8.53,736.7,-4.02,0.54,75.97,0
2020-03-22T05:40:00-05:00,91.54,8.54,736.67,-4.17,0.79,57.31,0
2020-03-22T05:41:00-05:00,91.85,8.55,737.51,-2.7,0.59,28.34,0
2020-03-22T05:42:00-05:00,92.03,8.57,737.34,-3.14,0.57,55.42,0
2020-03-22T05:43:00-05:00,91.93,8.56,737.71,-1.52,0.86,34.43,0
2020-03-22T05:44:00-05:00,91.94,8.56,736.67,-1.38,0.61,24.27,0
2020-03-22T05:45:00-05:00,92.01,8.54,737.34,-3.14,0.56,79.37,0
2020-03-22T05:46:00-05:00,92,8.55,737.07,-3.44,0.24,162.44,0
2020-03-22T05:47:00-05:00,92.01,8.54,737.34,-0.35,0.06,45.27,0
2020-03-22T05:48:00-05:00,91.92,8.52,736.47,-4.17,0.62,78.31,0
2020-03-22T05:49:00-05:00,92.14,8.5,737.04,-3.88,0.93,44.72,0
2020-03-22T05:50:00-05:00,92.12,8.53,737.51,-2.85,0.63,62.26,0
2020-03-22T05:51:00-05:00,92.02,8.52,736.94,-1.23,1.03,64.22,0
2020-03-22T05:52:00-05:00,91.99,8.54,736.77,-2.55,0.63,89.65,0
2020-03-22T05:53:00-05:00,91.71,8.54,736.77,-0.49,0.52,101.21,0
2020-03-22T05:54:00-05:00,91.49,8.54,736.43,-2.55,0.34,83.24,0
2020-03-22T05:55:00-05:00,91.44,8.53,737.44,-1.97,0.39,329.55,0
2020-03-22T05:56:00-05:00,91.41,8.54,737.27,-0.49,0.74,20.83,0
2020-03-22T05:57:00-05:00,91.45,8.54,737.14,-0.49,0.43,95.69,0
2020-03-22T05:58:00-05:00,91.36,8.52,736.84,-2.55,0.16,33.26,0
2020-03-22T05:59:00-05:00,91.24,8.51,736.7,-1.82,0.24,150.51,0
2020-03-22T06:00:00-05:00,91.19,8.5,737.04,-0.79,0.41,154.54,0
2020-03-22T06:01:00-05:00,91.46,8.48,735.93,3.18,0.61,68.27,0
2020-03-22T06:02:00-05:00,91.67,8.48,737.2,4.94,0.58,170.09,0
2020-03-22T06:03:00-05:00,91.61,8.48,736.3,3.77,0.68,139.59,0
2020-03-22T06:04:00-05:00,91.73,8.51,737.27,6.42,0.66,148.19,0
2020-03-22T06:05:00-05:00,91.9,8.5,737.61,7.44,0.6,127.48,0
2020-03-22T06:06:00-05:00,91.85,8.52,736.4,8.91,0.43,81.09,0
2020-03-22T06:07:00-05:00,91.7,8.5,737.24,7.74,0.59,97.59,0
2020-03-22T06:08:00-05:00,91.59,8.48,737,9.8,0.57,110.7,0
2020-03-22T06:09:00-05:00,91.58,8.46,736.1,10.83,0.57,71.25,0
2020-03-22T06:10:00-05:00,91.46,8.45,736.27,9.06,0.67,131.25,0
2020-03-22T06:11:00-05:00,91.54,8.42,736.4,10.83,0.85,144.2,0
2020-03-22T06:12:00-05:00,91.66,8.43,736.13,10.09,0.76,134.16,0
2020-03-22T06:13:00-05:00,92.18,8.42,736.13,10.53,0.44,129.17,0
2020-03-22T06:14:00-05:00,92.32,8.44,737.17,10.53,0.59,138.29,0
2020-03-22T06:15:00-05:00,92.23,8.43,736.23,11.56,0.93,55.81,0
2020-03-22T06:16:00-05:00,92.18,8.44,737.24,12.15,0.68,73.41,0
2020-03-22T06:17:00-05:00,92.06,8.44,736.7,12.74,0.62,74.44,0
2020-03-22T06:18:00-05:00,92.3,8.46,736.54,15.97,0.49,50.97,0
2020-03-22T06:19:00-05:00,92.06,8.48,737.34,15.24,0.61,163.17,0
2020-03-22T06:20:00-05:00,91.98,8.49,735.63,15.24,0.57,85.73,0
2020-03-22T06:21:00-05:00,91.67,8.48,737.07,16.85,0.61,132.58,0
2020-03-22T06:22:00-05:00,91.9,8.48,736.33,19.21,0.25,144.04,0
2020-03-22T06:23:00-05:00,91.72,8.49,736.47,20.53,0.57,24.71,0
2020-03-22T06:24:00-05:00,91.75,8.47,736.1,19.35,0.59,73.15,0
2020-03-22T06:25:00-05:00,91.67,8.46,736.4,22.59,1.08,76.63,0
2020-03-22T06:26:00-05:00,91.35,8.44,736.9,23.18,0.57,41.73,0
2020-03-22T06:27:00-05:00,91.14,8.43,737.31,22.59,0.57,37.96,0
2020-03-22T06:28:00-05:00,91.05,8.43,737.31,23.76,0.71,339.52,0
2020-03-22T06:29:00-05:00,90.99,8.46,736.9,23.62,0.42,90.34,0
2020-03-22T06:30:00-05:00,90.72,8.46,736.3,25.09,1.14,52.71,0
2020-03-22T06:31:00-05:00,90.71,8.45,736.77,24.79,0.87,37.24,0
2020-03-22T06:32:00-05:00,90.75,8.46,737.27,24.94,0.43,186,0
2020-03-22T06:33:00-05:00,90.75,8.46,737.47,22.88,1.2,90.03,0
2020-03-22T06:34:00-05:00,90.56,8.47,737.41,24.5,2.1,25.3,0
2020-03-22T06:35:00-05:00,90.53,8.5,736.43,27.44,0.6,160.48,0
2020-03-22T06:36:00-05:00,90.59,8.52,737.2,29.2,0.49,75.11,0
2020-03-22T06:37:00-05:00,90.49,8.54,736.23,29.5,0.62,176.44,0
2020-03-22T06:38:00-05:00,90.46,8.5,737.2,31.7,0.58,76.46,0
2020-03-22T06:39:00-05:00,90.52,8.48,737.1,32,0.21,47.04,0
2020-03-22T06:40:00-05:00,90.62,8.48,737.51,32.14,0.22,137.86,0
2020-03-22T06:41:00-05:00,90.65,8.5,737,33.32,0.54,158.52,0
2020-03-22T06:42:00-05:00,90.8,8.52,737.41,33.61,0.88,145.27,0
2020-03-22T06:43:00-05:00,90.81,8.49,737.61,35.38,0.25,322.81,0
2020-03-22T06:44:00-05:00,91.13,8.46,737.97,36.26,0.64,185.01,0
2020-03-22T06:45:00-05:00,91.5,8.49,737.91,35.38,0.85,189.04,0
2020-03-22T06:46:00-05:00,91.6,8.46,736.77,36.7,0.82,181.12,0
2020-03-22T06:47:00-05:00,92.1,8.44,737.14,34.35,0.23,124.78,0
2020-03-22T06:48:00-05:00,92.42,8.43,737.61,34.5,0.41,56.73,0
2020-03-22T06:49:00-05:00,92.47,8.43,737.67,31.85,0.57,130.24,0
2020-03-22T06:50:00-05:00,92.8,8.43,737.97,30.09,0.48,140.33,0
2020-03-22T06:51:00-05:00,93.01,8.45,736.9,29.06,0.56,139.27,0
2020-03-22T06:52:00-05:00,93.23,8.45,737.74,30.67,0.47,119.29,0
2020-03-22T06:53:00-05:00,93.27,8.44,736.8,30.97,0.44,123.54,0
2020-03-22T06:54:00-05:00,93.33,8.45,737.84,31.56,0.2,64.45,0
2020-03-22T06:55:00-05:00,93.29,8.46,736.54,37,0.3,145.26,0
2020-03-22T06:56:00-05:00,93.27,8.46,736.4,39.2,0.42,153.45,0
2020-03-22T06:57:00-05:00,93.12,8.46,736.84,42.88,0.48,150.2,0
2020-03-22T06:58:00-05:00,93.27,8.47,738.08,43.32,0.44,134.54,0
2020-03-22T06:59:00-05:00,93.17,8.46,736.94,46.7,0.55,115.8,0
2020-03-22T07:00:00-05:00,93.23,8.49,737.97,49.64,0.6,122.75,0
2020-03-22T07:01:00-05:00,93.2,8.48,737.71,93.45,0.55,63.07,0
2020-03-22T07:02:00-05:00,93.65,8.54,737.47,158.73,0.35,161.37,0
2020-03-22T07:03:00-05:00,93.54,8.62,737.51,166.08,0.26,136.19,0
2020-03-22T07:04:00-05:00,93.62,8.7,738.48,99.92,0.36,135.19,0
2020-03-22T07:05:00-05:00,92.75,8.8,739.01,60.96,0.46,138.98,0
2020-03-22T07:06:00-05:00,92.11,8.83,738.61,44.94,0.6,145.26,0
2020-03-22T07:07:00-05:00,91.5,8.88,739.01,47.29,0.42,102.22,0
2020-03-22T07:08:00-05:00,91.37,8.92,739.05,60.08,0.33,112.21,0
2020-03-22T07:09:00-05:00,91.01,8.96,738.85,76.1,0.6,161.12,0
2020-03-22T07:10:00-05:00,90.87,9.01,739.78,96.83,0.56,52.63,0
2020-03-22T07:11:00-05:00,90.5,9.05,739.65,115.36,0.24,134.23,0
2020-03-22T07:12:00-05:00,90.49,9.1,740.08,109.63,0.27,108.09,0
2020-03-22T07:13:00-05:00,90.19,9.15,739.08,129.33,0.58,140.62,0
2020-03-22T07:14:00-05:00,89.81,9.19,739.18,154.32,0.59,139.28,0
2020-03-22T07:15:00-05:00,89.54,9.26,739.78,180.64,0.51,141.57,0
2020-03-22T07:16:00-05:00,89.42,9.36,741.19,182.84,0.39,113.25,0
2020-03-22T07:17:00-05:00,88.98,9.46,740.62,182.7,0.52,125.52,0
2020-03-22T07:18:00-05:00,88.45,9.53,740.82,215.48,0.38,124.13,0
2020-03-22T07:19:00-05:00,88.23,9.63,741.62,224.16,0.09,101.53,0
2020-03-22T07:20:00-05:00,87.8,9.78,741.15,253.86,0.29,138.28,0
2020-03-22T07:21:00-05:00,87.17,9.94,737.71,268.41,0.63,81.7,0
2020-03-22T07:22:00-05:00,86.82,10.14,737.51,274.29,0.65,61.84,0
2020-03-22T07:23:00-05:00,85.81,10.34,737.57,287.52,0.28,129.3,0
2020-03-22T07:24:00-05:00,84.54,10.5,736.87,292.67,0.88,71.92,0
2020-03-22T07:25:00-05:00,84.12,10.62,736.94,290.32,0.74,66.48,0
2020-03-22T07:26:00-05:00,83.71,10.68,736.94,283.41,0.71,73.19,0
2020-03-22T07:27:00-05:00,83.4,10.76,736.94,276.35,0.85,88.04,0
2020-03-22T07:28:00-05:00,83.48,10.83,737.97,291.94,0.62,60.22,0
2020-03-22T07:29:00-05:00,83.27,10.9,738.28,299.87,0.56,46.29,0
2020-03-22T07:30:00-05:00,83.23,10.98,739.58,306.34,0.66,69.14,0
2020-03-22T07:31:00-05:00,82.69,11.02,736.64,315.9,0.42,68.45,0
2020-03-22T07:32:00-05:00,82.88,11.12,737.81,324.28,0.7,48.65,0
2020-03-22T07:33:00-05:00,82.86,11.23,736.8,331.63,0.57,48.25,0
2020-03-22T07:34:00-05:00,82.14,11.34,737.67,332.95,0.33,105.71,0
2020-03-22T07:35:00-05:00,82.03,11.48,736.77,315.02,0.56,73.67,0
2020-03-22T07:36:00-05:00,82.05,11.69,736.9,235.92,0.65,50.8,0
2020-03-22T07:37:00-05:00,80.28,11.81,737.84,246.21,0.53,58.64,0
2020-03-22T07:38:00-05:00,79.49,11.85,738.34,216.51,0.75,60.82,0
2020-03-22T07:39:00-05:00,79.35,11.79,738.34,142.56,0.62,70.52,0
2020-03-22T07:40:00-05:00,80.24,11.76,737.07,121.98,0.3,22.91,0
2020-03-22T07:41:00-05:00,79.56,11.69,737.17,186.22,0.86,39.7,0
2020-03-22T07:42:00-05:00,80.76,11.65,738.21,267.38,0.59,87.07,0
2020-03-22T07:43:00-05:00,80.81,11.62,738.68,268.56,0.84,47.37,0
2020-03-22T07:44:00-05:00,81.15,11.59,738.81,369.42,0.57,60.84,0
2020-03-22T07:45:00-05:00,81.39,11.64,738.14,389.85,0.88,55,0
2020-03-22T07:46:00-05:00,79.93,11.6,738.38,395.59,0.86,71.47,0
2020-03-22T07:47:00-05:00,80.3,11.58,738.91,397.2,1.02,53.39,0
2020-03-22T07:48:00-05:00,80.18,11.48,739.05,400.44,0.73,42.44,0
2020-03-22T07:49:00-05:00,81.1,11.52,737.77,406.61,0.57,72.48,0
2020-03-22T07:50:00-05:00,82.49,11.66,736.8,408.23,0.98,64.85,0
2020-03-22T07:51:00-05:00,80.46,11.67,737.64,416.61,0.8,60.53,0
2020-03-22T07:52:00-05:00,80.54,11.71,736.77,422.34,0.6,46.35,0
2020-03-22T07:53:00-05:00,80.58,11.81,737.84,428.81,0.93,44.72,0
2020-03-22T07:54:00-05:00,81.09,11.89,738.14,428.96,0.5,65.18,0
2020-03-22T07:55:00-05:00,80.58,12.05,737.14,434.69,1.45,37.58,0
2020-03-22T07:56:00-05:00,79.81,12.11,737.24,437.19,0.64,16.43,0
2020-03-22T07:57:00-05:00,79.3,12.15,737,439.69,1.73,50.14,0
2020-03-22T07:58:00-05:00,79.29,12.05,737.81,442.19,0.49,56.73,0
2020-03-22T07:59:00-05:00,79.93,11.99,737.44,449.54,1.29,63.9,0
2020-03-22T08:00:00-05:00,79.93,11.97,737.57,453.37,1.35,49.91,0
2020-03-22T08:01:00-05:00,80.27,11.96,738.64,452.93,1.12,56.48,0
2020-03-22T08:02:00-05:00,80.19,11.99,737.57,460.86,0.74,39.14,0
2020-03-22T08:03:00-05:00,80.85,12.13,738.64,465.57,0.92,32.55,0
2020-03-22T08:04:00-05:00,81.05,12.33,738.34,475.42,0.6,4.97,0
2020-03-22T08:05:00-05:00,79.8,12.57,740.12,488.95,0.4,331.52,0
2020-03-22T08:06:00-05:00,79.13,12.79,739.55,483.21,0.71,51.26,0
2020-03-22T08:07:00-05:00,77.94,12.98,740.72,487.33,1.07,40.58,0
2020-03-22T08:08:00-05:00,76.44,13.02,740.79,503.65,0.76,30.14,0
2020-03-22T08:09:00-05:00,76.74,13.2,741.96,509.97,0.79,23.23,0
2020-03-22T08:10:00-05:00,74.1,13.12,741.62,514.53,1.97,52.57,0
2020-03-22T08:11:00-05:00,74.83,12.84,741.19,446.75,1.64,55.47,0
2020-03-22T08:12:00-05:00,76.1,12.67,742.13,497.33,1.85,35.83,0
2020-03-22T08:13:00-05:00,76.68,12.57,742.49,313.84,1.09,14.97,0
2020-03-22T08:14:00-05:00,77.87,12.52,742.33,474.24,0.72,52.98,0
2020-03-22T08:15:00-05:00,78.32,12.57,742.06,506.74,0.66,337.77,0
2020-03-22T08:16:00-05:00,78.41,12.68,737.54,499.97,0.87,346.75,0
2020-03-22T08:17:00-05:00,77.62,12.69,737.87,135.35,0.79,48.65,0
2020-03-22T08:18:00-05:00,77.32,12.63,737.27,246.06,1.69,26.64,0
2020-03-22T08:19:00-05:00,78.42,12.55,736.9,272.23,0.71,38.2,0
2020-03-22T08:20:00-05:00,78.01,12.52,737.71,328.54,1.22,63.78,0
2020-03-22T08:21:00-05:00,78,12.47,738.08,523.06,0.76,27.39,0
2020-03-22T08:22:00-05:00,77.93,12.48,737.84,491.59,0.88,40.76,0
2020-03-22T08:23:00-05:00,77.33,12.45,737.1,173.87,1.32,76,0
2020-03-22T08:24:00-05:00,78.05,12.37,737.67,235.62,0.92,18.22,0
2020-03-22T08:25:00-05:00,78.58,12.39,737.04,373.83,0.61,82.04,0
2020-03-22T08:26:00-05:00,79.97,12.49,738.14,359.86,0.35,70.5,0
2020-03-22T08:27:00-05:00,79.87,12.61,737.14,316.49,0.38,245.08,0
2020-03-22T08:28:00-05:00,78.3,12.63,737.57,315.16,0.32,140.23,0
2020-03-22T08:29:00-05:00,79.55,12.7,738.24,405.58,0.26,35.36,0
2020-03-22T08:30:00-05:00,78.06,12.77,737.84,237.39,0.61,37.48,0
2020-03-22T08:31:00-05:00,78.11,12.77,737.04,197.25,0.36,168.12,0
2020-03-22T08:32:00-05:00,78.68,12.78,738.21,205.34,0.56,167.13,0
2020-03-22T08:33:00-05:00,78.74,12.81,737.61,455.57,0.17,163.2,0
2020-03-22T08:34:00-05:00,77.29,12.81,737.14,378.97,0.18,94.55,0
2020-03-22T08:35:00-05:00,77.98,12.85,737.2,281.64,0.32,195.91,0
2020-03-22T08:36:00-05:00,76.77,12.82,737.54,347.66,0.57,152.09,0
2020-03-22T08:37:00-05:00,76.93,12.77,737.81,412.64,0.56,177.06,0
2020-03-22T08:38:00-05:00,76.47,12.75,737.34,429.7,0.71,215.92,0
2020-03-22T08:39:00-05:00,77.73,12.7,737.07,559.81,1.4,66.54,0
2020-03-22T08:40:00-05:00,77.21,12.72,738.14,369.56,0.7,38.39,0
2020-03-22T08:41:00-05:00,76.59,12.67,738.08,377.8,0.91,47.45,0
2020-03-22T08:42:00-05:00,77.21,12.63,737.44,722.13,1.09,45.87,0
2020-03-22T08:43:00-05:00,77.94,12.67,738.31,638.32,1.22,44.38,0
2020-03-22T08:44:00-05:00,78.65,12.81,737.31,838.86,1.02,44.66,0
2020-03-22T08:45:00-05:00,78.02,13.06,737.91,835.77,0.66,337.53,0
2020-03-22T08:46:00-05:00,77.49,13.29,736.87,837.39,0.74,29.01,0
2020-03-22T08:47:00-05:00,76.29,13.56,737.81,664.79,0.57,338.5,0
2020-03-22T08:48:00-05:00,73.95,13.62,738.04,398.09,0.83,67.41,0
2020-03-22T08:49:00-05:00,74.47,13.58,736.74,439.11,0.87,51.38,0
2020-03-22T08:50:00-05:00,75.61,13.6,737.34,430.58,0.84,9.04,0
2020-03-22T08:51:00-05:00,73.71,13.68,737.27,525.85,0.35,62.93,0
2020-03-22T08:52:00-05:00,73.06,13.72,738.18,481.45,0.23,93.26,0
2020-03-22T08:53:00-05:00,72.7,13.8,736.67,539.23,0.77,159.12,0
2020-03-22T08:54:00-05:00,72.82,13.8,737.1,580.25,0.92,37.25,0
2020-03-22T08:55:00-05:00,73.5,13.8,738.85,474.83,0.39,123.18,0
2020-03-22T08:56:00-05:00,74.41,13.9,738.51,478.21,0.57,316.59,0
2020-03-22T08:57:00-05:00,74.13,13.96,737.84,422.93,0.24,282.7,0
2020-03-22T08:58:00-05:00,74.95,14.08,737.64,512.91,0.39,228.78,0
2020-03-22T08:59:00-05:00,72.72,14.14,737.87,449.69,0.58,287.98,0
2020-03-22T09:00:00-05:00,72.96,14.24,738.21,514.38,0.12,297.63,0
2020-03-22T09:01:00-05:00,72.76,14.33,739.05,630.09,0.68,200.32,0
2020-03-22T09:02:00-05:00,70.93,14.42,739.41,656.85,0.65,258.79,0
2020-03-22T09:03:00-05:00,72.6,14.46,739.25,888.56,0.82,323.86,0
2020-03-22T09:04:00-05:00,73.04,14.55,738.88,847.98,0.72,350.52,0
2020-03-22T09:05:00-05:00,70.76,14.67,739.55,849.01,0.98,301.04,0
2020-03-22T09:06:00-05:00,69.31,14.78,738.14,823.72,0.54,250.78,0
2020-03-22T09:07:00-05:00,71.81,14.94,737.84,848.71,0.27,287.89,0
2020-03-22T09:08:00-05:00,71.71,15.15,737.57,857.09,0.56,286.62,0
2020-03-22T09:09:00-05:00,68.9,15.26,738.01,873.12,0.71,186.95,0
2020-03-22T09:10:00-05:00,67.81,15.29,737.24,840.33,0.48,239.81,0
2020-03-22T09:11:00-05:00,69.07,15.41,737.14,813.43,0.64,296.56,0
2020-03-22T09:12:00-05:00,70.62,15.55,736.77,767.85,0.45,287.56,0
2020-03-22T09:13:00-05:00,68.8,15.66,737.84,879.59,1.94,307.67,0
2020-03-22T09:14:00-05:00,65.26,15.57,737.2,882.23,0.74,254.68,0
2020-03-22T09:15:00-05:00,65.87,15.39,737.84,861.36,0.55,132.87,0
2020-03-22T09:16:00-05:00,66.94,15.41,736.97,850.33,0.52,108.04,0
2020-03-22T09:17:00-05:00,68.95,15.52,736.94,851.95,0.47,319.56,0
2020-03-22T09:18:00-05:00,68.49,15.67,736.8,843.13,0.56,330.86,0
2020-03-22T09:19:00-05:00,67.83,15.82,737.1,848.42,0.19,53.21,0
2020-03-22T09:20:00-05:00,68.22,16.04,736.43,849.3,0.84,349.79,0
2020-03-22T09:21:00-05:00,65.2,16.12,738.08,845.48,1.75,36.9,0
2020-03-22T09:22:00-05:00,63.87,16.03,737.1,833.57,0.58,44.46,0
2020-03-22T09:23:00-05:00,64.54,16.09,736.87,841.8,0.15,186.25,0
2020-03-22T09:24:00-05:00,65.49,16.25,737.91,819.9,1.1,75.76,0
2020-03-22T09:25:00-05:00,64.37,16.3,737.77,826.95,1.46,56.62,0
2020-03-22T09:26:00-05:00,65.12,16.32,737.27,821.81,2.16,352.48,0
2020-03-22T09:27:00-05:00,62.97,16.27,736.77,810.78,0.75,285.65,0
2020-03-22T09:28:00-05:00,63.83,16.25,737.94,832.98,2.65,333.57,0
2020-03-22T09:29:00-05:00,62.81,16.04,737.77,849.89,1.34,62.79,0
2020-03-22T09:30:00-05:00,64.29,15.86,737.67,865.47,2.11,50.49,0
2020-03-22T09:31:00-05:00,64.54,15.76,737.94,861.06,1.57,9.37,0
2020-03-22T09:32:00-05:00,63.87,15.6,737.61,854.89,1.45,340.46,0
2020-03-22T09:33:00-05:00,68.19,15.67,737.81,844.01,0.61,263.69,0
2020-03-22T09:34:00-05:00,66.38,15.74,737.51,845.92,0.46,305.57,0
2020-03-22T09:35:00-05:00,67.48,15.87,736.97,855.48,0.65,339.8,0
2020-03-22T09:36:00-05:00,64.89,15.94,736.84,865.03,0.8,324.61,0
2020-03-22T09:37:00-05:00,64.18,16.02,737.54,874.3,1.22,336.89,0
2020-03-22T09:38:00-05:00,63.62,15.94,736.84,872.53,1.46,72.29,0
2020-03-22T09:39:00-05:00,65.57,15.92,736.7,867.68,0.75,315.88,0
2020-03-22T09:40:00-05:00,63.42,15.88,736.33,867.53,0.42,294.6,0
2020-03-22T09:41:00-05:00,66.38,15.9,737.27,877.68,0.59,186.31,0
2020-03-22T09:42:00-05:00,63.87,16,737.1,883.26,0.69,39.86,0
2020-03-22T09:43:00-05:00,63.27,16.08,738.01,888.7,0.57,53.02,0
2020-03-22T09:44:00-05:00,64,16.04,737.34,894.29,1.88,54.71,0
2020-03-22T09:45:00-05:00,64.38,16.02,737.74,900.76,0.52,82.67,0
2020-03-22T09:46:00-05:00,63.71,16.13,737.81,898.7,2.61,300.63,0
2020-03-22T09:47:00-05:00,63.18,16.17,738.48,897.08,0.74,346.48,0
2020-03-22T09:48:00-05:00,63.07,16.04,737.37,903.7,1.19,23.05,0
2020-03-22T09:49:00-05:00,62.63,16.1,738.61,905.17,1.69,43.09,0
2020-03-22T09:50:00-05:00,63.21,16.09,738.04,917.52,1.44,26.85,0
2020-03-22T09:51:00-05:00,62.36,16.08,739.01,926.49,2.07,51.2,0
2020-03-22T09:52:00-05:00,62.03,16.02,737.97,927.37,0.55,320.89,0
2020-03-22T09:53:00-05:00,65.03,16.11,738.11,927.52,0.53,130.42,0
2020-03-22T09:54:00-05:00,62.52,16.23,738.51,918.11,0.26,161.45,0
2020-03-22T09:55:00-05:00,62.4,16.27,736.43,919.73,0.77,208.92,0
2020-03-22T09:56:00-05:00,64.53,16.3,737,917.67,1.46,21.17,0
2020-03-22T09:57:00-05:00,62.5,16.38,737.34,911.64,1.71,307.67,0
2020-03-22T09:58:00-05:00,62.83,16.44,738.21,922.67,0.67,171.53,0
2020-03-22T09:59:00-05:00,62.65,16.6,738.91,953.69,1.82,50.1,0
2020-03-22T10:00:00-05:00,61.69,16.69,738.44,947.95,2.42,39.87,0
2020-03-22T10:01:00-05:00,60.75,16.66,738.58,936.78,1.74,62.64,0
2020-03-22T10:02:00-05:00,59.42,16.65,740.08,925.75,0.84,336.52,0
2020-03-22T10:03:00-05:00,60.35,16.69,739.82,928.25,1.42,333.56,0
2020-03-22T10:04:00-05:00,62.62,16.91,737.51,935.9,0.5,349.42,0
2020-03-22T10:05:00-05:00,58.88,17,737.77,962.36,1.12,34.71,0
2020-03-22T10:06:00-05:00,60.09,16.97,737.61,961.04,0.77,74.89,0
2020-03-22T10:07:00-05:00,59.58,17.1,737.74,960.45,1.22,50.79,0
2020-03-22T10:08:00-05:00,58.88,17.06,736.67,979.56,0.6,66.37,0
2020-03-22T10:09:00-05:00,59.03,17.12,736.8,981.33,1.15,43.59,0
2020-03-22T10:10:00-05:00,57.43,17.17,737.64,974.86,1.74,61.68,0
2020-03-22T10:11:00-05:00,58.06,17.08,737.2,970.74,2.12,340.75,0
2020-03-22T10:12:00-05:00,56.83,16.98,736.37,972.8,2.56,39.11,0
2020-03-22T10:13:00-05:00,58.39,16.86,736.6,970.45,0.95,65.49,0
2020-03-22T10:14:00-05:00,58.23,16.7,737.61,969.86,3.11,40.19,0
2020-03-22T10:15:00-05:00,59.37,16.67,737.67,976.48,0.24,249.13,0
2020-03-22T10:16:00-05:00,58.31,16.66,736.54,979.86,0.73,37.32,0
2020-03-22T10:17:00-05:00,58.96,16.66,736.77,988.97,1.2,50.49,0
2020-03-22T10:18:00-05:00,60.75,16.78,736.5,990.59,0.8,36.98,0
2020-03-22T10:19:00-05:00,58.66,16.94,736.77,991.91,0.79,43.38,0
2020-03-22T10:20:00-05:00,57.93,16.86,736.8,993.82,0.52,229.8,0
2020-03-22T10:21:00-05:00,58.82,16.84,736.9,1003.82,1.11,282.73,0
2020-03-22T10:22:00-05:00,59.93,16.9,736.43,1000.15,0.6,313.56,0
2020-03-22T10:23:00-05:00,63.6,17.04,736.5,1001.32,0.33,195.92,0
2020-03-22T10:24:00-05:00,58.01,17.13,737.24,1007.5,2.17,334.58,0
2020-03-22T10:25:00-05:00,56.93,17.11,738.08,1006.76,2.07,19.87,0
2020-03-22T10:26:00-05:00,57.39,16.94,737.31,1003.09,0.85,73.3,0
2020-03-22T10:27:00-05:00,57.11,16.94,737.27,1007.06,0.22,7.34,0
2020-03-22T10:28:00-05:00,59.22,17.05,736.74,1013.67,1.11,186.33,0
2020-03-22T10:29:00-05:00,56.94,16.91,736.47,1007.94,1.73,129.23,0
2020-03-22T10:30:00-05:00,60.1,16.86,737.37,1009.26,0.65,228.21,0
2020-03-22T10:31:00-05:00,61.38,17.03,736.47,1018.97,1.99,200.96,0
2020-03-22T10:32:00-05:00,59.29,16.98,737.2,1027.79,1.77,211.24,0
2020-03-22T10:33:00-05:00,62.81,17,736.4,1028.82,1.9,225.85,0
2020-03-22T10:34:00-05:00,60.32,17.11,737.24,1034.99,0.7,210.91,0
2020-03-22T10:35:00-05:00,57.31,17.19,736.1,1040.73,0.84,210.94,0
2020-03-22T10:36:00-05:00,58.81,17.17,736.67,1040.28,0.53,304.61,0
2020-03-22T10:37:00-05:00,59.8,17.3,737.31,1044.25,1.08,237.75,0
2020-03-22T10:38:00-05:00,59.89,17.43,738.08,1054.99,0.95,282.69,0
2020-03-22T10:39:00-05:00,60.11,17.59,739.58,1013.09,0.84,255.97,0
2020-03-22T10:40:00-05:00,58.47,17.8,736.17,1044.84,1.08,31.66,0
2020-03-22T10:41:00-05:00,61.24,17.94,736.5,1063.51,0.56,251.8,0
2020-03-22T10:42:00-05:00,57.59,18.13,737.24,1059.4,2.1,355.43,0
2020-03-22T10:43:00-05:00,55.45,18.14,736.2,1045.58,2.19,350.87,0
2020-03-22T10:44:00-05:00,54.69,18.07,737.84,1049.84,0.39,30.42,0
2020-03-22T10:45:00-05:00,57.36,18.13,736.87,1064.4,0.72,342.9,0
2020-03-22T10:46:00-05:00,56.8,18.28,737.24,1070.72,0.06,245.71,0
2020-03-22T10:47:00-05:00,55.71,18.43,736.5,1066.16,0.99,237.16,0
2020-03-22T10:48:00-05:00,51.58,18.5,736.97,1056.46,0.49,312.57,0
2020-03-22T10:49:00-05:00,54.36,18.5,736.97,1047.05,0.27,209.27,0
2020-03-22T10:50:00-05:00,51.06,18.56,737.2,1060.72,1.99,233.81,0
2020-03-22T10:51:00-05:00,52.53,18.54,736.37,1049.69,0.63,222.89,0
2020-03-22T10:52:00-05:00,50.96,18.38,736.84,1060.43,1.1,215.92,0
2020-03-22T10:53:00-05:00,52.74,18.21,737.14,1063.81,0.66,234.8,0
2020-03-22T10:54:00-05:00,54.16,18.24,736.1,1069.69,1.29,241.82,0
2020-03-22T10:55:00-05:00,53.1,18.26,737.07,1076.16,0.76,223.89,0
2020-03-22T10:56:00-05:00,50.86,18.26,736.07,1076.31,0.54,294.62,0
2020-03-22T10:57:00-05:00,54.06,18.35,736.33,1074.69,0.89,249.8,0
2020-03-22T10:58:00-05:00,50.68,18.43,737.04,1064.84,0.58,265.76,0
2020-03-22T10:59:00-05:00,52.71,18.57,736.67,1062.19,0.07,158.18,0
2020-03-22T11:00:00-05:00,53.22,18.76,736.87,1067.04,0.92,244.14,0
2020-03-22T11:01:00-05:00,52.51,18.88,736.1,1072.04,0.91,156.19,0
2020-03-22T11:02:00-05:00,51.07,18.9,736.87,1063.81,1.78,16.07,0
2020-03-22T11:03:00-05:00,52.43,18.78,736.57,1062.78,0.97,3.67,0
2020-03-22T11:04:00-05:00,52.63,18.81,736.33,1062.34,2.17,6.75,0
2020-03-22T11:05:00-05:00,51.26,18.84,736.37,1068.66,0.59,331.49,0
2020-03-22T11:06:00-05:00,51.52,18.89,736.97,1070.13,0.77,210.2,0
2020-03-22T11:07:00-05:00,54.11,18.94,736.4,1076.6,0.23,121.18,0
2020-03-22T11:08:00-05:00,55.47,19.1,736.84,1076.45,1.15,350.51,0
2020-03-22T11:09:00-05:00,52.34,19.16,736.9,1081.3,0.31,289.59,0
2020-03-22T11:10:00-05:00,49.55,19.23,736.67,1076.75,0.6,68.02,0
2020-03-22T11:11:00-05:00,51.2,19.24,735.9,1074.39,0.77,261.71,0
2020-03-22T11:12:00-05:00,50.53,19.35,736.27,1074.69,0.7,32.08,0
2020-03-22T11:13:00-05:00,49.85,19.3,736.87,1071.6,1.17,349.69,0
2020-03-22T11:14:00-05:00,48.92,19.12,736.4,1077.78,2.04,42.95,0
2020-03-22T11:15:00-05:00,49.68,19.15,735.5,1085.42,0.84,86.33,0
2020-03-22T11:16:00-05:00,51.46,19.2,735.83,1083.66,0.64,338.5,0
2020-03-22T11:17:00-05:00,48.78,19.25,735.4,1092.48,1.16,97.75,0
2020-03-22T11:18:00-05:00,50.96,19.16,735.63,1098.06,0.53,260.71,0
2020-03-22T11:19:00-05:00,49.93,19.28,735.8,1095.12,0.89,223.34,0
2020-03-22T11:20:00-05:00,48.22,19.08,732.32,1093.95,0.1,152.12,0
2020-03-22T11:21:00-05:00,48.18,19.06,733.05,1092.18,0.33,61.54,0
2020-03-22T11:22:00-05:00,51.89,19.23,733.86,1094.24,0.85,236.78,0
2020-03-22T11:23:00-05:00,52.47,19.44,733.72,1089.24,1.75,231.16,0
2020-03-22T11:24:00-05:00,53.8,19.56,734.93,1084.98,0.73,225.84,0
2020-03-22T11:25:00-05:00,51.48,19.68,734.79,1082.92,0.69,218.87,0
2020-03-22T11:26:00-05:00,51.06,19.78,733.69,1085.42,1.04,228.78,0
2020-03-22T11:27:00-05:00,50.54,19.85,735.77,1096.89,1.42,287.63,0
2020-03-22T11:28:00-05:00,52.37,19.88,734.33,1112.33,0.79,220.83,0
2020-03-22T11:29:00-05:00,45.32,19.8,734.46,1121.29,0.68,294.61,0
2020-03-22T11:30:00-05:00,48.68,19.7,735.06,1125.71,0.72,330.48,0
2020-03-22T11:31:00-05:00,45.65,19.66,734.06,1098.65,0.77,244.79,0
2020-03-22T11:32:00-05:00,47.82,19.71,735.6,1088.95,0.45,25.58,0
2020-03-22T11:33:00-05:00,44.58,19.68,735.83,1076.16,0.68,55.69,0
2020-03-22T11:34:00-05:00,44.23,19.66,735.06,1077.33,0.64,139.64,0
2020-03-22T11:35:00-05:00,44.54,19.56,733.96,1101.74,0.75,40.88,0
2020-03-22T11:36:00-05:00,45.04,19.57,735.26,1099.83,0.91,30.44,0
2020-03-22T11:37:00-05:00,45.64,19.46,734.93,1109.68,0.81,352.48,0
2020-03-22T11:38:00-05:00,49.37,19.59,736.47,1114.38,1.53,12.06,0
2020-03-22T11:39:00-05:00,47.76,19.74,736.64,1123.06,1.71,274.72,0
2020-03-22T11:40:00-05:00,45.04,19.78,736.13,1125.85,1.17,58.62,0
2020-03-22T11:41:00-05:00,43.68,19.42,735.6,1132.32,2.1,72.61,0
2020-03-22T11:42:00-05:00,44.44,19.07,735.06,1123.06,2.32,18.1,0
2020-03-22T11:43:00-05:00,45.82,18.92,733.82,1147.46,2.24,19.07,0
2020-03-22T11:44:00-05:00,47.12,19,735.43,1189.22,0.6,17.76,0
2020-03-22T11:45:00-05:00,46.04,19.07,735.03,1201.72,0.63,229.77,0
2020-03-22T11:46:00-05:00,48.75,19.31,734.76,1198.33,0.49,170.06,0
2020-03-22T11:47:00-05:00,47,19.44,734.9,1208.48,2.32,200.24,0
2020-03-22T11:48:00-05:00,48.62,19.49,735.46,1177.31,2.07,283.95,0
2020-03-22T11:49:00-05:00,46.89,19.6,737,1145.99,2.03,249.15,0
2020-03-22T11:50:00-05:00,46.23,19.7,735.73,668.46,1.32,239.16,0
2020-03-22T11:51:00-05:00,49.85,19.74,736.07,333.25,0.55,248.16,0
2020-03-22T11:52:00-05:00,47.98,19.83,736.1,272.67,0.6,350.54,0
2020-03-22T11:53:00-05:00,48.64,19.91,735.3,304.43,0.13,238.13,0
2020-03-22T11:54:00-05:00,47.44,19.93,736.2,344.28,0.54,230.86,0
2020-03-22T11:55:00-05:00,47.55,19.94,735.6,686.4,0.89,217.29,0
2020-03-22T11:56:00-05:00,47.38,19.99,735.26,330.45,0.7,249.79,0
2020-03-22T11:57:00-05:00,46.1,19.95,734.43,353.24,0.96,228.85,0
2020-03-22T11:58:00-05:00,44.92,19.72,733.62,1210.54,1.35,198,0
2020-03-22T11:59:00-05:00,48.38,19.58,733.96,340.75,0.72,233.86,0
2020-03-22T12:00:00-05:00,47.69,19.59,733.89,844.45,1.17,312.59,0
2020-03-22T12:01:00-05:00,49.09,19.62,734.93,295.17,0.56,243.81,0
2020-03-22T12:02:00-05:00,44.54,19.6,734.06,914.73,1.08,48.98,0
2020-03-22T12:03:00-05:00,45.01,19.45,734.73,1169.08,0.59,89.52,0
2020-03-22T12:04:00-05:00,44.56,19.47,735.73,952.22,0.62,150.62,0
2020-03-22T12:05:00-05:00,45.08,19.49,736.27,583.04,0.65,160.1,0
2020-03-22T12:06:00-05:00,45.57,19.56,735.56,364.71,0.89,280.03,0
2020-03-22T12:07:00-05:00,47.17,19.7,737,350.74,0.48,208.93,0
2020-03-22T12:08:00-05:00,46.53,19.79,736.54,357.51,0.98,263.09,0
2020-03-22T12:09:00-05:00,46.47,19.84,736.54,504.82,0.28,271.7,0
2020-03-22T12:10:00-05:00,46.04,19.87,737.2,1223.33,0.98,202.28,0
2020-03-22T12:11:00-05:00,43.95,19.89,737.84,1278.32,0.86,192.94,0
2020-03-22T12:12:00-05:00,43.99,19.85,737.71,1203.63,0.67,4.02,0
2020-03-22T12:13:00-05:00,43.52,19.89,738.34,1175.69,0.94,304.58,0
2020-03-22T12:14:00-05:00,43.99,19.87,738.48,1161.87,0.84,225.18,0
2020-03-22T12:15:00-05:00,45.74,19.8,737.51,467.33,1.2,182.04,0
2020-03-22T12:16:00-05:00,51.2,19.84,738.04,404.7,0.66,199.97,0
2020-03-22T12:17:00-05:00,48.38,19.95,738.14,345.45,0.7,291.67,0
2020-03-22T12:18:00-05:00,44.01,19.97,737.31,340.6,0.47,186.96,0
2020-03-22T12:19:00-05:00,45.87,20.02,738.18,361.92,0.5,207.97,0
2020-03-22T12:20:00-05:00,48.04,20.05,738.28,645.82,0.63,212.87,0
2020-03-22T12:21:00-05:00,46.94,20.05,737.34,439.4,0.69,201.23,0
2020-03-22T12:22:00-05:00,44.33,20.03,738.24,402.64,0.97,212.27,0
2020-03-22T12:23:00-05:00,43.38,19.93,737.1,405,0.46,178.41,0
2020-03-22T12:24:00-05:00,44.54,19.93,737.51,427.93,0.59,283.68,0
2020-03-22T12:25:00-05:00,45.06,19.93,737.34,404.85,0.58,241.18,0
2020-03-22T12:26:00-05:00,44.61,19.94,738.01,457.19,0.13,148.24,0
2020-03-22T12:27:00-05:00,45.94,19.99,738.34,497.03,0.48,335.89,0
2020-03-22T12:28:00-05:00,47.88,20.07,738.34,489.68,0.54,244.75,0
2020-03-22T12:29:00-05:00,45.61,20.09,739.08,527.61,0.98,228.17,0
2020-03-22T12:30:00-05:00,45.32,20.09,738.24,493.8,0.62,260.72,0
2020-03-22T12:31:00-05:00,45.22,20.03,738.31,392.65,1.56,229.1,0
2020-03-22T12:32:00-05:00,47.16,19.91,738.21,421.46,0.62,235.81,0
2020-03-22T12:33:00-05:00,46.77,19.79,738.14,380.15,0.94,298.71,0
2020-03-22T12:34:00-05:00,46.21,19.72,738.74,365.01,0.83,356.44,0
2020-03-22T12:35:00-05:00,48.68,19.7,737.94,353.1,0.6,214.95,0
2020-03-22T12:36:00-05:00,48.76,19.67,737.47,347.95,1.05,224.86,0
2020-03-22T12:37:00-05:00,49.12,19.63,735.4,363.54,0.73,237.75,0
2020-03-22T12:38:00-05:00,51.37,19.54,736.07,917.67,0.7,211.88,0
2020-03-22T12:39:00-05:00,51.58,19.48,736.37,1039.11,0.59,254.72,0
2020-03-22T12:40:00-05:00,52.71,19.54,735.8,1091.15,2.12,226.87,0
2020-03-22T12:41:00-05:00,54.54,19.66,736.57,1101.01,0.57,271.68,0
2020-03-22T12:42:00-05:00,51.93,19.79,737.57,1078.66,1.23,254.07,0
2020-03-22T12:43:00-05:00,51.87,19.88,737.44,1044.11,1.55,225.86,0
2020-03-22T12:44:00-05:00,54.77,19.99,737.67,1022.35,1.22,216.28,0
2020-03-22T12:45:00-05:00,49.61,20.05,738.68,987.21,2.18,328.55,0
2020-03-22T12:46:00-05:00,51.12,19.98,735.23,988.24,0.61,241.19,0
2020-03-22T12:47:00-05:00,54.99,20.1,735.67,1008.23,1.41,214.93,0
2020-03-22T12:48:00-05:00,52.14,20.16,736.47,1033.96,2,230.12,0
2020-03-22T12:49:00-05:00,52.27,20.26,735.23,1091.74,2.23,222.88,0
2020-03-22T12:50:00-05:00,51.63,20.35,735.9,1072.48,0.38,152.15,0
2020-03-22T12:51:00-05:00,48.73,20.46,735.77,1081.75,0.6,165.16,0
2020-03-22T12:52:00-05:00,48.06,20.49,734.79,1015.14,2.36,278.66,0
2020-03-22T12:53:00-05:00,48.6,20.32,735.3,966.33,0.37,153.13,0
2020-03-22T12:54:00-05:00,49.94,20.33,735.53,897.82,1.13,253.75,0
2020-03-22T12:55:00-05:00,49.94,20.4,735.73,990.88,1.7,246.06,0
2020-03-22T12:56:00-05:00,54.18,20.43,734.63,1030.29,0.71,293.96,0
2020-03-22T12:57:00-05:00,53.7,20.51,735.43,1043.08,1.1,202.95,0
2020-03-22T12:58:00-05:00,56.38,20.63,735.5,1075.42,0.97,220.89,0
2020-03-22T12:59:00-05:00,50.76,20.72,735.33,1092.62,0.52,289.97,0
2020-03-22T13:00:00-05:00,49.87,20.77,734.63,1009.85,0.94,234.83,0
2020-03-22T13:01:00-05:00,50.66,20.71,735.46,935.31,0.98,280.98,0
2020-03-22T13:02:00-05:00,54.1,20.73,734.76,953.83,0.94,198,0
2020-03-22T13:03:00-05:00,53.95,20.8,735.56,924.14,0.78,184.36,0
2020-03-22T13:04:00-05:00,52.04,20.85,734.79,961.63,0.88,247.81,0
2020-03-22T13:05:00-05:00,51.95,20.83,734.79,1084.39,1.04,202.29,0
2020-03-22T13:06:00-05:00,52.43,20.76,735.33,1038.67,2.16,222.93,0
2020-03-22T13:07:00-05:00,52.91,20.72,734.73,984.56,2.56,237.75,0
2020-03-22T13:08:00-05:00,50.15,20.7,734.23,1025.29,1.18,222.94,0
2020-03-22T13:09:00-05:00,53.52,20.65,735.36,1045.58,0.75,212.89,0
2020-03-22T13:10:00-05:00,53.78,20.73,736.37,1036.61,2.13,223.88,0
2020-03-22T13:11:00-05:00,52.55,20.78,736.23,1045.72,1.01,193.95,0
2020-03-22T13:12:00-05:00,50.5,20.71,734.93,1081.01,1.84,201.93,0
2020-03-22T13:13:00-05:00,53.72,20.63,734.93,1052.93,1.47,181.06,0
2020-03-22T13:14:00-05:00,52.25,20.59,735.4,983.09,1.58,216.95,0
2020-03-22T13:15:00-05:00,55.23,20.63,736.2,986.03,0.59,246.72,0
2020-03-22T13:16:00-05:00,51.66,20.77,736.6,966.18,0.63,333.92,0
2020-03-22T13:17:00-05:00,49.13,20.67,737,440.72,1.87,215.89,0
2020-03-22T13:18:00-05:00,51.84,20.4,734.96,907.96,0.81,199.31,0
2020-03-22T13:19:00-05:00,53.54,20.39,736.8,956.04,2.16,217.9,0
2020-03-22T13:20:00-05:00,53.1,20.34,734.36,965.6,2.29,181.4,0
2020-03-22T13:21:00-05:00,52.65,20.17,734.19,1030.29,2.91,212.84,0
2020-03-22T13:22:00-05:00,51.48,19.91,732.18,969.27,2.25,206.38,0
2020-03-22T13:23:00-05:00,52.71,19.66,735.33,830.48,1.65,231.85,0
2020-03-22T13:24:00-05:00,54.18,19.43,735.4,860.18,2.67,206,0
2020-03-22T13:25:00-05:00,53.51,19.22,735.46,1104.83,1.75,225.88,0
2020-03-22T13:26:00-05:00,57.45,19.19,735.03,1092.77,2.15,186.96,0
2020-03-22T13:27:00-05:00,56.5,19.28,735.53,1097.77,1.72,210.91,0
2020-03-22T13:28:00-05:00,53.74,19.38,735.3,1051.46,0.74,210.91,0
2020-03-22T13:29:00-05:00,54.06,19.4,734.83,1049.4,0.66,269.04,0
2020-03-22T13:30:00-05:00,54.22,19.45,735.46,1048.66,2.14,232.17,0
2020-03-22T13:31:00-05:00,52.94,19.4,736.23,1087.04,2.13,339.49,0
2020-03-22T13:32:00-05:00,53.98,19.36,735.46,539.52,1.68,321.53,0
2020-03-22T13:33:00-05:00,54.65,19.41,736.3,1047.19,2.07,210.26,0
2020-03-22T13:34:00-05:00,52.62,19.38,735.83,1017.35,1.46,58.99,0
2020-03-22T13:35:00-05:00,52.83,19.22,736.77,896.05,0.82,170.4,0
2020-03-22T13:36:00-05:00,54.29,19.16,735.83,525.41,0.68,199.96,0
2020-03-22T13:37:00-05:00,56.12,19.3,737.44,1040.43,0.68,167.46,0
2020-03-22T13:38:00-05:00,57.07,19.51,737.47,1024.85,2.14,239.83,0
2020-03-22T13:39:00-05:00,54.16,19.62,737.31,550.26,1.2,221.22,0
2020-03-22T13:40:00-05:00,52.36,19.6,738.01,504.97,1.05,277.68,0
2020-03-22T13:41:00-05:00,58.72,19.67,738.58,404.85,1.31,286.65,0
2020-03-22T13:42:00-05:00,54.35,19.72,737.87,467.48,1.3,217.88,0
2020-03-22T13:43:00-05:00,53.99,19.64,737.67,274.29,0.76,184.04,0
2020-03-22T13:44:00-05:00,52.51,19.49,733.92,274,1.3,197.97,0
2020-03-22T13:45:00-05:00,53.86,19.32,733.59,320.46,1.17,289.61,0
2020-03-22T13:46:00-05:00,53.48,19.09,730.91,332.51,1.38,213.97,0
2020-03-22T13:47:00-05:00,54.08,18.82,734.73,423.82,0.48,227.84,0
2020-03-22T13:48:00-05:00,54.51,18.75,734.66,1159.37,2.75,83.91,0
2020-03-22T13:49:00-05:00,55.88,18.8,735.67,1089.98,0.76,290.68,0
2020-03-22T13:50:00-05:00,54.88,18.93,735.83,514.38,0.95,225.21,0
2020-03-22T13:51:00-05:00,55.5,18.98,735.63,784.32,0.58,34.96,0
2020-03-22T13:52:00-05:00,55.15,19.07,735.26,957.22,1.34,248.16,0
2020-03-22T13:53:00-05:00,55.31,19.1,734.13,579.66,0.88,154.2,0
2020-03-22T13:54:00-05:00,54.73,19.06,732.55,286.79,0.29,296.94,0
2020-03-22T13:55:00-05:00,53.46,18.92,734.23,284.14,0.96,212.89,0
2020-03-22T13:56:00-05:00,54.22,18.76,734.83,297.08,1.19,199.33,0
2020-03-22T13:57:00-05:00,54.4,18.56,735.33,348.98,1,193.93,0
2020-03-22T13:58:00-05:00,56.6,18.44,734.56,347.36,0.77,209.96,0
2020-03-22T13:59:00-05:00,56.34,18.41,735.16,809.6,1,178.06,0
2020-03-22T14:00:00-05:00,53.98,18.38,735.53,1132.03,2.48,306.56,0
2020-03-22T14:01:00-05:00,54.02,18.36,737.87,1123.06,0.79,66.52,0
2020-03-22T14:02:00-05:00,55.8,18.47,735.56,1100.86,0.94,77.54,0
2020-03-22T14:03:00-05:00,57.9,18.7,735,1083.07,2.2,217.89,0
2020-03-22T14:04:00-05:00,54.89,18.88,735.43,997.06,0.66,236.73,0
2020-03-22T14:05:00-05:00,53.33,19.08,735,1138.06,0.58,276.67,0
2020-03-22T14:06:00-05:00,57.82,19.3,735.13,395.59,0.78,274.69,0
2020-03-22T14:07:00-05:00,52.75,19.43,734.29,359.86,1.18,188.41,0
2020-03-22T14:08:00-05:00,52.59,19.38,734.83,360.3,0.58,232.86,0
2020-03-22T14:09:00-05:00,52.47,19.36,734.86,844.45,0.23,78.82,0
2020-03-22T14:10:00-05:00,52.96,19.34,735.13,922.96,0.68,210.89,0
2020-03-22T14:11:00-05:00,54.34,19.36,734.63,936.78,0.74,251.14,0
2020-03-22T14:12:00-05:00,59.63,19.51,734.49,804.46,1.18,223.94,0
2020-03-22T14:13:00-05:00,53.22,19.62,735.26,1043.96,1.24,237.15,0
2020-03-22T14:14:00-05:00,52.01,19.6,734.66,953.1,2.23,216.93,0
2020-03-22T14:15:00-05:00,53.43,19.55,734.49,1070.28,0.69,261.01,0
2020-03-22T14:16:00-05:00,52.37,19.57,734.73,376.62,0.57,231.89,0
2020-03-22T14:17:00-05:00,53.42,19.62,734.76,1071.31,0.6,272.67,0
2020-03-22T14:18:00-05:00,55.31,19.76,735.53,1085.42,0.75,222.93,0
2020-03-22T14:19:00-05:00,55.48,19.87,734.83,464.1,0.52,256.79,0
2020-03-22T14:20:00-05:00,53.68,19.99,735,325.31,1.81,266.75,0
2020-03-22T14:21:00-05:00,53.02,19.81,734.39,442.19,2.28,230.9,0
2020-03-22T14:22:00-05:00,55.29,19.66,734.39,1006.32,1.08,193.93,0
2020-03-22T14:23:00-05:00,54.04,19.64,735.6,373.53,0.76,199.97,0
2020-03-22T14:24:00-05:00,53.42,19.54,734.06,657.44,1.48,217.05,0
2020-03-22T14:25:00-05:00,53.4,19.37,734.76,420.43,0.56,290.68,0
2020-03-22T14:26:00-05:00,54.93,19.34,734.09,1044.25,0.5,279.04,0
2020-03-22T14:27:00-05:00,58.39,19.48,734.93,1048.66,2.2,176.07,0
2020-03-22T14:28:00-05:00,55.45,19.57,735.3,976.92,2.3,204.3,0
2020-03-22T14:29:00-05:00,54.87,19.57,734.49,1051.46,1.58,206.98,0
2020-03-22T14:30:00-05:00,53.72,19.5,734.06,333.69,2.2,224.25,0
2020-03-22T14:31:00-05:00,56.28,19.36,734.46,328.54,0.28,256.79,0
2020-03-22T14:32:00-05:00,57.03,19.31,735.77,905.76,0.87,247.04,0
2020-03-22T14:33:00-05:00,55.2,19.28,735.67,988.39,2.22,177.06,0
2020-03-22T14:34:00-05:00,59.5,19.38,735.1,412.05,1.34,259.75,0
2020-03-22T14:35:00-05:00,55.84,19.45,734.66,789.76,0.67,78.28,0
2020-03-22T14:36:00-05:00,53.64,19.44,734.96,995.88,1.9,222.94,0
2020-03-22T14:37:00-05:00,55.03,19.48,734.19,974.12,1.11,221.9,0
2020-03-22T14:38:00-05:00,53.01,19.52,735.13,955.45,0.91,182.05,0
2020-03-22T14:39:00-05:00,54.26,19.62,734.49,949.87,0.97,211.91,0
2020-03-22T14:40:00-05:00,53.64,19.76,734.43,927.22,1.15,276.69,0
2020-03-22T14:41:00-05:00,53.73,19.82,734.56,936.78,0.89,249.81,0
2020-03-22T14:42:00-05:00,54.21,19.92,734.29,665.23,0.93,249.8,0
2020-03-22T14:43:00-05:00,55.33,19.95,733.56,258.56,2.25,198.32,0
2020-03-22T14:44:00-05:00,54.5,19.82,734.59,898.7,0.56,200.97,0
2020-03-22T14:45:00-05:00,53.24,19.81,734.16,904.43,1.97,137.4,0
2020-03-22T14:46:00-05:00,54.64,19.76,734.13,878.12,1.34,189.27,0
2020-03-22T14:47:00-05:00,56.36,19.84,734.63,880.76,0.25,95.7,0
2020-03-22T14:48:00-05:00,53.98,19.95,736.64,913.11,0.39,23.77,0
2020-03-22T14:49:00-05:00,53.7,20.07,734.43,908.55,1.25,122.85,0
2020-03-22T14:50:00-05:00,55.07,20.12,734.86,902.96,0.79,274.74,0
2020-03-22T14:51:00-05:00,55.72,20.31,734.39,905.46,1.02,205.03,0
2020-03-22T14:52:00-05:00,55.07,20.41,733.92,475.13,1.18,206.01,0
2020-03-22T14:53:00-05:00,51.6,20.51,734.76,241.65,0.56,264.77,0
2020-03-22T14:54:00-05:00,50.07,20.47,733.82,338.69,0.93,256.79,0
2020-03-22T14:55:00-05:00,51.12,20.31,734.86,891.5,0.56,288.6,0
2020-03-22T14:56:00-05:00,51.78,20.3,733.99,910.9,0.68,136.23,0
2020-03-22T14:57:00-05:00,53.58,20.31,735.1,855.62,0.75,214.94,0
2020-03-22T14:58:00-05:00,53.13,20.29,734.36,328.4,0.61,254.72,0
2020-03-22T14:59:00-05:00,52.94,20.15,734.86,333.84,1.99,277.69,0
2020-03-22T15:00:00-05:00,52.97,20.06,734.02,538.35,1.35,49.62,0
2020-03-22T15:01:00-05:00,53,19.81,734.83,362.8,0.56,282.69,0
2020-03-22T15:02:00-05:00,53.68,19.62,732.92,252.68,0.96,170.4,0
2020-03-22T15:03:00-05:00,53.98,19.51,730.34,275.76,0.47,288.61,0
2020-03-22T15:04:00-05:00,54.62,19.3,733.56,292.08,0.79,254.1,0
2020-03-22T15:05:00-05:00,56.09,19.18,734.29,298.4,1.84,156.18,0
2020-03-22T15:06:00-05:00,57.21,19.04,734.79,270.91,0.7,279.99,0
2020-03-22T15:07:00-05:00,58.45,19,734.06,263.71,2.03,40.51,0
2020-03-22T15:08:00-05:00,57.78,18.92,732.62,784.61,0.59,209.96,0
2020-03-22T15:09:00-05:00,57.87,18.88,735.3,832.1,1.09,235.78,0
2020-03-22T15:10:00-05:00,56.5,18.93,736.33,862.39,1.19,224.85,0
2020-03-22T15:11:00-05:00,55.43,18.94,734.53,504.82,2.38,231.87,0
2020-03-22T15:12:00-05:00,55.65,18.9,735.4,344.42,0.82,270.7,0
2020-03-22T15:13:00-05:00,57.95,18.88,734.83,678.75,0.6,234.86,0
2020-03-22T15:14:00-05:00,57.85,18.92,733.69,736.39,0.67,221.93,0
2020-03-22T15:15:00-05:00,57.57,19.06,735,846.8,0.8,238.82,0
2020-03-22T15:16:00-05:00,60.22,19.24,735.43,301.79,1.93,203.9,0
2020-03-22T15:17:00-05:00,55.11,19.22,734.59,281.2,0.85,223.24,0
2020-03-22T15:18:00-05:00,55.15,19.01,734.53,765.79,0.6,56.28,0
2020-03-22T15:19:00-05:00,54.65,19.04,734.36,752.85,0.63,42.11,0
2020-03-22T15:20:00-05:00,56.56,19.06,735.2,674.05,0.67,203.21,0
2020-03-22T15:21:00-05:00,57.52,19.21,734.49,774.91,2.28,179.48,0
2020-03-22T15:22:00-05:00,55.78,19.26,734.49,797.55,1.79,217.91,0
2020-03-22T15:23:00-05:00,54.32,19.24,734.59,407.2,2.73,300.03,0
2020-03-22T15:24:00-05:00,54.7,19.1,734.53,580.1,2.24,295.65,0
2020-03-22T15:25:00-05:00,55.94,19.01,732.62,270.03,0.85,210.2,0
2020-03-22T15:26:00-05:00,56.46,18.98,732.92,794.76,1,233.82,0
2020-03-22T15:27:00-05:00,56.92,18.92,730.58,251.06,1.75,223.92,0
2020-03-22T15:28:00-05:00,56.11,18.74,734.69,257.53,1.7,211.89,0
2020-03-22T15:29:00-05:00,58.16,18.48,734.33,258.41,0.75,215.93,0
2020-03-22T15:30:00-05:00,59.19,18.31,733.46,371.33,2.2,210.9,0
2020-03-22T15:31:00-05:00,58.72,18.22,736.47,770.35,1.25,262.69,0
2020-03-22T15:32:00-05:00,58.93,18.26,735.23,776.97,0.4,207.97,0
2020-03-22T15:33:00-05:00,59.77,18.43,734.49,771.82,0.52,226.87,0
2020-03-22T15:34:00-05:00,59.78,18.7,735.33,262.24,0.61,247.84,0
2020-03-22T15:35:00-05:00,60.44,18.9,734.96,273.56,1.63,197.02,0
2020-03-22T15:36:00-05:00,57.76,18.97,734.76,511.15,2.02,228.16,0
2020-03-22T15:37:00-05:00,56.69,18.98,735.06,723.89,0.61,198.95,0
2020-03-22T15:38:00-05:00,59.38,19.12,734.49,676.55,0.6,215.29,0
2020-03-22T15:39:00-05:00,58.17,19.31,735.36,461.6,0.78,239.85,0
2020-03-22T15:40:00-05:00,56.83,19.42,734.56,686.84,1.9,236.17,0
2020-03-22T15:41:00-05:00,58.41,19.5,734.33,587.89,0.4,233.85,0
2020-03-22T15:42:00-05:00,58.94,19.66,733.86,237.39,0.59,238.11,0
2020-03-22T15:43:00-05:00,56.6,19.73,733.79,665.82,1.01,221.93,0
2020-03-22T15:44:00-05:00,58.68,19.82,734.26,683.02,0.54,271.71,0
2020-03-22T15:45:00-05:00,59.26,20.01,734.43,683.16,0.92,208.95,0
2020-03-22T15:46:00-05:00,56.2,20.1,732.75,182.4,2.34,228.85,0
2020-03-22T15:47:00-05:00,56.54,19.82,734.46,164.91,0.57,201.92,0
2020-03-22T15:48:00-05:00,57.02,19.59,734.29,344.28,0.87,194.91,0
2020-03-22T15:49:00-05:00,54.89,19.36,733.72,232.68,1.68,216.9,0
2020-03-22T15:50:00-05:00,56.09,19.16,734.33,651.7,0.58,184,0
2020-03-22T15:51:00-05:00,57.31,19.14,734.66,677.87,0.58,305.57,0
2020-03-22T15:52:00-05:00,57.61,19.23,734.93,647.14,0.55,184.04,0
2020-03-22T15:53:00-05:00,59.58,19.37,733.92,626.71,0.73,183.36,0
2020-03-22T15:54:00-05:00,56,19.45,734.96,615.39,0.92,252.08,0
2020-03-22T15:55:00-05:00,56.64,19.54,734.73,602.01,0.45,245.15,0
2020-03-22T15:56:00-05:00,57.7,19.72,734.49,586.72,0.98,198.95,0
2020-03-22T15:57:00-05:00,54.53,19.72,734.63,576.43,1.91,170.43,0
2020-03-22T15:58:00-05:00,55.03,19.67,735.03,572.6,2.05,232.84,0
2020-03-22T15:59:00-05:00,55.21,19.71,734.23,464.98,1,248.18,0
2020-03-22T16:00:00-05:00,55.88,19.72,733.66,151.53,0.8,168.1,0
2020-03-22T16:01:00-05:00,54.67,19.58,734.23,154.47,0.64,248.82,0
2020-03-22T16:02:00-05:00,55.08,19.38,733.99,148.73,1.58,184.04,0
2020-03-22T16:03:00-05:00,55.78,19.04,734.39,152.56,1.01,216.91,0
2020-03-22T16:04:00-05:00,57.03,18.7,733.82,171.52,1.71,189.06,0
2020-03-22T16:05:00-05:00,57.81,18.4,733.89,218.72,0.72,219.86,0
2020-03-22T16:06:00-05:00,59.6,18.2,734.56,595.24,0.58,206.02,0
2020-03-22T16:07:00-05:00,62.26,18.19,735.5,465.42,0.69,229.77,0
2020-03-22T16:08:00-05:00,59.9,18.17,735.6,437.64,2.23,225.86,0
2020-03-22T16:09:00-05:00,60.22,18.15,734.02,199.6,1.71,213.96,0
2020-03-22T16:10:00-05:00,60.63,18.13,733.56,262.09,0.62,243.14,0
2020-03-22T16:11:00-05:00,61.38,18.15,732.35,568.04,2.03,174.07,0
2020-03-22T16:12:00-05:00,61.33,18.18,734.43,237.1,0.61,151.44,0
2020-03-22T16:13:00-05:00,61.56,18.24,733.72,477.04,0.63,228.82,0
2020-03-22T16:14:00-05:00,61.76,18.37,735.93,552.46,1.05,231.22,0
2020-03-22T16:15:00-05:00,60.97,18.47,738.01,532.47,0.68,211.91,0
2020-03-22T16:16:00-05:00,60.55,18.42,733.79,233.27,1.12,207.35,0
2020-03-22T16:17:00-05:00,59.97,18.42,734.66,540.26,0.65,206.97,0
2020-03-22T16:18:00-05:00,59.52,18.53,737.14,554.81,0.65,175.34,0
2020-03-22T16:19:00-05:00,61.54,18.7,735.53,559.08,0.54,104.18,0
2020-03-22T16:20:00-05:00,59.89,18.91,735.6,538.64,1.51,209.96,0
2020-03-22T16:21:00-05:00,57.59,18.99,735.06,519.23,0.79,219.87,0
2020-03-22T16:22:00-05:00,58.76,18.91,734.36,510.12,0.63,206,0
2020-03-22T16:23:00-05:00,60.45,18.95,734.19,494.83,2.73,225.86,0
2020-03-22T16:24:00-05:00,58.18,18.84,733.56,482.48,1.96,215.92,0
2020-03-22T16:25:00-05:00,59.5,18.66,734.43,478.21,0.93,231.87,0
2020-03-22T16:26:00-05:00,61.63,18.69,734.53,476.3,1.18,195.89,0
2020-03-22T16:27:00-05:00,58.88,18.7,734.46,473.95,2.51,230.12,0
2020-03-22T16:28:00-05:00,61.41,18.68,736,183.58,0.55,230.03,0
2020-03-22T16:29:00-05:00,59.98,18.62,734.39,185.49,1.27,228.17,0
2020-03-22T16:30:00-05:00,59.8,18.55,733.86,190.78,1.11,148.35,0
2020-03-22T16:31:00-05:00,60.69,18.41,734.46,220.04,0.71,262.03,0
2020-03-22T16:32:00-05:00,60.61,18.36,734.79,223.57,0.59,234.83,0
2020-03-22T16:33:00-05:00,62.98,18.37,733.92,285.32,0.53,218.24,0
2020-03-22T16:34:00-05:00,61.37,18.38,733.92,254,0.47,262.68,0
2020-03-22T16:35:00-05:00,60.47,18.33,732.85,197.69,1.71,207.37,0
2020-03-22T16:36:00-05:00,60.19,18.12,730.78,187.4,0.56,191,0
2020-03-22T16:37:00-05:00,60.19,17.95,734.46,193.87,0.69,215.93,0
2020-03-22T16:38:00-05:00,61.55,17.84,734.86,212.1,0.81,268.71,0
2020-03-22T16:39:00-05:00,62,17.75,734.36,203.13,0.42,271.64,0
2020-03-22T16:40:00-05:00,64.37,17.72,735.43,191.52,0.58,235.82,0
2020-03-22T16:41:00-05:00,64.96,17.74,734.39,202.99,0.68,208.93,0
2020-03-22T16:42:00-05:00,62.43,17.63,735.13,206.51,0.83,230.86,0
2020-03-22T16:43:00-05:00,61.78,17.58,734.36,191.08,0.52,177.03,0
2020-03-22T16:44:00-05:00,63.37,17.56,735.36,188.58,0.82,191.95,0
2020-03-22T16:45:00-05:00,63.24,17.55,735.46,184.46,1.99,228.82,0
2020-03-22T16:46:00-05:00,62.46,17.49,735.3,179.76,0.78,200.33,0
2020-03-22T16:47:00-05:00,62.5,17.41,734.46,179.76,1.61,186.97,0
2020-03-22T16:48:00-05:00,62.5,17.24,734.96,189.61,1.05,193.31,0
2020-03-22T16:49:00-05:00,65.85,17.18,734.46,182.4,0.76,224.91,0
2020-03-22T16:50:00-05:00,66,17.2,735.5,171.52,0.62,238.1,0
2020-03-22T16:51:00-05:00,65.83,17.23,734.79,164.47,1.31,184,0
2020-03-22T16:52:00-05:00,64.07,17.14,735.33,155.35,0.73,241.19,0
2020-03-22T16:53:00-05:00,65.43,17.13,735.4,164.17,2.17,227.81,0
2020-03-22T16:54:00-05:00,64.16,17.09,734.39,168.44,0.71,299.95,0
2020-03-22T16:55:00-05:00,62.97,17.05,735.33,170.79,0.37,318.57,0
2020-03-22T16:56:00-05:00,63.9,17.02,734.26,173.73,0.72,241.83,0
2020-03-22T16:57:00-05:00,64.15,17,734.63,170.93,1.44,186.95,0
2020-03-22T16:58:00-05:00,66.63,16.96,734.19,184.46,0.51,184.03,0
2020-03-22T16:59:00-05:00,64.48,16.92,735.16,201.96,0.62,143.19,0
2020-03-22T17:00:00-05:00,64.94,16.89,737.1,287.23,1.07,126.95,0
2020-03-22T17:01:00-05:00,66.06,16.88,735.56,276.5,1.32,232.15,0
2020-03-22T17:02:00-05:00,65.59,16.87,735,254.74,1.87,201.19,0
2020-03-22T17:03:00-05:00,66.29,16.86,735.73,207.54,0.62,222.94,0
2020-03-22T17:04:00-05:00,66.37,16.87,734.73,161.52,2.56,203.95,0
2020-03-22T17:05:00-05:00,65.39,16.76,735.53,143.88,0.96,216.22,0
2020-03-22T17:06:00-05:00,65.52,16.7,734.86,140.21,0.71,219.86,0
2020-03-22T17:07:00-05:00,67.76,16.68,734.46,135.8,0.99,198.34,0
2020-03-22T17:08:00-05:00,66.89,16.67,734.69,127.86,0.97,177.04,0
2020-03-22T17:09:00-05:00,66.6,16.64,734.59,112.86,0.79,233.2,0
2020-03-22T17:10:00-05:00,65.42,16.58,735.33,104.48,2.68,202.93,0
2020-03-22T17:11:00-05:00,66.76,16.51,735.67,104.04,0.96,229.14,0
2020-03-22T17:12:00-05:00,66.31,16.47,735.36,105.07,0.35,322.53,0
2020-03-22T17:13:00-05:00,65.24,16.47,734.9,104.48,0.83,206.02,0
2020-03-22T17:14:00-05:00,67.62,16.46,735.26,109.77,0.24,162.21,0
2020-03-22T17:15:00-05:00,66.87,16.46,734.86,112.42,0.25,122.01,0
2020-03-22T17:16:00-05:00,66.87,16.48,735.73,109.92,0.82,263.72,0
2020-03-22T17:17:00-05:00,66.97,16.46,735.93,98.3,0.87,206.03,0
2020-03-22T17:18:00-05:00,66.47,16.42,734.86,94.34,0.94,194.94,0
2020-03-22T17:19:00-05:00,66.69,16.41,735.77,91.98,1.55,244.79,0
2020-03-22T17:20:00-05:00,65.55,16.35,735.53,90.66,0.99,183.02,0
2020-03-22T17:21:00-05:00,66.61,16.26,734.9,95.66,0.86,197.99,0
2020-03-22T17:22:00-05:00,66.53,16.25,734.93,96.83,0.57,249.01,0
2020-03-22T17:23:00-05:00,66.95,16.25,735.03,98.16,1.04,227.86,0
2020-03-22T17:24:00-05:00,67.63,16.21,734.46,98.89,0.95,214.33,0
2020-03-22T17:25:00-05:00,66.24,16.08,733.89,104.77,2.5,199.95,0
2020-03-22T17:26:00-05:00,67.3,15.98,733.49,101.98,0.86,219.22,0
2020-03-22T17:27:00-05:00,67.19,15.88,733.15,99.92,1.11,131.43,0
2020-03-22T17:28:00-05:00,67.56,15.78,731.88,96.1,1.06,120.57,0
2020-03-22T17:29:00-05:00,68,15.75,732.15,92.42,0.47,224.9,0
2020-03-22T17:30:00-05:00,68.99,15.75,732.15,88.6,0.74,193.33,0
2020-03-22T17:31:00-05:00,69.05,15.73,731.98,82.43,0.54,220.86,0
2020-03-22T17:32:00-05:00,69.52,15.72,731.68,78.31,0.55,231.91,0
2020-03-22T17:33:00-05:00,70.63,15.71,731.75,75.08,0.33,242.82,0
2020-03-22T17:34:00-05:00,69.97,15.73,731.61,69.78,0.5,257.79,0
2020-03-22T17:35:00-05:00,69.81,15.74,730.74,66.4,0.54,166.41,0
2020-03-22T17:36:00-05:00,70.21,15.74,735.26,61.7,0.59,231.19,0
2020-03-22T17:37:00-05:00,69.84,15.71,735.87,59.78,0.62,156.19,0
2020-03-22T17:38:00-05:00,69,15.68,734.46,57.14,0.37,260.75,0
2020-03-22T17:39:00-05:00,70.34,15.68,735.06,56.4,0.17,184.01,0
2020-03-22T17:40:00-05:00,70.05,15.67,736.1,56.84,0.7,214.94,0
2020-03-22T17:41:00-05:00,68.95,15.61,735.93,58.76,0.6,193.96,0
2020-03-22T17:42:00-05:00,69.15,15.56,735.2,56.55,0.71,236.83,0
2020-03-22T17:43:00-05:00,69.43,15.49,735.23,53.02,0.72,181.4,0
2020-03-22T17:44:00-05:00,69.77,15.44,735.13,48.02,0.19,148.23,0
2020-03-22T17:45:00-05:00,69.16,15.43,735.26,46.7,0.6,323.83,0
2020-03-22T17:46:00-05:00,68.73,15.37,735.03,44.49,0.7,285.66,0
2020-03-22T17:47:00-05:00,69.5,15.38,735.83,39.94,0.78,302.99,0
2020-03-22T17:48:00-05:00,69.11,15.39,735.77,39.5,0.59,241.83,0
2020-03-22T17:49:00-05:00,70.16,15.43,736.33,33.91,0.24,212.26,0
2020-03-22T17:50:00-05:00,70.67,15.41,735.26,32.73,0.58,183.02,0
2020-03-22T17:51:00-05:00,70.02,15.39,735.16,28.76,0.75,146.28,0
2020-03-22T17:52:00-05:00,71.37,15.38,735.97,25.09,0.47,261.71,0
2020-03-22T17:53:00-05:00,71.77,15.37,735.73,21.26,0.57,139.11,0
2020-03-22T17:54:00-05:00,71.86,15.31,736.13,16.27,0.73,213.96,0
2020-03-22T17:55:00-05:00,70.8,15.27,735.2,16.27,0.57,268.72,0
2020-03-22T17:56:00-05:00,70.95,15.24,735.33,18.62,0.52,213.97,0
2020-03-22T17:57:00-05:00,70.66,15.2,734.79,15.82,0.26,166.11,0
2020-03-22T17:58:00-05:00,71.19,15.17,735.46,11.71,0.82,85.22,0
2020-03-22T17:59:00-05:00,70.42,15.13,734.53,8.18,1.01,74.93,0
2020-03-22T18:00:00-05:00,71.82,15.09,734.29,6.12,0.58,287.62,0
2020-03-22T18:01:00-05:00,70.93,15.07,734.9,3.18,1.29,286.66,0
2020-03-22T18:02:00-05:00,69.89,15.03,734.76,1.71,0.31,121.57,0
2020-03-22T18:03:00-05:00,70.68,14.98,734.73,3.62,0.29,110.43,0
2020-03-22T18:04:00-05:00,70.89,14.96,734.06,0.98,0.57,156.55,0
2020-03-22T18:05:00-05:00,70.88,14.94,733.29,1.56,0.59,137.98,0
2020-03-22T18:06:00-05:00,71.72,14.91,733.59,-0.2,0.9,93.56,0
2020-03-22T18:07:00-05:00,71.43,14.86,732.99,-0.49,0.3,56.22,0
2020-03-22T18:08:00-05:00,71.54,14.86,732.62,-1.97,0.86,69.82,0
2020-03-22T18:09:00-05:00,71.83,14.85,733.25,-0.49,1.04,173.12,0
2020-03-22T18:10:00-05:00,72.9,14.79,732.38,-1.38,0.6,241.1,0
2020-03-22T18:11:00-05:00,71.37,14.73,731.75,-1.52,1.02,96.66,0
2020-03-22T18:12:00-05:00,71.96,14.69,732.62,-1.82,0.75,186,0
2020-03-22T18:13:00-05:00,72.81,14.63,732.52,-2.11,1.15,155.21,0
2020-03-22T18:14:00-05:00,72.74,14.58,731.98,-2.55,0.89,142.24,0
2020-03-22T18:15:00-05:00,72.96,14.51,731.78,-2.99,0.29,147.25,0
2020-03-22T18:16:00-05:00,72.4,14.49,735.46,-2.85,0.57,265.8,0
2020-03-22T18:17:00-05:00,72.31,14.43,736.57,-3.44,0.64,244.8,0
2020-03-22T18:18:00-05:00,72.67,14.41,735.9,-4.02,0.7,126.65,0
2020-03-22T18:19:00-05:00,72.8,14.39,736.6,-1.97,0.83,137.31,0
2020-03-22T18:20:00-05:00,74.07,14.36,735.6,-2.26,0.56,226.85,0
2020-03-22T18:21:00-05:00,73.99,14.32,736.6,-2.7,0.59,218.22,0
2020-03-22T18:22:00-05:00,74.15,14.29,736.7,-3.29,0.64,123.31,0
2020-03-22T18:23:00-05:00,74.64,14.22,736.57,-2.7,1.05,152.51,0
2020-03-22T18:24:00-05:00,75.2,14.18,735.73,-2.41,0.44,234.83,0
2020-03-22T18:25:00-05:00,75.28,14.18,736.47,-3.73,0.65,147.61,0
2020-03-22T18:26:00-05:00,75.31,14.16,735.97,-2.11,0.76,102.06,0
2020-03-22T18:27:00-05:00,75.2,14.16,735.67,-1.97,0.9,104.62,0
2020-03-22T18:28:00-05:00,75.6,14.14,736.4,-1.23,0.64,170.06,0
2020-03-22T18:29:00-05:00,75.5,14.11,735.87,-2.41,0.62,93.43,0
2020-03-22T18:30:00-05:00,76.28,14.1,736.54,-1.67,0.57,183.04,0
2020-03-22T18:31:00-05:00,76.08,14.08,735.93,-2.26,0.78,225.87,0
2020-03-22T18:32:00-05:00,75.74,14.06,736.5,-2.11,0.3,186,0
2020-03-22T18:33:00-05:00,75.41,14.05,735.83,-1.23,0.42,278.7,0
2020-03-22T18:34:00-05:00,75.66,14.04,736.77,-2.26,0.46,224.91,0
2020-03-22T18:35:00-05:00,75.73,14.05,735.83,0.24,0.49,283.71,0
2020-03-22T18:36:00-05:00,75.76,14.06,737.14,-0.79,0.94,308.65,0
2020-03-22T18:37:00-05:00,75.78,14.08,736.47,-0.05,0.76,57.81,0
2020-03-22T18:38:00-05:00,75.98,14.11,736.77,-2.41,0.62,179.14,0
2020-03-22T18:39:00-05:00,75.9,14.12,735.8,-2.26,0.24,238.86,0
2020-03-22T18:40:00-05:00,75.83,14.13,735.77,-1.67,0.58,309.94,0
2020-03-22T18:41:00-05:00,75.52,14.13,735.97,-0.2,2.57,37.31,0
2020-03-22T18:42:00-05:00,75.55,14.11,736,-0.35,0.15,85.41,0
2020-03-22T18:43:00-05:00,76.35,14.12,736.54,0.68,0.13,39.1,0
2020-03-22T18:44:00-05:00,75.49,14.1,736.74,-1.97,0.75,77.11,0
2020-03-22T18:45:00-05:00,75.54,14.11,736.13,-0.2,0.62,39.64,0
2020-03-22T18:46:00-05:00,75.78,14.13,736.13,-2.11,0.88,114.36,0
2020-03-22T18:47:00-05:00,75.74,14.14,736.54,-2.11,2.27,42.59,0
2020-03-22T18:48:00-05:00,76.59,14.14,735.9,-0.79,0.33,256.03,0
2020-03-22T18:49:00-05:00,76.5,14.18,735.56,-2.55,0.54,264.82,0
2020-03-22T18:50:00-05:00,76.27,14.16,735.87,-0.49,0.06,345.5,0
2020-03-22T18:51:00-05:00,75.92,14.15,736.3,-0.79,0.3,71.72,0
2020-03-22T18:52:00-05:00,76.2,14.14,736.67,-0.64,0.55,191.3,0
2020-03-22T18:53:00-05:00,76.28,14.14,735.6,-1.97,0.46,149.2,0
2020-03-22T18:54:00-05:00,76.49,14.13,735.56,-3.14,0.66,50.82,0
2020-03-22T18:55:00-05:00,76.26,14.13,735.73,-1.82,0.97,82.2,0
2020-03-22T18:56:00-05:00,76.08,14.13,736.23,-2.55,0.57,332.51,0
2020-03-22T18:57:00-05:00,75.98,14.13,736.3,-2.26,0.61,30.42,0
2020-03-22T18:58:00-05:00,76.08,14.1,736.5,-2.26,0.62,9.91,0
2020-03-22T18:59:00-05:00,76.3,14.1,735.6,-2.85,0.7,68.27,0
2020-03-22T19:00:00-05:00,76.59,14.08,736.4,-2.11,0.76,11.83,0
2020-03-22T19:01:00-05:00,76.41,14.11,736.94,-3.14,0.63,302,0
2020-03-22T19:02:00-05:00,76.35,14.08,736.37,-2.99,0.58,121.22,0
2020-03-22T19:03:00-05:00,76.4,14.06,736.03,-0.79,0.28,333.92,0
2020-03-22T19:04:00-05:00,76.87,14.03,734.66,-2.26,0.2,12.55,0
2020-03-22T19:05:00-05:00,76.93,14.04,735.36,-2.26,0.48,50.8,0
2020-03-22T19:06:00-05:00,77.72,14.04,735.8,-2.7,0.32,211.91,0
2020-03-22T19:07:00-05:00,77.31,14.04,736.33,-2.41,0.6,184.37,0
2020-03-22T19:08:00-05:00,77.63,14.03,736.33,-0.35,0.57,145.28,0
2020-03-22T19:09:00-05:00,77.4,14,735.83,-0.2,0.34,172.14,0
2020-03-22T19:10:00-05:00,77.33,13.98,735.93,-0.35,0.78,178.06,0
2020-03-22T19:11:00-05:00,77.61,13.92,735.9,-1.97,0.82,190.05,0
2020-03-22T19:12:00-05:00,78.44,13.88,735,-2.7,0.65,173.12,0
2020-03-22T19:13:00-05:00,78.17,13.83,735.97,-3.73,0.72,225.91,0
2020-03-22T19:14:00-05:00,77.97,13.8,735.73,-0.64,0.56,186.97,0
2020-03-22T19:15:00-05:00,78.32,13.78,734.9,-2.7,0.57,177.06,0
2020-03-22T19:16:00-05:00,78.6,13.78,734.66,-3.44,0.62,147.24,0
2020-03-22T19:17:00-05:00,78.58,13.75,734.96,-1.67,0.73,152.14,0
2020-03-22T19:18:00-05:00,78.26,13.73,734.73,-2.26,0.69,138.05,0
2020-03-22T19:19:00-05:00,78.29,13.74,735.87,-2.55,0.5,15.37,0
2020-03-22T19:20:00-05:00,78.56,13.75,734.83,-3.73,0.23,149.55,0
2020-03-22T19:21:00-05:00,78.44,13.72,734.39,-3.44,0.18,88.94,0
2020-03-22T19:22:00-05:00,78.9,13.74,735.06,-4.17,1.02,44.79,0
2020-03-22T19:23:00-05:00,78.78,13.73,734.06,-3.44,0.99,14.46,0
2020-03-22T19:24:00-05:00,78.59,13.75,735.1,-2.26,1.23,72.82,0
2020-03-22T19:25:00-05:00,78.4,13.76,734.49,-1.97,0.89,26.47,0
2020-03-22T19:26:00-05:00,78.68,13.76,734.49,-2.26,0.6,5.12,0
2020-03-22T19:27:00-05:00,78.45,13.77,734.66,-2.11,0.25,113.21,0
2020-03-22T19:28:00-05:00,79.02,13.76,734.83,-0.05,0.62,151.15,0
2020-03-22T19:29:00-05:00,79.45,13.76,734.93,-0.05,0.17,174.13,0
2020-03-22T19:30:00-05:00,78.97,13.75,734.36,-0.05,0.57,155.2,0
2020-03-22T19:31:00-05:00,78.76,13.73,734.66,-2.11,0.57,185.05,0
2020-03-22T19:32:00-05:00,78.84,13.72,734.13,-1.67,0.56,152.16,0
2020-03-22T19:33:00-05:00,78.77,13.71,734.9,-0.35,0.56,146.25,0
2020-03-22T19:34:00-05:00,79.64,13.7,734.83,-0.79,0.32,83.89,0
2020-03-22T19:35:00-05:00,80.29,13.71,734.79,-2.99,0.12,60.2,0
2020-03-22T19:36:00-05:00,80.59,13.71,734.63,-0.94,0.43,172.14,0
2020-03-22T19:37:00-05:00,80.3,13.68,733.22,-2.26,0.28,160.16,0
2020-03-22T19:38:00-05:00,79.93,13.66,734.46,-3.29,0.57,128.09,0
2020-03-22T19:39:00-05:00,80.02,13.66,734.06,-2.11,0.48,151.53,0
2020-03-22T19:40:00-05:00,80.44,13.65,734.63,-2.55,0.39,131.26,0
2020-03-22T19:41:00-05:00,80.37,13.66,733.89,-1.38,0.8,59.83,0
2020-03-22T19:42:00-05:00,80.74,13.66,734.33,-1.97,0.57,87.02,0
2020-03-22T19:43:00-05:00,80.88,13.68,734.46,-0.49,0.26,145.63,0
2020-03-22T19:44:00-05:00,80.37,13.66,733.59,-1.23,0.39,134.22,0
2020-03-22T19:45:00-05:00,80.03,13.65,733.92,-1.08,0.76,47.51,0
2020-03-22T19:46:00-05:00,79.85,13.66,733.72,-3.44,0.87,80.11,0
2020-03-22T19:47:00-05:00,80,13.66,734.9,-1.97,0.6,69.27,0
2020-03-22T19:48:00-05:00,80.31,13.64,734.13,-2.26,0.27,12.24,0
2020-03-22T19:49:00-05:00,80.28,13.64,733.09,-2.85,0.46,49.24,0
2020-03-22T19:50:00-05:00,80.6,13.64,733.72,-3.44,0.14,82.14,0
2020-03-22T19:51:00-05:00,80.83,13.62,733.62,-5.05,0.19,58.72,0
2020-03-22T19:52:00-05:00,80.77,13.6,732.99,-6.96,0.46,140.72,0
2020-03-22T19:53:00-05:00,79.99,13.54,737,-6.38,0.6,150.15,0
2020-03-22T19:54:00-05:00,79.7,13.51,737.51,-5.49,0.57,146.27,0
2020-03-22T19:55:00-05:00,80.39,13.48,737.47,-6.82,0.58,68.77,0
2020-03-22T19:56:00-05:00,80.37,13.43,737.91,-4.61,0.57,92.21,0
2020-03-22T19:57:00-05:00,80.54,13.4,737.74,-4.61,0.52,77.99,0
2020-03-22T19:58:00-05:00,80.76,13.36,737.67,-4.61,0.7,16.78,0
2020-03-22T19:59:00-05:00,81.64,13.34,737.61,-4.76,0.52,1.09,0
2020-03-22T20:00:00-05:00,81.78,13.3,736.6,-4.61,0.8,58.11,0
2020-03-22T20:01:00-05:00,81.84,13.25,736.87,-5.35,1.35,78.55,0
2020-03-22T20:02:00-05:00,81.44,13.22,737.74,-5.35,1.32,88.81,0
2020-03-22T20:03:00-05:00,80.5,13.18,737.74,-4.91,1.85,30.85,0
2020-03-22T20:04:00-05:00,80.35,13.17,736.74,-4.76,2.16,63.04,0
2020-03-22T20:05:00-05:00,80.16,13.16,737.81,-5.79,0.73,45.98,0
2020-03-22T20:06:00-05:00,79.58,13.15,738.34,-3.29,2.55,59.07,0
2020-03-22T20:07:00-05:00,78.98,13.12,737.74,-5.49,1.53,33.63,0
2020-03-22T20:08:00-05:00,78.96,13.1,738.08,-2.85,0.92,73.38,0
2020-03-22T20:09:00-05:00,79.24,13.12,737.1,-3.73,1.3,29.32,0
2020-03-22T20:10:00-05:00,79.33,13.11,737.74,-3.44,0.71,36.35,0
2020-03-22T20:11:00-05:00,79.61,13.06,736.94,-5.35,2.29,40.88,0
2020-03-22T20:12:00-05:00,78.98,13.04,737.2,-3.14,0.91,57.22,0
2020-03-22T20:13:00-05:00,79.25,13.02,736.9,-5.05,1.12,49.92,0
2020-03-22T20:14:00-05:00,79.59,13.02,736.9,-2.85,1.41,67.25,0
2020-03-22T20:15:00-05:00,79.27,13.02,736.9,-2.55,0.58,53.99,0
2020-03-22T20:16:00-05:00,79.11,12.99,737.71,-5.79,0.7,113.84,0
2020-03-22T20:17:00-05:00,79.29,12.97,737.47,-5.64,0.62,45.5,0
2020-03-22T20:18:00-05:00,80.07,12.95,737.91,-2.85,0.74,53.61,0
2020-03-22T20:19:00-05:00,79.52,12.96,736.97,-4.32,1.31,57.33,0
2020-03-22T20:20:00-05:00,79.6,12.95,737.54,-3.58,0.58,68.72,0
2020-03-22T20:21:00-05:00,79.49,12.95,737.07,-5.64,0.69,105.56,0
2020-03-22T20:22:00-05:00,79.81,12.91,738.08,-3.44,0.97,69.16,0
2020-03-22T20:23:00-05:00,79.25,12.89,737.54,-3.14,2.26,44.5,0
2020-03-22T20:24:00-05:00,79.2,12.9,737.84,-5.05,1.39,51.11,0
2020-03-22T20:25:00-05:00,79.92,12.87,737.17,-4.61,0.77,66.9,0
2020-03-22T20:26:00-05:00,80.6,12.83,736.97,-4.32,0.71,95.34,0
2020-03-22T20:27:00-05:00,80.52,12.79,736.97,-4.61,1.54,49.55,0
2020-03-22T20:28:00-05:00,79.89,12.74,736.87,-2.99,0.62,68.85,0
2020-03-22T20:29:00-05:00,80.43,12.72,737.57,-2.55,0.71,79.78,0
2020-03-22T20:30:00-05:00,80.59,12.69,736.7,-5.49,0.35,80.01,0
2020-03-22T20:31:00-05:00,80.59,12.68,737.37,-4.61,0.6,107.74,0
2020-03-22T20:32:00-05:00,79.95,12.62,737.71,-2.99,0.68,162.51,0
2020-03-22T20:33:00-05:00,79.13,12.63,736.74,-5.35,0.63,178.3,0
2020-03-22T20:34:00-05:00,79,12.63,736.84,-4.61,0.58,176.08,0
2020-03-22T20:35:00-05:00,78.47,12.65,737.27,-4.46,0.21,126.52,0
2020-03-22T20:36:00-05:00,79.28,12.64,737.47,-2.7,0.24,51.41,0
2020-03-22T20:37:00-05:00,79.81,12.63,736.47,-4.91,0.3,29.42,0
2020-03-22T20:38:00-05:00,80.66,12.61,736.8,-4.61,0.59,41.99,0
2020-03-22T20:39:00-05:00,80.7,12.6,736.17,-5.2,0.6,48.47,0
2020-03-22T20:40:00-05:00,80.94,12.57,735.77,-4.76,0.64,24.08,0
2020-03-22T20:41:00-05:00,81.1,12.56,735.83,-3.44,0.68,39.09,0
2020-03-22T20:42:00-05:00,81.09,12.54,735.7,-2.85,0.71,59.96,0
2020-03-22T20:43:00-05:00,81.68,12.49,736.94,-4.46,0.77,63.09,0
2020-03-22T20:44:00-05:00,82.01,12.45,735.56,-4.32,0.6,105.59,0
2020-03-22T20:45:00-05:00,81.57,12.46,736.07,-5.2,0.58,62.75,0
2020-03-22T20:46:00-05:00,81.08,12.43,735.56,-4.02,0.26,99.26,0
2020-03-22T20:47:00-05:00,81.61,12.39,735.93,-6.23,0.6,125.79,0
2020-03-22T20:48:00-05:00,81.43,12.34,735.87,-3.14,1.25,59.72,0
2020-03-22T20:49:00-05:00,80.92,12.32,734.79,-5.49,0.89,40.66,0
2020-03-22T20:50:00-05:00,80.92,12.34,734.49,-3.73,1.3,78.16,0
2020-03-22T20:51:00-05:00,80.99,12.35,735.03,-4.17,0.24,102.63,0
2020-03-22T20:52:00-05:00,80.91,12.34,734.69,-4.91,0.68,79.7,0
2020-03-22T20:53:00-05:00,80.05,12.33,735.2,-4.32,0.59,89.95,0
2020-03-22T20:54:00-05:00,80.39,12.34,734.66,-2.7,0.63,61.12,0
2020-03-22T20:55:00-05:00,81.08,12.35,735.4,-2.85,0.28,59.78,0
2020-03-22T20:56:00-05:00,80.67,12.33,734.76,-2.41,0.56,99.1,0
2020-03-22T20:57:00-05:00,80.87,12.32,734.93,-2.99,0.34,71.03,0
2020-03-22T20:58:00-05:00,80.94,12.35,734.36,-2.55,0.59,34.54,0
2020-03-22T20:59:00-05:00,80.91,12.33,735.13,-2.55,0.6,78.42,0
2020-03-22T21:00:00-05:00,80.71,12.36,734.49,-4.32,0.47,70.33,0
2020-03-22T21:01:00-05:00,80.8,12.37,734.19,-5.2,0.91,71.51,0
2020-03-22T21:02:00-05:00,80.37,12.37,734.23,-4.32,0.45,1.75,0
2020-03-22T21:03:00-05:00,80.98,12.33,733.92,-4.32,0.6,48.83,0
2020-03-22T21:04:00-05:00,81.19,12.33,734.76,-4.32,0.41,35.42,0
2020-03-22T21:05:00-05:00,81.34,12.29,734.06,-4.91,0.9,53.28,0
2020-03-22T21:06:00-05:00,81.53,12.26,733.96,-4.02,0.86,59.77,0
2020-03-22T21:07:00-05:00,81.52,12.21,733.52,-2.7,0.62,41.78,0
2020-03-22T21:08:00-05:00,81.81,12.17,733.99,-4.17,0.77,84.61,0
2020-03-22T21:09:00-05:00,81.19,12.11,734.16,-4.02,0.6,82.99,0
2020-03-22T21:10:00-05:00,81.7,12.11,734.83,-5.2,0.92,70.65,0
2020-03-22T21:11:00-05:00,81.73,12.09,734.06,-5.49,0.59,59.19,0
2020-03-22T21:12:00-05:00,82.35,12.08,734.79,-4.61,0.48,110.14,0
2020-03-22T21:13:00-05:00,82.84,12.06,734.23,-4.91,0.46,105.75,0
2020-03-22T21:14:00-05:00,82.87,12.02,734.59,-2.99,0.68,86.23,0
2020-03-22T21:15:00-05:00,82.72,11.99,734.53,-2.55,0.56,96.29,0
2020-03-22T21:16:00-05:00,82.82,11.98,734.06,-4.91,1.23,73.2,0
2020-03-22T21:17:00-05:00,82.93,11.93,734.59,-2.99,0.68,77.74,0
2020-03-22T21:18:00-05:00,82.66,11.91,734.79,-3.44,0.66,88.32,0
2020-03-22T21:19:00-05:00,82.91,11.91,734.43,-3.44,0.91,57.86,0
2020-03-22T21:20:00-05:00,83.06,11.88,734.76,-2.85,0.68,86.71,0
2020-03-22T21:21:00-05:00,83.3,11.86,734.43,-3.44,0.69,53.29,0
2020-03-22T21:22:00-05:00,83.61,11.84,733.96,-4.76,0.74,41.69,0
2020-03-22T21:23:00-05:00,83.38,11.81,733.99,-2.99,0.61,78.78,0
2020-03-22T21:24:00-05:00,82.98,11.77,734.49,-2.99,0.91,36.91,0
2020-03-22T21:25:00-05:00,83.06,11.77,734.06,-4.02,0.78,58.21,0
2020-03-22T21:26:00-05:00,83.03,11.73,734.86,-3.44,1.07,38.02,0
2020-03-22T21:27:00-05:00,83.5,11.73,734.59,-2.11,0.57,86.23,0
2020-03-22T21:28:00-05:00,83.83,11.76,735.43,-1.38,0.25,58.78,0
2020-03-22T21:29:00-05:00,84.35,11.75,734.93,-2.41,0.37,104.2,0
2020-03-22T21:30:00-05:00,84.56,11.77,733.86,-2.41,0.47,139.24,0
2020-03-22T21:31:00-05:00,85.14,11.78,734.73,-3.29,0.33,52.77,0
2020-03-22T21:32:00-05:00,85.08,11.77,734.06,-2.11,0.59,36.03,0
2020-03-22T21:33:00-05:00,84.85,11.77,733.89,-2.99,0.65,41.46,0
2020-03-22T21:34:00-05:00,84.97,11.77,734.79,-1.82,0.75,28.07,0
2020-03-22T21:35:00-05:00,84.57,11.77,734.02,-1.08,0.64,46.83,0
2020-03-22T21:36:00-05:00,84.28,11.73,734.06,-0.64,0.89,59.34,0
2020-03-22T21:37:00-05:00,83.32,11.73,734.43,-2.26,1.58,61.96,0
2020-03-22T21:38:00-05:00,83.28,11.77,734.46,-0.94,0.98,97.33,0
2020-03-22T21:39:00-05:00,83.64,11.81,734.53,0.09,0.82,100.56,0
2020-03-22T21:40:00-05:00,83.69,11.83,734.9,-0.94,1.94,75.45,0
2020-03-22T21:41:00-05:00,83.15,11.89,735.23,-0.64,2.15,34.09,0
2020-03-22T21:42:00-05:00,83.36,11.98,735.73,0.98,0.83,68.19,0
2020-03-22T21:43:00-05:00,82.63,12.05,735.43,1.71,0.91,27.06,0
2020-03-22T21:44:00-05:00,81.91,12.1,735.46,-0.35,0.7,86.2,0
2020-03-22T21:45:00-05:00,80.55,12.1,736.33,1.27,0.58,58.59,0
2020-03-22T21:46:00-05:00,81.18,12.11,736.17,0.83,0.78,90.4,0
2020-03-22T21:47:00-05:00,81.62,12.12,736,1.12,0.86,43.56,0
2020-03-22T21:48:00-05:00,82.03,12.17,736.03,1.27,0.98,74.49,0
2020-03-22T21:49:00-05:00,81.44,12.24,737,1.27,1.7,41.17,0
2020-03-22T21:50:00-05:00,80.01,12.29,737.17,0.39,1.95,18.27,0
2020-03-22T21:51:00-05:00,79.41,12.31,736.43,0.98,3,46.25,0
2020-03-22T21:52:00-05:00,79.21,12.39,737.24,-0.79,2.41,54.44,0
2020-03-22T21:53:00-05:00,78.58,12.37,737.24,-1.38,2.76,38.73,0
2020-03-22T21:54:00-05:00,78.86,12.4,736.87,-1.08,2.53,61,0
2020-03-22T21:55:00-05:00,78.68,12.45,737.81,1.12,2.35,48.09,0
2020-03-22T21:56:00-05:00,77.81,12.49,736.8,0.68,1.96,65.49,0
2020-03-22T21:57:00-05:00,77.51,12.39,738.18,-2.41,2.21,99.48,0
2020-03-22T21:58:00-05:00,78.52,12.39,737.67,-0.79,0.92,18.44,0
2020-03-22T21:59:00-05:00,77.74,12.41,737,-1.97,1.91,72.76,0
2020-03-22T22:00:00-05:00,77.72,12.39,737.74,-1.23,2.06,71.3,0
2020-03-22T22:01:00-05:00,77.51,12.38,737.17,-4.17,2.1,51.94,0
2020-03-22T22:02:00-05:00,77.27,12.37,737.87,-4.32,0.77,90.46,0
2020-03-22T22:03:00-05:00,77.51,12.35,736.97,-4.17,0.67,15.43,0
2020-03-22T22:04:00-05:00,77.91,12.29,737,-3.88,2.08,54.26,0
2020-03-22T22:05:00-05:00,77.37,12.3,736.54,-0.94,2.6,48.25,0
2020-03-22T22:06:00-05:00,76.84,12.33,736.77,-1.82,1.29,59.06,0
2020-03-22T22:07:00-05:00,77.11,12.36,737.2,-2.7,0.53,100.07,0
2020-03-22T22:08:00-05:00,77.25,12.37,737.54,-3.14,0.61,35.55,0
2020-03-22T22:09:00-05:00,77.21,12.37,737.34,-3.29,1.01,52.28,0
2020-03-22T22:10:00-05:00,76.58,12.37,737.54,-2.7,2.55,52.12,0
2020-03-22T22:11:00-05:00,77.35,12.38,737.24,-0.79,0.3,89.53,0
2020-03-22T22:12:00-05:00,76.99,12.37,737.61,-3.29,0.57,32.26,0
2020-03-22T22:13:00-05:00,76.83,12.33,736.9,-2.26,1.06,52.96,0
2020-03-22T22:14:00-05:00,77.4,12.27,737.41,-2.7,0.62,124.5,0
2020-03-22T22:15:00-05:00,77.8,12.23,737.24,-2.26,1.04,21.89,0
2020-03-22T22:16:00-05:00,78.5,12.21,737.71,-3.88,0.63,350.54,0
2020-03-22T22:17:00-05:00,79.41,12.2,736.5,-3.88,0.64,73.88,0
2020-03-22T22:18:00-05:00,78.56,12.17,735.93,-3.44,0.63,53.63,0
2020-03-22T22:19:00-05:00,78.72,12.15,736.5,-3.88,0.63,7.45,0
2020-03-22T22:20:00-05:00,78.84,12.13,736.74,-3.29,1.04,44.32,0
2020-03-22T22:21:00-05:00,78.64,12.07,736.57,-1.97,0.6,43.95,0
2020-03-22T22:22:00-05:00,79,12.02,735.83,-2.99,1.17,68.22,0
2020-03-22T22:23:00-05:00,79.45,11.96,735.77,-3.44,0.6,48.67,0
2020-03-22T22:24:00-05:00,79.71,11.91,735.73,-4.91,0.56,52.66,0
2020-03-22T22:25:00-05:00,79.6,11.87,735.4,-4.61,0.74,58.05,0
2020-03-22T22:26:00-05:00,79.75,11.83,735.8,-4.76,0.64,78.02,0
2020-03-22T22:27:00-05:00,80.15,11.83,735.36,-4.61,0.59,130.17,0
2020-03-22T22:28:00-05:00,81.22,11.79,735.5,-4.91,0.55,124.2,0
2020-03-22T22:29:00-05:00,80.87,11.75,736.17,-2.41,0.57,84.93,0
2020-03-22T22:30:00-05:00,80.57,11.72,734.86,-2.55,0.8,49.9,0
2020-03-22T22:31:00-05:00,80.62,11.74,735.87,-3.73,0.75,67.3,0
2020-03-22T22:32:00-05:00,80.64,11.77,735.06,-1.97,0.74,41.23,0
2020-03-22T22:33:00-05:00,81.1,11.75,735.26,-4.32,0.6,77.45,0
2020-03-22T22:34:00-05:00,80.74,11.75,734.66,-2.26,0.27,150.52,0
2020-03-22T22:35:00-05:00,80.71,11.75,734.49,-3.58,0.16,37.4,0
2020-03-22T22:36:00-05:00,81.26,11.75,735,-2.55,0.17,183.38,0
2020-03-22T22:37:00-05:00,81.33,11.75,735,-2.41,0.26,94.34,0
2020-03-22T22:38:00-05:00,80.74,11.75,734.23,-3.88,0.25,353.75,0
2020-03-22T22:39:00-05:00,81.26,11.75,734.39,-2.26,0.55,69.56,0
2020-03-22T22:40:00-05:00,82.11,11.74,733.76,-1.97,0.59,38.88,0
2020-03-22T22:41:00-05:00,81.5,11.73,734.43,-4.61,0.61,106.22,0
2020-03-22T22:42:00-05:00,80.13,11.74,734.46,-2.7,0.28,79,0
2020-03-22T22:43:00-05:00,80.39,11.75,739.01,-2.7,0.69,64.08,0
2020-03-22T22:44:00-05:00,80.35,11.77,738.98,-2.26,0.14,58.35,0
2020-03-22T22:45:00-05:00,81.14,11.78,737.87,-3.73,0.22,87.38,0
2020-03-22T22:46:00-05:00,80.66,11.78,738.41,-1.97,0.11,69.29,0
2020-03-22T22:47:00-05:00,81.03,11.77,738.58,-0.64,0.58,31.73,0
2020-03-22T22:48:00-05:00,81.1,11.77,738.88,-3.44,0.57,33.51,0
2020-03-22T22:49:00-05:00,80.45,11.73,738.74,-1.23,0.58,41.22,0
2020-03-22T22:50:00-05:00,80.76,11.73,739.21,-0.49,0.58,49.26,0
2020-03-22T22:51:00-05:00,80.65,11.71,738.54,-3.14,0.69,40.69,0
2020-03-22T22:52:00-05:00,80.56,11.65,739.05,-3.44,0.92,40.9,0
2020-03-22T22:53:00-05:00,80.2,11.61,738.85,-2.11,1.01,31.6,0
2020-03-22T22:54:00-05:00,80.66,11.59,738.54,-2.85,0.65,59.11,0
2020-03-22T22:55:00-05:00,80.34,11.56,739.05,-1.52,1.12,62.42,0
2020-03-22T22:56:00-05:00,80.66,11.55,738.18,-3.29,0.79,62.98,0
2020-03-22T22:57:00-05:00,80.66,11.54,739.11,-2.7,0.64,81.43,0
2020-03-22T22:58:00-05:00,81.5,11.56,739.11,-1.82,0.72,79.48,0
2020-03-22T22:59:00-05:00,80.68,11.56,738.28,-1.82,0.6,92.17,0
2020-03-22T23:00:00-05:00,80.59,11.59,738.85,-1.08,0.68,105.89,0
2020-03-22T23:01:00-05:00,80.85,11.65,738.68,-1.38,0.62,144.19,0
2020-03-22T23:02:00-05:00,80.8,11.74,738.48,-0.35,0.58,120.26,0
2020-03-22T23:03:00-05:00,80.86,11.79,738.44,-0.64,0.81,101.51,0
2020-03-22T23:04:00-05:00,80.92,11.85,738.24,-1.38,0.64,75.21,0
2020-03-22T23:05:00-05:00,81.2,11.87,739.05,-1.82,0.91,47.49,0
2020-03-22T23:06:00-05:00,80.48,11.87,739.08,0.68,0.73,65.83,0
2020-03-22T23:07:00-05:00,79.69,11.81,739.48,-1.23,1.14,46.81,0
2020-03-22T23:08:00-05:00,79.73,11.78,739.62,-2.41,0.88,71.69,0
2020-03-22T23:09:00-05:00,80.46,11.77,738.21,-2.26,1.06,74.81,0
2020-03-22T23:10:00-05:00,80.43,11.79,738.58,-2.41,0.67,59.65,0
2020-03-22T23:11:00-05:00,80.17,11.79,738.28,0.09,0.67,45.28,0
2020-03-22T23:12:00-05:00,80.23,11.79,738.54,-0.35,0.83,77.86,0
2020-03-22T23:13:00-05:00,80.41,11.81,739.01,0.24,0.67,81.21,0
2020-03-22T23:14:00-05:00,80.29,11.8,739.38,-2.41,0.65,65.42,0
2020-03-22T23:15:00-05:00,80.8,11.83,738.81,0.39,0.59,78.3,0
2020-03-22T23:16:00-05:00,80.86,11.8,738.81,-0.64,0.61,65.25,0
2020-03-22T23:17:00-05:00,80.64,11.83,739.15,-2.11,0.73,75.02,0
2020-03-22T23:18:00-05:00,80.94,11.82,738.91,-1.97,0.56,64.57,0
2020-03-22T23:19:00-05:00,81.46,11.84,739.21,-1.97,0.35,44.38,0
2020-03-22T23:20:00-05:00,81.52,11.83,739.95,-1.52,0.52,62.99,0
2020-03-22T23:21:00-05:00,81.89,11.83,739.21,-1.97,0.53,69.63,0
2020-03-22T23:22:00-05:00,82.46,11.86,739.18,-0.2,0.51,60.94,0
2020-03-22T23:23:00-05:00,82.62,11.88,739.55,-0.2,0.55,58.04,0
2020-03-22T23:24:00-05:00,82.39,11.88,739.08,-0.64,0.7,55.55,0
2020-03-22T23:25:00-05:00,82.23,11.89,739.58,-0.64,0.73,34.64,0
2020-03-22T23:26:00-05:00,81.91,11.85,739.65,-1.82,0.59,29.16,0
2020-03-22T23:27:00-05:00,82.31,11.84,738.68,-2.11,0.69,66.75,0
2020-03-22T23:28:00-05:00,82.5,11.83,739.41,-0.64,0.65,58.82,0
2020-03-22T23:29:00-05:00,82.28,11.81,738.61,-1.08,0.99,63.2,0
2020-03-22T23:30:00-05:00,82.79,11.81,738.31,-2.7,0.71,52.32,0
2020-03-22T23:31:00-05:00,83.28,11.82,739.35,-2.41,0.83,66.69,0
2020-03-22T23:32:00-05:00,83.16,11.81,738.51,-2.41,0.83,50.74,0
2020-03-22T23:33:00-05:00,82.7,11.81,739.01,-0.35,0.85,38.19,0
2020-03-22T23:34:00-05:00,82.72,11.79,739.08,-0.94,1.11,39.63,0
2020-03-22T23:35:00-05:00,82.91,11.76,738.61,-1.23,0.84,42.18,0
2020-03-22T23:36:00-05:00,83.09,11.79,738.48,-1.52,0.69,75.4,0
2020-03-22T23:37:00-05:00,83.2,11.79,738.48,-2.99,0.26,40.07,0
2020-03-22T23:38:00-05:00,83.68,11.81,737.91,-2.11,0.63,77.62,0
2020-03-22T23:39:00-05:00,83.52,11.8,738.41,-1.82,0.57,21.84,0
2020-03-22T23:40:00-05:00,83.63,11.83,738.34,-0.94,0.72,56.82,0
2020-03-22T23:41:00-05:00,82.9,11.81,738.71,-1.08,0.62,64.17,0
2020-03-22T23:42:00-05:00,82.69,11.82,738.48,-1.38,0.68,59.76,0
2020-03-22T23:43:00-05:00,82.55,11.8,738.61,0.09,0.83,43.67,0
2020-03-22T23:44:00-05:00,82.2,11.8,738.91,0.39,0.65,41.4,0
2020-03-22T23:45:00-05:00,82.07,11.8,739.41,-2.55,0.54,19.75,0
2020-03-22T23:46:00-05:00,82.44,11.81,739.08,-0.49,0.55,33.46,0
2020-03-22T23:47:00-05:00,83.03,11.81,738.34,-1.67,0.81,72.28,0
2020-03-22T23:48:00-05:00,82.84,11.81,739.15,-0.49,1.08,41.7,0
2020-03-22T23:49:00-05:00,83.11,11.81,738.78,-0.35,0.59,64.47,0
2020-03-22T23:50:00-05:00,83.11,11.85,739.05,-2.11,0.8,33.44,0
2020-03-22T23:51:00-05:00,82.85,11.84,739.45,-1.82,0.55,65.98,0
2020-03-22T23:52:00-05:00,83.08,11.87,739.35,-2.11,0.93,73.9,0
2020-03-22T23:53:00-05:00,82.07,11.84,739.11,-2.26,0.79,78.28,0
2020-03-22T23:54:00-05:00,81.78,11.83,738.81,-0.79,0.74,71.96,0
2020-03-22T23:55:00-05:00,81.76,11.81,738.61,-1.97,1,61.39,0
2020-03-22T23:56:00-05:00,82.16,11.83,739.25,0.24,0.85,53.28,0
2020-03-22T23:57:00-05:00,82.37,11.83,738.85,-1.82,0.97,55.73,0
2020-03-22T23:58:00-05:00,82.24,11.82,739.62,-1.52,0.75,47.91,0
2020-03-22T23:59:00-05:00,81.78,11.81,739.31,-1.82,1.02,58.06,0
