time,[HUME],[TEMP],[PRES],[RADI],[RAPV],[DIRV],[PREC]
2020-03-10T00:00:00-05:00,86.52,12.48,738.98,-0.49,0.69,199.01,0
2020-03-10T00:01:00-05:00,86.8,12.47,739.11,-0.79,0.61,233.86,0
2020-03-10T00:02:00-05:00,86.96,12.47,737.84,-1.52,0.58,209.96,0
2020-03-10T00:03:00-05:00,87.34,12.45,738.01,-1.52,0.95,171.15,0
2020-03-10T00:04:00-05:00,87.65,12.45,738.51,1.42,0.75,260.73,0
2020-03-10T00:05:00-05:00,87.31,12.42,738.34,0.68,0.88,257.76,0
2020-03-10T00:06:00-05:00,87.34,12.44,738.71,0.68,0.65,212.87,0
2020-03-10T00:07:00-05:00,87.5,12.41,738.78,1.42,0.81,164.53,0
2020-03-10T00:08:00-05:00,87.21,12.41,738.18,1.27,1.96,99.33,0
2020-03-10T00:09:00-05:00,87.04,12.43,738.34,-0.64,2.03,171.5,0
2020-03-10T00:10:00-05:00,86.56,12.46,738.64,0.98,0.45,192.31,0
2020-03-10T00:11:00-05:00,86.78,12.47,738.61,1.12,0.3,190.35,0
2020-03-10T00:12:00-05:00,86.62,12.47,738.95,-0.79,0.87,186,0
2020-03-10T00:13:00-05:00,86.56,12.47,737.97,0.09,3.46,56.64,0
2020-03-10T00:14:00-05:00,85.9,12.51,737.94,-0.64,0.94,160.16,0
2020-03-10T00:15:00-05:00,85.69,12.55,739.18,0.24,1.29,65.63,0
2020-03-10T00:16:00-05:00,85.23,12.61,738.04,1.42,1.86,72.37,0
2020-03-10T00:17:00-05:00,85.11,12.63,738.01,-0.05,2.44,125.21,0
2020-03-10T00:18:00-05:00,84.38,12.67,738.95,0.53,1.02,318.57,0
2020-03-10T00:19:00-05:00,84.62,12.7,739.28,-0.64,0.94,128.29,0
2020-03-10T00:20:00-05:00,84,12.73,739.08,-0.2,1.93,91.85,0
2020-03-10T00:21:00-05:00,83.94,12.73,737.97,1.42,0.69,339.53,0
2020-03-10T00:22:00-05:00,83.9,12.75,738.38,0.39,0.97,154.25,0
2020-03-10T00:23:00-05:00,83.94,12.76,738.54,1.27,0.65,25.99,0
2020-03-10T00:24:00-05:00,83.55,12.78,738.98,-0.79,0.83,92.53,0
2020-03-10T00:25:00-05:00,83.58,12.78,738.71,1.56,1.57,184.06,0
2020-03-10T00:26:00-05:00,83.92,12.78,738.95,1.12,0.93,235.14,0
2020-03-10T00:27:00-05:00,83.3,12.77,737.54,1.56,0.73,281.77,0
2020-03-10T00:28:00-05:00,83.05,12.8,738.58,0.39,0.7,187.36,0
2020-03-10T00:29:00-05:00,82.86,12.81,738.14,1.42,0.33,106.86,0
2020-03-10T00:30:00-05:00,83.26,12.82,737.87,0.53,0.93,40.55,0
2020-03-10T00:31:00-05:00,82.69,12.84,737.67,-0.05,0.55,97.29,0
2020-03-10T00:32:00-05:00,83.72,12.86,737.81,-1.52,0.6,134.54,0
2020-03-10T00:33:00-05:00,83.22,12.83,738.24,-0.2,0.56,336.54,0
2020-03-10T00:34:00-05:00,82.43,12.87,738.64,0.24,0.89,62.89,0
2020-03-10T00:35:00-05:00,81.45,12.89,738.85,-0.2,1.21,93.54,0
2020-03-10T00:36:00-05:00,81.07,12.93,737.64,1.12,1.01,175.12,0
2020-03-10T00:37:00-05:00,81.19,12.97,737.81,0.83,0.87,195.93,0
2020-03-10T00:38:00-05:00,81.34,12.97,738.68,0.83,0.7,242.83,0
2020-03-10T00:39:00-05:00,81.57,12.97,738.85,-1.52,1.08,269.74,0
2020-03-10T00:40:00-05:00,81.72,12.93,738.78,-1.52,1.16,275.72,0
2020-03-10T00:41:00-05:00,81.8,12.93,737.94,-0.35,0.71,183.05,0
2020-03-10T00:42:00-05:00,81.5,12.94,737.84,0.39,0.88,202.93,0
2020-03-10T00:43:00-05:00,81.64,12.93,738.64,-0.05,1.01,261.02,0
2020-03-10T00:44:00-05:00,82.08,12.93,738.51,-0.94,0.59,233.14,0
2020-03-10T00:45:00-05:00,82.3,12.92,739.31,-0.2,0.71,289.95,0
2020-03-10T00:46:00-05:00,81.96,12.93,738.01,-1.23,1.2,237.74,0
2020-03-10T00:47:00-05:00,81.84,12.92,738.18,0.68,0.09,122.22,0
2020-03-10T00:48:00-05:00,82.52,12.91,737.27,-0.35,0.72,272.65,0
2020-03-10T00:49:00-05:00,82.19,12.91,737.44,-0.79,0.75,295.95,0
2020-03-10T00:50:00-05:00,81.69,12.89,738.81,-0.05,0.51,273.73,0
2020-03-10T00:51:00-05:00,82.38,12.89,737.81,-1.23,0.82,194.3,0
2020-03-10T00:52:00-05:00,82.68,12.89,737.27,-1.38,0.57,269.7,0
2020-03-10T00:53:00-05:00,82.86,12.85,737.77,-1.23,0.71,238.15,0
2020-03-10T00:54:00-05:00,82.11,12.86,738.78,1.12,2.53,92.7,0
2020-03-10T00:55:00-05:00,81.82,12.89,738.44,-0.94,0.56,352.48,0
2020-03-10T00:56:00-05:00,81.89,12.89,738.34,-0.2,0.15,99.48,0
2020-03-10T00:57:00-05:00,81.68,12.89,737.71,-0.05,0.74,258.79,0
2020-03-10T00:58:00-05:00,81.7,12.91,738.64,-0.49,0.51,14.6,0
2020-03-10T00:59:00-05:00,82.07,12.91,737.64,-0.64,0.7,5.5,0
2020-03-10T01:00:00-05:00,82.54,12.92,736.84,1.56,0.46,154.2,0
2020-03-10T01:01:00-05:00,82.83,12.91,738.85,-0.79,0.37,140.27,0
2020-03-10T01:02:00-05:00,82.57,12.91,738.28,1.56,0.59,184.04,0
2020-03-10T01:03:00-05:00,82.49,12.91,738.34,-0.35,0.61,22.65,0
2020-03-10T01:04:00-05:00,82.84,12.89,737.94,0.98,0.82,73.72,0
2020-03-10T01:05:00-05:00,82.49,12.89,738.01,-1.38,0.58,31.84,0
2020-03-10T01:06:00-05:00,82.86,12.89,738.91,-1.23,0.33,194.27,0
2020-03-10T01:07:00-05:00,82.82,12.88,736.67,-1.23,0.53,350.56,0
2020-03-10T01:08:00-05:00,82.4,12.86,737.37,-0.64,2.38,43.14,0
2020-03-10T01:09:00-05:00,82.17,12.91,737.61,-1.08,0.19,61.32,0
2020-03-10T01:10:00-05:00,82.33,12.91,738.41,-1.08,1.15,98.17,0
2020-03-10T01:11:00-05:00,82.6,12.89,737.07,-0.35,2.08,73.8,0
2020-03-10T01:12:00-05:00,83.07,12.89,738.01,-0.05,1.55,26.05,0
2020-03-10T01:13:00-05:00,82.67,12.88,737.51,0.83,2.59,53.97,0
2020-03-10T01:14:00-05:00,81.88,12.89,737.87,-0.05,0.22,282.72,0
2020-03-10T01:15:00-05:00,82.17,12.91,738.28,1.12,0.87,109.05,0
2020-03-10T01:16:00-05:00,82.32,12.9,738.48,0.24,2.03,52.94,0
2020-03-10T01:17:00-05:00,81.73,12.89,737.2,-0.05,1.01,350.83,0
2020-03-10T01:18:00-05:00,81.97,12.9,737.51,0.09,2.38,45.39,0
2020-03-10T01:19:00-05:00,81.61,12.91,738.01,-1.52,1.5,58.78,0
2020-03-10T01:20:00-05:00,81.18,12.93,738.04,-0.35,1.11,9.12,0
2020-03-10T01:21:00-05:00,80.9,12.94,737.74,0.24,0.59,6.91,0
2020-03-10T01:22:00-05:00,81.1,12.94,737.81,-0.05,0.77,49.27,0
2020-03-10T01:23:00-05:00,81.04,12.96,737.77,-1.08,0.64,24.86,0
2020-03-10T01:24:00-05:00,81.51,12.95,738.14,-1.67,0.36,146.18,0
2020-03-10T01:25:00-05:00,81.55,12.95,737,-0.64,0.57,126.53,0
2020-03-10T01:26:00-05:00,81.22,12.91,738.41,0.09,0.29,250.76,0
2020-03-10T01:27:00-05:00,81.83,12.93,736.97,-1.97,0.59,144.04,0
2020-03-10T01:28:00-05:00,81.54,12.91,736.8,-1.08,0.66,134.21,0
2020-03-10T01:29:00-05:00,81.67,12.91,737.2,-1.67,1.71,60.71,0
2020-03-10T01:30:00-05:00,81.87,12.91,736.84,-1.08,0.87,298.73,0
2020-03-10T01:31:00-05:00,81.89,12.87,736.84,0.98,3.3,59.73,0
2020-03-10T01:32:00-05:00,81.28,12.9,736.57,-0.05,2.62,54.13,0
2020-03-10T01:33:00-05:00,80.74,12.92,737.24,-0.05,1.48,1.76,0
2020-03-10T01:34:00-05:00,80.52,12.93,737.2,0.09,0.29,314.55,0
2020-03-10T01:35:00-05:00,80.94,12.94,737.31,-1.67,3.03,48.02,0
2020-03-10T01:36:00-05:00,81.26,12.93,736.33,-2.26,2.48,61.86,0
2020-03-10T01:37:00-05:00,80.26,12.95,737.74,-1.52,0.79,185.01,0
2020-03-10T01:38:00-05:00,80.46,12.96,736.87,-0.64,2.53,111.72,0
2020-03-10T01:39:00-05:00,80.9,12.96,737.1,-1.97,2.96,59.7,0
2020-03-10T01:40:00-05:00,80.4,12.96,737.07,-0.49,0.99,356.49,0
2020-03-10T01:41:00-05:00,80.39,12.95,736.87,-1.52,3.09,58.03,0
2020-03-10T01:42:00-05:00,80.53,12.94,737.94,-1.67,3.03,49.84,0
2020-03-10T01:43:00-05:00,80.55,12.94,736.6,-1.23,2.59,43.72,0
2020-03-10T01:44:00-05:00,80.6,12.92,737.27,0.53,0.99,354.81,0
2020-03-10T01:45:00-05:00,80.8,12.93,737.84,-0.79,0.9,356.46,0
2020-03-10T01:46:00-05:00,80.05,12.92,737.87,-0.79,0.59,126.56,0
2020-03-10T01:47:00-05:00,80.33,12.93,736.33,-1.82,2.88,72.48,0
2020-03-10T01:48:00-05:00,80.17,12.93,737.24,-0.79,0.24,213.21,0
2020-03-10T01:49:00-05:00,80.19,12.91,737.44,-0.79,0.35,305.56,0
2020-03-10T01:50:00-05:00,80.4,12.93,737.71,-2.41,2.18,41.64,0
2020-03-10T01:51:00-05:00,80.3,12.9,737.47,-0.79,2.92,76.68,0
2020-03-10T01:52:00-05:00,79.06,12.94,737.71,0.53,0.77,355.77,0
2020-03-10T01:53:00-05:00,78.88,12.99,736.84,-2.26,1.01,41.36,0
2020-03-10T01:54:00-05:00,79.17,13,737.1,-1.97,0.72,61.67,0
2020-03-10T01:55:00-05:00,79.35,13,737.61,-2.85,2.53,47.59,0
2020-03-10T01:56:00-05:00,79.52,12.97,736.77,-0.2,1.3,13.7,0
2020-03-10T01:57:00-05:00,79.61,12.93,736.8,-1.82,2.52,33.8,0
2020-03-10T01:58:00-05:00,80.01,12.93,737.54,-2.7,2.57,49.42,0
2020-03-10T01:59:00-05:00,79.49,12.92,736.74,-0.49,1.05,96.34,0
2020-03-10T02:00:00-05:00,79.25,12.93,737.84,-2.55,1.46,136.23,0
2020-03-10T02:01:00-05:00,79.14,12.93,736.97,-2.41,0.87,198.37,0
2020-03-10T02:02:00-05:00,79.27,12.93,736.6,-2.85,0.8,84.77,0
2020-03-10T02:03:00-05:00,79.15,12.91,736.6,-1.08,2.54,31.81,0
2020-03-10T02:04:00-05:00,79.67,12.88,736.5,-2.85,2.33,74.02,0
2020-03-10T02:05:00-05:00,80.21,12.85,737.51,-2.7,0.6,95.75,0
2020-03-10T02:06:00-05:00,80.04,12.83,736.6,-3.73,0.59,162.19,0
2020-03-10T02:07:00-05:00,80.41,12.79,737.71,-3.29,4.24,27.26,0
2020-03-10T02:08:00-05:00,79.89,12.78,737.04,-2.7,3.92,89.74,0
2020-03-10T02:09:00-05:00,79.91,12.75,736.94,-4.17,2.79,80.86,0
2020-03-10T02:10:00-05:00,79.93,12.74,737.07,-4.02,2.98,89.89,0
2020-03-10T02:11:00-05:00,80.35,12.72,736.97,-4.02,1.39,43.19,0
2020-03-10T02:12:00-05:00,80.25,12.69,736.07,-3.14,2.75,52.65,0
2020-03-10T02:13:00-05:00,80.31,12.67,737.64,-4.17,0.61,103.42,0
2020-03-10T02:14:00-05:00,80.09,12.65,736.64,-3.14,2.34,38.5,0
2020-03-10T02:15:00-05:00,80.28,12.63,736.54,-2.85,2.37,13.69,0
2020-03-10T02:16:00-05:00,80.11,12.63,736.67,-2.11,1.49,44.41,0
2020-03-10T02:17:00-05:00,80.19,12.63,736.7,-4.17,3.08,104.46,0
2020-03-10T02:18:00-05:00,79.96,12.65,736.5,-2.41,2,44.75,0
2020-03-10T02:19:00-05:00,79.87,12.65,737.34,-1.82,4.8,84.35,0
2020-03-10T02:20:00-05:00,80.17,12.64,736.4,-2.99,3.92,35.13,0
2020-03-10T02:21:00-05:00,79.96,12.62,737.47,-1.82,3.62,127.8,0
2020-03-10T02:22:00-05:00,79.69,12.65,737,-4.17,3.55,42.61,0
2020-03-10T02:23:00-05:00,79.53,12.66,736.27,-2.99,2.75,175.12,0
2020-03-10T02:24:00-05:00,78.74,12.69,736.27,-1.52,0.81,97.61,0
2020-03-10T02:25:00-05:00,78.84,12.73,736.4,-3.44,2.44,122.06,0
2020-03-10T02:26:00-05:00,78.92,12.73,736.54,-3.73,2.73,58.04,0
2020-03-10T02:27:00-05:00,79.22,12.73,737.1,-3.29,2.92,69.38,0
2020-03-10T02:28:00-05:00,78.76,12.73,737.47,-3.88,2.63,43.52,0
2020-03-10T02:29:00-05:00,78.66,12.75,737.57,-4.02,1.48,43.01,0
2020-03-10T02:30:00-05:00,79,12.73,737.07,-2.85,3.95,42.24,0
2020-03-10T02:31:00-05:00,79.29,12.72,736.27,-4.02,3.12,46.56,0
2020-03-10T02:32:00-05:00,79.05,12.71,736.3,-3.73,3.1,50.37,0
2020-03-10T02:33:00-05:00,78.92,12.73,737.27,-4.17,3.22,8.93,0
2020-03-10T02:34:00-05:00,78.77,12.73,736.33,-1.82,3.91,64.56,0
2020-03-10T02:35:00-05:00,78.54,12.74,736.6,-1.82,2.32,91.79,0
2020-03-10T02:36:00-05:00,78.3,12.77,736.67,-2.41,3.09,79.35,0
2020-03-10T02:37:00-05:00,77.3,12.83,737.2,-4.32,3.6,34.71,0
2020-03-10T02:38:00-05:00,77.01,12.91,736.54,-3.14,0.9,134.43,0
2020-03-10T02:39:00-05:00,77.94,12.91,738.11,-3.73,0.86,167.43,0
2020-03-10T02:40:00-05:00,77.47,12.85,736.37,-3.58,0.8,251.8,0
2020-03-10T02:41:00-05:00,78.06,12.81,736.33,-2.85,0.24,131.56,0
2020-03-10T02:42:00-05:00,77.15,12.85,737.44,-4.61,0.68,58.56,0
2020-03-10T02:43:00-05:00,77.45,12.87,737.64,-2.7,0.89,111.03,0
2020-03-10T02:44:00-05:00,77.39,12.86,737.07,-4.17,4.05,64.03,0
2020-03-10T02:45:00-05:00,77.05,12.91,737.77,-2.55,1.31,10.29,0
2020-03-10T02:46:00-05:00,77.71,12.9,736.33,-3.44,0.8,183.06,0
2020-03-10T02:47:00-05:00,77.31,12.89,737.07,-1.08,0.98,46.64,0
2020-03-10T02:48:00-05:00,77.34,12.9,736.67,-1.67,0.52,74.92,0
2020-03-10T02:49:00-05:00,77.48,12.91,737.64,-2.26,0.57,33.2,0
2020-03-10T02:50:00-05:00,77.98,12.89,737.51,-1.08,0.63,50.44,0
2020-03-10T02:51:00-05:00,78.12,12.84,736.8,-3.88,0.75,145.28,0
2020-03-10T02:52:00-05:00,78.67,12.79,737.44,-3.14,0.09,67.59,0
2020-03-10T02:53:00-05:00,78.87,12.75,736.74,-2.41,0.59,207.97,0
2020-03-10T02:54:00-05:00,79.11,12.71,737.41,-2.11,0.49,150.2,0
2020-03-10T02:55:00-05:00,80.04,12.65,736.33,-2.99,0.55,221.94,0
2020-03-10T02:56:00-05:00,80.38,12.58,736.54,-3.73,0.56,171.13,0
2020-03-10T02:57:00-05:00,80.39,12.53,737.67,-4.17,0.56,1.75,0
2020-03-10T02:58:00-05:00,80.46,12.49,736,-3.44,2.03,352.85,0
2020-03-10T02:59:00-05:00,80.43,12.5,736.74,-0.79,0.25,227.18,0
2020-03-10T03:00:00-05:00,79.69,12.51,736.67,-2.26,0.59,99.15,0
2020-03-10T03:01:00-05:00,78.77,12.57,736.5,-0.49,0.77,199.98,0
2020-03-10T03:02:00-05:00,79.63,12.57,736.27,-2.41,0.22,150.52,0
2020-03-10T03:03:00-05:00,79.8,12.57,736.1,-2.11,0.57,222.93,0
2020-03-10T03:04:00-05:00,79.64,12.55,736.4,-0.05,0.55,299.02,0
2020-03-10T03:05:00-05:00,79.5,12.54,736.8,-0.35,0.3,290.69,0
2020-03-10T03:06:00-05:00,79.62,12.52,736.3,-2.26,0.65,28.17,0
2020-03-10T03:07:00-05:00,79.44,12.51,736.47,-0.79,0.55,325.61,0
2020-03-10T03:08:00-05:00,79.42,12.53,737.44,-0.64,0.08,26.99,0
2020-03-10T03:09:00-05:00,79.39,12.51,737.94,-1.67,0.67,229.82,0
2020-03-10T03:10:00-05:00,79.55,12.53,737.41,-1.38,0.2,247.85,0
2020-03-10T03:11:00-05:00,79.45,12.51,737.37,-1.67,0.68,312.59,0
2020-03-10T03:12:00-05:00,79.69,12.51,736.37,-1.23,0.2,139.04,0
2020-03-10T03:13:00-05:00,79.35,12.52,737.67,-1.52,0.53,322.53,0
2020-03-10T03:14:00-05:00,79.24,12.53,737.44,-2.11,0.11,302.66,0
2020-03-10T03:15:00-05:00,79.13,12.57,737.14,-2.41,0.38,244.79,0
2020-03-10T03:16:00-05:00,80.31,12.56,737.54,-0.35,0.56,183.05,0
2020-03-10T03:17:00-05:00,80.46,12.53,737.31,-2.7,0.37,157.57,0
2020-03-10T03:18:00-05:00,80.22,12.5,736.8,-2.99,0.53,103.22,0
2020-03-10T03:19:00-05:00,80.35,12.5,737.31,-1.82,0.54,28.36,0
2020-03-10T03:20:00-05:00,81.42,12.47,737.54,-2.55,0.57,54.96,0
2020-03-10T03:21:00-05:00,82.21,12.47,736.84,-2.55,0.46,70.35,0
2020-03-10T03:22:00-05:00,81.92,12.43,737,-1.67,0.64,47.94,0
2020-03-10T03:23:00-05:00,81.46,12.44,736.43,0.09,1.03,33.16,0
2020-03-10T03:24:00-05:00,81.18,12.41,737.1,0.39,1.07,30.66,0
2020-03-10T03:25:00-05:00,80.41,12.45,736.6,-1.97,0.63,14.75,0
2020-03-10T03:26:00-05:00,80.48,12.46,737.57,-1.08,0.18,311.61,0
2020-03-10T03:27:00-05:00,80.64,12.46,737.27,-1.23,0.12,318.6,0
2020-03-10T03:28:00-05:00,81.28,12.45,737.54,-0.79,0.3,184.03,0
2020-03-10T03:29:00-05:00,81.4,12.42,737,-2.85,0.37,175.12,0
2020-03-10T03:30:00-05:00,81.35,12.41,737.04,-2.55,0.11,119.32,0
2020-03-10T03:31:00-05:00,81.46,12.41,736.64,-3.14,0.07,110.43,0
2020-03-10T03:32:00-05:00,81.64,12.4,736.67,-0.2,0.23,326.84,0
2020-03-10T03:33:00-05:00,81.37,12.37,736.67,-2.99,0.35,347.77,0
2020-03-10T03:34:00-05:00,81.42,12.35,737.54,-0.94,0.25,26.86,0
2020-03-10T03:35:00-05:00,81.78,12.32,736.8,-1.38,0.21,1.75,0
2020-03-10T03:36:00-05:00,81.83,12.32,736.5,-1.52,0.25,5.03,0
2020-03-10T03:37:00-05:00,82.6,12.29,736.54,-1.67,0.17,53.25,0
2020-03-10T03:38:00-05:00,83.04,12.28,736.47,-3.14,0.31,180.49,0
2020-03-10T03:39:00-05:00,82.96,12.25,736.47,-2.26,0.11,190.96,0
2020-03-10T03:40:00-05:00,83.27,12.23,737.64,-2.11,0.59,52.46,0
2020-03-10T03:41:00-05:00,83.56,12.19,736.33,-3.58,0.8,80.15,0
2020-03-10T03:42:00-05:00,83.82,12.17,736.67,-1.23,0.7,73.12,0
2020-03-10T03:43:00-05:00,83.63,12.13,737.04,-3.14,0.35,72.54,0
2020-03-10T03:44:00-05:00,84.07,12.14,736.7,-3.58,0.58,55.66,0
2020-03-10T03:45:00-05:00,83.5,12.11,737.54,-4.02,0.19,147.24,0
2020-03-10T03:46:00-05:00,83.38,12.1,737,-1.67,0.15,135.2,0
2020-03-10T03:47:00-05:00,83.44,12.08,737.44,-4.02,0.28,131.33,0
2020-03-10T03:48:00-05:00,83.05,12.06,736.1,-4.32,0.28,138.43,0
2020-03-10T03:49:00-05:00,82.93,12.03,737.37,-2.11,0.56,117.68,0
2020-03-10T03:50:00-05:00,83.05,12.01,737.14,-1.82,0.22,102.01,0
2020-03-10T03:51:00-05:00,83.8,11.99,736.4,-3.29,0.44,52.83,0
2020-03-10T03:52:00-05:00,83.43,11.97,736.9,-3.58,0.61,96.35,0
2020-03-10T03:53:00-05:00,82.97,11.95,737.67,-3.14,0.58,113.5,0
2020-03-10T03:54:00-05:00,83.22,11.95,736.4,-3.14,0.33,58.04,0
2020-03-10T03:55:00-05:00,83.69,11.94,736.54,-3.73,0.54,64.95,0
2020-03-10T03:56:00-05:00,84.2,11.91,737.54,-4.32,0.61,79.74,0
2020-03-10T03:57:00-05:00,84.67,11.88,736.23,-4.17,1.01,83.24,0
2020-03-10T03:58:00-05:00,84.57,11.83,737.74,-2.11,0.74,71.53,0
2020-03-10T03:59:00-05:00,84.63,11.78,736.94,-4.32,0.99,53.57,0
2020-03-10T04:00:00-05:00,85.13,11.77,737.47,-2.99,0.55,104.04,0
2020-03-10T04:01:00-05:00,85.13,11.75,737.44,-4.91,0.94,48.72,0
2020-03-10T04:02:00-05:00,85.24,11.72,736.87,-4.91,1.08,72.12,0
2020-03-10T04:03:00-05:00,85.35,11.67,736.57,-2.99,1.18,99.04,0
2020-03-10T04:04:00-05:00,85.38,11.63,737.41,-3.44,0.79,66.7,0
2020-03-10T04:05:00-05:00,85.43,11.58,736.47,-2.26,1.27,54.14,0
2020-03-10T04:06:00-05:00,85.53,11.54,736.6,-3.58,1.07,82.99,0
2020-03-10T04:07:00-05:00,85.4,11.53,737.31,-4.17,1.21,71.42,0
2020-03-10T04:08:00-05:00,85.35,11.51,736.33,-2.41,1,87.02,0
2020-03-10T04:09:00-05:00,85.52,11.52,736.07,-2.85,3.15,34.89,0
2020-03-10T04:10:00-05:00,85.15,11.56,736.8,-3.14,1.27,64.7,0
2020-03-10T04:11:00-05:00,84.14,11.6,737.44,-1.82,1.09,90.35,0
2020-03-10T04:12:00-05:00,84.11,11.61,736.23,-1.82,1.14,67.54,0
2020-03-10T04:13:00-05:00,84.04,11.65,736.84,-3.29,1.89,80.91,0
2020-03-10T04:14:00-05:00,83.84,11.67,737.14,-4.46,0.82,53.17,0
2020-03-10T04:15:00-05:00,84.08,11.67,736.7,-2.41,0.5,33.35,0
2020-03-10T04:16:00-05:00,84.36,11.64,737.41,-4.76,0.3,154.6,0
2020-03-10T04:17:00-05:00,84.26,11.62,736.64,-2.55,0.28,107.2,0
2020-03-10T04:18:00-05:00,84.2,11.58,737.41,-2.99,0.64,94.48,0
2020-03-10T04:19:00-05:00,84.3,11.53,736.5,-3.73,0.29,66.38,0
2020-03-10T04:20:00-05:00,84.67,11.51,736.8,-2.85,0.58,67.92,0
2020-03-10T04:21:00-05:00,84.77,11.47,736.57,-3.44,0.73,44.09,0
2020-03-10T04:22:00-05:00,85.15,11.42,736.74,-3.88,0.97,51.93,0
2020-03-10T04:23:00-05:00,85.35,11.34,737.17,-2.26,1.51,71.78,0
2020-03-10T04:24:00-05:00,85.71,11.28,736.37,-1.82,2.66,66.24,0
2020-03-10T04:25:00-05:00,85.37,11.26,737.67,-1.67,1.5,61.42,0
2020-03-10T04:26:00-05:00,85.22,11.28,736.64,-2.85,0.61,126.21,0
2020-03-10T04:27:00-05:00,85.64,11.26,737.41,-0.64,0.3,83.05,0
2020-03-10T04:28:00-05:00,85.63,11.24,736.7,-1.23,0.57,66.14,0
2020-03-10T04:29:00-05:00,85.51,11.21,736.3,-3.14,0.51,56.55,0
2020-03-10T04:30:00-05:00,86.11,11.2,736.77,-2.85,0.57,57.75,0
2020-03-10T04:31:00-05:00,85.91,11.2,737.71,-3.44,0.47,79.92,0
2020-03-10T04:32:00-05:00,85.69,11.2,736.87,-3.44,0.63,36.06,0
2020-03-10T04:33:00-05:00,86.24,11.18,737.47,-4.02,1.05,53.67,0
2020-03-10T04:34:00-05:00,85.37,11.18,736.87,-3.58,0.78,43.43,0
2020-03-10T04:35:00-05:00,85.39,11.19,737.84,-3.58,0.6,81.28,0
2020-03-10T04:36:00-05:00,85.51,11.22,736.74,-2.85,0.48,94.74,0
2020-03-10T04:37:00-05:00,85.53,11.26,737.47,-1.97,0.58,105.93,0
2020-03-10T04:38:00-05:00,85.35,11.32,736.33,-2.7,0.52,43.46,0
2020-03-10T04:39:00-05:00,85.52,11.32,736.43,-1.82,0.71,41.25,0
2020-03-10T04:40:00-05:00,85.85,11.3,737.07,-3.73,0.77,66.17,0
2020-03-10T04:41:00-05:00,86.38,11.28,737.07,-2.26,0.87,73.58,0
2020-03-10T04:42:00-05:00,86.56,11.25,737.67,-2.11,0.79,66.28,0
2020-03-10T04:43:00-05:00,86.65,11.21,736.97,-3.14,1.04,65.68,0
2020-03-10T04:44:00-05:00,86.64,11.2,737.24,-3.14,0.74,38.98,0
2020-03-10T04:45:00-05:00,86.37,11.2,736.67,-1.38,0.76,57.23,0
2020-03-10T04:46:00-05:00,86.24,11.15,736.57,-1.08,0.95,41.81,0
2020-03-10T04:47:00-05:00,86.34,11.16,736.7,-3.73,0.74,63.22,0
2020-03-10T04:48:00-05:00,86.4,11.13,737.34,-1.23,0.68,62.18,0
2020-03-10T04:49:00-05:00,86.7,11.13,737,-2.55,0.22,46.16,0
2020-03-10T04:50:00-05:00,87,11.1,736.67,-2.99,0.75,78.41,0
2020-03-10T04:51:00-05:00,87.02,11.12,736.43,-3.44,0.63,68.42,0
2020-03-10T04:52:00-05:00,86.92,11.1,736.6,-1.23,1.26,80.11,0
2020-03-10T04:53:00-05:00,86.74,11.1,737.57,-0.64,0.46,144.19,0
2020-03-10T04:54:00-05:00,86.92,11.1,736.8,-1.97,0.65,128.72,0
2020-03-10T04:55:00-05:00,87.06,11.09,737.61,-2.41,0.64,90.28,0
2020-03-10T04:56:00-05:00,86.84,11.06,736.3,-1.23,0.63,102.72,0
2020-03-10T04:57:00-05:00,86.84,11.07,736.33,-1.82,0.8,92.21,0
2020-03-10T04:58:00-05:00,86.77,11.11,737.54,-1.82,0.81,64.22,0
2020-03-10T04:59:00-05:00,87.03,11.14,737.07,-0.79,0.51,41.26,0
2020-03-10T05:00:00-05:00,87.05,11.15,737.81,-2.26,0.92,55.35,0
2020-03-10T05:01:00-05:00,87.05,11.17,736.9,-2.41,0.86,92.72,0
2020-03-10T05:02:00-05:00,86.97,11.2,737.81,-2.26,0.59,61.65,0
2020-03-10T05:03:00-05:00,87.32,11.21,736.74,-1.38,0.59,41.58,0
2020-03-10T05:04:00-05:00,87.24,11.21,737.61,-2.99,0.86,70.55,0
2020-03-10T05:05:00-05:00,86.38,11.19,737.47,-1.08,0.67,68.79,0
2020-03-10T05:06:00-05:00,86.04,11.18,736.43,-3.73,0.67,74.99,0
2020-03-10T05:07:00-05:00,86.12,11.17,737.67,-3.29,0.63,103.94,0
2020-03-10T05:08:00-05:00,85.81,11.15,737.67,-1.38,0.73,78.22,0
2020-03-10T05:09:00-05:00,85.59,11.18,736,-3.88,0.61,56.2,0
2020-03-10T05:10:00-05:00,85.26,11.18,736.33,-3.73,1.1,68.32,0
2020-03-10T05:11:00-05:00,84.71,11.22,736.13,-1.08,1.12,72.32,0
2020-03-10T05:12:00-05:00,84.4,11.22,737.54,-3.44,0.71,58.17,0
2020-03-10T05:13:00-05:00,84.12,11.2,737.34,-1.82,1.02,51.98,0
2020-03-10T05:14:00-05:00,84.02,11.18,737.64,-4.02,0.76,47.9,0
2020-03-10T05:15:00-05:00,84.7,11.17,736.23,-3.88,0.7,73.84,0
2020-03-10T05:16:00-05:00,85.09,11.15,736.74,-3.58,0.59,52.13,0
2020-03-10T05:17:00-05:00,84.87,11.12,737.47,-4.17,1.11,48.78,0
2020-03-10T05:18:00-05:00,84.93,11.08,737.57,-4.32,1.26,66.61,0
2020-03-10T05:19:00-05:00,85.12,11.05,737.31,-2.85,1.05,78.94,0
2020-03-10T05:20:00-05:00,85.52,11.08,737.71,-3.73,0.59,108.69,0
2020-03-10T05:21:00-05:00,85.67,11.08,737.54,-1.38,0.65,127.57,0
2020-03-10T05:22:00-05:00,86.06,11.06,737.64,-3.88,0.59,114.39,0
2020-03-10T05:23:00-05:00,86.38,11.04,736.57,-0.94,0.68,83.62,0
2020-03-10T05:24:00-05:00,86.6,11.02,736.84,-2.85,0.64,78.71,0
2020-03-10T05:25:00-05:00,86.78,11.05,737.77,-3.58,0.7,94.8,0
2020-03-10T05:26:00-05:00,86.6,11.06,737.14,-1.23,0.71,108.08,0
2020-03-10T05:27:00-05:00,86.5,11.09,737.44,-2.99,0.58,81.97,0
2020-03-10T05:28:00-05:00,86.58,11.11,736.94,-0.35,0.64,80.84,0
2020-03-10T05:29:00-05:00,86.85,11.12,737.14,-2.11,0.65,60.14,0
2020-03-10T05:30:00-05:00,86.82,11.1,738.28,-1.67,0.72,79.61,0
2020-03-10T05:31:00-05:00,86.87,11.09,736.9,-0.35,0.93,79.5,0
2020-03-10T05:32:00-05:00,87.06,11.07,737.67,-0.79,0.78,49.07,0
2020-03-10T05:33:00-05:00,86.71,11.07,737.04,-2.7,0.59,97.07,0
2020-03-10T05:34:00-05:00,86.61,11.11,736.67,-2.55,0.61,78.24,0
2020-03-10T05:35:00-05:00,86.35,11.15,737.31,-1.97,0.49,110.31,0
2020-03-10T05:36:00-05:00,86.22,11.16,737.87,-1.82,0.71,77.76,0
2020-03-10T05:37:00-05:00,86.06,11.18,736.7,0.24,0.56,43.61,0
2020-03-10T05:38:00-05:00,86.04,11.2,737.04,-0.49,0.61,63.19,0
2020-03-10T05:39:00-05:00,85.27,11.22,737.27,-1.52,0.65,78.11,0
2020-03-10T05:40:00-05:00,85.33,11.27,736.97,-0.64,0.57,60.87,0
2020-03-10T05:41:00-05:00,85.74,11.25,736.8,-1.97,0.61,61.11,0
2020-03-10T05:42:00-05:00,85.81,11.25,737.97,-0.05,0.71,39.05,0
2020-03-10T05:43:00-05:00,85.8,11.22,737.87,-1.67,0.58,61.2,0
2020-03-10T05:44:00-05:00,85.94,11.2,736.54,0.24,0.6,54.03,0
2020-03-10T05:45:00-05:00,85.33,11.18,737.27,-1.52,0.63,68.19,0
2020-03-10T05:46:00-05:00,85.32,11.18,738.01,-0.64,1.29,51.55,0
2020-03-10T05:47:00-05:00,83.93,11.2,736.9,-0.2,0.79,76.22,0
2020-03-10T05:48:00-05:00,84.55,11.26,737.44,-1.52,0.7,53.45,0
2020-03-10T05:49:00-05:00,84.31,11.26,737.64,-0.64,0.7,63.56,0
2020-03-10T05:50:00-05:00,84.93,11.28,736.67,-1.08,0.61,73.21,0
2020-03-10T05:51:00-05:00,84.93,11.25,737.27,0.09,1.02,38.11,0
2020-03-10T05:52:00-05:00,83.9,11.26,736.97,0.39,1.2,60.07,0
2020-03-10T05:53:00-05:00,83.16,11.29,737.17,0.24,0.71,63.56,0
2020-03-10T05:54:00-05:00,82.88,11.31,737.91,-1.97,0.94,70.69,0
2020-03-10T05:55:00-05:00,82.73,11.32,737,-0.49,0.57,88.28,0
2020-03-10T05:56:00-05:00,81.2,11.33,736.84,-0.94,2.15,93.67,0
2020-03-10T05:57:00-05:00,81.5,11.38,737.54,-0.49,0.69,53.41,0
2020-03-10T05:58:00-05:00,81.67,11.41,736.84,0.24,0.29,338.51,0
2020-03-10T05:59:00-05:00,80.9,11.42,738.11,-0.49,0.6,89.16,0
2020-03-10T06:00:00-05:00,80.56,11.44,738.08,1.27,0.6,0.76,0
2020-03-10T06:01:00-05:00,81.59,11.44,738.08,1.42,0.62,140.24,0
2020-03-10T06:02:00-05:00,81.8,11.46,738.08,-0.05,0.28,133.22,0
2020-03-10T06:03:00-05:00,81.18,11.46,737.17,0.83,0.91,70.67,0
2020-03-10T06:04:00-05:00,79.91,11.48,737.1,1.56,1.12,81.68,0
2020-03-10T06:05:00-05:00,79.83,11.5,737.17,3.18,0.64,91.13,0
2020-03-10T06:06:00-05:00,80.72,11.5,737.07,1.12,0.55,109.53,0
2020-03-10T06:07:00-05:00,81.41,11.48,737.27,2.15,0.67,118.96,0
2020-03-10T06:08:00-05:00,80.96,11.48,737.84,3.18,0.8,59.92,0
2020-03-10T06:09:00-05:00,80.96,11.48,738.14,3.18,0.73,40.03,0
2020-03-10T06:10:00-05:00,81.51,11.47,736.87,5.53,0.79,58.98,0
2020-03-10T06:11:00-05:00,81.99,11.44,737.84,4.06,0.8,76.81,0
2020-03-10T06:12:00-05:00,81.97,11.46,736.94,4.8,0.92,45.97,0
2020-03-10T06:13:00-05:00,81.81,11.44,737.81,6.27,0.85,43.49,0
2020-03-10T06:14:00-05:00,82.66,11.44,738.14,6.42,0.72,70.83,0
2020-03-10T06:15:00-05:00,82.85,11.42,737.17,6.12,0.67,63.58,0
2020-03-10T06:16:00-05:00,83.54,11.44,736.94,8.18,0.86,58.93,0
2020-03-10T06:17:00-05:00,83.29,11.43,737.2,8.77,0.67,66.72,0
2020-03-10T06:18:00-05:00,82.93,11.45,738.04,10.53,0.61,47.1,0
2020-03-10T06:19:00-05:00,81.97,11.46,736.94,10.24,0.57,76.61,0
2020-03-10T06:20:00-05:00,81.62,11.46,737.2,12.3,0.31,106.28,0
2020-03-10T06:21:00-05:00,81.95,11.5,738.14,13.18,0.55,142.26,0
2020-03-10T06:22:00-05:00,81.95,11.54,738.14,15.53,0.39,131.5,0
2020-03-10T06:23:00-05:00,81.71,11.56,737.07,16.12,0.43,153.11,0
2020-03-10T06:24:00-05:00,81.67,11.57,737.07,14.94,0.37,138.86,0
2020-03-10T06:25:00-05:00,82.53,11.63,738.34,15.68,0.58,152.16,0
2020-03-10T06:26:00-05:00,82.59,11.67,736.74,15.97,0.23,132.22,0
2020-03-10T06:27:00-05:00,81.94,11.7,737,17,0.39,135.55,0
2020-03-10T06:28:00-05:00,81.53,11.75,737.67,17.29,0.17,109.06,0
2020-03-10T06:29:00-05:00,81.77,11.79,737.87,17.74,0.57,62.15,0
2020-03-10T06:30:00-05:00,82.5,11.79,738.31,18.62,0.42,47.31,0
2020-03-10T06:31:00-05:00,82.53,11.81,737.64,18.62,0.32,55.06,0
2020-03-10T06:32:00-05:00,82.59,11.78,737.64,19.79,0.38,52.29,0
2020-03-10T06:33:00-05:00,82.73,11.77,737.77,20.38,0.49,129.62,0
2020-03-10T06:34:00-05:00,82.26,11.77,737.94,21.85,0.57,103.11,0
2020-03-10T06:35:00-05:00,82.1,11.82,738.14,23.62,0.3,141.63,0
2020-03-10T06:36:00-05:00,82.07,11.85,738.28,25.38,0.38,151.15,0
2020-03-10T06:37:00-05:00,81.54,11.84,737.61,27.15,0.28,159.18,0
2020-03-10T06:38:00-05:00,81.31,11.89,737.2,28.62,0.22,146.25,0
2020-03-10T06:39:00-05:00,81.24,11.91,737.81,29.2,0.24,159.18,0
2020-03-10T06:40:00-05:00,80.96,11.95,738.08,31.56,0.28,144.2,0
2020-03-10T06:41:00-05:00,81.11,11.96,738.18,34.35,0.48,111.47,0
2020-03-10T06:42:00-05:00,80.6,11.99,738.31,37.29,0.43,92.39,0
2020-03-10T06:43:00-05:00,80.52,12.02,737.41,37.14,0.25,61.26,0
2020-03-10T06:44:00-05:00,81,12.06,736.33,38.61,0.22,34.88,0
2020-03-10T06:45:00-05:00,82.07,12.07,736.74,40.97,0.06,31.51,0
2020-03-10T06:46:00-05:00,82.22,12.09,737.57,42.14,0.11,56.91,0
2020-03-10T06:47:00-05:00,82.14,12.11,738.28,42.73,0.11,27.86,0
2020-03-10T06:48:00-05:00,81.2,12.11,737.44,44.2,0.14,75.8,0
2020-03-10T06:49:00-05:00,81,12.13,738.34,48.32,0.12,122.23,0
2020-03-10T06:50:00-05:00,80.78,12.16,738.18,48.46,0.32,105.15,0
2020-03-10T06:51:00-05:00,80.86,12.17,738.14,51.55,0.51,123.89,0
2020-03-10T06:52:00-05:00,80.08,12.18,737.17,56.11,0.64,101.47,0
2020-03-10T06:53:00-05:00,80.19,12.21,737.1,57.58,0.41,96.93,0
2020-03-10T06:54:00-05:00,80.22,12.23,738.04,59.93,0.21,118.54,0
2020-03-10T06:55:00-05:00,80.8,12.25,738.14,63.31,0.21,158.42,0
2020-03-10T06:56:00-05:00,80.7,12.28,738.21,64.64,0.36,159.43,0
2020-03-10T06:57:00-05:00,80.52,12.29,738.34,67.43,0.34,155.24,0
2020-03-10T06:58:00-05:00,80.48,12.31,737.44,72.13,0.36,156.19,0
2020-03-10T06:59:00-05:00,80.36,12.35,737.1,74.63,0.06,84.11,0
2020-03-10T07:00:00-05:00,80.25,12.34,738.51,79.04,0.14,60.23,0
2020-03-10T07:01:00-05:00,80.95,12.37,737.41,83.01,0.19,85.08,0
2020-03-10T07:02:00-05:00,81.24,12.43,738.31,89.78,0.08,324.63,0
2020-03-10T07:03:00-05:00,81.59,12.45,737.04,96.39,0.27,192.25,0
2020-03-10T07:04:00-05:00,80.48,12.48,738.21,102.57,0.32,179.13,0
2020-03-10T07:05:00-05:00,80.26,12.5,737.1,108.74,0.25,215.28,0
2020-03-10T07:06:00-05:00,79.99,12.53,737.31,112.42,0.3,210.91,0
2020-03-10T07:07:00-05:00,79.77,12.55,738.08,117.27,0.44,201.29,0
2020-03-10T07:08:00-05:00,79.87,12.58,737.54,117.42,0.26,178.05,0
2020-03-10T07:09:00-05:00,80.7,12.62,736.54,119.04,0.17,174.44,0
2020-03-10T07:10:00-05:00,80.6,12.66,737,119.48,0.06,116.36,0
2020-03-10T07:11:00-05:00,80.89,12.71,737.17,121.83,0.11,287.99,0
2020-03-10T07:12:00-05:00,81.72,12.78,737.04,126.97,0.15,34.43,0
2020-03-10T07:13:00-05:00,81.7,12.84,737.61,127.42,0.22,303.9,0
2020-03-10T07:14:00-05:00,81.22,12.88,737.24,129.47,0.29,185.01,0
2020-03-10T07:15:00-05:00,81.97,12.93,738.31,131.68,0.21,184.03,0
2020-03-10T07:16:00-05:00,81.68,12.95,737.14,133.59,0.13,246.76,0
2020-03-10T07:17:00-05:00,81.03,12.98,738.28,136.09,0.17,197.02,0
2020-03-10T07:18:00-05:00,80.29,13.04,737.97,138.29,0.24,172.17,0
2020-03-10T07:19:00-05:00,80.27,13.08,737.17,140.35,0.2,176.09,0
2020-03-10T07:20:00-05:00,80.42,13.12,738.24,145.35,0.18,206.02,0
2020-03-10T07:21:00-05:00,80.64,13.16,737.24,144.47,0.11,15.93,0
2020-03-10T07:22:00-05:00,80.75,13.22,738.21,147.12,0.12,105.23,0
2020-03-10T07:23:00-05:00,79.45,13.26,737.57,146.68,0.19,339.49,0
2020-03-10T07:24:00-05:00,78.81,13.3,737.14,148.44,0.17,216.29,0
2020-03-10T07:25:00-05:00,79.88,13.38,738.11,147.41,0.52,182.05,0
2020-03-10T07:26:00-05:00,80.23,13.38,737.07,147.26,0.34,209.3,0
2020-03-10T07:27:00-05:00,80.81,13.4,738.34,144.62,0.33,304.61,0
2020-03-10T07:28:00-05:00,79.38,13.4,737.37,144.91,0.6,301.02,0
2020-03-10T07:29:00-05:00,79.74,13.46,738.41,142.41,0.27,209.29,0
2020-03-10T07:30:00-05:00,79.37,13.48,737.24,141.38,0.23,174.44,0
2020-03-10T07:31:00-05:00,78.42,13.52,738.71,139.91,0.48,342.53,0
2020-03-10T07:32:00-05:00,77.28,13.59,738.21,144.47,0.6,26.1,0
2020-03-10T07:33:00-05:00,74.75,13.62,737.1,171.23,0.68,46.42,0
2020-03-10T07:34:00-05:00,74.53,13.64,737.1,279.29,0.79,30.08,0
2020-03-10T07:35:00-05:00,75.07,13.7,738.21,250.18,0.56,68.96,0
2020-03-10T07:36:00-05:00,74.7,13.83,738.04,136.53,0.13,294.63,0
2020-03-10T07:37:00-05:00,75.41,13.9,737.91,126.24,0.11,288.6,0
2020-03-10T07:38:00-05:00,75.22,13.99,738.44,122.71,0.47,14.62,0
2020-03-10T07:39:00-05:00,74.16,14,737.17,132.27,0.62,42.27,0
2020-03-10T07:40:00-05:00,73.86,13.92,738.28,114.48,1.05,50.92,0
2020-03-10T07:41:00-05:00,74.48,13.84,738.64,116.68,0.83,54.2,0
2020-03-10T07:42:00-05:00,75.35,13.76,737.17,130.21,0.64,59.76,0
2020-03-10T07:43:00-05:00,76.58,13.77,737.84,363.09,0.64,29.31,0
2020-03-10T07:44:00-05:00,76.98,13.84,737.24,273.41,0.29,4.66,0
2020-03-10T07:45:00-05:00,77.05,13.93,737.41,123.59,0.49,21.37,0
2020-03-10T07:46:00-05:00,76.77,13.98,738.28,126.97,0.54,324.6,0
2020-03-10T07:47:00-05:00,76.41,14.05,737.41,290.46,0.28,15.71,0
2020-03-10T07:48:00-05:00,75.32,14.16,738.61,392.35,0.2,318.59,0
2020-03-10T07:49:00-05:00,75.56,14.32,738.28,419.26,0.18,19.58,0
2020-03-10T07:50:00-05:00,75.83,14.53,738.18,447.19,0.48,346.51,0
2020-03-10T07:51:00-05:00,74.97,14.75,737.27,454.25,0.21,41.7,0
2020-03-10T07:52:00-05:00,74.74,15,737.44,466.89,0.22,70.24,0
2020-03-10T07:53:00-05:00,73.27,15.24,736.8,478.95,0.57,180.07,0
2020-03-10T07:54:00-05:00,72.08,15.37,737.67,502.18,0.25,45.44,0
2020-03-10T07:55:00-05:00,73.04,15.6,736.94,522.91,0.55,30.67,0
2020-03-10T07:56:00-05:00,72.12,15.9,737.1,544.37,0.6,55.79,0
2020-03-10T07:57:00-05:00,70.31,16.2,737.54,535.11,0.56,35.82,0
2020-03-10T07:58:00-05:00,68.07,16.35,737.91,276.94,1.35,59.96,0
2020-03-10T07:59:00-05:00,66.73,16.21,738.14,218.86,0.57,43.55,0
2020-03-10T08:00:00-05:00,68.04,16.21,737,216.66,0.57,54.62,0
2020-03-10T08:01:00-05:00,68.26,16.2,738.21,221.51,0.69,13.13,0
2020-03-10T08:02:00-05:00,68.61,16.18,738.18,264.59,0.59,62.49,0
2020-03-10T08:03:00-05:00,68.34,16.14,737.17,447.19,0.32,317.56,0
2020-03-10T08:04:00-05:00,69.25,16.17,738.08,541.58,0.55,48.66,0
2020-03-10T08:05:00-05:00,68.98,16.24,737.57,531.14,0.56,65.58,0
2020-03-10T08:06:00-05:00,68.63,16.34,738.38,494.39,0.58,36,0
2020-03-10T08:07:00-05:00,67.6,16.45,738.21,505.41,0.29,310.63,0
2020-03-10T08:08:00-05:00,66.94,16.55,737.94,489.24,0.58,27.66,0
2020-03-10T08:09:00-05:00,66.43,16.64,738.08,254.59,0.85,82.45,0
2020-03-10T08:10:00-05:00,65.19,16.6,737.14,221.36,0.46,54.01,0
2020-03-10T08:11:00-05:00,66.65,16.61,737.14,213.42,0.61,60.78,0
2020-03-10T08:12:00-05:00,66.43,16.61,736.97,215.19,0.34,29.5,0
2020-03-10T08:13:00-05:00,66.45,16.54,738.18,212.1,0.48,40.09,0
2020-03-10T08:14:00-05:00,65.93,16.4,737.64,220.63,0.59,70.44,0
2020-03-10T08:15:00-05:00,66.51,16.31,738.31,329.28,0.56,88.08,0
2020-03-10T08:16:00-05:00,66.94,16.26,738.48,237.39,0.48,64.04,0
2020-03-10T08:17:00-05:00,67.82,16.18,738.14,222.54,0.86,41.35,0
2020-03-10T08:18:00-05:00,68.69,16.1,737.77,186.52,0.64,35.82,0
2020-03-10T08:19:00-05:00,68.79,16,737.61,177.26,0.57,13.87,0
2020-03-10T08:20:00-05:00,69.88,15.94,737.17,176.67,0.77,26.64,0
2020-03-10T08:21:00-05:00,67.93,15.78,737.54,177.99,0.99,33.63,0
2020-03-10T08:22:00-05:00,69.98,15.62,738.08,178.87,0.77,29.28,0
2020-03-10T08:23:00-05:00,70.76,15.51,738.18,181.52,0.85,54.73,0
2020-03-10T08:24:00-05:00,70.89,15.39,738.31,186.96,0.8,33.38,0
2020-03-10T08:25:00-05:00,71.1,15.33,737.97,195.19,1.36,80.62,0
2020-03-10T08:26:00-05:00,72.42,15.24,736.94,202.99,1,35.5,0
2020-03-10T08:27:00-05:00,73.91,15.22,738.31,216.22,0.63,34.78,0
2020-03-10T08:28:00-05:00,74.55,15.21,737.77,265.03,0.72,25.21,0
2020-03-10T08:29:00-05:00,73.3,15.21,737.77,389.12,0.82,40.93,0
2020-03-10T08:30:00-05:00,73.99,15.25,737.51,388.82,0.83,12.87,0
2020-03-10T08:31:00-05:00,72.89,15.31,737.67,358.68,0.8,21.76,0
2020-03-10T08:32:00-05:00,73.21,15.42,738.44,273.85,0.67,80.15,0
2020-03-10T08:33:00-05:00,71.71,15.51,738.34,265.03,0.23,6.99,0
2020-03-10T08:34:00-05:00,71.63,15.55,737.31,272.67,0.76,43.18,0
2020-03-10T08:35:00-05:00,71.47,15.62,738.18,421.9,0.65,55.71,0
2020-03-10T08:36:00-05:00,73.26,15.76,737.27,342.66,0.57,97.55,0
2020-03-10T08:37:00-05:00,72.76,15.9,738.04,263.27,0.55,62.8,0
2020-03-10T08:38:00-05:00,70.75,15.98,738.24,246.06,0.33,66.87,0
2020-03-10T08:39:00-05:00,68.85,16.03,738.34,228.71,0.28,334.57,0
2020-03-10T08:40:00-05:00,70.66,16.12,737.24,222.69,0.34,87.33,0
2020-03-10T08:41:00-05:00,70.72,16.18,737.51,229.3,0.06,146.36,0
2020-03-10T08:42:00-05:00,70.77,16.21,738.11,224.6,0.44,335.83,0
2020-03-10T08:43:00-05:00,69.72,16.24,738.44,230.77,0.44,302.65,0
2020-03-10T08:44:00-05:00,69.98,16.3,738.04,238.27,0.15,91.71,0
2020-03-10T08:45:00-05:00,68.47,16.29,738.51,245.62,0.58,70.86,0
2020-03-10T08:46:00-05:00,69.15,16.34,738.41,247.24,0.22,151.4,0
2020-03-10T08:47:00-05:00,68.81,16.36,738.71,249.74,0.5,58.78,0
2020-03-10T08:48:00-05:00,68.65,16.32,738.28,258.27,0.81,37,0
2020-03-10T08:49:00-05:00,68.58,16.23,738.08,265.62,0.73,74.33,0
2020-03-10T08:50:00-05:00,68.33,16.2,737.41,267.97,0.23,103.15,0
2020-03-10T08:51:00-05:00,68.75,16.2,737.74,280.47,0.24,111.32,0
2020-03-10T08:52:00-05:00,70.66,16.24,737.57,288.11,0.12,245.74,0
2020-03-10T08:53:00-05:00,72.78,16.26,737.51,304.14,0.23,115.62,0
2020-03-10T08:54:00-05:00,75.07,16.26,738.31,326.34,0.31,238.86,0
2020-03-10T08:55:00-05:00,75.88,16.23,738.08,445.87,0.53,221.17,0
2020-03-10T08:56:00-05:00,74.37,16.19,737.44,398.38,0.31,232.85,0
2020-03-10T08:57:00-05:00,74.93,16.17,737.61,391.03,0.64,186.33,0
2020-03-10T08:58:00-05:00,74.43,16.15,738.85,380.15,0.58,177.04,0
2020-03-10T08:59:00-05:00,71.09,16.13,737.94,386.76,0.44,133.74,0
2020-03-10T09:00:00-05:00,71.01,16.18,738.74,520.41,0.07,273.74,0
2020-03-10T09:01:00-05:00,71.17,16.28,739.08,428.67,0.36,221.96,0
2020-03-10T09:02:00-05:00,70.86,16.37,737.14,436.31,0.5,164.17,0
2020-03-10T09:03:00-05:00,69.62,16.48,737.41,433.52,0.55,232.84,0
2020-03-10T09:04:00-05:00,68.9,16.52,738.21,601.42,0.47,251.76,0
2020-03-10T09:05:00-05:00,70.64,16.6,737.51,394.26,0.23,192.98,0
2020-03-10T09:06:00-05:00,68.99,16.68,738.14,417.49,0.67,292.67,0
2020-03-10T09:07:00-05:00,67.48,16.76,737.81,448.66,1.03,354.43,0
2020-03-10T09:08:00-05:00,68.89,16.77,738.24,451.46,0.56,313.55,0
2020-03-10T09:09:00-05:00,67.46,16.84,738.21,412.2,1.69,31.36,0
2020-03-10T09:10:00-05:00,66.77,16.79,738.34,855.33,0.88,47.58,0
2020-03-10T09:11:00-05:00,68.11,16.84,738.61,845.92,0.77,40.05,0
2020-03-10T09:12:00-05:00,68.41,17,738.61,680.52,1.92,27.59,0
2020-03-10T09:13:00-05:00,65.19,16.88,738.08,386.76,0.9,356.45,0
2020-03-10T09:14:00-05:00,66.71,16.82,737.2,652.29,2.46,62.43,0
2020-03-10T09:15:00-05:00,66.11,16.78,737.04,641.41,1.87,41.87,0
2020-03-10T09:16:00-05:00,65.74,16.68,737.37,814.31,2.04,22.49,0
2020-03-10T09:17:00-05:00,67.68,16.72,737.51,834.6,0.17,17.59,0
2020-03-10T09:18:00-05:00,66.35,16.82,738.14,420.58,1.25,16.52,0
2020-03-10T09:19:00-05:00,65.76,16.91,738.58,657.88,0.84,64.58,0
2020-03-10T09:20:00-05:00,65.53,16.96,737.91,758.15,0.79,38.93,0
2020-03-10T09:21:00-05:00,66.05,17.07,738.08,790.93,0.56,356.4,0
2020-03-10T09:22:00-05:00,66.45,17.27,737.54,780.64,0.62,51.86,0
2020-03-10T09:23:00-05:00,66.79,17.49,737.97,775.05,0.56,133.17,0
2020-03-10T09:24:00-05:00,66.9,17.74,737.44,774.03,0.56,17.44,0
2020-03-10T09:25:00-05:00,66.01,18.02,738.14,770.79,0.52,11.08,0
2020-03-10T09:26:00-05:00,63.33,18.19,737.1,761.97,0.97,40.61,0
2020-03-10T09:27:00-05:00,61.8,18.33,737.07,768.44,0.44,111.97,0
2020-03-10T09:28:00-05:00,62.93,18.4,737.07,767.56,0.17,61.75,0
2020-03-10T09:29:00-05:00,63.48,18.58,737.04,774.61,0.57,280.94,0
2020-03-10T09:30:00-05:00,61.9,18.76,738.18,783.14,0.9,74.66,0
2020-03-10T09:31:00-05:00,60.11,18.84,737.97,786.96,1.85,43.03,0
2020-03-10T09:32:00-05:00,57.35,18.82,737.71,790.64,1.74,2.7,0
2020-03-10T09:33:00-05:00,56.86,18.64,737.54,796.52,0.84,41.08,0
2020-03-10T09:34:00-05:00,57.99,18.46,736.77,801.81,0.71,42.53,0
2020-03-10T09:35:00-05:00,58.72,18.5,736.87,802.25,0.79,49.31,0
2020-03-10T09:36:00-05:00,59.58,18.54,736.84,807.99,0.32,33.22,0
2020-03-10T09:37:00-05:00,61.23,18.72,736.74,809.46,0.54,269.7,0
2020-03-10T09:38:00-05:00,62.91,18.94,737.37,801.96,0.25,90.1,0
2020-03-10T09:39:00-05:00,61.65,19.16,736.8,809.75,0.63,176.07,0
2020-03-10T09:40:00-05:00,60.59,19.26,738.11,812.55,0.57,252.71,0
2020-03-10T09:41:00-05:00,57.42,19.25,736.84,801.22,0.53,284.64,0
2020-03-10T09:42:00-05:00,57.91,19.29,737.44,802.4,0.24,237.74,0
2020-03-10T09:43:00-05:00,60.19,19.4,736.9,807.99,1.15,219.87,0
2020-03-10T09:44:00-05:00,58.36,19.46,737.54,815.63,0.93,184.04,0
2020-03-10T09:45:00-05:00,56.88,19.46,737.67,809.31,0.74,290.68,0
2020-03-10T09:46:00-05:00,57.91,19.51,736.77,812.1,0.75,201.29,0
2020-03-10T09:47:00-05:00,57.51,19.43,738.01,133,0.81,213.94,0
2020-03-10T09:48:00-05:00,58.08,19.3,737.51,849.6,0.9,239.18,0
2020-03-10T09:49:00-05:00,59.45,19.28,737.27,846.21,0.54,282.68,0
2020-03-10T09:50:00-05:00,58.39,19.28,737.91,832.54,0.12,187.28,0
2020-03-10T09:51:00-05:00,59.51,19.35,737.34,840.92,0.62,226.83,0
2020-03-10T09:52:00-05:00,57.01,19.34,737.84,850.92,0.58,254,0
2020-03-10T09:53:00-05:00,58.55,19.34,737.17,853.56,0.56,222.22,0
2020-03-10T09:54:00-05:00,59.55,19.38,736.74,867.68,0.78,182.33,0
2020-03-10T09:55:00-05:00,57.42,19.41,736.67,875.32,0.83,263.64,0
2020-03-10T09:56:00-05:00,58.43,19.53,736.7,875.62,0.55,226.8,0
2020-03-10T09:57:00-05:00,57.09,19.65,736.37,877.53,0.65,290.64,0
2020-03-10T09:58:00-05:00,54.89,19.72,737.34,872.82,2.07,261.68,0
2020-03-10T09:59:00-05:00,54.32,19.68,737.61,881.06,0.54,13.32,0
2020-03-10T10:00:00-05:00,54.62,19.67,737.57,899.44,0.3,200.92,0
2020-03-10T10:01:00-05:00,57.3,19.85,736.64,936.63,0.54,218.89,0
2020-03-10T10:02:00-05:00,56.63,20.03,737.14,958.54,0.47,184.96,0
2020-03-10T10:03:00-05:00,56.95,20.22,737.94,957.8,0.58,297.94,0
2020-03-10T10:04:00-05:00,56.7,20.37,735.9,825.48,0.71,355.42,0
2020-03-10T10:05:00-05:00,55.52,20.46,737.47,597.45,0.58,192.27,0
2020-03-10T10:06:00-05:00,55.01,20.51,736.74,669.2,0.48,301.62,0
2020-03-10T10:07:00-05:00,54.64,20.5,737.1,774.47,0.8,243.16,0
2020-03-10T10:08:00-05:00,55.33,20.51,738.11,951.19,0.58,222.91,0
2020-03-10T10:09:00-05:00,54.84,20.48,736.84,258.27,0.6,279.9,0
2020-03-10T10:10:00-05:00,54.2,20.4,737.87,408.08,0.28,293.65,0
2020-03-10T10:11:00-05:00,53.85,20.41,737.31,813.87,0.65,279.62,0
2020-03-10T10:12:00-05:00,52.92,20.43,737.87,997.94,0.6,27.19,0
2020-03-10T10:13:00-05:00,52.73,20.46,737.31,922.08,0.7,324.61,0
2020-03-10T10:14:00-05:00,52.11,20.34,737.31,945.16,1.44,32.97,0
2020-03-10T10:15:00-05:00,52.03,20.18,736.6,971.48,1.37,30.8,0
2020-03-10T10:16:00-05:00,53.84,20.11,737.34,1027.79,0.75,33.11,0
2020-03-10T10:17:00-05:00,53.4,20.18,737.37,941.48,0.37,252.72,0
2020-03-10T10:18:00-05:00,55.45,20.29,737,391.62,0.57,6.4,0
2020-03-10T10:19:00-05:00,54.95,20.42,736.67,490.86,0.6,33.84,0
2020-03-10T10:20:00-05:00,53.8,20.45,737.31,776.23,0.78,17.3,0
2020-03-10T10:21:00-05:00,53.66,20.38,737.44,837.69,1.83,23.82,0
2020-03-10T10:22:00-05:00,54.8,20.33,736.84,786.08,1.54,41.16,0
2020-03-10T10:23:00-05:00,56.61,20.37,737,876.65,0.9,73.84,0
2020-03-10T10:24:00-05:00,54.88,20.47,736.7,248.56,0.62,353.82,0
2020-03-10T10:25:00-05:00,53.7,20.39,737.24,948.39,0.25,40.72,0
2020-03-10T10:26:00-05:00,53.04,20.36,737.04,966.92,0.06,291.69,0
2020-03-10T10:27:00-05:00,55.81,20.44,736.54,970.01,0.9,3.94,0
2020-03-10T10:28:00-05:00,52.62,20.6,737.04,964.13,1.12,30.21,0
2020-03-10T10:29:00-05:00,52.88,20.73,736.87,985.44,0.52,349.39,0
2020-03-10T10:30:00-05:00,54.3,20.91,737.14,978.53,0.85,67.79,0
2020-03-10T10:31:00-05:00,51.67,21.04,736.23,1010,0.54,305.59,0
2020-03-10T10:32:00-05:00,53.15,21.15,737.51,983.24,1.98,20.42,0
2020-03-10T10:33:00-05:00,50.47,21.13,736.7,995.3,0.06,289.61,0
2020-03-10T10:34:00-05:00,54.32,21.24,736.5,627.3,0.16,336.53,0
2020-03-10T10:35:00-05:00,51.12,21.34,736.77,978.39,0.58,128.84,0
2020-03-10T10:36:00-05:00,50.53,21.44,737.31,916.2,0.55,216.87,0
2020-03-10T10:37:00-05:00,50.17,21.38,737.57,854.15,0.65,105.01,0
2020-03-10T10:38:00-05:00,52.31,21.4,737.34,446.16,1.28,298.68,0
2020-03-10T10:39:00-05:00,52.31,21.48,736.27,506.88,0.48,54.07,0
2020-03-10T10:40:00-05:00,51.02,21.47,736.47,626.27,0.62,55.47,0
2020-03-10T10:41:00-05:00,49.87,21.45,737.24,378.83,0.81,93.39,0
2020-03-10T10:42:00-05:00,51.26,21.36,736.23,359.57,0.6,77.42,0
2020-03-10T10:43:00-05:00,52.21,21.43,737.34,1108.36,0.7,39.75,0
2020-03-10T10:44:00-05:00,50.39,21.38,736.7,1137.47,1.7,108.17,0
2020-03-10T10:45:00-05:00,54.46,21.39,737.54,578.19,0.63,31.39,0
2020-03-10T10:46:00-05:00,51.12,21.46,736.13,238.27,0.65,292.66,0
2020-03-10T10:47:00-05:00,50.67,21.41,736.2,209.75,0.9,282.69,0
2020-03-10T10:48:00-05:00,49.85,21.28,737.44,195.05,0.59,227.8,0
2020-03-10T10:49:00-05:00,49.45,21.19,737.81,197.1,0.54,228.82,0
2020-03-10T10:50:00-05:00,52.3,21.07,737.54,215.78,0.63,205.39,0
2020-03-10T10:51:00-05:00,50.49,20.83,737.07,271.94,0.71,260.73,0
2020-03-10T10:52:00-05:00,51.76,20.65,737.41,272.23,0.59,301.01,0
2020-03-10T10:53:00-05:00,52.62,20.57,737.2,292.96,0.34,244.76,0
2020-03-10T10:54:00-05:00,53.48,20.51,737.07,309.43,0.68,287.02,0
2020-03-10T10:55:00-05:00,52.15,20.48,737.27,307.37,0.73,161.12,0
2020-03-10T10:56:00-05:00,54.91,20.49,737.61,303.99,0.68,208.34,0
2020-03-10T10:57:00-05:00,53.89,20.47,736.23,481.3,0.61,311.6,0
2020-03-10T10:58:00-05:00,56.1,20.51,737.51,1032.35,0.84,238.85,0
2020-03-10T10:59:00-05:00,53.76,20.55,736.3,1097.18,1.82,227.83,0
2020-03-10T11:00:00-05:00,54.05,20.67,736.2,1108.06,0.71,197.01,0
2020-03-10T11:01:00-05:00,54.34,20.88,737.41,932.66,2.73,231.16,0
2020-03-10T11:02:00-05:00,52.04,20.94,737.67,325.01,0.64,167.44,0
2020-03-10T11:03:00-05:00,52.95,21.01,736.03,345.16,0.13,23.37,0
2020-03-10T11:04:00-05:00,53,21.02,737.17,485.42,0.73,221.89,0
2020-03-10T11:05:00-05:00,49.86,20.99,736.77,1125.12,1.41,223.88,0
2020-03-10T11:06:00-05:00,50.59,20.93,735.97,1159.81,0.7,227.82,0
2020-03-10T11:07:00-05:00,48.12,20.99,737.47,793.14,1.07,240.19,0
2020-03-10T11:08:00-05:00,48.68,21.07,737.2,967.51,1.84,266.76,0
2020-03-10T11:09:00-05:00,50.78,21.13,736.6,1147.61,0.84,219.22,0
2020-03-10T11:10:00-05:00,50.48,21.2,737.44,1134.09,1.99,304.6,0
2020-03-10T11:11:00-05:00,47.69,21.27,736.6,411.91,2.41,305,0
2020-03-10T11:12:00-05:00,47.78,21.17,736.64,308.55,0.77,317.59,0
2020-03-10T11:13:00-05:00,47.58,21.11,736.13,301.64,0.68,341.91,0
2020-03-10T11:14:00-05:00,49.45,21.13,736.4,313.4,0.57,259.76,0
2020-03-10T11:15:00-05:00,50.21,21.09,736.13,304.87,0.09,302.63,0
2020-03-10T11:16:00-05:00,49.69,21.07,735.87,294.43,0.79,2.66,0
2020-03-10T11:17:00-05:00,48.86,21.04,737.47,302.96,2.07,8.65,0
2020-03-10T11:18:00-05:00,50.07,21.03,735.93,325.6,1.41,198.97,0
2020-03-10T11:19:00-05:00,51.07,20.95,736.8,354.42,0.58,201.92,0
2020-03-10T11:20:00-05:00,51.38,20.89,737.24,1077.48,0.59,221.92,0
2020-03-10T11:21:00-05:00,51.54,20.87,736.64,1012.79,0.84,236.79,0
2020-03-10T11:22:00-05:00,49.57,20.93,736.4,889.14,0.76,278.7,0
2020-03-10T11:23:00-05:00,50.35,21.05,735.83,1196.42,1.01,222.91,0
2020-03-10T11:24:00-05:00,47.82,21.15,736.94,1167.31,0.21,192.33,0
2020-03-10T11:25:00-05:00,53.1,21.36,736.64,1158.93,1.49,208.94,0
2020-03-10T11:26:00-05:00,46.58,21.39,736.97,295.02,2.11,260.12,0
2020-03-10T11:27:00-05:00,45.45,21.28,736.6,290.46,1.53,276.73,0
2020-03-10T11:28:00-05:00,48.24,21.24,735.8,281.5,0.55,310.04,0
2020-03-10T11:29:00-05:00,46.93,21.21,736.57,98.16,1.19,275.69,0
2020-03-10T11:30:00-05:00,48.58,21.16,737.34,298.11,1.08,206.26,0
2020-03-10T11:31:00-05:00,52.03,21.14,736,288.85,0.64,201.92,0
2020-03-10T11:32:00-05:00,47.82,21.13,737.07,293.7,0.47,236.78,0
2020-03-10T11:33:00-05:00,51.06,21.13,735.8,316.63,0.58,215.87,0
2020-03-10T11:34:00-05:00,48.83,21.11,736.47,378.24,0.61,193.95,0
2020-03-10T11:35:00-05:00,49.55,21.11,737.04,429.25,0.88,293.95,0
2020-03-10T11:36:00-05:00,47.6,21.09,735.6,696.54,2.32,209.28,0
2020-03-10T11:37:00-05:00,47.09,21.12,736.23,663.46,1.1,291.67,0
2020-03-10T11:38:00-05:00,47.39,21.24,735.53,1226.12,0.74,212.85,0
2020-03-10T11:39:00-05:00,45.9,21.37,735.43,1297.87,0.84,275.91,0
2020-03-10T11:40:00-05:00,47.01,21.54,736.64,1165.4,1.4,212.84,0
2020-03-10T11:41:00-05:00,46.94,21.7,737.04,1314.48,1.2,249.17,0
2020-03-10T11:42:00-05:00,46.28,21.86,736.84,1328.3,0.98,234.86,0
2020-03-10T11:43:00-05:00,44.1,22.04,735.46,1336.39,2.59,243.18,0
2020-03-10T11:44:00-05:00,43.55,22.08,735.46,1326.83,2.87,297.59,0
2020-03-10T11:45:00-05:00,48.04,22.2,736.54,1304.93,0.82,210.32,0
2020-03-10T11:46:00-05:00,44.19,22.36,736.47,1317.13,1.44,237.73,0
2020-03-10T11:47:00-05:00,44.07,22.5,735.23,1278.76,0.74,234.11,0
2020-03-10T11:48:00-05:00,44.32,22.58,735.16,622,0.83,202.9,0
2020-03-10T11:49:00-05:00,47.16,22.68,736.03,347.66,1.8,179.11,0
2020-03-10T11:50:00-05:00,45.68,22.67,736.64,316.34,0.74,285.65,0
2020-03-10T11:51:00-05:00,42.76,22.64,736.6,298.55,0.56,265.77,0
2020-03-10T11:52:00-05:00,41.63,22.62,735.53,288.55,0.16,72.31,0
2020-03-10T11:53:00-05:00,42.58,22.54,736.77,281.79,0.54,273.77,0
2020-03-10T11:54:00-05:00,42.16,22.43,736,273.12,0.14,2.71,0
2020-03-10T11:55:00-05:00,46.13,22.34,736.57,255.77,0.85,202.92,0
2020-03-10T11:56:00-05:00,44.94,22.21,736.07,249,0.7,224.23,0
2020-03-10T11:57:00-05:00,46.2,22.07,735.56,227.39,0.62,169.07,0
2020-03-10T11:58:00-05:00,47.52,21.96,736.43,205.34,2.14,351.87,0
2020-03-10T11:59:00-05:00,49.99,21.84,736,191.66,0.59,160.16,0
2020-03-10T12:00:00-05:00,54.71,21.72,735.53,179.46,0.63,195.33,0
2020-03-10T12:01:00-05:00,55.7,21.59,736.54,167.11,0.83,194.93,0
2020-03-10T12:02:00-05:00,56.26,21.41,735.73,162.41,0.32,181.4,0
2020-03-10T12:03:00-05:00,58.36,21.29,736.27,167.55,0.19,25.13,0
2020-03-10T12:04:00-05:00,57.17,21.23,735.8,169.61,0.59,223.19,0
2020-03-10T12:05:00-05:00,57.77,21.11,736.23,165.94,0.54,250.78,0
2020-03-10T12:06:00-05:00,59.27,21.05,737.1,163.58,0.39,8.54,0
2020-03-10T12:07:00-05:00,60.46,20.99,735.53,166.23,0.33,172.14,0
2020-03-10T12:08:00-05:00,60.11,20.85,735.7,162.85,0.2,230.89,0
2020-03-10T12:09:00-05:00,61.68,20.67,736.27,178.58,0.72,139.63,0
2020-03-10T12:10:00-05:00,62.45,20.57,735.36,174.46,0.54,72.82,0
2020-03-10T12:11:00-05:00,63.53,20.49,736.13,176.37,1.14,127.88,0
2020-03-10T12:12:00-05:00,63.37,20.35,735.8,169.61,0.55,347.45,0
2020-03-10T12:13:00-05:00,63.8,20.26,736.3,171.23,0.61,191.35,0
2020-03-10T12:14:00-05:00,64.35,20.15,736.84,171.23,0.22,229.79,0
2020-03-10T12:15:00-05:00,65.1,20.11,735.8,163.73,0.17,8.57,0
2020-03-10T12:16:00-05:00,65.58,20.11,735.56,161.52,0.55,183.02,0
2020-03-10T12:17:00-05:00,65.76,20.05,735.67,167.7,0.68,188.39,0
2020-03-10T12:18:00-05:00,63.25,19.78,735.87,156.38,1.01,313.55,0
2020-03-10T12:19:00-05:00,65.37,19.57,736.8,150.2,0.25,247.07,0
2020-03-10T12:20:00-05:00,66.09,19.38,736.23,143.59,1.08,192.96,0
2020-03-10T12:21:00-05:00,65.2,19.22,737.14,145.94,0.16,265.1,0
2020-03-10T12:22:00-05:00,65.1,19.07,735.87,149.32,0.56,201.95,0
2020-03-10T12:23:00-05:00,67.3,19,735.97,138.59,0.13,197.02,0
2020-03-10T12:24:00-05:00,68.47,19,736.84,123.3,0.54,254.74,0
2020-03-10T12:25:00-05:00,67.28,18.98,736.84,112.71,0.6,221.94,0
2020-03-10T12:26:00-05:00,68.4,18.99,736.07,110.65,0.6,14.17,0
2020-03-10T12:27:00-05:00,67.39,18.96,736.87,110.65,1.09,182.04,0
2020-03-10T12:28:00-05:00,67.6,18.88,736.57,115.65,0.58,197.02,0
2020-03-10T12:29:00-05:00,68.45,18.82,735.56,129.62,0.94,186,0
2020-03-10T12:30:00-05:00,66.55,18.76,737.04,136.68,0.75,219.91,0
2020-03-10T12:31:00-05:00,66.8,18.71,735.87,145.35,0.95,215.87,0
2020-03-10T12:32:00-05:00,67.3,18.62,735.56,157.41,1.95,240.18,0
2020-03-10T12:33:00-05:00,67.6,18.59,735.4,173.58,0.95,207.96,0
2020-03-10T12:34:00-05:00,68.21,18.54,735.6,175.35,0.71,208.29,0
2020-03-10T12:35:00-05:00,67.92,18.55,735.53,148.44,1.01,182.05,0
2020-03-10T12:36:00-05:00,68.44,18.52,735.7,113.89,0.88,215.28,0
2020-03-10T12:37:00-05:00,66.25,18.5,736.94,86.84,0.6,227.87,0
2020-03-10T12:38:00-05:00,65.97,18.45,735.83,77.43,0.67,248.17,0
2020-03-10T12:39:00-05:00,66.8,18.42,736.8,73.9,1,227.84,0
2020-03-10T12:40:00-05:00,67.63,18.41,736.67,73.16,0.64,250.8,0
2020-03-10T12:41:00-05:00,68.23,18.41,736.47,75.22,0.56,208.94,0
2020-03-10T12:42:00-05:00,68.18,18.4,736.54,82.28,0.26,213.97,0
2020-03-10T12:43:00-05:00,68.77,18.41,736.1,87.87,0.54,195.89,0
2020-03-10T12:44:00-05:00,68.28,18.38,736.07,92.13,0.7,278.65,0
2020-03-10T12:45:00-05:00,66.34,18.33,736.17,96.1,0.51,224.9,0
2020-03-10T12:46:00-05:00,67.78,18.37,736.17,98.75,0.2,206.99,0
2020-03-10T12:47:00-05:00,68.2,18.35,735.67,96.25,0.68,215.9,0
2020-03-10T12:48:00-05:00,69.36,18.35,737.04,98.3,0.59,308.63,0
2020-03-10T12:49:00-05:00,69.19,18.35,736.6,104.04,0.56,331.87,0
2020-03-10T12:50:00-05:00,69.91,18.37,736.43,101.69,1.03,248.82,0
2020-03-10T12:51:00-05:00,69.57,18.3,735.3,85.66,0.69,281,0
2020-03-10T12:52:00-05:00,69.29,18.15,736.6,65.37,0.65,27.41,0
2020-03-10T12:53:00-05:00,69.85,18,736.8,50.82,2.51,187.36,0
2020-03-10T12:54:00-05:00,70.08,17.84,735.73,44.2,0.56,19.05,0
2020-03-10T12:55:00-05:00,70.63,17.66,735.23,44.2,0.68,2.12,0
2020-03-10T12:56:00-05:00,71.45,17.51,736.5,43.17,0.39,195.93,0
2020-03-10T12:57:00-05:00,72.3,17.35,737,41.7,0.84,271.03,0
2020-03-10T12:58:00-05:00,72.68,17.27,735.7,39.79,0.82,285.67,0
2020-03-10T12:59:00-05:00,73.04,17.21,737.07,39.79,0.66,299.68,0
2020-03-10T13:00:00-05:00,73.95,17.16,736.8,40.08,0.77,55.02,0
2020-03-10T13:01:00-05:00,71.57,17.06,735.83,38.02,2.49,50.27,0
2020-03-10T13:02:00-05:00,71.31,16.97,736.87,37.88,2.33,54.84,0
2020-03-10T13:03:00-05:00,71.22,16.89,736.3,38.47,0.87,50.56,0
2020-03-10T13:04:00-05:00,72.12,16.86,737.1,38.02,0.15,271.69,0
2020-03-10T13:05:00-05:00,71.53,16.86,736.2,37.73,0.58,323.53,0
2020-03-10T13:06:00-05:00,70.77,16.89,735.9,36.11,0.56,94.32,0
2020-03-10T13:07:00-05:00,70.79,16.92,736.2,38.61,0.39,256.8,0
2020-03-10T13:08:00-05:00,69.41,16.95,736.1,41.26,0.54,18.07,0
2020-03-10T13:09:00-05:00,68.14,16.97,736.43,40.67,0.87,15.55,0
2020-03-10T13:10:00-05:00,68.94,16.94,735.67,43.17,0.64,36,0
2020-03-10T13:11:00-05:00,70.28,16.87,736.33,45.08,1.46,63.37,0
2020-03-10T13:12:00-05:00,None,None,None,None,None,None,None
2020-03-10T13:13:00-05:00,None,None,None,None,None,None,None
2020-03-10T13:14:00-05:00,None,None,None,None,None,None,None
2020-03-10T13:15:00-05:00,None,None,None,None,None,None,None
2020-03-10T13:16:00-05:00,None,None,None,None,None,None,None
2020-03-10T13:17:00-05:00,None,None,None,None,None,None,None
2020-03-10T13:18:00-05:00,None,None,None,None,None,None,None
2020-03-10T13:19:00-05:00,None,None,None,None,None,None,None
2020-03-10T13:20:00-05:00,None,None,None,None,None,None,None
2020-03-10T13:21:00-05:00,None,None,None,None,None,None,None
2020-03-10T13:22:00-05:00,None,None,None,None,None,None,None
2020-03-10T13:23:00-05:00,None,None,None,None,None,None,None
2020-03-10T13:24:00-05:00,82.23,15.62,736.17,19.94,0.7,81.82,0
2020-03-10T13:25:00-05:00,82.2,15.59,736.7,18.91,0.51,144.2,0.2
2020-03-10T13:26:00-05:00,83.36,15.59,737,17.74,1.22,100.33,0.4
2020-03-10T13:27:00-05:00,84.85,15.53,736.17,19.21,0.91,61.51,0.7
2020-03-10T13:28:00-05:00,85.46,15.39,737.44,16.71,0.79,97.7,0.9
2020-03-10T13:29:00-05:00,86.54,15.27,737.77,20.24,0.8,70.55,0.6
2020-03-10T13:30:00-05:00,88.03,15.15,736.5,20.97,2.15,54.65,0.3
2020-03-10T13:31:00-05:00,88.44,15.05,736.5,23.18,0.92,22.97,0.3
2020-03-10T13:32:00-05:00,88.87,14.92,736.5,23.03,0.92,34.37,0.5
2020-03-10T13:33:00-05:00,88.63,14.77,737.2,25.82,2.57,36.6,0.4
2020-03-10T13:34:00-05:00,89.5,14.63,736.9,25.82,2.32,47.11,0.3
2020-03-10T13:35:00-05:00,90.51,14.52,736.54,27,1.23,36.13,0.3
2020-03-10T13:36:00-05:00,91.34,14.47,736.13,28.17,1.26,66.5,0.2
2020-03-10T13:37:00-05:00,90.97,14.32,735.87,27,2.31,67.51,0.1
2020-03-10T13:38:00-05:00,90.59,14.14,735.5,28.32,3.37,62.24,0.2
2020-03-10T13:39:00-05:00,90.94,13.99,736.43,27.59,2.67,67.76,0.1
2020-03-10T13:40:00-05:00,90.87,13.82,736.33,28.32,2.83,73.18,0
2020-03-10T13:41:00-05:00,90.81,13.78,736.64,27.59,2.55,70.15,0.1
2020-03-10T13:42:00-05:00,87.21,13.65,736.13,30.09,2.46,28.1,0.2
2020-03-10T13:43:00-05:00,83.73,13.63,736.57,31.7,2.02,45.71,0.1
2020-03-10T13:44:00-05:00,80.33,13.56,735.1,31.26,1.43,82.64,0
2020-03-10T13:45:00-05:00,81.96,13.53,735.26,31.41,0.28,81.18,0
2020-03-10T13:46:00-05:00,84.75,13.45,735,32,2.24,49.07,0
2020-03-10T13:47:00-05:00,86.85,13.33,735.5,32.59,1.08,76.52,0.1
2020-03-10T13:48:00-05:00,88.23,13.28,734.73,32.73,0.85,30.72,0.3
2020-03-10T13:49:00-05:00,86.71,13.14,735.3,38.32,1.98,44.88,0.4
2020-03-10T13:50:00-05:00,87.39,13.11,735.6,39.79,0.84,141.13,0.2
2020-03-10T13:51:00-05:00,87.7,13.03,734.46,44.2,0.75,77.05,0.1
2020-03-10T13:52:00-05:00,87.51,12.9,734.56,50.23,0.57,95.22,0.1
2020-03-10T13:53:00-05:00,88.47,12.8,734.23,56.26,1.8,48.53,0.1
2020-03-10T13:54:00-05:00,89.8,12.74,734.39,59.78,0.78,93.1,0
2020-03-10T13:55:00-05:00,89.28,12.59,734.79,64.05,1.33,104.77,0.1
2020-03-10T13:56:00-05:00,89.86,12.52,734.63,68.61,0.86,104.26,0
2020-03-10T13:57:00-05:00,89.46,12.41,734.36,69.78,0.98,94.41,0.1
2020-03-10T13:58:00-05:00,89.95,12.33,733.92,72.87,1.23,118.32,0
2020-03-10T13:59:00-05:00,89.7,12.27,735.16,74.49,1.01,80.17,0
2020-03-10T14:00:00-05:00,89.83,12.25,734.49,75.37,1.45,103.34,0
2020-03-10T14:01:00-05:00,90.19,12.23,735.43,78.75,0.68,73.12,0.1
2020-03-10T14:02:00-05:00,90.76,12.25,735.33,78.6,0.97,121.64,0.1
2020-03-10T14:03:00-05:00,91.09,12.29,735.36,80.22,0.91,70.02,0.1
2020-03-10T14:04:00-05:00,91.46,12.31,734.9,84.19,1.18,115.4,0.1
2020-03-10T14:05:00-05:00,91.9,12.33,735,89.34,0.54,134.76,0.1
2020-03-10T14:06:00-05:00,91.83,12.33,735.73,92.28,0.72,182.43,0.2
2020-03-10T14:07:00-05:00,92.26,12.31,734.66,99.19,0.59,159.16,0.1
2020-03-10T14:08:00-05:00,92.7,12.33,735.97,103.01,0.34,122.31,0.1
2020-03-10T14:09:00-05:00,92.98,12.33,735.03,111.54,0.61,170.09,0.1
2020-03-10T14:10:00-05:00,93.37,12.36,736.37,121.24,0.61,164.42,0.1
2020-03-10T14:11:00-05:00,93.95,12.43,736.17,128,0.24,226.15,0
2020-03-10T14:12:00-05:00,94.41,12.5,736.84,142.41,0.68,119.75,0.1
2020-03-10T14:13:00-05:00,93.96,12.49,737.27,152.85,1.17,110.41,0.1
2020-03-10T14:14:00-05:00,93.52,12.47,737.24,164.47,1.41,105.55,0
2020-03-10T14:15:00-05:00,94.17,12.53,736.3,172.7,0.85,102.88,0.1
2020-03-10T14:16:00-05:00,94.42,12.59,737.44,178.73,1,133.2,0
2020-03-10T14:17:00-05:00,94.82,12.67,737.17,182.84,0.99,75.96,0.1
2020-03-10T14:18:00-05:00,94.51,12.73,738.31,185.64,0.61,44.34,0
2020-03-10T14:19:00-05:00,95.5,12.89,738.21,191.66,1.73,62.39,0
2020-03-10T14:20:00-05:00,94.64,12.98,737.97,202.54,1.49,55.3,0
2020-03-10T14:21:00-05:00,93.48,13.23,738.28,218.72,0.58,105.67,0
2020-03-10T14:22:00-05:00,92.43,13.34,736.94,241.21,0.71,52.24,0.1
2020-03-10T14:23:00-05:00,92.79,13.5,735.87,274.59,0.6,45.69,0
2020-03-10T14:24:00-05:00,92.97,13.6,737.2,307.96,0.59,104.48,0
2020-03-10T14:25:00-05:00,93.69,13.72,736.13,347.22,1.08,39.15,0
2020-03-10T14:26:00-05:00,94.38,13.86,736.43,411.02,0.78,76.68,0
2020-03-10T14:27:00-05:00,94.3,13.97,737.54,503.8,2.26,99.47,0
2020-03-10T14:28:00-05:00,94.49,14.1,738.18,759.47,2.16,55.42,0
2020-03-10T14:29:00-05:00,90.97,14.2,739.62,789.02,3.88,59.45,0
2020-03-10T14:30:00-05:00,88.7,14.49,741.26,851.51,2.06,71.88,0
2020-03-10T14:31:00-05:00,85.04,14.69,737.91,920.9,1.62,52.24,0
2020-03-10T14:32:00-05:00,86.43,14.95,736.77,942.81,3.91,61.02,0
2020-03-10T14:33:00-05:00,85.13,15.13,736,965.89,2.27,70.73,0
2020-03-10T14:34:00-05:00,85.35,15.31,738.38,970.01,2.48,357.43,0
2020-03-10T14:35:00-05:00,84.64,15.49,739.88,1019.85,1.26,345.5,0
2020-03-10T14:36:00-05:00,83.7,15.66,742.49,1018.23,0.99,50.17,0.1
2020-03-10T14:37:00-05:00,84.51,15.87,735.36,984.71,2.26,71.42,0
2020-03-10T14:38:00-05:00,81.97,16.04,735.26,965.89,0.94,83.09,0
2020-03-10T14:39:00-05:00,80.68,16.2,736.97,964.13,1.4,17.15,0
2020-03-10T14:40:00-05:00,81.8,16.33,739.01,947.81,2.31,35.01,0
2020-03-10T14:41:00-05:00,78.99,16.4,741.89,935.31,0.59,334.59,0
2020-03-10T14:42:00-05:00,78.08,16.53,736.5,917.67,1.52,121.59,0
2020-03-10T14:43:00-05:00,79.37,16.64,735.16,925.61,1.68,53.04,0
2020-03-10T14:44:00-05:00,77.74,16.71,735.33,912.67,2.98,46.87,0
2020-03-10T14:45:00-05:00,77.84,16.83,736.9,924.14,3.23,26.87,0
2020-03-10T14:46:00-05:00,77.42,16.92,738.85,767.41,1.84,46.34,0
2020-03-10T14:47:00-05:00,76.81,17.04,739.75,666.26,2.58,32.13,0
2020-03-10T14:48:00-05:00,80.36,17.22,740.12,478.95,1.82,0.79,0
2020-03-10T14:49:00-05:00,76.95,17.29,739.05,471.16,3.14,18.56,0
2020-03-10T14:50:00-05:00,73.93,17.26,735.93,728.89,0.67,103.69,0
2020-03-10T14:51:00-05:00,77.27,17.31,737.57,776.97,0.64,28.06,0
2020-03-10T14:52:00-05:00,78.17,17.42,739.38,808.13,1.83,71.84,0
2020-03-10T14:53:00-05:00,75.54,17.47,741.22,716.69,2.4,50.17,0
2020-03-10T14:54:00-05:00,75.24,17.51,740.75,660.82,2.19,39.03,0
2020-03-10T14:55:00-05:00,73.21,17.56,739.85,500.41,3.09,27.92,0
2020-03-10T14:56:00-05:00,74.41,17.53,738.28,411.46,1.34,96.81,0
2020-03-10T14:57:00-05:00,74.31,17.56,737.07,365.89,0.6,150.45,0
2020-03-10T14:58:00-05:00,74.58,17.53,736.77,409.11,0.67,354.46,0
2020-03-10T14:59:00-05:00,75.58,17.53,736.64,483.95,0.8,21.92,0
2020-03-10T15:00:00-05:00,73.65,17.51,736.4,496.74,0.73,354.49,0
2020-03-10T15:01:00-05:00,73.78,17.44,735.9,467.33,2.45,41.34,0
2020-03-10T15:02:00-05:00,76.59,17.45,735.23,394.41,1.6,32.73,0
2020-03-10T15:03:00-05:00,75.2,17.41,733.05,344.72,2.48,6.33,0
2020-03-10T15:04:00-05:00,73.97,17.3,731.41,311.34,3.23,9.29,0
2020-03-10T15:05:00-05:00,73.1,17.19,729.97,321.34,2.41,25.07,0
2020-03-10T15:06:00-05:00,73.55,17.11,729.57,324.87,2.12,322.54,0
2020-03-10T15:07:00-05:00,75.65,17.1,728.87,308.55,2.07,31.43,0
2020-03-10T15:08:00-05:00,76.14,17.08,735.6,292.82,1.73,73.24,0
2020-03-10T15:09:00-05:00,77.15,17.07,734.66,298.7,2.23,58.92,0
2020-03-10T15:10:00-05:00,74.7,16.98,733.82,314.87,0.65,62.2,0
2020-03-10T15:11:00-05:00,76.63,17,732.65,281.79,3.06,36.84,0
2020-03-10T15:12:00-05:00,75.44,16.96,731.78,290.76,0.66,63.78,0
2020-03-10T15:13:00-05:00,74.61,16.98,732.22,292.52,2.56,295.64,0
2020-03-10T15:14:00-05:00,73.56,16.92,731.75,275.03,1.23,61.94,0
2020-03-10T15:15:00-05:00,74.63,16.94,731.28,260.03,2.5,54.67,0
2020-03-10T15:16:00-05:00,76.45,16.94,730.11,248.12,1.49,60.01,0
2020-03-10T15:17:00-05:00,76.53,16.95,731.05,240.18,0.85,34.9,0
2020-03-10T15:18:00-05:00,74.68,16.91,730.38,233.86,2.49,42.19,0
2020-03-10T15:19:00-05:00,74.78,16.84,729.04,218.86,1.84,43.44,0
2020-03-10T15:20:00-05:00,72.84,16.79,734.63,206.51,2.38,17.9,0
2020-03-10T15:21:00-05:00,75.99,16.84,734.73,190.34,0.58,77.78,0
2020-03-10T15:22:00-05:00,75.26,16.86,733.96,174.76,2.85,49.28,0
2020-03-10T15:23:00-05:00,71.69,16.83,734.43,169.17,3.36,42.42,0
2020-03-10T15:24:00-05:00,73.47,16.84,733.92,165.94,2.53,58.16,0
2020-03-10T15:25:00-05:00,73.49,16.85,732.45,165.35,1.52,37.42,0
2020-03-10T15:26:00-05:00,75.27,16.83,732.32,157.41,0.87,50.09,0
2020-03-10T15:27:00-05:00,73.69,16.82,732.22,146.23,1.96,51.29,0
2020-03-10T15:28:00-05:00,71.46,16.84,732.55,140.5,0.84,27.83,0
2020-03-10T15:29:00-05:00,72.07,16.86,731.78,135.8,0.72,12.13,0
2020-03-10T15:30:00-05:00,72.19,16.86,730.51,133,2.08,69.08,0
2020-03-10T15:31:00-05:00,72.81,16.86,730.24,134.18,1.45,83.52,0
2020-03-10T15:32:00-05:00,74.81,16.85,731.31,132.41,0.3,314.53,0
2020-03-10T15:33:00-05:00,77.79,16.86,730.51,133.15,0.29,152.15,0
2020-03-10T15:34:00-05:00,77.5,16.86,730.31,136.24,0.57,148.2,0
2020-03-10T15:35:00-05:00,79.27,16.82,729.37,141.09,0.25,82.29,0
2020-03-10T15:36:00-05:00,80.13,16.83,730.54,144.03,0.57,27.41,0
2020-03-10T15:37:00-05:00,78.48,16.78,729.91,142.27,0.62,70.61,0
2020-03-10T15:38:00-05:00,79.05,16.79,730.04,143.44,0.22,26.27,0
2020-03-10T15:39:00-05:00,77.84,16.77,729.74,141.97,1.26,50.1,0
2020-03-10T15:40:00-05:00,75.71,16.76,730.74,140.5,0.18,224.89,0
2020-03-10T15:41:00-05:00,80.79,16.78,730.48,141.53,0.49,162.6,0
2020-03-10T15:42:00-05:00,79.97,16.7,729.61,139.77,0.58,157.17,0
2020-03-10T15:43:00-05:00,81.22,16.64,729.64,136.09,0.25,96.46,0
2020-03-10T15:44:00-05:00,76.88,16.61,729.24,135.65,0.48,89.8,0
2020-03-10T15:45:00-05:00,77.1,16.63,730.44,131.09,0.56,88.53,0
2020-03-10T15:46:00-05:00,73.81,16.62,730.44,129.91,0.56,102.29,0
2020-03-10T15:47:00-05:00,75.87,16.66,730.41,125.5,0.25,122.19,0
2020-03-10T15:48:00-05:00,78.41,16.69,730.74,124.33,0.12,189.99,0
2020-03-10T15:49:00-05:00,78.63,16.73,730.81,126.09,0.46,122.57,0
2020-03-10T15:50:00-05:00,79.19,16.72,729.14,125.06,0.4,87.12,0
2020-03-10T15:51:00-05:00,80.54,16.75,729.37,116.54,0.36,119.61,0
2020-03-10T15:52:00-05:00,77.85,16.72,729.07,111.68,0.59,138.92,0
2020-03-10T15:53:00-05:00,78.4,16.7,729.44,106.39,0.6,92.25,0
2020-03-10T15:54:00-05:00,76.77,16.68,729.27,100.95,0.6,80.29,0
2020-03-10T15:55:00-05:00,77.57,16.64,728.47,99.48,0.53,68.18,0
2020-03-10T15:56:00-05:00,79.31,16.66,729.61,91.84,0.16,200.33,0
2020-03-10T15:57:00-05:00,80.36,16.64,729.34,98.01,0.54,64.75,0
2020-03-10T15:58:00-05:00,80.07,16.63,729.87,96.1,0.59,356.81,0
2020-03-10T15:59:00-05:00,79.3,16.6,728.9,102.72,1.71,38.96,0
2020-03-10T16:00:00-05:00,79.28,16.52,730.48,116.54,1.39,70.93,0
2020-03-10T16:01:00-05:00,79.99,16.46,729,126.97,0.93,86.88,0
2020-03-10T16:02:00-05:00,78.3,16.45,729.61,137.12,0.62,88.2,0
2020-03-10T16:03:00-05:00,79.17,16.47,730.68,138.88,0.25,31.66,0
2020-03-10T16:04:00-05:00,80.32,16.49,730.98,128.15,0.68,94.39,0
2020-03-10T16:05:00-05:00,79.77,16.52,730.21,132.86,0.14,99.24,0
2020-03-10T16:06:00-05:00,81.08,16.54,731.31,146.23,0.26,122.2,0
2020-03-10T16:07:00-05:00,81.76,16.55,730.44,163,0.57,61.68,0
2020-03-10T16:08:00-05:00,81.76,16.56,731.35,182.11,0.85,74.97,0
2020-03-10T16:09:00-05:00,82.59,16.56,730.74,203.57,0.35,206.01,0
2020-03-10T16:10:00-05:00,83.04,16.6,732.79,223.13,0.26,59.35,0
2020-03-10T16:11:00-05:00,83.84,16.68,731.78,240.48,0.29,173.47,0
2020-03-10T16:12:00-05:00,81.69,16.71,732.08,258.85,0.23,156.22,0
2020-03-10T16:13:00-05:00,81.11,16.76,733.69,277.82,0.58,32.99,0
2020-03-10T16:14:00-05:00,80.03,16.83,733.15,294.14,0.67,5.6,0
2020-03-10T16:15:00-05:00,78.68,16.89,734.66,288.7,0.61,67.23,0
2020-03-10T16:16:00-05:00,77.43,16.94,734.73,255.77,1.95,349.44,0
2020-03-10T16:17:00-05:00,79.49,17.02,735.97,227.1,0.46,14.33,0
2020-03-10T16:18:00-05:00,80.07,17.11,735.97,207.84,0.59,27.34,0
2020-03-10T16:19:00-05:00,79.8,17.14,735.9,186.52,0.52,46.29,0
2020-03-10T16:20:00-05:00,78.15,17.19,734.53,166.96,0.51,86.33,0
2020-03-10T16:21:00-05:00,76.81,17.16,735.26,151.82,1.29,61.88,0
2020-03-10T16:22:00-05:00,77.9,17.13,733.42,140.65,0.63,59.01,0
2020-03-10T16:23:00-05:00,78.08,17.11,734.16,139.03,1.43,41.22,0
2020-03-10T16:24:00-05:00,76.08,17.04,732.95,138.15,3.47,50.88,0
2020-03-10T16:25:00-05:00,71.69,16.93,731.95,134.77,2.78,67.71,0
2020-03-10T16:26:00-05:00,72.39,16.87,731.35,129.18,2.9,70.17,0
2020-03-10T16:27:00-05:00,72,16.79,731.38,120.95,3.47,59.27,0
2020-03-10T16:28:00-05:00,73.31,16.72,731.72,108.16,2.68,66.41,0
2020-03-10T16:29:00-05:00,75.29,16.68,730.71,98.3,2.27,26.56,0
2020-03-10T16:30:00-05:00,73.7,16.62,729.24,88.45,1.44,49.93,0
2020-03-10T16:31:00-05:00,75,16.56,729.37,82.57,3.41,27.4,0
2020-03-10T16:32:00-05:00,75.66,16.52,729.54,78.75,0.95,29.72,0
2020-03-10T16:33:00-05:00,74.83,16.44,734.39,77.28,2.39,23.71,0
2020-03-10T16:34:00-05:00,75.7,16.36,734.19,75.22,5.1,25.87,0
2020-03-10T16:35:00-05:00,75.18,16.3,734.36,74.34,3.12,38.9,0
2020-03-10T16:36:00-05:00,73.82,16.22,734.23,71.69,3.07,65.64,0
2020-03-10T16:37:00-05:00,74.68,16.15,733.92,65.08,2.74,58.88,0
2020-03-10T16:38:00-05:00,74.47,16.09,732.48,59.2,2.54,47.93,0
2020-03-10T16:39:00-05:00,76.3,16.01,732.62,54.64,0.91,69.14,0
2020-03-10T16:40:00-05:00,75.48,15.98,732.15,49.05,2,39.2,0
2020-03-10T16:41:00-05:00,75.68,15.89,732.59,45.96,2.96,54.26,0
2020-03-10T16:42:00-05:00,76.22,15.82,732.32,44.64,3.59,28.89,0
2020-03-10T16:43:00-05:00,76.43,15.74,731.51,41.11,3.25,63.81,0
2020-03-10T16:44:00-05:00,76.59,15.72,730.11,36.85,2.17,78.42,0
2020-03-10T16:45:00-05:00,77.12,15.65,730.41,33.32,4.1,43.83,0
2020-03-10T16:46:00-05:00,75.85,15.59,731.11,28.91,2.82,35.95,0
2020-03-10T16:47:00-05:00,76.86,15.53,729.1,27.29,2,56.46,0
2020-03-10T16:48:00-05:00,77.25,15.47,729.3,23.62,1.82,80.8,0
2020-03-10T16:49:00-05:00,76.79,15.42,729.54,22.88,4.18,44.22,0
2020-03-10T16:50:00-05:00,76.92,15.38,728.7,22.29,0.97,126.45,0
2020-03-10T16:51:00-05:00,76.83,15.32,728.47,23.03,2.71,67.26,0
2020-03-10T16:52:00-05:00,77.22,15.3,735.53,20.53,3.59,28.43,0
2020-03-10T16:53:00-05:00,76.1,15.29,734.93,16.71,4.95,54.49,0
2020-03-10T16:54:00-05:00,78.08,15.27,734.26,14.06,0.57,317.58,0
2020-03-10T16:55:00-05:00,78.9,15.2,734.16,12.88,2.39,90.33,0
2020-03-10T16:56:00-05:00,78.22,15.11,733.69,12.74,2.62,56.98,0.2
2020-03-10T16:57:00-05:00,78.57,15.01,731.78,9.21,2.52,60.68,0.1
2020-03-10T16:58:00-05:00,80.49,14.88,731.58,10.38,3.69,75.54,0.3
2020-03-10T16:59:00-05:00,80.64,14.69,735.53,10.83,2.42,107.32,0.5
2020-03-10T17:00:00-05:00,82.69,14.53,734.9,9.21,1.88,28.94,0.4
2020-03-10T17:01:00-05:00,84.28,14.36,735.36,8.62,0.67,182.05,0.3
2020-03-10T17:02:00-05:00,85.1,14.19,733.99,8.33,0.58,130.26,0.3
2020-03-10T17:03:00-05:00,85.88,13.98,734.53,9.06,1.18,208.93,0.2
2020-03-10T17:04:00-05:00,87.33,13.78,733.25,9.5,0.65,149.21,0.3
2020-03-10T17:05:00-05:00,87.59,13.6,733.29,8.18,0.71,183.04,0.4
2020-03-10T17:06:00-05:00,88.42,13.44,731.82,8.03,0.59,144.21,0.4
2020-03-10T17:07:00-05:00,89.56,13.31,731.85,8.47,0.59,157.2,0.2
2020-03-10T17:08:00-05:00,90.41,13.2,732.38,9.65,0.24,49.39,0.2
2020-03-10T17:09:00-05:00,90.63,13.12,731.35,7.74,0.89,140.69,0.3
2020-03-10T17:10:00-05:00,91.15,13.02,731.95,9.8,0.45,54.53,0.3
2020-03-10T17:11:00-05:00,91.6,12.97,730.21,9.21,0.23,132.21,0.4
2020-03-10T17:12:00-05:00,92.03,12.9,731.75,10.38,0.27,110.49,0.2
2020-03-10T17:13:00-05:00,92.44,12.89,730.68,6.86,0.59,145.27,0.2
2020-03-10T17:14:00-05:00,92.5,12.85,731.08,7.59,0.58,184.39,0.2
2020-03-10T17:15:00-05:00,92.48,12.77,731.68,6.42,0.57,225.9,0.2
2020-03-10T17:16:00-05:00,92.3,12.7,730.91,5.53,0.66,195.28,0.1
2020-03-10T17:17:00-05:00,92.71,12.63,733.05,6.86,0.56,199.97,0.1
2020-03-10T17:18:00-05:00,92.76,12.57,733.09,6.12,0.79,185.02,0.1
2020-03-10T17:19:00-05:00,92.91,12.48,733.99,4.36,0.35,177.05,0.1
2020-03-10T17:20:00-05:00,93.1,12.44,734.29,3.77,0.37,146.23,0.1
2020-03-10T17:21:00-05:00,93.71,12.41,733.05,0.39,0.5,91.34,0
2020-03-10T17:22:00-05:00,93.96,12.42,733.46,3.33,0.56,281.74,0.1
2020-03-10T17:23:00-05:00,94.14,12.42,733.72,3.62,0.77,46.8,0.1
2020-03-10T17:24:00-05:00,94.26,12.39,733.76,5.09,0.52,316.61,0.1
2020-03-10T17:25:00-05:00,94.4,12.39,734.09,3.03,0.42,249.81,0
2020-03-10T17:26:00-05:00,94.18,12.37,734.39,3.77,0.64,192.97,0.1
2020-03-10T17:27:00-05:00,94.05,12.32,732.92,2.15,0.44,204.5,0.1
2020-03-10T17:28:00-05:00,94.08,12.28,734.16,2.89,0.73,229.84,0.2
2020-03-10T17:29:00-05:00,93.54,12.14,732.85,3.62,1,143.5,0.1
2020-03-10T17:30:00-05:00,94.22,12.13,733.86,3.62,0.55,175.12,0.1
2020-03-10T17:31:00-05:00,94.38,12.11,733.79,1.86,0.6,65.83,0.1
2020-03-10T17:32:00-05:00,94.3,12.1,733.62,1.86,0.91,155.2,0.2
2020-03-10T17:33:00-05:00,94.03,12.03,733.82,0.98,0.74,90.53,0.2
2020-03-10T17:34:00-05:00,93.7,11.94,732.52,1.56,0.53,83.46,0.2
2020-03-10T17:35:00-05:00,94.07,11.9,733.12,2.45,0.6,153.49,0.1
2020-03-10T17:36:00-05:00,93.85,11.85,733.09,0.98,0.75,131.26,0.1
2020-03-10T17:37:00-05:00,93.91,11.79,732.38,0.98,0.21,351.56,0.2
2020-03-10T17:38:00-05:00,94.38,11.81,733.36,1.27,0.24,176.08,0.1
2020-03-10T17:39:00-05:00,94.2,11.78,732.89,1.27,0.62,287.62,0.1
2020-03-10T17:40:00-05:00,93.95,11.75,733.05,0.39,0.66,249.8,0.1
2020-03-10T17:41:00-05:00,93.9,11.69,732.22,-0.2,0.5,216.93,0
2020-03-10T17:42:00-05:00,93.79,11.61,731.68,1.12,0.68,227.12,0.1
2020-03-10T17:43:00-05:00,93.87,11.56,733.02,1.71,0.28,163.45,0.2
2020-03-10T17:44:00-05:00,94.14,11.52,732.02,-0.49,0.24,227.86,0.1
2020-03-10T17:45:00-05:00,94.5,11.5,732.82,0.53,0.23,93.93,0.1
2020-03-10T17:46:00-05:00,94.56,11.48,731.98,1.27,0.22,96.48,0
2020-03-10T17:47:00-05:00,94.88,11.48,732.28,2.3,0.64,84.05,0.1
2020-03-10T17:48:00-05:00,94.94,11.48,731.01,1.27,0.63,32.04,0
2020-03-10T17:49:00-05:00,95.22,11.49,732.45,0.98,0.61,69.88,0.1
2020-03-10T17:50:00-05:00,95.36,11.48,732.18,2.3,0.61,78.54,0.1
2020-03-10T17:51:00-05:00,95.38,11.51,731.45,1.42,0.37,95.05,0
2020-03-10T17:52:00-05:00,95.6,11.51,732.22,0.83,0.41,73.14,0.1
2020-03-10T17:53:00-05:00,95.48,11.52,732.25,0.39,0.23,106.16,0.1
2020-03-10T17:54:00-05:00,95.69,11.52,732.48,1.86,0.77,48.65,0
2020-03-10T17:55:00-05:00,95.48,11.5,731.68,0.98,0.6,43.45,0
2020-03-10T17:56:00-05:00,95.46,11.48,732.32,0.39,0.92,107.5,0.1
2020-03-10T17:57:00-05:00,95.2,11.47,732.32,-0.49,0.86,86.76,0
2020-03-10T17:58:00-05:00,95.26,11.45,731.38,0.09,0.61,115.19,0.1
2020-03-10T17:59:00-05:00,95.28,11.45,732.08,0.24,0.25,111.45,0
2020-03-10T18:00:00-05:00,95.54,11.46,730.91,-0.2,0.38,122.46,0
2020-03-10T18:01:00-05:00,95.37,11.48,730.74,2,0.79,93.62,0
2020-03-10T18:02:00-05:00,95.34,11.44,731.18,-0.94,0.62,90.47,0.1
2020-03-10T18:03:00-05:00,95.05,11.44,732.59,0.68,1.37,90.84,0
2020-03-10T18:04:00-05:00,95.08,11.39,732.15,0.09,0.42,131.82,0
2020-03-10T18:05:00-05:00,95.04,11.36,731.98,-1.52,0.59,112.93,0
2020-03-10T18:06:00-05:00,94.83,11.36,732.08,-1.08,0.94,119.25,0
2020-03-10T18:07:00-05:00,94.95,11.34,730.28,-1.97,0.54,140.15,0
2020-03-10T18:08:00-05:00,94.7,11.31,733.79,0.98,0.23,280.65,0
2020-03-10T18:09:00-05:00,94.82,11.28,732.38,0.09,0.87,147.57,0.1
2020-03-10T18:10:00-05:00,94.68,11.24,733.32,0.68,0.58,89.7,0
2020-03-10T18:11:00-05:00,94.38,11.2,734.46,0.68,0.83,84.98,0.1
2020-03-10T18:12:00-05:00,93.82,11.12,734.33,-1.23,1.8,101.87,0
2020-03-10T18:13:00-05:00,93.13,11.05,733.69,0.98,0.76,91.44,0
2020-03-10T18:14:00-05:00,93.19,11.03,734.33,-1.97,1.17,87.54,0
2020-03-10T18:15:00-05:00,93.02,11,734.06,0.09,0.87,72.46,0
2020-03-10T18:16:00-05:00,92.97,10.99,734.29,0.39,0.92,84.24,0
2020-03-10T18:17:00-05:00,92.06,10.92,733.29,-1.38,0.6,90.53,0
2020-03-10T18:18:00-05:00,91.96,10.88,733.62,-1.67,0.5,50.76,0.1
2020-03-10T18:19:00-05:00,92.18,10.9,734.09,-1.67,1.83,27.13,0
2020-03-10T18:20:00-05:00,92.46,10.92,734.49,-1.23,1.19,31.74,0
2020-03-10T18:21:00-05:00,93.04,10.97,734.56,0.83,1.37,56.49,0
2020-03-10T18:22:00-05:00,93.35,10.99,733.59,-0.79,0.89,59.13,0
2020-03-10T18:23:00-05:00,93.71,11.03,733.49,0.24,0.5,67.31,0
2020-03-10T18:24:00-05:00,93.73,11.02,734.49,-0.49,0.58,70.11,0
2020-03-10T18:25:00-05:00,93.97,11.04,734.06,1.12,0.62,103.28,0
2020-03-10T18:26:00-05:00,94.25,11.08,734.02,-0.79,0.65,70.05,0
2020-03-10T18:27:00-05:00,94.18,11.07,734.06,-0.49,0.29,32.92,0
2020-03-10T18:28:00-05:00,94.28,11.09,733.56,0.39,0.28,96.69,0
2020-03-10T18:29:00-05:00,94.42,11.1,734.13,1.27,0.45,65.18,0
2020-03-10T18:30:00-05:00,94.51,11.12,733.66,-0.94,0.6,58.71,0
2020-03-10T18:31:00-05:00,94.48,11.12,732.95,-1.08,0.12,63.35,0
2020-03-10T18:32:00-05:00,94.51,11.13,734.69,0.09,0.52,328.92,0
2020-03-10T18:33:00-05:00,94.17,11.11,734.49,-0.49,0.15,128.61,0
2020-03-10T18:34:00-05:00,94.13,11.1,734.96,-0.94,0.25,162.48,0
2020-03-10T18:35:00-05:00,93.96,11.09,734.53,-1.38,0.53,141.96,0
2020-03-10T18:36:00-05:00,94.34,11.08,734.49,-0.64,0.59,53.35,0
2020-03-10T18:37:00-05:00,94.58,11.1,733.99,-1.67,0.92,103.28,0
2020-03-10T18:38:00-05:00,94.46,11.1,734.23,-0.35,1.1,85.68,0
2020-03-10T18:39:00-05:00,94.65,11.13,732.62,-0.35,1.05,99.99,0
2020-03-10T18:40:00-05:00,94.92,11.15,733.36,-0.79,0.65,108.08,0
2020-03-10T18:41:00-05:00,94.95,11.17,733.36,-0.94,0.57,134.21,0
2020-03-10T18:42:00-05:00,95.14,11.22,733.49,-1.08,0.8,99.42,0
2020-03-10T18:43:00-05:00,95.24,11.21,734.29,1.42,0.14,124.66,0
2020-03-10T18:44:00-05:00,95.14,11.24,734.29,1.56,0.67,124.43,0
2020-03-10T18:45:00-05:00,95.32,11.27,733.36,0.39,0.63,119.56,0
2020-03-10T18:46:00-05:00,95.26,11.28,734.53,-0.79,0.55,117.17,0
2020-03-10T18:47:00-05:00,95.3,11.32,734.16,-0.2,0.42,99.57,0
2020-03-10T18:48:00-05:00,95.3,11.35,734.79,-0.05,0.53,130.26,0
2020-03-10T18:49:00-05:00,95.32,11.4,732.72,-0.94,0.68,100.55,0
2020-03-10T18:50:00-05:00,94.99,11.42,734.29,1.27,0.59,91.43,0
2020-03-10T18:51:00-05:00,95.04,11.44,732.82,0.09,0.7,123.56,0
2020-03-10T18:52:00-05:00,94.91,11.5,734.39,-0.49,0.67,132.23,0
2020-03-10T18:53:00-05:00,94.78,11.54,734.73,-1.08,0.6,183.4,0
2020-03-10T18:54:00-05:00,94.53,11.56,734.29,0.83,0.13,297.57,0
2020-03-10T18:55:00-05:00,94.38,11.62,733.49,-0.49,0.6,186.96,0
2020-03-10T18:56:00-05:00,93.96,11.58,732.62,0.68,0.57,167.13,0
2020-03-10T18:57:00-05:00,94.15,11.58,734.02,-1.23,0.47,221.94,0
2020-03-10T18:58:00-05:00,94.07,11.59,733.62,0.53,0.37,195.92,0
2020-03-10T18:59:00-05:00,94.38,11.59,734.49,-0.49,1.01,332.51,0
2020-03-10T19:00:00-05:00,94.46,11.65,734.59,-1.97,0.62,49.95,0
2020-03-10T19:01:00-05:00,94.66,11.68,735,-1.67,1.71,64.97,0
2020-03-10T19:02:00-05:00,94.85,11.76,733.32,-1.23,1.23,74.81,0
2020-03-10T19:03:00-05:00,94.51,11.81,734.39,-1.38,0.56,199,0
2020-03-10T19:04:00-05:00,94.3,11.82,734.9,0.39,0.6,167.49,0
2020-03-10T19:05:00-05:00,94.27,11.84,734.06,-1.08,0.57,131.07,0
2020-03-10T19:06:00-05:00,93.95,11.84,734.26,-0.05,0.48,190.36,0
2020-03-10T19:07:00-05:00,93.91,11.83,732.79,-0.79,0.42,199,0
2020-03-10T19:08:00-05:00,93.78,11.82,733.82,-1.67,0.23,181.45,0
2020-03-10T19:09:00-05:00,93.88,11.81,733.36,-2.55,0.2,183.06,0
2020-03-10T19:10:00-05:00,93.81,11.81,733.79,-0.05,0.1,213.25,0
2020-03-10T19:11:00-05:00,93.9,11.81,733.92,-0.79,0.17,160.16,0
2020-03-10T19:12:00-05:00,93.93,11.79,735.03,-2.55,0.54,117.92,0
2020-03-10T19:13:00-05:00,94.01,11.81,734.63,-0.35,0.29,146.21,0
2020-03-10T19:14:00-05:00,94.12,11.81,734.16,-0.79,0.14,0.87,0
2020-03-10T19:15:00-05:00,94.13,11.81,735.1,-1.97,0.24,134.21,0
2020-03-10T19:16:00-05:00,94.28,11.81,733.05,-1.08,0.21,40.29,0
2020-03-10T19:17:00-05:00,94.16,11.79,732.75,-2.85,0.59,80.25,0
2020-03-10T19:18:00-05:00,94.11,11.79,733.56,-1.08,0.58,37.72,0
2020-03-10T19:19:00-05:00,94.33,11.78,734.13,-0.49,0.75,49.45,0
2020-03-10T19:20:00-05:00,94.52,11.79,733.99,-2.7,0.25,13.05,0
2020-03-10T19:21:00-05:00,94.52,11.78,734.23,-2.11,0.26,5.73,0
2020-03-10T19:22:00-05:00,94.62,11.79,734.86,-1.67,0.49,356.45,0
2020-03-10T19:23:00-05:00,94.64,11.77,734.93,-2.26,0.39,140.54,0
2020-03-10T19:24:00-05:00,94.5,11.75,732.99,-1.82,0.64,144.45,0
2020-03-10T19:25:00-05:00,94.21,11.72,733.62,-2.7,0.64,145.61,0
2020-03-10T19:26:00-05:00,93.99,11.68,734.66,-3.44,0.66,192.95,0
2020-03-10T19:27:00-05:00,93.71,11.57,732.92,-2.55,0.71,201.33,0
2020-03-10T19:28:00-05:00,93.67,11.5,732.79,-1.52,0.73,199,0
2020-03-10T19:29:00-05:00,93.68,11.42,733.25,-3.58,0.78,209.39,0
2020-03-10T19:30:00-05:00,93.94,11.38,733.42,-3.88,0.63,205.01,0
2020-03-10T19:31:00-05:00,94.19,11.33,734.56,-1.97,0.57,199.26,0
2020-03-10T19:32:00-05:00,94.38,11.3,733.86,-4.02,0.63,132.77,0
2020-03-10T19:33:00-05:00,94.62,11.3,733.52,-2.55,0.67,150.19,0
2020-03-10T19:34:00-05:00,94.86,11.29,733.62,-3.88,0.32,102.6,0
2020-03-10T19:35:00-05:00,94.97,11.3,734.69,-2.26,0.59,107.58,0
2020-03-10T19:36:00-05:00,95.15,11.3,733.96,-3.14,0.72,87.38,0
2020-03-10T19:37:00-05:00,94.92,11.34,733.32,-1.08,0.83,114.32,0
2020-03-10T19:38:00-05:00,94.58,11.38,733.72,-1.08,0.66,62.61,0
2020-03-10T19:39:00-05:00,94.3,11.45,733.89,-1.08,0.61,46.59,0
2020-03-10T19:40:00-05:00,94.02,11.5,734.59,-2.99,0.71,70.34,0
2020-03-10T19:41:00-05:00,93.7,11.54,734.59,-2.99,1.07,41.34,0.1
2020-03-10T19:42:00-05:00,93.64,11.56,734.93,-0.35,0.69,28.08,0
2020-03-10T19:43:00-05:00,93.68,11.58,734.33,-0.05,0.52,0.72,0
2020-03-10T19:44:00-05:00,93.81,11.56,734.46,-1.38,0.65,86.07,0
2020-03-10T19:45:00-05:00,93.91,11.57,734.86,-0.79,0.64,89.75,0
2020-03-10T19:46:00-05:00,94.03,11.56,734.76,-1.82,0.82,108.81,0
2020-03-10T19:47:00-05:00,94.03,11.52,735.46,-1.38,0.22,159.17,0
2020-03-10T19:48:00-05:00,93.99,11.51,734.86,-1.52,0.11,110.81,0
2020-03-10T19:49:00-05:00,94.28,11.52,733.99,-1.67,0.6,68.89,0
2020-03-10T19:50:00-05:00,94.12,11.5,735.77,-1.82,0.68,87.39,0
2020-03-10T19:51:00-05:00,94.32,11.48,734.49,-0.64,0.64,112.25,0
2020-03-10T19:52:00-05:00,94.18,11.48,734.19,0.24,0.59,94.11,0
2020-03-10T19:53:00-05:00,94.32,11.49,734.19,-1.23,0.18,122.17,0
2020-03-10T19:54:00-05:00,94.39,11.49,734.63,1.27,0.57,127.2,0
2020-03-10T19:55:00-05:00,94.6,11.48,734.23,-1.38,0.6,96.03,0
2020-03-10T19:56:00-05:00,94.41,11.48,733.99,-0.79,1.06,85.73,0
2020-03-10T19:57:00-05:00,94.34,11.47,733.49,-0.79,0.97,106.92,0
2020-03-10T19:58:00-05:00,94.21,11.48,733.82,0.98,0.87,89.5,0
2020-03-10T19:59:00-05:00,94.07,11.52,734.36,-1.23,0.91,97.33,0
2020-03-10T20:00:00-05:00,94.3,11.53,734.13,-1.52,0.56,110.54,0
2020-03-10T20:01:00-05:00,94.36,11.57,735.33,0.53,0.31,127.71,0
2020-03-10T20:02:00-05:00,94.27,11.56,735.63,-0.49,0.82,114.57,0
2020-03-10T20:03:00-05:00,94.2,11.58,735.2,-1.08,0.59,109.52,0
2020-03-10T20:04:00-05:00,94.27,11.59,733.42,0.53,0.45,103.29,0
2020-03-10T20:05:00-05:00,94.24,11.61,732.99,-1.52,0.62,131.54,0
2020-03-10T20:06:00-05:00,94.22,11.62,734.79,-1.82,0.51,154.26,0
2020-03-10T20:07:00-05:00,93.86,11.64,735.53,-1.67,0.59,133.64,0
2020-03-10T20:08:00-05:00,94.09,11.64,733.79,0.68,0.22,70.39,0
2020-03-10T20:09:00-05:00,93.95,11.65,733.25,-1.52,0.22,103.55,0
2020-03-10T20:10:00-05:00,93.91,11.66,733.29,-2.26,0.11,351.51,0
2020-03-10T20:11:00-05:00,93.75,11.65,735.06,-2.26,0.1,264.81,0
2020-03-10T20:12:00-05:00,93.96,11.66,734.73,0.68,0.09,352.51,0
2020-03-10T20:13:00-05:00,93.75,11.67,735.1,-0.2,0.12,46.29,0
2020-03-10T20:14:00-05:00,93.93,11.67,735,-1.08,0.53,87.02,0
2020-03-10T20:15:00-05:00,93.79,11.67,734.59,-2.11,0.7,55.95,0
2020-03-10T20:16:00-05:00,93.91,11.75,735.03,-1.52,0.85,45.7,0
2020-03-10T20:17:00-05:00,93.89,11.78,735,-0.49,0.67,104.9,0
2020-03-10T20:18:00-05:00,93.79,11.77,735.2,-1.52,0.36,86.96,0
2020-03-10T20:19:00-05:00,93.43,11.79,735.33,0.09,0.59,129.68,0
2020-03-10T20:20:00-05:00,93.38,11.81,734.83,-0.35,0.56,115.4,0
2020-03-10T20:21:00-05:00,93.09,11.83,733.42,0.53,0.56,134.18,0
2020-03-10T20:22:00-05:00,92.8,11.84,734.79,-0.79,0.52,142.61,0
2020-03-10T20:23:00-05:00,92.8,11.87,735.5,-0.94,0.47,150.18,0
2020-03-10T20:24:00-05:00,92.81,11.86,734.59,-1.97,0.11,74.25,0
2020-03-10T20:25:00-05:00,92.68,11.89,733.76,-1.08,0.27,148.22,0
2020-03-10T20:26:00-05:00,92.58,11.89,733.76,-1.82,0.6,146.65,0
2020-03-10T20:27:00-05:00,92.42,11.88,736,-1.82,0.46,126.65,0
2020-03-10T20:28:00-05:00,92.44,11.89,734.23,-0.79,0.23,95.71,0
2020-03-10T20:29:00-05:00,92.52,11.89,735.56,-1.67,0.52,144.2,0
2020-03-10T20:30:00-05:00,92.52,11.89,734.02,0.83,0.62,146.27,0
2020-03-10T20:31:00-05:00,92.06,11.86,735.7,-2.11,0.34,74.85,0
2020-03-10T20:32:00-05:00,92.33,11.9,734.93,0.39,0.72,158.56,0
2020-03-10T20:33:00-05:00,92.06,11.89,735.63,-1.08,0.56,139.93,0
2020-03-10T20:34:00-05:00,91.84,11.88,736.17,0.24,0.43,182.08,0
2020-03-10T20:35:00-05:00,91.7,11.87,733.96,-1.67,0.64,164.18,0
2020-03-10T20:36:00-05:00,91.49,11.86,733.69,-1.97,0.67,154.25,0
2020-03-10T20:37:00-05:00,91.62,11.87,733.96,-1.08,0.25,86.65,0
2020-03-10T20:38:00-05:00,91.74,11.88,736.1,-0.64,0.53,85.81,0
2020-03-10T20:39:00-05:00,92.02,11.9,734.26,-1.67,0.52,114.34,0
2020-03-10T20:40:00-05:00,91.86,11.89,734.16,0.53,0.58,90.47,0
2020-03-10T20:41:00-05:00,91.83,11.87,733.96,-0.2,0.77,118.54,0
2020-03-10T20:42:00-05:00,91.63,11.89,734.16,-2.11,0.6,112.27,0
2020-03-10T20:43:00-05:00,91.54,11.88,733.86,0.09,0.51,63.34,0
2020-03-10T20:44:00-05:00,91.43,11.91,734.39,0.39,0.56,145.29,0
2020-03-10T20:45:00-05:00,91.41,11.93,733.52,-1.38,0.65,87.63,0
2020-03-10T20:46:00-05:00,91.04,11.95,735.36,0.24,0.56,188.05,0
2020-03-10T20:47:00-05:00,90.85,11.97,734.83,0.53,0.66,98.29,0
2020-03-10T20:48:00-05:00,90.67,12.01,734.33,-1.52,0.97,47.36,0
2020-03-10T20:49:00-05:00,90.63,12.06,735.87,-1.08,0.61,76.28,0
2020-03-10T20:50:00-05:00,90.65,12.08,734.46,-0.05,0.61,99,0
2020-03-10T20:51:00-05:00,90.45,12.07,735.93,-1.23,0.73,114.35,0
2020-03-10T20:52:00-05:00,90.11,12.08,735.7,-0.05,0.58,91.93,0
2020-03-10T20:53:00-05:00,90.15,12.09,733.56,-0.05,1.07,50.05,0
2020-03-10T20:54:00-05:00,90.66,12.14,735.1,0.24,0.2,249.8,0
2020-03-10T20:55:00-05:00,90.62,12.14,735.7,0.09,0.48,109.17,0
2020-03-10T20:56:00-05:00,90.41,12.13,734.73,0.39,0.37,88.97,0
2020-03-10T20:57:00-05:00,90.47,12.1,734.43,-2.26,0.52,116.24,0
2020-03-10T20:58:00-05:00,90.45,12.08,733.86,-2.41,0.54,139.62,0
2020-03-10T20:59:00-05:00,90.49,12.07,735.1,-1.52,0.7,153.16,0
2020-03-10T21:00:00-05:00,90.16,12.06,735.8,-0.2,0.6,144.55,0
2020-03-10T21:01:00-05:00,90.13,12.05,733.86,-1.08,0.56,140.3,0
2020-03-10T21:02:00-05:00,90.41,12.05,734.26,-1.97,0.49,164.55,0
2020-03-10T21:03:00-05:00,90.37,12.04,733.56,-1.97,0.49,167.12,0
2020-03-10T21:04:00-05:00,90.35,12.03,734.29,-2.85,0.59,138.62,0
2020-03-10T21:05:00-05:00,90.28,12.03,734.53,-0.94,0.28,158.44,0
2020-03-10T21:06:00-05:00,90.24,12.04,735.87,-2.99,0.54,149.5,0
2020-03-10T21:07:00-05:00,90.23,12.03,734.36,-2.99,0.59,134.98,0
2020-03-10T21:08:00-05:00,89.97,12.01,735.16,-3.44,0.58,175.1,0
2020-03-10T21:09:00-05:00,89.38,12.01,735,-3.88,0.72,154.24,0
2020-03-10T21:10:00-05:00,89.08,12,735,-1.52,0.64,157.22,0
2020-03-10T21:11:00-05:00,88.74,12.02,735.46,-3.73,0.57,140.27,0
2020-03-10T21:12:00-05:00,88.78,12.01,734.53,-1.38,0.65,148.2,0
2020-03-10T21:13:00-05:00,89.06,12.01,734.86,-3.29,0.46,147.27,0
2020-03-10T21:14:00-05:00,89.21,12,734.73,-3.73,0.47,139.32,0
2020-03-10T21:15:00-05:00,89.63,11.98,735.36,-1.82,0.5,144.2,0
2020-03-10T21:16:00-05:00,89.86,11.94,735.93,-1.52,0.62,144.17,0
2020-03-10T21:17:00-05:00,89.67,11.91,735.77,-2.99,0.59,124.57,0
2020-03-10T21:18:00-05:00,89.66,11.89,734.13,-2.55,0.57,107.75,0
2020-03-10T21:19:00-05:00,89.88,11.85,734.73,-1.82,0.77,93.42,0
2020-03-10T21:20:00-05:00,89.72,11.83,734.46,-2.11,0.63,112.22,0
2020-03-10T21:21:00-05:00,89.4,11.81,734.83,-2.55,0.66,132.52,0
2020-03-10T21:22:00-05:00,89.06,11.84,734.76,-2.11,0.58,116.46,0
2020-03-10T21:23:00-05:00,89.04,11.86,735.03,-3.58,0.8,117.58,0
2020-03-10T21:24:00-05:00,88.82,11.85,734.69,-3.29,0.45,127.23,0
2020-03-10T21:25:00-05:00,88.81,11.86,735.97,-4.02,0.67,146.51,0
2020-03-10T21:26:00-05:00,88.49,11.87,735.53,-4.17,0.57,118.07,0
2020-03-10T21:27:00-05:00,87.95,11.87,735.06,-3.14,0.67,127.18,0
2020-03-10T21:28:00-05:00,87.85,11.89,734.46,-3.14,0.61,74.6,0
2020-03-10T21:29:00-05:00,87.44,11.89,735.3,-1.67,0.65,74.62,0
2020-03-10T21:30:00-05:00,87.24,11.87,735.73,-1.97,0.54,81.14,0
2020-03-10T21:31:00-05:00,87.02,11.89,735.1,-2.99,0.63,76.21,0
2020-03-10T21:32:00-05:00,87.24,11.89,734.43,-4.46,0.62,84.82,0
2020-03-10T21:33:00-05:00,87.07,11.88,734.83,-4.17,0.63,98.76,0
2020-03-10T21:34:00-05:00,87.4,11.87,735.26,-2.11,0.61,56.98,0
2020-03-10T21:35:00-05:00,88.49,11.84,735.26,-3.73,0.88,28.76,0
2020-03-10T21:36:00-05:00,88.19,11.77,735.83,-1.82,0.65,9.71,0
2020-03-10T21:37:00-05:00,88.15,11.73,736.27,-3.29,0.87,52.54,0
2020-03-10T21:38:00-05:00,88.41,11.7,736.03,-2.85,1.13,66.16,0
2020-03-10T21:39:00-05:00,88.6,11.69,736.43,-1.38,1.99,55.57,0
2020-03-10T21:40:00-05:00,88.52,11.68,735.13,-3.29,0.85,27.47,0
2020-03-10T21:41:00-05:00,88.4,11.71,735.26,-1.82,0.52,78.85,0
2020-03-10T21:42:00-05:00,88.41,11.69,735.36,-2.55,0.7,97.71,0
2020-03-10T21:43:00-05:00,88.41,11.69,735.33,-3.58,0.54,104.86,0
2020-03-10T21:44:00-05:00,88.51,11.71,736.17,-3.44,2.78,59.88,0
2020-03-10T21:45:00-05:00,88.45,11.71,734.73,-2.55,0.72,80.53,0
2020-03-10T21:46:00-05:00,88.56,11.71,735.93,-2.7,0.82,36.29,0
2020-03-10T21:47:00-05:00,88.44,11.71,736.8,-2.55,0.28,327.86,0
2020-03-10T21:48:00-05:00,88.49,11.7,734.83,-1.23,0.79,64.38,0
2020-03-10T21:49:00-05:00,88.62,11.68,735.93,-2.99,1.06,50.14,0
2020-03-10T21:50:00-05:00,88.63,11.68,736.74,-3.58,0.7,79.82,0
2020-03-10T21:51:00-05:00,88.7,11.67,735.9,-1.52,0.84,90.4,0
2020-03-10T21:52:00-05:00,88.82,11.72,735.83,-3.44,1.08,72.72,0
2020-03-10T21:53:00-05:00,88.72,11.72,735.56,-1.82,0.68,61.83,0
2020-03-10T21:54:00-05:00,88.56,11.73,735.56,-3.73,0.76,36.54,0
2020-03-10T21:55:00-05:00,88.59,11.71,735.2,-1.97,0.57,73.3,0
2020-03-10T21:56:00-05:00,88.94,11.71,736.97,-4.02,0.83,61.12,0
2020-03-10T21:57:00-05:00,89.2,11.65,734.66,-1.23,0.95,75.07,0
2020-03-10T21:58:00-05:00,89.46,11.62,735.77,-1.38,1.91,57.92,0
2020-03-10T21:59:00-05:00,89.5,11.62,735.43,-3.58,2.21,30.99,0
2020-03-10T22:00:00-05:00,89.59,11.6,734.39,-0.2,1.3,76.76,0
2020-03-10T22:01:00-05:00,89.6,11.64,736.6,-1.08,2.22,52.81,0
2020-03-10T22:02:00-05:00,89.38,11.65,735.4,-2.11,0.32,54.22,0
2020-03-10T22:03:00-05:00,89.6,11.63,736.5,-3.58,1.39,51.43,0
2020-03-10T22:04:00-05:00,89.3,11.58,736.5,-3.14,0.78,53.89,0
2020-03-10T22:05:00-05:00,89.11,11.5,734.9,-2.26,1.21,64.69,0
2020-03-10T22:06:00-05:00,88.81,11.42,734.59,-1.23,0.93,54.84,0
2020-03-10T22:07:00-05:00,89,11.36,736.47,-2.85,1.24,77.62,0
2020-03-10T22:08:00-05:00,89.06,11.32,735.1,-3.14,2.3,64.27,0
2020-03-10T22:09:00-05:00,89.33,11.35,734.79,-1.97,2.37,71.88,0
2020-03-10T22:10:00-05:00,89.32,11.37,734.46,-2.7,0.89,103.34,0
2020-03-10T22:11:00-05:00,89.81,11.35,736.8,-1.23,0.68,109.15,0
2020-03-10T22:12:00-05:00,90.13,11.36,734.53,-1.08,0.06,226.87,0
2020-03-10T22:13:00-05:00,90.67,11.43,734.43,-1.52,2.25,67.53,0
2020-03-10T22:14:00-05:00,90.42,11.52,735.93,-0.94,0.67,81.3,0
2020-03-10T22:15:00-05:00,90.25,11.58,736.57,-0.94,1.12,94.35,0
2020-03-10T22:16:00-05:00,89.72,11.6,735.7,-1.97,0.72,103.57,0
2020-03-10T22:17:00-05:00,89.74,11.6,735.03,-1.97,1.52,103.89,0
2020-03-10T22:18:00-05:00,89.5,11.63,734.43,-2.26,0.55,44.02,0
2020-03-10T22:19:00-05:00,89.5,11.64,735.4,-2.7,0.19,39.21,0
2020-03-10T22:20:00-05:00,89.3,11.64,736.54,-2.26,0.68,128.77,0
2020-03-10T22:21:00-05:00,88.9,11.66,735.16,-1.38,0.75,87.45,0
2020-03-10T22:22:00-05:00,88.86,11.63,735.26,-1.82,0.82,54.66,0
2020-03-10T22:23:00-05:00,89.41,11.58,735.97,-0.49,0.59,47.22,0
2020-03-10T22:24:00-05:00,89.42,11.54,737.07,-1.52,0.59,21.95,0
2020-03-10T22:25:00-05:00,89.9,11.51,736.8,-3.29,0.46,337.54,0
2020-03-10T22:26:00-05:00,89.99,11.48,736.67,-1.52,0.44,108.3,0
2020-03-10T22:27:00-05:00,89.78,11.42,737.17,-1.97,0.78,25.32,0
2020-03-10T22:28:00-05:00,89.51,11.38,735.26,-3.14,0.21,101.43,0
2020-03-10T22:29:00-05:00,89.73,11.34,735.03,-3.44,0.46,72.26,0
2020-03-10T22:30:00-05:00,89.72,11.29,736.4,-2.41,0.59,80.73,0
2020-03-10T22:31:00-05:00,89.94,11.28,736.5,-3.44,0.76,95.02,0
2020-03-10T22:32:00-05:00,90.33,11.25,735.46,-1.52,0.93,69.41,0
2020-03-10T22:33:00-05:00,90.6,11.23,736.4,-1.82,1.25,77.47,0
2020-03-10T22:34:00-05:00,90.49,11.16,735.33,-3.29,0.64,89.73,0
2020-03-10T22:35:00-05:00,90.26,11.14,735.77,-0.79,1.1,124.5,0
2020-03-10T22:36:00-05:00,89.9,11.15,736.5,-1.97,0.63,83.02,0
2020-03-10T22:37:00-05:00,89.65,11.15,735.33,-0.35,0.86,105.03,0
2020-03-10T22:38:00-05:00,89.43,11.16,735.56,-2.11,0.61,107.23,0
2020-03-10T22:39:00-05:00,89.34,11.16,735.1,-0.49,0.79,128.71,0
2020-03-10T22:40:00-05:00,89.62,11.18,736.94,-2.11,0.58,141.24,0
2020-03-10T22:41:00-05:00,89.72,11.18,734.93,-1.52,0.61,160.41,0
2020-03-10T22:42:00-05:00,89.9,11.19,735.06,-0.79,0.67,125.94,0
2020-03-10T22:43:00-05:00,90,11.22,737.2,0.09,0.58,82.7,0
2020-03-10T22:44:00-05:00,89.88,11.24,737.14,-2.11,0.58,65.81,0
2020-03-10T22:45:00-05:00,90.02,11.26,735.63,0.09,0.79,62.98,0
2020-03-10T22:46:00-05:00,90.55,11.24,734.49,-0.64,0.68,59.37,0
2020-03-10T22:47:00-05:00,91.01,11.23,734.9,-0.49,0.59,76.08,0
2020-03-10T22:48:00-05:00,90.7,11.2,734.96,-0.94,0.77,86.73,0
2020-03-10T22:49:00-05:00,90.17,11.18,735.53,-1.97,0.68,88.88,0
2020-03-10T22:50:00-05:00,90.4,11.21,734.86,-0.64,0.63,59.99,0
2020-03-10T22:51:00-05:00,90.66,11.22,736.87,-2.41,0.58,82.99,0
2020-03-10T22:52:00-05:00,90.49,11.23,737.17,-2.11,0.58,70.71,0
2020-03-10T22:53:00-05:00,90.77,11.21,734.63,-0.2,0.63,47.67,0
2020-03-10T22:54:00-05:00,90.83,11.21,736,-1.67,0.64,50.49,0
2020-03-10T22:55:00-05:00,91.14,11.19,735.83,-1.38,0.76,59.17,0
2020-03-10T22:56:00-05:00,91.33,11.15,736.94,-1.38,0.75,62.48,0
2020-03-10T22:57:00-05:00,90.85,11.12,736.7,0.09,0.76,68.33,0
2020-03-10T22:58:00-05:00,90.51,11.12,734.49,-0.05,0.59,73.09,0
2020-03-10T22:59:00-05:00,89.8,11.14,734.33,-1.08,0.65,115.47,0
2020-03-10T23:00:00-05:00,89.25,11.16,734.79,-1.82,0.54,110.38,0
2020-03-10T23:01:00-05:00,89.02,11.2,735.33,-1.82,0.51,47.36,0
2020-03-10T23:02:00-05:00,89.96,11.24,735.87,-0.79,0.7,44.01,0
2020-03-10T23:03:00-05:00,90.23,11.23,735.6,0.09,0.65,56.86,0
2020-03-10T23:04:00-05:00,90.31,11.22,736.97,2.15,0.54,101.17,0
2020-03-10T23:05:00-05:00,89.5,11.23,736.07,-0.49,0.58,136.15,0
2020-03-10T23:06:00-05:00,89.36,11.25,736.2,0.98,0.38,117.2,0
2020-03-10T23:07:00-05:00,89.4,11.28,736.3,0.53,0.39,104.23,0
2020-03-10T23:08:00-05:00,89.68,11.29,737.1,1.86,0.18,87.99,0
2020-03-10T23:09:00-05:00,89.8,11.31,734.76,1.27,0.36,81.06,0
2020-03-10T23:10:00-05:00,89.81,11.32,734.29,-0.35,0.64,111.2,0
2020-03-10T23:11:00-05:00,89.8,11.34,734.63,-0.05,0.92,110.11,0
2020-03-10T23:12:00-05:00,89.63,11.38,735.46,1.86,0.73,115.21,0
2020-03-10T23:13:00-05:00,89.58,11.43,736.84,2.15,0.58,52.15,0
2020-03-10T23:14:00-05:00,90.17,11.48,736.94,0.24,0.64,44.5,0
2020-03-10T23:15:00-05:00,90.38,11.46,737,2,0.64,59.12,0
2020-03-10T23:16:00-05:00,90.19,11.47,736.7,0.24,0.57,69.34,0
2020-03-10T23:17:00-05:00,90.31,11.5,736.17,-0.2,0.56,78.84,0
2020-03-10T23:18:00-05:00,90.15,11.52,734.26,1.71,0.46,79.98,0
2020-03-10T23:19:00-05:00,90.28,11.55,734.39,1.56,0.57,84.66,0
2020-03-10T23:20:00-05:00,90.26,11.58,736.87,0.39,0.5,101.37,0
2020-03-10T23:21:00-05:00,90.07,11.62,734.43,-0.35,0.22,118.71,0
2020-03-10T23:22:00-05:00,90.05,11.63,736.8,-1.23,0.42,120.28,0
2020-03-10T23:23:00-05:00,90.43,11.67,735.53,-1.08,0.28,149.2,0
2020-03-10T23:24:00-05:00,90.54,11.7,735.5,-2.26,0.33,166.12,0
2020-03-10T23:25:00-05:00,90.51,11.69,734.06,-1.67,0.43,134.19,0
2020-03-10T23:26:00-05:00,90.67,11.71,736.6,-2.55,0.51,123.05,0
2020-03-10T23:27:00-05:00,90.65,11.73,736.67,-1.82,0.51,134.17,0
2020-03-10T23:28:00-05:00,90.53,11.74,734.16,-1.23,0.29,73.53,0
2020-03-10T23:29:00-05:00,90.51,11.75,736.8,0.83,0.49,53.24,0
2020-03-10T23:30:00-05:00,90.94,11.77,734.49,-0.2,0.56,45.16,0
2020-03-10T23:31:00-05:00,91.2,11.75,733.96,0.09,0.56,74.57,0
2020-03-10T23:32:00-05:00,91.13,11.72,734.26,2.15,0.61,62.07,0
2020-03-10T23:33:00-05:00,91.39,11.73,736.8,-0.64,0.2,79.31,0
2020-03-10T23:34:00-05:00,91.54,11.73,736.8,-0.35,0.22,90.82,0
2020-03-10T23:35:00-05:00,91.58,11.73,734.26,1.71,0.22,80.93,0
2020-03-10T23:36:00-05:00,91.72,11.74,734.9,-0.05,0.45,109.22,0
2020-03-10T23:37:00-05:00,91.66,11.75,736.5,2,0.41,106.36,0
2020-03-10T23:38:00-05:00,91.7,11.78,735.16,1.71,0.23,104.26,0
2020-03-10T23:39:00-05:00,91.75,11.8,736.33,-0.2,0.43,103.13,0
2020-03-10T23:40:00-05:00,91.76,11.81,735.2,2,0.52,104.97,0
2020-03-10T23:41:00-05:00,91.77,11.85,735.6,1.71,0.6,90.45,0
2020-03-10T23:42:00-05:00,91.61,11.86,736.5,-0.35,0.59,86.69,0
2020-03-10T23:43:00-05:00,91.73,11.9,736.4,-1.52,0.65,67.03,0
2020-03-10T23:44:00-05:00,91.87,11.92,735.63,-0.79,0.57,73.38,0
2020-03-10T23:45:00-05:00,91.85,11.92,733.82,-0.64,0.38,70.28,0
2020-03-10T23:46:00-05:00,91.77,11.93,733.69,-2.55,0.62,111.97,0
2020-03-10T23:47:00-05:00,91.54,11.9,733.72,-1.82,0.53,156.52,0
2020-03-10T23:48:00-05:00,90.99,11.88,736.13,-2.55,0.65,183.04,0
2020-03-10T23:49:00-05:00,90.83,11.87,734.66,-3.14,0.61,185.35,0
2020-03-10T23:50:00-05:00,90.78,11.87,734.13,-1.08,0.57,183.05,0
2020-03-10T23:51:00-05:00,90.85,11.86,735,-2.7,0.68,174.44,0
2020-03-10T23:52:00-05:00,91.03,11.87,734.96,-2.41,0.39,143.19,0
2020-03-10T23:53:00-05:00,90.87,11.85,735.56,-0.79,0.35,120.81,0
2020-03-10T23:54:00-05:00,91.15,11.85,733.86,-2.26,0.57,115.23,0
2020-03-10T23:55:00-05:00,91.32,11.83,733.66,-2.41,0.38,78.05,0
2020-03-10T23:56:00-05:00,91.65,11.85,733.66,-2.26,0.31,133.6,0
2020-03-10T23:57:00-05:00,91.78,11.83,734.49,-2.41,0.61,126.19,0
2020-03-10T23:58:00-05:00,91.86,11.81,734.36,-2.85,0.32,132.33,0
2020-03-10T23:59:00-05:00,92.06,11.81,733.92,-3.14,0.2,135.66,0
