time,[HUME],[TEMP],[PRES],[RADI],[RAPV],[DIRV],[PREC]
2020-03-28T00:00:00-05:00,97.27,12.02,732.59,1.12,0.49,193.98,0
2020-03-28T00:01:00-05:00,97.11,12.01,732.48,-0.79,0.25,202.28,0
2020-03-28T00:02:00-05:00,97.34,12.01,732.59,-1.38,0.19,206.01,0
2020-03-28T00:03:00-05:00,97.29,12.01,731.78,-0.49,0.23,149.6,0
2020-03-28T00:04:00-05:00,97.05,11.99,731.61,-0.94,0.55,161.11,0
2020-03-28T00:05:00-05:00,97.18,11.99,733.12,-0.94,0.36,169.13,0.1
2020-03-28T00:06:00-05:00,97.32,11.97,731.92,-1.23,0.56,164.15,0
2020-03-28T00:07:00-05:00,97.2,11.99,731.28,-1.23,0.53,152.15,0
2020-03-28T00:08:00-05:00,97.34,11.98,732.62,0.68,0.2,188.1,0
2020-03-28T00:09:00-05:00,97.3,11.99,731.48,-1.23,0.22,146.28,0
2020-03-28T00:10:00-05:00,97.24,11.99,732.45,-0.35,0.25,155.24,0.1
2020-03-28T00:11:00-05:00,97.28,12.01,732.59,-0.05,0.55,186.98,0.1
2020-03-28T00:12:00-05:00,97.13,11.98,733.32,-1.38,0.29,205.98,0
2020-03-28T00:13:00-05:00,97.16,11.96,731.51,0.53,0.3,191.01,0.1
2020-03-28T00:14:00-05:00,97.13,11.96,731.98,-0.79,0.16,182.09,0
2020-03-28T00:15:00-05:00,97.09,11.95,731.85,1.12,0.47,189.05,0.1
2020-03-28T00:16:00-05:00,97.24,11.95,733.12,-0.2,0.6,180.43,0
2020-03-28T00:17:00-05:00,97.15,11.95,732.35,-1.38,0.48,184.04,0
2020-03-28T00:18:00-05:00,97.29,11.93,732.52,0.53,0.25,10.85,0.1
2020-03-28T00:19:00-05:00,97.38,11.95,732.45,-0.05,0.47,189.08,0
2020-03-28T00:20:00-05:00,97.22,11.95,732.28,-0.94,0.55,175.48,0.1
2020-03-28T00:21:00-05:00,97.4,11.94,731.31,0.68,0.29,30.3,0
2020-03-28T00:22:00-05:00,97.44,11.93,731.38,-1.82,0.67,174.43,0
2020-03-28T00:23:00-05:00,97.22,11.94,731.01,-0.79,0.5,156.49,0.1
2020-03-28T00:24:00-05:00,97.47,11.95,731.48,-1.08,0.67,179.42,0
2020-03-28T00:25:00-05:00,97.43,11.93,731.72,-0.64,0.76,112.5,0
2020-03-28T00:26:00-05:00,97.4,11.93,732.55,-0.35,0.25,187.02,0.1
2020-03-28T00:27:00-05:00,97.3,11.93,731.31,-0.94,0.37,193,0
2020-03-28T00:28:00-05:00,97.33,11.92,732.02,0.09,0.42,159.16,0.1
2020-03-28T00:29:00-05:00,97.35,11.94,731.98,0.68,0.14,85.43,0
2020-03-28T00:30:00-05:00,97.58,11.94,732.28,-1.08,0.41,159.15,0.1
2020-03-28T00:31:00-05:00,97.4,11.95,731.45,-1.08,0.56,179.14,0
2020-03-28T00:32:00-05:00,97.31,11.94,732.25,-0.35,0.57,161.12,0.1
2020-03-28T00:33:00-05:00,97.24,11.91,731.78,0.53,0.61,151.21,0
2020-03-28T00:34:00-05:00,97.18,11.87,731.25,-1.08,0.73,139.26,0.1
2020-03-28T00:35:00-05:00,96.97,11.85,730.74,-0.2,0.7,196.26,0.1
2020-03-28T00:36:00-05:00,96.98,11.83,731.25,-0.94,0.62,175.12,0
2020-03-28T00:37:00-05:00,97.02,11.8,731.51,0.09,0.57,183.35,0.1
2020-03-28T00:38:00-05:00,97.07,11.79,731.35,-1.52,0.44,217.9,0
2020-03-28T00:39:00-05:00,96.98,11.76,730.84,-1.23,0.66,196.26,0
2020-03-28T00:40:00-05:00,97,11.75,731.01,1.12,0.55,179.12,0.1
2020-03-28T00:41:00-05:00,97.25,11.75,730.95,-0.35,0.42,197.39,0
2020-03-28T00:42:00-05:00,97.28,11.75,730.68,-1.08,0.32,122.54,0
2020-03-28T00:43:00-05:00,97.15,11.74,732.05,-1.23,0.23,161.19,0.1
2020-03-28T00:44:00-05:00,97.24,11.74,730.74,-0.94,0.22,119.32,0
2020-03-28T00:45:00-05:00,97.24,11.73,731.78,-1.08,0.55,169.09,0
2020-03-28T00:46:00-05:00,97.42,11.73,731.72,0.39,0.23,153.17,0.1
2020-03-28T00:47:00-05:00,97.4,11.72,731.72,-0.49,0.54,149.24,0
2020-03-28T00:48:00-05:00,97.5,11.75,731.05,-0.35,0.22,161.14,0
2020-03-28T00:49:00-05:00,97.53,11.75,731.55,-1.23,0.24,146.27,0.1
2020-03-28T00:50:00-05:00,97.55,11.75,731.72,-1.82,0.16,26.23,0
2020-03-28T00:51:00-05:00,97.48,11.77,732.25,0.68,0.4,164.22,0
2020-03-28T00:52:00-05:00,97.4,11.75,731.78,0.09,0.2,161.14,0
2020-03-28T00:53:00-05:00,97.42,11.77,731.08,-0.2,0.08,292.7,0.1
2020-03-28T00:54:00-05:00,97.54,11.77,731.82,-0.94,0.2,259.15,0
2020-03-28T00:55:00-05:00,97.35,11.77,731.15,-0.94,0.37,206.3,0
2020-03-28T00:56:00-05:00,97.14,11.75,730.64,-0.2,0.27,231.24,0
2020-03-28T00:57:00-05:00,97.32,11.73,731.21,0.98,0.25,139.53,0.1
2020-03-28T00:58:00-05:00,97.28,11.71,731.92,-1.23,0.59,158.53,0
2020-03-28T00:59:00-05:00,97.08,11.69,730.68,-1.67,0.46,161.12,0
2020-03-28T01:00:00-05:00,96.91,11.65,730.51,-0.64,0.57,162.58,0.1
2020-03-28T01:01:00-05:00,97.03,11.63,731.25,-1.97,0.61,161.13,0
2020-03-28T01:02:00-05:00,97.06,11.62,731.45,-1.52,0.58,170.32,0
2020-03-28T01:03:00-05:00,97.04,11.59,731.48,-1.38,0.58,146.22,0.1
2020-03-28T01:04:00-05:00,97.13,11.58,730.91,-1.38,0.2,131.27,0
2020-03-28T01:05:00-05:00,97.11,11.59,731.11,-0.64,0.41,53.67,0.1
2020-03-28T01:06:00-05:00,97.19,11.6,730.58,-1.23,0.17,190.03,0.1
2020-03-28T01:07:00-05:00,97.28,11.6,730.84,0.24,0.46,138.26,0.1
2020-03-28T01:08:00-05:00,97.06,11.6,731.31,-1.38,0.51,128.24,0.1
2020-03-28T01:09:00-05:00,97,11.58,729.94,1.12,0.58,147.24,0
2020-03-28T01:10:00-05:00,97.06,11.55,731.45,-0.2,0.55,127.77,0
2020-03-28T01:11:00-05:00,97.17,11.56,730.71,-0.49,0.49,169.13,0.1
2020-03-28T01:12:00-05:00,97.12,11.56,730.98,0.68,0.79,150.19,0
2020-03-28T01:13:00-05:00,97.11,11.55,730.14,-0.79,0.75,156.51,0
2020-03-28T01:14:00-05:00,97.1,11.53,730.58,0.24,0.58,133.22,0
2020-03-28T01:15:00-05:00,97.26,11.54,730.51,-0.79,0.47,156.51,0
2020-03-28T01:16:00-05:00,97.04,11.55,730.58,-0.79,0.57,139.28,0.1
2020-03-28T01:17:00-05:00,97.14,11.53,731.25,-0.94,0.63,188.39,0
2020-03-28T01:18:00-05:00,97.04,11.51,731.08,0.98,0.61,153.17,0.1
2020-03-28T01:19:00-05:00,97.13,11.51,729.71,-1.67,0.63,158.53,0
2020-03-28T01:20:00-05:00,97.22,11.51,730.64,0.98,0.5,162.22,0
2020-03-28T01:21:00-05:00,97.41,11.52,730.58,0.24,0.15,158.47,0.1
2020-03-28T01:22:00-05:00,97.54,11.54,730.95,0.09,0.29,146.25,0
2020-03-28T01:23:00-05:00,97.49,11.56,730.38,-0.35,0.34,179.13,0.1
2020-03-28T01:24:00-05:00,97.56,11.58,731.38,-0.64,0.55,153.16,0
2020-03-28T01:25:00-05:00,97.42,11.58,730.48,-0.35,0.15,129.76,0
2020-03-28T01:26:00-05:00,97.52,11.64,730.04,-0.64,0.07,132.9,0.1
2020-03-28T01:27:00-05:00,97.62,11.62,731.31,0.39,0.12,46.52,0
2020-03-28T01:28:00-05:00,97.48,11.64,730.95,-0.79,0.13,215.92,0
2020-03-28T01:29:00-05:00,97.65,11.63,731.08,-1.08,0.12,57.75,0
2020-03-28T01:30:00-05:00,97.57,11.65,730.48,1.42,0.15,124.62,0
2020-03-28T01:31:00-05:00,97.46,11.65,730.98,-1.08,0.41,165.42,0.1
2020-03-28T01:32:00-05:00,97.42,11.66,730.11,-0.79,0.25,48.98,0
2020-03-28T01:33:00-05:00,97.57,11.67,730.24,0.98,0.14,65.57,0
2020-03-28T01:34:00-05:00,97.62,11.66,731.38,0.98,0.24,124.26,0
2020-03-28T01:35:00-05:00,97.59,11.68,731.48,0.53,0.25,164.16,0
2020-03-28T01:36:00-05:00,97.41,11.69,730.64,-0.79,0.32,91.97,0
2020-03-28T01:37:00-05:00,97.56,11.68,731.82,0.83,0.23,165.16,0
2020-03-28T01:38:00-05:00,97.58,11.69,731.65,-0.35,0.52,74.38,0
2020-03-28T01:39:00-05:00,97.66,11.71,729.87,1.27,0.19,129.37,0
2020-03-28T01:40:00-05:00,97.5,11.69,730.95,-0.79,0.16,109.47,0.1
2020-03-28T01:41:00-05:00,97.06,11.63,730.81,0.24,0.59,97.23,0
2020-03-28T01:42:00-05:00,96.94,11.57,730.18,1.12,0.56,100.88,0.1
2020-03-28T01:43:00-05:00,96.85,11.54,730.31,-1.67,0.56,101.21,0
2020-03-28T01:44:00-05:00,96.74,11.51,730.64,0.39,0.61,75.26,0.1
2020-03-28T01:45:00-05:00,96.95,11.46,731.11,-0.05,0.5,47.29,0
2020-03-28T01:46:00-05:00,97.14,11.49,731.31,-1.38,0.62,32.95,0
2020-03-28T01:47:00-05:00,97.38,11.5,730.11,1.12,0.52,68.96,0.1
2020-03-28T01:48:00-05:00,97.38,11.52,730.07,0.09,0.24,64.2,0
2020-03-28T01:49:00-05:00,97.22,11.53,730.24,-1.08,0.5,116.31,0
2020-03-28T01:50:00-05:00,97.22,11.52,730.21,-0.2,0.2,198,0
2020-03-28T01:51:00-05:00,97.32,11.52,730.88,-1.23,0.27,165.47,0.1
2020-03-28T01:52:00-05:00,97.16,11.49,730.38,-1.52,0.06,45.44,0
2020-03-28T01:53:00-05:00,97.25,11.49,729.94,-0.35,0.24,134.16,0
2020-03-28T01:54:00-05:00,97.18,11.48,731.01,-0.35,0.29,58.06,0
2020-03-28T01:55:00-05:00,97.16,11.47,730.68,0.24,0.36,89.77,0
2020-03-28T01:56:00-05:00,97.27,11.48,730.95,-1.52,0.29,148.25,0.1
2020-03-28T01:57:00-05:00,97.15,11.47,730.04,0.68,0.61,154.56,0
2020-03-28T01:58:00-05:00,97.06,11.42,730.61,0.98,0.37,128.78,0.1
2020-03-28T01:59:00-05:00,97.02,11.42,729.64,-1.23,0.41,150.48,0
2020-03-28T02:00:00-05:00,97.02,11.38,730.14,0.24,0.56,138.28,0.1
2020-03-28T02:01:00-05:00,96.84,11.38,729.51,-1.23,0.35,154.26,0
2020-03-28T02:02:00-05:00,96.82,11.36,729.77,-0.94,0.47,123.03,0
2020-03-28T02:03:00-05:00,96.9,11.35,730.38,-1.23,0.25,105.29,0
2020-03-28T02:04:00-05:00,97.07,11.36,729.74,0.39,0.62,122.52,0
2020-03-28T02:05:00-05:00,97.14,11.32,729.74,-1.08,0.61,163.49,0
2020-03-28T02:06:00-05:00,97.24,11.34,730.21,-1.08,0.51,150.2,0
2020-03-28T02:07:00-05:00,97.16,11.34,730.14,0.24,0.23,143.2,0
2020-03-28T02:08:00-05:00,97.23,11.35,729.67,0.68,0.36,165.18,0
2020-03-28T02:09:00-05:00,97.13,11.34,729.51,-1.08,0.41,180.11,0
2020-03-28T02:10:00-05:00,97.06,11.35,729.07,0.68,0.06,67,0.1
2020-03-28T02:11:00-05:00,97.13,11.34,730.01,-0.94,0.26,131.24,0
2020-03-28T02:12:00-05:00,97.15,11.35,730.68,1.42,0.26,265.12,0
2020-03-28T02:13:00-05:00,97.31,11.33,729.41,-1.23,0.56,182.08,0
2020-03-28T02:14:00-05:00,97.29,11.34,729.64,1.27,0.36,227.21,0
2020-03-28T02:15:00-05:00,97.25,11.34,729.77,-0.64,0.56,192.96,0
2020-03-28T02:16:00-05:00,97.23,11.33,729.1,0.53,0.55,191.34,0
2020-03-28T02:17:00-05:00,97.31,11.34,730.34,-0.35,0.06,115.21,0
2020-03-28T02:18:00-05:00,97.32,11.32,729.44,0.98,0.37,6.28,0
2020-03-28T02:19:00-05:00,97.31,11.32,730.51,1.12,0.06,214.95,0.1
2020-03-28T02:20:00-05:00,97.22,11.32,729.51,-0.94,0.52,303.65,0
2020-03-28T02:21:00-05:00,97.19,11.34,729.51,1.27,0.18,210.94,0
2020-03-28T02:22:00-05:00,97.36,11.35,730.51,-0.79,0.23,155.24,0
2020-03-28T02:23:00-05:00,97.13,11.33,729.54,-1.52,0.61,100.96,0
2020-03-28T02:24:00-05:00,97.16,11.33,730.34,-0.05,0.25,87.58,0
2020-03-28T02:25:00-05:00,97.28,11.34,730.51,-1.52,0.09,168.1,0
2020-03-28T02:26:00-05:00,97.38,11.34,730.38,-0.49,0.27,66.5,0.1
2020-03-28T02:27:00-05:00,97.42,11.33,730.41,-1.52,0.46,205,0
2020-03-28T02:28:00-05:00,97.36,11.35,730.64,1.56,0.45,109.28,0
2020-03-28T02:29:00-05:00,97.49,11.36,730.18,1.12,0.28,29.55,0
2020-03-28T02:30:00-05:00,97.28,11.38,729.77,1.12,0.97,51.29,0
2020-03-28T02:31:00-05:00,97.42,11.38,729.97,-0.79,0.77,75.75,0
2020-03-28T02:32:00-05:00,97.47,11.41,730.07,-0.35,0.57,53.35,0
2020-03-28T02:33:00-05:00,97.34,11.41,730.24,-1.08,0.3,46.3,0
2020-03-28T02:34:00-05:00,97.43,11.41,730.84,-0.79,0.58,314.56,0
2020-03-28T02:35:00-05:00,97.35,11.46,730.18,0.68,0.93,41.04,0
2020-03-28T02:36:00-05:00,97.28,11.44,730.95,2,1.44,40.88,0.1
2020-03-28T02:37:00-05:00,97.24,11.45,729.84,-1.08,0.29,52.1,0
2020-03-28T02:38:00-05:00,97.22,11.45,729.71,-1.08,0.56,2.03,0
2020-03-28T02:39:00-05:00,97.2,11.46,730.54,0.39,0.59,49.67,0
2020-03-28T02:40:00-05:00,97.29,11.48,730.34,-1.08,0.57,28.16,0
2020-03-28T02:41:00-05:00,97.12,11.47,730.61,-0.35,0.68,98.09,0
2020-03-28T02:42:00-05:00,97.1,11.48,730.24,0.09,0.41,60.9,0
2020-03-28T02:43:00-05:00,97.04,11.5,730.71,0.98,0.21,34.89,0
2020-03-28T02:44:00-05:00,96.96,11.51,730.68,-0.2,0.63,17.13,0
2020-03-28T02:45:00-05:00,96.93,11.54,730.78,0.98,0.3,89.62,0
2020-03-28T02:46:00-05:00,97.01,11.55,730.71,-1.08,0.39,47.32,0
2020-03-28T02:47:00-05:00,96.92,11.54,730.74,-0.94,0.58,93.08,0
2020-03-28T02:48:00-05:00,96.96,11.56,729.91,1.12,0.23,83.15,0.1
2020-03-28T02:49:00-05:00,96.79,11.54,730.58,0.53,0.55,322.54,0.1
2020-03-28T02:50:00-05:00,96.74,11.55,730.04,-1.08,0.27,57.02,0.1
2020-03-28T02:51:00-05:00,96.73,11.54,730.01,-1.38,0.32,31.4,0
2020-03-28T02:52:00-05:00,96.59,11.52,730.95,0.83,0.59,77.64,0.1
2020-03-28T02:53:00-05:00,96.66,11.54,731.01,-1.38,0.56,60.49,0.1
2020-03-28T02:54:00-05:00,96.55,11.52,729.87,0.98,0.25,317.02,0
2020-03-28T02:55:00-05:00,96.56,11.54,730.34,-0.05,0.45,43.61,0
2020-03-28T02:56:00-05:00,96.61,11.52,730.84,0.39,0.61,48.6,0.1
2020-03-28T02:57:00-05:00,96.51,11.53,730.81,1.27,0.62,64.57,0
2020-03-28T02:58:00-05:00,96.52,11.53,729.57,-0.64,0.55,112.62,0.1
2020-03-28T02:59:00-05:00,96.58,11.52,729.71,-0.79,0.68,77.8,0
2020-03-28T03:00:00-05:00,96.34,11.48,729.61,-1.08,0.58,58.15,0.1
2020-03-28T03:01:00-05:00,96.51,11.48,730.91,-1.08,0.44,11.21,0
2020-03-28T03:02:00-05:00,96.61,11.51,730.38,-0.94,0.46,21.18,0
2020-03-28T03:03:00-05:00,96.68,11.52,730.64,1.27,0.77,67.53,0.1
2020-03-28T03:04:00-05:00,96.45,11.51,729.91,-0.94,0.55,45.85,0
2020-03-28T03:05:00-05:00,96.3,11.48,730.74,1.27,0.73,61.89,0
2020-03-28T03:06:00-05:00,96.45,11.5,730.34,-0.94,0.15,227.84,0.1
2020-03-28T03:07:00-05:00,96.57,11.48,729.87,-1.08,0.2,77.88,0
2020-03-28T03:08:00-05:00,96.71,11.5,729.81,0.09,0.33,75.2,0
2020-03-28T03:09:00-05:00,96.57,11.5,729.64,-0.94,0.5,30.91,0
2020-03-28T03:10:00-05:00,96.5,11.51,729.1,-0.2,0.22,99.69,0.1
2020-03-28T03:11:00-05:00,96.48,11.48,729.97,1.56,0.26,129.68,0
2020-03-28T03:12:00-05:00,96.51,11.48,729.64,-1.38,0.49,36.12,0
2020-03-28T03:13:00-05:00,96.47,11.48,730.71,-0.05,0.47,9.39,0
2020-03-28T03:14:00-05:00,96.45,11.47,729.87,-1.38,0.57,355.47,0
2020-03-28T03:15:00-05:00,96.43,11.46,730.78,1.42,0.47,356.78,0
2020-03-28T03:16:00-05:00,96.46,11.46,731.28,0.98,0.62,38.02,0.1
2020-03-28T03:17:00-05:00,96.45,11.45,730.71,-0.94,0.67,6.94,0
2020-03-28T03:18:00-05:00,96.46,11.44,730.78,-0.49,0.62,1.77,0
2020-03-28T03:19:00-05:00,96.44,11.43,730.98,-1.38,0.63,14.39,0
2020-03-28T03:20:00-05:00,96.55,11.44,730.78,-0.79,0.54,6.88,0.1
2020-03-28T03:21:00-05:00,96.54,11.45,730.84,-0.49,0.23,301.65,0
2020-03-28T03:22:00-05:00,96.58,11.44,730.95,-0.94,0.48,72.36,0
2020-03-28T03:23:00-05:00,96.65,11.44,730.74,1.27,0.14,190.04,0.1
2020-03-28T03:24:00-05:00,96.63,11.44,730.74,0.68,0.68,74.73,0
2020-03-28T03:25:00-05:00,96.69,11.44,731.21,-0.79,1.51,60.91,0.1
2020-03-28T03:26:00-05:00,96.56,11.41,730.07,-1.08,0.64,70.64,0
2020-03-28T03:27:00-05:00,96.45,11.38,730.71,-1.23,0.61,43.83,0.1
2020-03-28T03:28:00-05:00,96.59,11.38,729.71,-0.49,0.9,54.48,0.1
2020-03-28T03:29:00-05:00,96.61,11.38,729.77,-0.05,0.55,52.04,0
2020-03-28T03:30:00-05:00,96.83,11.36,729.91,-0.94,1.25,57.11,0.1
2020-03-28T03:31:00-05:00,96.83,11.34,730.78,1.12,1.22,57.07,0
2020-03-28T03:32:00-05:00,96.79,11.33,730.11,-0.94,0.84,19.75,0.1
2020-03-28T03:33:00-05:00,96.98,11.34,730.51,-0.2,1.47,66.76,0
2020-03-28T03:34:00-05:00,97.03,11.34,730.74,1.12,0.51,32.31,0
2020-03-28T03:35:00-05:00,96.92,11.35,729.81,-0.94,0.6,34.06,0.1
2020-03-28T03:36:00-05:00,96.85,11.32,730.54,-0.05,0.59,24.07,0
2020-03-28T03:37:00-05:00,97.02,11.32,730.11,-1.38,0.58,71.22,0
2020-03-28T03:38:00-05:00,96.84,11.28,729.37,0.83,0.83,79.35,0
2020-03-28T03:39:00-05:00,96.89,11.27,730.58,-0.79,0.56,55.68,0
2020-03-28T03:40:00-05:00,97.01,11.29,730.68,-0.94,0.6,41.18,0
2020-03-28T03:41:00-05:00,97.12,11.3,731.08,0.83,0.23,314.53,0
2020-03-28T03:42:00-05:00,96.99,11.29,730.54,0.98,0.35,20.81,0.1
2020-03-28T03:43:00-05:00,97.03,11.3,730.21,-0.05,0.54,77.82,0
2020-03-28T03:44:00-05:00,97.01,11.3,730.28,-1.38,0.59,77.51,0
2020-03-28T03:45:00-05:00,96.84,11.28,729.14,-0.79,0.66,76.43,0
2020-03-28T03:46:00-05:00,96.53,11.24,730.51,-1.23,0.62,91.29,0
2020-03-28T03:47:00-05:00,96.69,11.21,730.21,-1.23,0.59,87.49,0
2020-03-28T03:48:00-05:00,96.69,11.2,729.34,-0.79,0.56,80.06,0.1
2020-03-28T03:49:00-05:00,96.63,11.19,729.64,-0.79,0.61,61.55,0
2020-03-28T03:50:00-05:00,96.63,11.16,728.97,-1.52,0.58,71.58,0
2020-03-28T03:51:00-05:00,96.54,11.14,728.94,-0.64,0.58,85.2,0
2020-03-28T03:52:00-05:00,96.5,11.14,729.94,0.09,0.37,83.83,0.1
2020-03-28T03:53:00-05:00,96.57,11.13,729.67,0.68,0.6,102.5,0
2020-03-28T03:54:00-05:00,96.78,11.13,730.18,0.83,0.59,68.06,0
2020-03-28T03:55:00-05:00,96.7,11.13,729.67,0.83,0.12,113.25,0
2020-03-28T03:56:00-05:00,96.69,11.13,728.9,-0.05,0.06,319.6,0.1
2020-03-28T03:57:00-05:00,96.86,11.16,729.87,-0.79,0.06,97.31,0
2020-03-28T03:58:00-05:00,96.72,11.14,728.9,-1.67,0.31,42.67,0
2020-03-28T03:59:00-05:00,96.77,11.14,730.41,1.12,0.61,45.41,0
2020-03-28T04:00:00-05:00,96.77,11.14,729.97,1.12,0.76,69.9,0
2020-03-28T04:01:00-05:00,96.77,11.12,728.9,-0.64,0.62,24.83,0
2020-03-28T04:02:00-05:00,96.89,11.14,729.1,0.24,0.66,45.26,0
2020-03-28T04:03:00-05:00,96.89,11.15,729.81,-1.38,0.79,56.91,0
2020-03-28T04:04:00-05:00,97,11.16,728.74,-1.08,0.8,43.67,0
2020-03-28T04:05:00-05:00,96.93,11.16,730.24,1.27,0.97,57.56,0
2020-03-28T04:06:00-05:00,96.83,11.14,729.24,-0.05,1.2,57.26,0
2020-03-28T04:07:00-05:00,96.77,11.13,728.57,0.53,0.61,78.06,0.1
2020-03-28T04:08:00-05:00,96.92,11.12,729.74,-1.38,0.63,59.24,0
2020-03-28T04:09:00-05:00,96.91,11.15,729.77,-1.38,0.48,46.29,0
2020-03-28T04:10:00-05:00,97.07,11.17,729.97,-1.08,0.19,25.14,0
2020-03-28T04:11:00-05:00,97.22,11.18,728.8,-1.38,0.19,182.08,0
2020-03-28T04:12:00-05:00,97.09,11.18,730.14,1.27,0.09,45.41,0
2020-03-28T04:13:00-05:00,97.11,11.18,729.84,-0.64,0.19,137.14,0
2020-03-28T04:14:00-05:00,97.18,11.22,729.07,0.83,0.31,91.35,0
2020-03-28T04:15:00-05:00,97.25,11.21,729.44,0.53,0.29,118.24,0
2020-03-28T04:16:00-05:00,96.93,11.19,728.87,0.24,0.17,48.21,0
2020-03-28T04:17:00-05:00,96.87,11.18,729.47,-1.08,0.11,139.29,0
2020-03-28T04:18:00-05:00,96.85,11.2,730.11,-0.05,0.12,222.95,0
2020-03-28T04:19:00-05:00,96.94,11.16,729.74,0.09,0.39,62.93,0
2020-03-28T04:20:00-05:00,96.88,11.18,728.97,-0.94,0.6,42.86,0
2020-03-28T04:21:00-05:00,96.94,11.15,729.47,1.42,0.67,59.36,0
2020-03-28T04:22:00-05:00,96.72,11.14,728.53,-0.79,0.62,74.53,0
2020-03-28T04:23:00-05:00,96.88,11.14,728.77,0.53,0.45,89.1,0
2020-03-28T04:24:00-05:00,96.8,11.12,728.74,-1.38,0.1,96.36,0
2020-03-28T04:25:00-05:00,96.75,11.12,728.67,-0.2,0.61,40.12,0
2020-03-28T04:26:00-05:00,97,11.15,729.81,0.83,0.44,48.29,0
2020-03-28T04:27:00-05:00,96.98,11.18,728.97,-1.08,0.19,154.56,0
2020-03-28T04:28:00-05:00,97.06,11.19,729.37,-0.35,0.35,85.81,0
2020-03-28T04:29:00-05:00,97.14,11.21,728.9,-0.94,0.25,95.8,0
2020-03-28T04:30:00-05:00,97.08,11.22,729.44,-0.64,0.06,171.16,0
2020-03-28T04:31:00-05:00,97.09,11.21,730.07,0.83,0.22,269.08,0
2020-03-28T04:32:00-05:00,97.04,11.22,730.04,-0.49,0.08,257.8,0
2020-03-28T04:33:00-05:00,96.85,11.21,729.51,0.24,0.25,285.67,0
2020-03-28T04:34:00-05:00,96.86,11.23,729.14,-0.79,0.11,99.48,0
2020-03-28T04:35:00-05:00,96.83,11.21,728.8,0.09,0.19,297.63,0
2020-03-28T04:36:00-05:00,96.88,11.22,728.2,0.83,0.34,283.71,0
2020-03-28T04:37:00-05:00,96.69,11.2,730.18,-0.05,0.17,290.74,0
2020-03-28T04:38:00-05:00,96.87,11.2,728.64,0.24,0.06,223.91,0
2020-03-28T04:39:00-05:00,96.75,11.2,729.91,0.98,0.11,148.23,0.1
2020-03-28T04:40:00-05:00,96.84,11.18,728.57,-1.08,0.13,147.24,0
2020-03-28T04:41:00-05:00,96.81,11.19,729.57,0.53,0.29,128.7,0
2020-03-28T04:42:00-05:00,96.95,11.19,728.94,0.98,0.53,82.01,0
2020-03-28T04:43:00-05:00,96.79,11.2,729.97,0.24,0.24,77.22,0
2020-03-28T04:44:00-05:00,97,11.19,729.91,-0.94,0.5,169.4,0
2020-03-28T04:45:00-05:00,96.75,11.19,729.94,0.83,0.55,152.16,0
2020-03-28T04:46:00-05:00,96.49,11.14,729.27,0.83,0.7,184.37,0
2020-03-28T04:47:00-05:00,96.54,11.12,729.84,0.39,0.52,188.09,0.1
2020-03-28T04:48:00-05:00,96.69,11.12,729.17,-1.67,0.37,183.39,0
2020-03-28T04:49:00-05:00,96.69,11.1,729.77,-1.08,0.56,175.12,0
2020-03-28T04:50:00-05:00,96.77,11.09,729.67,0.83,0.67,168.43,0
2020-03-28T04:51:00-05:00,96.83,11.08,729.94,-0.05,0.59,170.09,0
2020-03-28T04:52:00-05:00,96.64,11.06,729,1.27,0.61,174.13,0
2020-03-28T04:53:00-05:00,96.76,11.06,728.84,-1.23,0.51,151.19,0
2020-03-28T04:54:00-05:00,96.89,11.04,728.23,1.42,0.46,160.17,0
2020-03-28T04:55:00-05:00,96.81,11.04,728.67,-0.94,0.49,174.12,0
2020-03-28T04:56:00-05:00,96.94,11.04,728.5,-1.08,0.59,170.08,0
2020-03-28T04:57:00-05:00,97.04,11.04,729.74,-0.94,0.57,167.13,0
2020-03-28T04:58:00-05:00,97.08,11.05,729.57,-0.49,0.27,160.14,0
2020-03-28T04:59:00-05:00,97.06,11.04,729.2,0.98,0.54,147.28,0
2020-03-28T05:00:00-05:00,96.98,11.06,728.57,0.98,0.3,142.21,0
2020-03-28T05:01:00-05:00,97.02,11.05,728.5,0.83,0.57,148.58,0
2020-03-28T05:02:00-05:00,96.91,11.05,729.54,-1.23,0.56,153.41,0
2020-03-28T05:03:00-05:00,96.95,11.04,729.17,-0.79,0.56,140.62,0
2020-03-28T05:04:00-05:00,96.98,11.04,732.35,-0.2,0.31,177.06,0
2020-03-28T05:05:00-05:00,97,11.04,731.82,-1.67,0.27,157.52,0
2020-03-28T05:06:00-05:00,97.2,11.04,731.88,0.09,0.51,125.22,0
2020-03-28T05:07:00-05:00,97.1,11.06,732.38,-0.35,0.17,182.41,0
2020-03-28T05:08:00-05:00,97.24,11.06,732.28,0.83,0.22,151.16,0
2020-03-28T05:09:00-05:00,97.26,11.07,732.12,0.83,0.24,41.18,0
2020-03-28T05:10:00-05:00,97.26,11.09,732.62,-0.79,0.44,81.08,0
2020-03-28T05:11:00-05:00,97.39,11.12,732.92,-0.49,0.59,76.4,0
2020-03-28T05:12:00-05:00,97.29,11.1,732.72,1.27,0.56,83.75,0
2020-03-28T05:13:00-05:00,97.3,11.11,732.05,-0.2,0.25,95.46,0
2020-03-28T05:14:00-05:00,97.16,11.11,732.02,-1.23,0.25,95.98,0
2020-03-28T05:15:00-05:00,97.22,11.1,732.05,0.53,0.3,104.46,0
2020-03-28T05:16:00-05:00,97.18,11.12,732.89,-0.35,0.32,174.14,0
2020-03-28T05:17:00-05:00,97.1,11.1,733.02,-0.64,0.48,172.16,0
2020-03-28T05:18:00-05:00,97.01,11.09,733.32,-1.52,0.24,186,0
2020-03-28T05:19:00-05:00,97.14,11.08,732.95,-1.08,0.57,164.17,0
2020-03-28T05:20:00-05:00,97.12,11.08,732.12,-0.35,0.55,171.23,0
2020-03-28T05:21:00-05:00,96.94,11.06,732.52,-1.08,0.51,188.07,0
2020-03-28T05:22:00-05:00,96.98,11.05,732.89,-1.23,0.58,204.26,0
2020-03-28T05:23:00-05:00,97.05,11.04,733.12,0.53,0.62,212.92,0
2020-03-28T05:24:00-05:00,97.09,11.04,732.75,-0.64,0.6,205.36,0
2020-03-28T05:25:00-05:00,97.17,11.02,732.42,1.12,0.52,167.13,0
2020-03-28T05:26:00-05:00,97.05,11.02,733.49,1.12,0.62,180.45,0
2020-03-28T05:27:00-05:00,97.21,11.03,732.55,-0.49,0.46,130.29,0
2020-03-28T05:28:00-05:00,97.26,11.02,732.38,1.27,0.49,147.54,0
2020-03-28T05:29:00-05:00,97.26,11.03,732.28,1.12,0.15,110.62,0
2020-03-28T05:30:00-05:00,97.17,11.04,732.25,1.42,0.17,190.98,0
2020-03-28T05:31:00-05:00,97.4,11.05,733.05,-0.05,0.15,161.14,0
2020-03-28T05:32:00-05:00,97.36,11.05,731.98,0.98,0.53,132.25,0
2020-03-28T05:33:00-05:00,97.28,11.07,733.02,0.09,0.17,84.77,0
2020-03-28T05:34:00-05:00,97.4,11.06,732.62,0.24,0.15,122.58,0
2020-03-28T05:35:00-05:00,97.41,11.06,733.32,-0.64,0.2,279.95,0
2020-03-28T05:36:00-05:00,97.23,11.08,733.09,0.09,0.42,93.69,0
2020-03-28T05:37:00-05:00,97.4,11.09,732.48,-0.2,0.27,133.04,0
2020-03-28T05:38:00-05:00,97.54,11.12,733.56,-1.23,0.09,348.46,0
2020-03-28T05:39:00-05:00,97.44,11.12,731.98,-1.08,0.4,73.53,0
2020-03-28T05:40:00-05:00,97.52,11.14,733.05,-0.35,0.64,80.72,0
2020-03-28T05:41:00-05:00,97.44,11.15,732.52,0.98,0.56,92.06,0
2020-03-28T05:42:00-05:00,97.25,11.12,732.12,0.09,0.43,84.31,0
2020-03-28T05:43:00-05:00,97.4,11.14,732.85,-1.08,0.23,121.29,0
2020-03-28T05:44:00-05:00,97.28,11.14,732.52,-0.94,0.49,86.9,0
2020-03-28T05:45:00-05:00,97.5,11.14,732.15,0.39,0.16,171.47,0
2020-03-28T05:46:00-05:00,97.39,11.16,732.52,-0.64,0.11,324.62,0
2020-03-28T05:47:00-05:00,97.54,11.17,733.62,-0.64,0.2,131.62,0
2020-03-28T05:48:00-05:00,97.48,11.2,732.99,-0.94,0.37,98.01,0
2020-03-28T05:49:00-05:00,97.51,11.21,732.69,-0.64,0.58,36.18,0
2020-03-28T05:50:00-05:00,97.46,11.22,732.25,1.86,0.56,46.53,0
2020-03-28T05:51:00-05:00,97.39,11.22,733.89,-0.35,0.62,45.61,0
2020-03-28T05:52:00-05:00,97.42,11.2,732.28,-0.79,0.59,45.14,0
2020-03-28T05:53:00-05:00,97.38,11.22,733.66,0.83,0.56,31.79,0
2020-03-28T05:54:00-05:00,97.3,11.22,733.99,0.09,0.69,35.91,0
2020-03-28T05:55:00-05:00,97.35,11.22,733.05,1.27,0.15,103.61,0
2020-03-28T05:56:00-05:00,97.45,11.22,733.02,-0.64,0.06,243.78,0
2020-03-28T05:57:00-05:00,97.52,11.25,733.56,-0.2,0.18,0.84,0
2020-03-28T05:58:00-05:00,97.5,11.27,734.06,1.71,0.41,67.38,0
2020-03-28T05:59:00-05:00,97.45,11.27,733.59,1.71,0.32,91.32,0
2020-03-28T06:00:00-05:00,97.28,11.28,734.16,0.09,0.25,38.45,0
2020-03-28T06:01:00-05:00,97.44,11.3,732.82,0.83,0.22,42.62,0
2020-03-28T06:02:00-05:00,97.5,11.3,733.25,3.03,0.78,94.52,0
2020-03-28T06:03:00-05:00,97.38,11.29,732.62,0.53,0.59,26.51,0
2020-03-28T06:04:00-05:00,97.24,11.28,732.59,1.71,0.26,1.1,0
2020-03-28T06:05:00-05:00,97.28,11.28,733.79,1.56,0.12,192.96,0
2020-03-28T06:06:00-05:00,97.29,11.3,732.82,0.39,0.29,138.59,0
2020-03-28T06:07:00-05:00,97.32,11.29,732.92,1.12,0.54,86.43,0
2020-03-28T06:08:00-05:00,97.32,11.28,733.76,3.18,0.53,111.57,0
2020-03-28T06:09:00-05:00,97.34,11.3,732.55,2.89,0.13,349.69,0
2020-03-28T06:10:00-05:00,97.34,11.31,733.99,4.06,0.08,270.03,0
2020-03-28T06:11:00-05:00,97.36,11.31,734.29,3.62,0.21,151.16,0
2020-03-28T06:12:00-05:00,97.34,11.34,734.39,4.36,0.52,96.44,0
2020-03-28T06:13:00-05:00,97.16,11.3,733.15,4.94,0.56,106.18,0
2020-03-28T06:14:00-05:00,96.98,11.29,733.46,4.21,0.36,95.44,0
2020-03-28T06:15:00-05:00,97.12,11.3,733.72,5.53,0.57,105.38,0
2020-03-28T06:16:00-05:00,97.11,11.29,733.15,7.3,0.17,142.24,0
2020-03-28T06:17:00-05:00,97.26,11.3,733.02,5.53,0.27,89.56,0
2020-03-28T06:18:00-05:00,97.32,11.34,734.19,6.86,0.18,158.18,0
2020-03-28T06:19:00-05:00,97.34,11.32,733.79,8.47,0.19,156.52,0
2020-03-28T06:20:00-05:00,97.17,11.33,733.12,9.65,0.37,116.84,0
2020-03-28T06:21:00-05:00,97.15,11.32,733.66,10.83,0.24,151.51,0
2020-03-28T06:22:00-05:00,97.02,11.31,734.19,14.35,0.12,126.22,0
2020-03-28T06:23:00-05:00,97.09,11.32,734.33,14.21,0.27,57.82,0
2020-03-28T06:24:00-05:00,97.14,11.33,734.33,13.62,0.16,53.29,0
2020-03-28T06:25:00-05:00,97.16,11.34,734.36,14.5,0.27,162.54,0
2020-03-28T06:26:00-05:00,97.23,11.34,732.79,16.12,0.22,224.9,0
2020-03-28T06:27:00-05:00,97.36,11.34,733.12,14.8,0.25,147.24,0
2020-03-28T06:28:00-05:00,97.25,11.36,733.39,16.56,0.41,111.92,0
2020-03-28T06:29:00-05:00,97.21,11.34,733.02,20.97,0.34,172.14,0
2020-03-28T06:30:00-05:00,96.99,11.34,733.62,21.26,0.4,173.12,0
2020-03-28T06:31:00-05:00,97.15,11.34,733.92,19.35,0.56,135.5,0
2020-03-28T06:32:00-05:00,97.12,11.33,734.9,20.53,0.57,147.25,0
2020-03-28T06:33:00-05:00,97.06,11.34,733.46,20.68,0.23,140.27,0
2020-03-28T06:34:00-05:00,97.03,11.33,734.09,21.12,0.56,119.32,0
2020-03-28T06:35:00-05:00,97.04,11.36,733.76,25.68,0.52,140.13,0
2020-03-28T06:36:00-05:00,97.12,11.35,734.36,27.88,0.52,144.21,0
2020-03-28T06:37:00-05:00,97.04,11.36,733.66,36.55,0.41,134.24,0
2020-03-28T06:38:00-05:00,97.16,11.36,734.16,44.64,0.53,146.56,0
2020-03-28T06:39:00-05:00,97.03,11.35,734.16,65.96,0.34,166.13,0
2020-03-28T06:40:00-05:00,97.28,11.37,734.09,77.87,0.24,174.44,0
2020-03-28T06:41:00-05:00,97.23,11.41,734.49,83.9,0.22,180.09,0
2020-03-28T06:42:00-05:00,97.34,11.42,733.39,87.57,0.26,187.33,0
2020-03-28T06:43:00-05:00,97.48,11.46,733.72,87.72,0.23,142.77,0
2020-03-28T06:44:00-05:00,97.49,11.48,734.93,86.54,0.2,286.96,0
2020-03-28T06:45:00-05:00,97.58,11.53,735,87.13,0.15,249.8,0
2020-03-28T06:46:00-05:00,97.56,11.57,735.87,88.01,0.09,244.8,0
2020-03-28T06:47:00-05:00,97.62,11.6,735.43,69.93,0.15,42.42,0
2020-03-28T06:48:00-05:00,97.44,11.63,735.56,58.61,0.45,55.53,0
2020-03-28T06:49:00-05:00,97.2,11.63,735.26,56.26,0.45,354.47,0
2020-03-28T06:50:00-05:00,97.16,11.63,735.93,59.2,0.22,1.76,0
2020-03-28T06:51:00-05:00,97.26,11.64,736.03,67.87,0.23,323.47,0
2020-03-28T06:52:00-05:00,97.23,11.69,736,79.19,0.23,288.61,0
2020-03-28T06:53:00-05:00,97.46,11.72,736.13,94.34,0.35,268.74,0
2020-03-28T06:54:00-05:00,97.39,11.76,736.23,107.86,0.39,257.78,0
2020-03-28T06:55:00-05:00,97.26,11.79,736.84,124.62,0.3,231.97,0
2020-03-28T06:56:00-05:00,97.26,11.83,737,143.15,0.25,208,0
2020-03-28T06:57:00-05:00,97.41,11.87,737.34,156.67,0.52,227.18,0
2020-03-28T06:58:00-05:00,97.28,11.89,736.9,156.82,0.28,191,0
2020-03-28T06:59:00-05:00,97.28,11.94,737.37,181.81,0.59,225.25,0
2020-03-28T07:00:00-05:00,97.34,11.99,737.51,196.22,0.76,224.89,0
2020-03-28T07:01:00-05:00,97.12,12.01,737.94,186.81,0.7,239.22,0
2020-03-28T07:02:00-05:00,97.07,12.03,739.01,180.93,0.56,230.9,0
2020-03-28T07:03:00-05:00,97.14,12.03,736.23,165.79,0.56,227.2,0
2020-03-28T07:04:00-05:00,97.34,12.1,735.03,157.41,0.59,206.98,0
2020-03-28T07:05:00-05:00,97,12.13,736.17,154.03,0.41,200.99,0
2020-03-28T07:06:00-05:00,97.11,12.19,736.03,160.64,0.32,203.94,0
2020-03-28T07:07:00-05:00,97.21,12.23,735.5,176.52,0.24,273.78,0
2020-03-28T07:08:00-05:00,96.97,12.25,736.03,183.58,0.24,281.78,0
2020-03-28T07:09:00-05:00,97.06,12.34,735.73,173.87,0.21,261.7,0
2020-03-28T07:10:00-05:00,97.28,12.39,736.57,152.12,0.43,260.72,0
2020-03-28T07:11:00-05:00,97.15,12.44,735.67,115.36,0.51,191.02,0
2020-03-28T07:12:00-05:00,96.81,12.43,735.56,84.93,0.35,214.95,0
2020-03-28T07:13:00-05:00,95.93,12.4,736.74,63.75,0.41,177.03,0
2020-03-28T07:14:00-05:00,96.05,12.37,735.23,49.35,0.45,219.27,0
2020-03-28T07:15:00-05:00,95.67,12.35,735.1,41.11,0.62,206,0
2020-03-28T07:16:00-05:00,95.54,12.28,736,36.26,0.72,238.1,0
2020-03-28T07:17:00-05:00,95.48,12.25,736.23,33.03,0.26,200.26,0
2020-03-28T07:18:00-05:00,95.51,12.25,735.53,29.79,0.61,210.29,0
2020-03-28T07:19:00-05:00,95.3,12.21,734.46,31.11,0.22,274.75,0
2020-03-28T07:20:00-05:00,95.63,12.22,735.9,30.97,0.62,284.05,0
2020-03-28T07:21:00-05:00,95.27,12.18,735.13,36.85,0.55,311.62,0
2020-03-28T07:22:00-05:00,95.3,12.14,735.2,44.49,0.34,276.98,0
2020-03-28T07:23:00-05:00,95.54,12.15,735.2,48.32,0.36,267.72,0
2020-03-28T07:24:00-05:00,95.4,12.15,734.83,44.2,0.13,182.07,0
2020-03-28T07:25:00-05:00,95.45,12.16,735.1,38.02,0.36,298.7,0
2020-03-28T07:26:00-05:00,95.39,12.13,734.9,31.85,0.2,276.7,0
2020-03-28T07:27:00-05:00,95.34,12.14,732.92,28.03,0.35,306.57,0
2020-03-28T07:28:00-05:00,95.25,12.15,733.02,24.94,0.52,8.29,0
2020-03-28T07:29:00-05:00,95.36,12.15,733.76,26.26,0.55,25.57,0
2020-03-28T07:30:00-05:00,95.16,12.13,734.19,32.59,0.53,31.22,0
2020-03-28T07:31:00-05:00,95.14,12.14,734.73,42.58,0.19,229.82,0
2020-03-28T07:32:00-05:00,95.24,12.14,734.96,61.7,0.22,284.68,0
2020-03-28T07:33:00-05:00,94.98,12.13,734.16,98.3,0.41,279.99,0
2020-03-28T07:34:00-05:00,95.13,12.13,734.69,130.06,0.4,293.66,0
2020-03-28T07:35:00-05:00,95.02,12.13,734.53,161.67,0.21,25.26,0
2020-03-28T07:36:00-05:00,95.23,12.16,733.72,173.43,0.14,349.47,0
2020-03-28T07:37:00-05:00,95.37,12.2,734.33,174.17,0.24,304,0
2020-03-28T07:38:00-05:00,95.65,12.28,735.3,174.32,0.39,47.36,0
2020-03-28T07:39:00-05:00,95.46,12.3,735.9,175.35,0.46,348.8,0
2020-03-28T07:40:00-05:00,95.48,12.31,735.03,154.03,0.13,175.14,0
2020-03-28T07:41:00-05:00,95.59,12.38,735.23,130.8,0.25,137.58,0
2020-03-28T07:42:00-05:00,95.63,12.45,736,121.98,0.13,22.64,0
2020-03-28T07:43:00-05:00,95.72,12.49,736.1,112.57,0.33,19.14,0
2020-03-28T07:44:00-05:00,95.41,12.52,737.2,105.51,0.57,42.72,0
2020-03-28T07:45:00-05:00,94.88,12.51,736.13,98.01,0.58,62.99,0
2020-03-28T07:46:00-05:00,94.62,12.5,737.47,89.34,0.12,129.29,0
2020-03-28T07:47:00-05:00,94.82,12.52,736.43,82.57,0.6,37.31,0
2020-03-28T07:48:00-05:00,94.73,12.55,737.2,76.55,0.58,45.44,0
2020-03-28T07:49:00-05:00,94.54,12.57,737.24,80.22,0.3,158.18,0
2020-03-28T07:50:00-05:00,94.06,12.55,736.77,84.48,0.7,42.54,0
2020-03-28T07:51:00-05:00,94.03,12.55,736.17,86.1,1.05,37.15,0
2020-03-28T07:52:00-05:00,93.87,12.55,737.27,77.28,0.67,55,0
2020-03-28T07:53:00-05:00,93.48,12.47,737.04,60.08,0.64,92.47,0
2020-03-28T07:54:00-05:00,93.67,12.49,735.73,43.76,0.26,20.93,0
2020-03-28T07:55:00-05:00,93.86,12.47,735.6,33.76,0.3,82.83,0
2020-03-28T07:56:00-05:00,94.07,12.47,736.5,29.5,0.29,336.89,0
2020-03-28T07:57:00-05:00,94.28,12.49,735.5,30.23,0.29,15.55,0
2020-03-28T07:58:00-05:00,94.36,12.51,735.13,33.17,0.6,5.12,0
2020-03-28T07:59:00-05:00,94.16,12.51,735.33,37.88,0.19,173.11,0
2020-03-28T08:00:00-05:00,94.2,12.51,735.33,38.47,0.16,337.79,0
2020-03-28T08:01:00-05:00,94.15,12.51,736.23,33.76,0.39,219.86,0
2020-03-28T08:02:00-05:00,94.13,12.51,734.76,34.64,0.11,191.99,0
2020-03-28T08:03:00-05:00,94.49,12.49,734.69,36.85,0.06,139.32,0
2020-03-28T08:04:00-05:00,94.46,12.52,735.7,41.55,0.61,49.56,0
2020-03-28T08:05:00-05:00,94.44,12.51,735.53,52.43,0.23,350.54,0
2020-03-28T08:06:00-05:00,94.42,12.51,735.77,62.43,0.45,350.52,0
2020-03-28T08:07:00-05:00,94.36,12.51,736.03,75.37,0.84,34.84,0
2020-03-28T08:08:00-05:00,94.35,12.47,736.5,85.95,0.18,0.76,0
2020-03-28T08:09:00-05:00,94.57,12.49,735.73,83.31,0.62,26.16,0
2020-03-28T08:10:00-05:00,94.5,12.48,734.33,86.25,0.78,337.54,0
2020-03-28T08:11:00-05:00,94.3,12.43,735.46,86.4,0.61,39.59,0
2020-03-28T08:12:00-05:00,94.26,12.43,735.97,78.75,0.25,108.2,0
2020-03-28T08:13:00-05:00,94.55,12.45,734.63,65.81,0.21,178.4,0
2020-03-28T08:14:00-05:00,94.33,12.41,735.77,58.46,0.8,81.36,0
2020-03-28T08:15:00-05:00,94.25,12.41,734.33,54.49,0.3,152.48,0
2020-03-28T08:16:00-05:00,94.49,12.41,736.2,54.05,0.56,218.91,0
2020-03-28T08:17:00-05:00,94.8,12.42,734.9,66.69,0.63,221.21,0
2020-03-28T08:18:00-05:00,94.96,12.44,734.02,83.16,0.54,276.71,0
2020-03-28T08:19:00-05:00,94.85,12.43,734.73,91.54,0.43,210.22,0
2020-03-28T08:20:00-05:00,95.06,12.43,734.46,95.36,0.47,11.81,0
2020-03-28T08:21:00-05:00,95.21,12.44,735.93,95.66,0.62,33.47,0
2020-03-28T08:22:00-05:00,94.76,12.41,734.86,105.95,0.74,52.64,0
2020-03-28T08:23:00-05:00,94.89,12.43,735.9,123.3,0.37,178.04,0
2020-03-28T08:24:00-05:00,94.59,12.41,735.13,147.12,0.74,199.26,0
2020-03-28T08:25:00-05:00,94.54,12.4,734.96,173.43,0.65,197.29,0
2020-03-28T08:26:00-05:00,94.54,12.41,736.37,192.4,0.63,223.89,0
2020-03-28T08:27:00-05:00,94.64,12.44,736.07,189.02,0.54,166.12,0
2020-03-28T08:28:00-05:00,94.7,12.46,735.73,175.79,0.28,176.11,0
2020-03-28T08:29:00-05:00,95.03,12.49,736.97,165.2,0.41,218.91,0
2020-03-28T08:30:00-05:00,94.93,12.57,737,166.82,0.2,225.22,0
2020-03-28T08:31:00-05:00,94.72,12.59,737.31,172.4,0.17,60.18,0
2020-03-28T08:32:00-05:00,95.05,12.65,736.87,168.14,0.28,143.56,0
2020-03-28T08:33:00-05:00,95.06,12.72,736.94,161.52,0.23,193,0
2020-03-28T08:34:00-05:00,94.98,12.77,738.28,160.35,0.24,171.48,0
2020-03-28T08:35:00-05:00,94.72,12.83,737.37,166.08,0.18,173.13,0
2020-03-28T08:36:00-05:00,94.68,12.87,738.28,159.03,0.09,260.1,0
2020-03-28T08:37:00-05:00,94.78,12.93,739.21,165.49,0.16,144.19,0
2020-03-28T08:38:00-05:00,94.93,13.02,738.44,197.1,0.32,192.25,0
2020-03-28T08:39:00-05:00,95.17,13.1,738.68,321.34,0.57,328.55,0
2020-03-28T08:40:00-05:00,94.74,13.18,739.21,184.17,0.21,302.6,0
2020-03-28T08:41:00-05:00,94.22,13.19,739.41,197.55,0.12,267.77,0
2020-03-28T08:42:00-05:00,93.85,13.27,737.84,205.49,0.21,222.93,0
2020-03-28T08:43:00-05:00,92.54,13.27,736.47,209.16,0.3,62.34,0
2020-03-28T08:44:00-05:00,90.75,13.24,736.9,199.16,0.45,89.11,0
2020-03-28T08:45:00-05:00,89.42,13.23,737.44,183.14,0.48,113.41,0
2020-03-28T08:46:00-05:00,88.97,13.26,737.97,176.82,0.28,184.05,0
2020-03-28T08:47:00-05:00,88.47,13.28,738.61,187.99,0.13,201.98,0
2020-03-28T08:48:00-05:00,89.33,13.37,736.9,202.69,0.53,42.55,0
2020-03-28T08:49:00-05:00,89.73,13.45,738.48,204.01,0.61,329.87,0
2020-03-28T08:50:00-05:00,90.1,13.51,739.05,205.78,0.53,54.09,0
2020-03-28T08:51:00-05:00,90.06,13.5,738.74,209.45,0.84,46.1,0
2020-03-28T08:52:00-05:00,89.64,13.51,738.74,213.28,0.09,47.37,0
2020-03-28T08:53:00-05:00,90.69,13.54,737.94,212.98,0.52,310,0
2020-03-28T08:54:00-05:00,91.35,13.61,738.78,221.36,0.36,120.45,0
2020-03-28T08:55:00-05:00,90.97,13.64,738.48,272.67,0.49,5.03,0
2020-03-28T08:56:00-05:00,89.82,13.64,739.25,388.82,0.99,352.52,0
2020-03-28T08:57:00-05:00,89.32,13.63,740.72,947.22,0.45,345.5,0
2020-03-28T08:58:00-05:00,91.64,13.86,736.27,904.58,0.42,216.22,0
2020-03-28T08:59:00-05:00,91.17,14.02,736.1,368.53,0.84,250.94,0
2020-03-28T09:00:00-05:00,89.4,14.08,735.73,322.07,0.74,246.72,0
2020-03-28T09:01:00-05:00,89.62,14.2,736.54,297.67,0.06,9.96,0
2020-03-28T09:02:00-05:00,87.29,14.26,735.56,292.08,0.5,66.43,0
2020-03-28T09:03:00-05:00,85.85,14.36,736.2,307.08,0.39,207.96,0
2020-03-28T09:04:00-05:00,85.09,14.47,736.13,345.89,0.55,320.56,0
2020-03-28T09:05:00-05:00,85.13,14.56,736.8,393.68,0.3,70.65,0
2020-03-28T09:06:00-05:00,84.44,14.67,738.54,452.93,0.27,53.33,0
2020-03-28T09:07:00-05:00,84.78,14.79,739.38,385.29,0.22,313.56,0
2020-03-28T09:08:00-05:00,85.37,14.9,735.63,375.59,0.24,251.13,0
2020-03-28T09:09:00-05:00,84.93,14.96,737.17,377.65,0.82,300.66,0
2020-03-28T09:10:00-05:00,83.03,14.99,735.46,370.3,0.39,259.13,0
2020-03-28T09:11:00-05:00,83.03,15.02,735.93,378.09,0.31,198.01,0
2020-03-28T09:12:00-05:00,85.01,15.09,735.53,367.8,0.34,260.12,0
2020-03-28T09:13:00-05:00,83.07,15.07,736.67,358.24,0.94,222.91,0
2020-03-28T09:14:00-05:00,84.97,15.01,735.26,311.93,0.61,236.11,0
2020-03-28T09:15:00-05:00,86.32,14.97,736.64,256.06,0.59,199.97,0
2020-03-28T09:16:00-05:00,85.02,14.92,735.4,230.18,0.31,182.05,0
2020-03-28T09:17:00-05:00,86.46,14.91,736.3,226.8,1,234.83,0
2020-03-28T09:18:00-05:00,86.22,14.91,735.26,238.42,0.56,207.01,0
2020-03-28T09:19:00-05:00,84.42,14.83,735.26,279.44,0.8,215.89,0
2020-03-28T09:20:00-05:00,83.75,14.77,735.73,349.42,0.13,201.95,0
2020-03-28T09:21:00-05:00,84.86,14.81,736.1,381.91,0.27,237.77,0
2020-03-28T09:22:00-05:00,85.14,14.86,737.34,411.61,0.21,155.18,0
2020-03-28T09:23:00-05:00,86.39,14.94,736.74,460.57,0.2,219.9,0
2020-03-28T09:24:00-05:00,85.72,15.01,738.31,568.78,0.55,297.59,0
2020-03-28T09:25:00-05:00,84.59,15.07,739.15,675.08,0.7,313.92,0
2020-03-28T09:26:00-05:00,85.73,15.21,739.82,489.83,0.85,219.88,0
2020-03-28T09:27:00-05:00,83.78,15.2,738.78,499.97,0.69,227.18,0
2020-03-28T09:28:00-05:00,83.6,15.23,740.42,527.61,0.65,225.88,0
2020-03-28T09:29:00-05:00,83.35,15.26,739.11,503.8,0.61,255.07,0
2020-03-28T09:30:00-05:00,83.96,15.34,736.7,461.75,0.53,156.22,0
2020-03-28T09:31:00-05:00,84.54,15.38,735.03,455.43,0.75,274.03,0
2020-03-28T09:32:00-05:00,83.58,15.46,735.4,478.8,0.22,177.34,0
2020-03-28T09:33:00-05:00,83.13,15.54,736.64,561.87,0.88,317.84,0
2020-03-28T09:34:00-05:00,80.77,15.53,735.13,668.46,0.32,213.94,0
2020-03-28T09:35:00-05:00,81.32,15.63,734.86,805.05,0.15,191,0
2020-03-28T09:36:00-05:00,78.07,15.7,735.4,725.21,0.71,247.84,0
2020-03-28T09:37:00-05:00,83.72,15.78,736.57,488.51,0.6,306.58,0
2020-03-28T09:38:00-05:00,79.73,15.86,735.16,504.09,0.39,270.69,0
2020-03-28T09:39:00-05:00,77.69,15.88,734.9,464.83,0.98,307.64,0
2020-03-28T09:40:00-05:00,77.68,15.9,737.34,479.68,0.2,326.56,0
2020-03-28T09:41:00-05:00,79.6,15.96,736.13,447.34,0.76,212.86,0
2020-03-28T09:42:00-05:00,78.38,16,737.17,473.8,0.69,273,0
2020-03-28T09:43:00-05:00,77.9,16.02,736.57,446.31,0.56,284.68,0
2020-03-28T09:44:00-05:00,76.43,16.08,738.28,414.55,0.58,217.24,0
2020-03-28T09:45:00-05:00,76.43,16.14,737.31,419.85,0.71,352.51,0
2020-03-28T09:46:00-05:00,76.8,16.2,737.44,425.87,0.53,122.46,0
2020-03-28T09:47:00-05:00,75.97,16.25,738.61,439.11,0.84,32.93,0
2020-03-28T09:48:00-05:00,76.04,16.26,737.17,460.57,0.71,4.03,0
2020-03-28T09:49:00-05:00,77.19,16.36,739.28,483.51,0.81,356.45,0
2020-03-28T09:50:00-05:00,75.28,16.36,739.58,471.45,1.17,340.76,0
2020-03-28T09:51:00-05:00,73.75,16.3,735,443.66,1,58.99,0
2020-03-28T09:52:00-05:00,74.98,16.29,735.16,428.67,1.65,3.72,0
2020-03-28T09:53:00-05:00,74.49,16.33,736.43,422.34,2.66,235.83,0
2020-03-28T09:54:00-05:00,76.53,16.3,736.4,421.32,0.57,91.14,0
2020-03-28T09:55:00-05:00,73.5,16.32,735.2,442.63,1.24,321.54,0
2020-03-28T09:56:00-05:00,73.54,16.33,736.54,470.13,0.29,220.87,0
2020-03-28T09:57:00-05:00,74.19,16.4,736.97,545.11,0.76,282.73,0
2020-03-28T09:58:00-05:00,70.57,16.44,735.7,674.05,0.78,353.47,0
2020-03-28T09:59:00-05:00,70.7,16.47,736.3,1092.48,1.07,83.53,0
2020-03-28T10:00:00-05:00,67.2,16.47,737.77,934.13,1.45,21.84,0
2020-03-28T10:01:00-05:00,67.7,16.49,738.11,1107.77,0.64,325.93,0
2020-03-28T10:02:00-05:00,70.53,16.65,737.34,661.7,2.13,353.51,0
2020-03-28T10:03:00-05:00,67.46,16.72,737.37,810.05,1.5,6.31,0
2020-03-28T10:04:00-05:00,67.4,16.74,737.57,1183.63,0.96,71.89,0
2020-03-28T10:05:00-05:00,69.52,16.86,738.48,673.46,3,52.77,0
2020-03-28T10:06:00-05:00,67.08,16.88,737.74,626.56,0.96,9.85,0
2020-03-28T10:07:00-05:00,66.32,16.82,737.97,913.26,1.99,37.19,0
2020-03-28T10:08:00-05:00,65.23,16.84,737.81,1116.88,0.23,171.16,0
2020-03-28T10:09:00-05:00,70.89,17.05,737.47,1074.39,1.19,198,0
2020-03-28T10:10:00-05:00,74.43,17.17,739.15,1080.13,1.63,300.67,0
2020-03-28T10:11:00-05:00,69.56,17.37,739.05,1063.07,0.25,294.63,0
2020-03-28T10:12:00-05:00,70.9,17.57,736.5,426.76,0.38,235.82,0
2020-03-28T10:13:00-05:00,71.23,17.72,736.1,1095.57,0.38,278.67,0
2020-03-28T10:14:00-05:00,64.78,17.79,735.16,364.71,0.85,338.51,0
2020-03-28T10:15:00-05:00,68.28,17.88,735.1,940.01,0.59,339.5,0
2020-03-28T10:16:00-05:00,68.26,18.02,735.77,633.62,1.37,59.3,0
2020-03-28T10:17:00-05:00,68.06,18.09,735.93,370.15,0.54,260.72,0
2020-03-28T10:18:00-05:00,68.59,18.14,736.07,340.6,0.62,265.13,0
2020-03-28T10:19:00-05:00,69.99,18.13,734.66,868.56,0.32,209.92,0
2020-03-28T10:20:00-05:00,66.25,18.09,735.03,970.45,0.67,246.07,0
2020-03-28T10:21:00-05:00,66.82,18.03,735,934.28,1.08,236.78,0
2020-03-28T10:22:00-05:00,63.46,17.93,736.13,595.69,0.84,232.22,0
2020-03-28T10:23:00-05:00,65.81,17.8,734.83,569.81,0.68,206.97,0
2020-03-28T10:24:00-05:00,66.29,17.8,735.53,644.64,0.76,346.86,0
2020-03-28T10:25:00-05:00,64.09,17.81,735.16,418.08,1.09,48.52,0
2020-03-28T10:26:00-05:00,62.63,17.77,735.67,979.12,0.95,57.34,0
2020-03-28T10:27:00-05:00,63.81,17.77,735.53,1091.45,1.12,5.54,0
2020-03-28T10:28:00-05:00,65.2,17.87,737,385,0.52,191.99,0
2020-03-28T10:29:00-05:00,64.76,18.02,736.37,748.88,0.63,337.53,0
2020-03-28T10:30:00-05:00,64.41,18.08,737.44,359.12,0.58,239.83,0
2020-03-28T10:31:00-05:00,64.22,18.13,735.97,314.28,0.58,293.67,0
2020-03-28T10:32:00-05:00,62.4,18.11,736.07,1055.72,0.56,272.67,0
2020-03-28T10:33:00-05:00,61.76,18.09,735.46,1019.7,1.12,322.52,0
2020-03-28T10:34:00-05:00,64.34,18.13,736.2,1117.47,0.56,219.86,0
2020-03-28T10:35:00-05:00,63.08,18.21,737.27,1137.76,0.95,267.03,0
2020-03-28T10:36:00-05:00,61.03,18.25,737.74,1103.36,0.6,295.63,0
2020-03-28T10:37:00-05:00,63.8,18.29,737.2,347.36,1.09,267.09,0
2020-03-28T10:38:00-05:00,62.12,18.22,736.87,281.64,0.14,331.49,0
2020-03-28T10:39:00-05:00,59.86,18.1,734.76,292.23,1.01,228.17,0
2020-03-28T10:40:00-05:00,58.85,17.96,734.23,305.17,0.58,7.83,0
2020-03-28T10:41:00-05:00,59.78,17.89,734.66,316.34,0.33,180.47,0
2020-03-28T10:42:00-05:00,64.6,17.86,734.86,370.3,0.62,212.87,0
2020-03-28T10:43:00-05:00,65.43,17.8,734.13,389.71,0.55,270,0
2020-03-28T10:44:00-05:00,64.2,17.75,733.56,354.13,0.71,229.8,0
2020-03-28T10:45:00-05:00,68.08,17.71,732.25,296.49,0.55,224.89,0
2020-03-28T10:46:00-05:00,68.39,17.68,732.45,271.35,0.6,231.89,0
2020-03-28T10:47:00-05:00,70.9,17.67,732.45,266.65,0.57,202.92,0
2020-03-28T10:48:00-05:00,72.22,17.59,731.51,266.94,0.55,208.95,0
2020-03-28T10:49:00-05:00,70.95,17.42,729.54,267.38,0.62,175.09,0
2020-03-28T10:50:00-05:00,74.06,17.38,729.91,262.68,0.59,212.87,0
2020-03-28T10:51:00-05:00,70.06,17.29,729.91,278.7,0.64,215.92,0
2020-03-28T10:52:00-05:00,66.89,17.26,730.84,316.78,0.6,250.78,0
2020-03-28T10:53:00-05:00,67.29,17.26,730.91,393.68,0.51,205.02,0
2020-03-28T10:54:00-05:00,67.6,17.32,731.38,1190.69,0.59,256.07,0
2020-03-28T10:55:00-05:00,63.82,17.38,731.72,351.33,0.06,57.83,0
2020-03-28T10:56:00-05:00,61.6,17.41,731.15,307.67,0.24,338.88,0
2020-03-28T10:57:00-05:00,65.89,17.51,732.55,282.97,0.59,232.86,0
2020-03-28T10:58:00-05:00,64.96,17.55,731.15,270.32,1.1,220.21,0
2020-03-28T10:59:00-05:00,65.14,17.53,731.01,251.8,0.86,206.01,0
2020-03-28T11:00:00-05:00,66.07,17.44,731.51,233.27,0.67,254.1,0
2020-03-28T11:01:00-05:00,62.94,17.36,730.54,223.86,0.84,213.97,0
2020-03-28T11:02:00-05:00,64.52,17.29,729.57,218.42,0.64,218.89,0
2020-03-28T11:03:00-05:00,68.25,17.26,729.27,211.37,0.61,186,0
2020-03-28T11:04:00-05:00,64.09,17.24,731.15,214.6,0.25,222.91,0
2020-03-28T11:05:00-05:00,65.95,17.23,730.44,220.48,0.68,190.03,0
2020-03-28T11:06:00-05:00,68.73,17.21,735.6,229.3,0.46,142.72,0
2020-03-28T11:07:00-05:00,68.39,17.2,735.87,236.21,0.68,170.05,0
2020-03-28T11:08:00-05:00,71.31,17.16,735.26,250.62,0.56,227.83,0
2020-03-28T11:09:00-05:00,74.15,17.15,735.7,269.29,0.56,216.87,0
2020-03-28T11:10:00-05:00,72.1,17.08,735.73,293.41,0.07,162.19,0
2020-03-28T11:11:00-05:00,72.71,17.03,734.73,288.41,0.63,195.18,0
2020-03-28T11:12:00-05:00,72.36,17,734.39,304.58,0.06,103.34,0
2020-03-28T11:13:00-05:00,74.68,17.02,734.66,304.14,0.56,219.21,0
2020-03-28T11:14:00-05:00,72.5,17.06,736.23,295.46,0.13,255.69,0
2020-03-28T11:15:00-05:00,71.19,17.11,735.6,303.99,0.67,195.31,0
2020-03-28T11:16:00-05:00,67.94,17.12,736.74,331.34,0.39,305.59,0
2020-03-28T11:17:00-05:00,64.49,17.17,736.84,351.48,0.43,309.01,0
2020-03-28T11:18:00-05:00,64.64,17.25,736.1,318.55,0.7,277.68,0
2020-03-28T11:19:00-05:00,63.93,17.33,736.54,318.25,0.26,270.77,0
2020-03-28T11:20:00-05:00,65.07,17.39,736.8,284.73,0.27,42.84,0
2020-03-28T11:21:00-05:00,65.12,17.49,736.67,263.27,0.13,150.15,0
2020-03-28T11:22:00-05:00,63.52,17.56,736.6,257.83,0.6,270.98,0
2020-03-28T11:23:00-05:00,62.76,17.59,736.64,259.88,0.49,94.88,0
2020-03-28T11:24:00-05:00,60.58,17.61,736.64,251.65,0.82,11.02,0
2020-03-28T11:25:00-05:00,61.02,17.59,736.54,226.22,0.57,85.17,0
2020-03-28T11:26:00-05:00,61.6,17.64,737.81,210.78,0.36,21.59,0
2020-03-28T11:27:00-05:00,60.59,17.67,736.97,205.04,0.53,35.06,0
2020-03-28T11:28:00-05:00,60.85,17.7,737.57,220.78,0.97,30.62,0
2020-03-28T11:29:00-05:00,63.33,17.67,736.74,222.1,0.22,10.02,0
2020-03-28T11:30:00-05:00,63.33,17.71,738.04,215.48,0.78,23.43,0
2020-03-28T11:31:00-05:00,61.39,17.73,734.53,214.31,0.66,347.49,0
2020-03-28T11:32:00-05:00,63.15,17.73,734.39,218.57,0.15,265.13,0
2020-03-28T11:33:00-05:00,61.72,17.74,735.3,237.1,1.4,46.84,0
2020-03-28T11:34:00-05:00,63.24,17.75,736.17,248.42,0.22,112.84,0
2020-03-28T11:35:00-05:00,64.79,17.81,734.93,236.95,0.44,5.71,0
2020-03-28T11:36:00-05:00,62.97,17.81,735.33,234.89,0.75,350.91,0
2020-03-28T11:37:00-05:00,64.58,17.81,735.46,246.5,0.66,40.27,0
2020-03-28T11:38:00-05:00,65.32,17.77,735.33,268.12,0.66,14.08,0
2020-03-28T11:39:00-05:00,67.21,17.72,735.53,272.67,0.58,77.59,0
2020-03-28T11:40:00-05:00,68.23,17.73,734.53,327.81,0.06,121.25,0
2020-03-28T11:41:00-05:00,66.74,17.71,734.79,348.54,0.73,52.21,0
2020-03-28T11:42:00-05:00,66.33,17.67,735.33,344.42,1.11,30.03,0
2020-03-28T11:43:00-05:00,65.84,17.59,734.63,345.6,0.28,1.76,0
2020-03-28T11:44:00-05:00,64.1,17.62,735.13,367.95,0.59,27.27,0
2020-03-28T11:45:00-05:00,61.6,17.63,736.43,379.41,0.25,47.97,0
2020-03-28T11:46:00-05:00,63.87,17.73,736.5,405.44,0.69,29.62,0
2020-03-28T11:47:00-05:00,61.92,17.8,736.2,390.15,0.37,18.8,0
2020-03-28T11:48:00-05:00,59.95,17.87,737.71,392.2,0.53,339.49,0
2020-03-28T11:49:00-05:00,60.45,17.96,736.9,370.15,0.54,60.08,0
2020-03-28T11:50:00-05:00,59.54,18.03,737.34,370,0.68,68.78,0
2020-03-28T11:51:00-05:00,58.66,18.04,737.67,484.68,0.29,215.27,0
2020-03-28T11:52:00-05:00,59.08,18.13,735.23,904.14,0.51,50.2,0
2020-03-28T11:53:00-05:00,60.57,18.29,735.46,1280.23,0.75,71.51,0
2020-03-28T11:54:00-05:00,61.58,18.33,735.33,1336.1,0.73,61.53,0
2020-03-28T11:55:00-05:00,65.86,18.5,734.16,1328.89,0.61,9.35,0
2020-03-28T11:56:00-05:00,60.23,18.72,734.26,1335.65,0.28,288.87,0
2020-03-28T11:57:00-05:00,57.74,18.97,734.06,1313.6,2.49,3.07,0
2020-03-28T11:58:00-05:00,57.31,19.1,735.5,1313.45,0.74,14.46,0
2020-03-28T11:59:00-05:00,57.44,19.29,735,1295.08,0.59,57.93,0
2020-03-28T12:00:00-05:00,56.53,19.5,734.26,1252.59,0.81,354.46,0
2020-03-28T12:01:00-05:00,55.65,19.68,735.06,1240.82,1.64,48.53,0
2020-03-28T12:02:00-05:00,53.74,19.71,733.96,1127.18,2.42,78.06,0
2020-03-28T12:03:00-05:00,55.47,19.65,734.86,1097.18,0.64,57.98,0
2020-03-28T12:04:00-05:00,54.32,19.54,732.59,429.99,1.36,139.27,0
2020-03-28T12:05:00-05:00,55.05,19.34,732.59,434.11,0.79,192.96,0
2020-03-28T12:06:00-05:00,55.55,19.2,730.44,520.26,1.91,151.52,0
2020-03-28T12:07:00-05:00,57.73,19.13,733.69,445.13,0.56,182.05,0
2020-03-28T12:08:00-05:00,58.54,19.16,735.06,405.88,2.39,28.1,0
2020-03-28T12:09:00-05:00,58.19,19.14,734.93,428.37,1.33,36.02,0
2020-03-28T12:10:00-05:00,55.84,19.15,734.36,449.54,0.69,10.91,0
2020-03-28T12:11:00-05:00,57.31,19.17,735.1,569.07,0.52,331.54,0
2020-03-28T12:12:00-05:00,56.85,19.26,734.02,642.14,0.84,94.29,0
2020-03-28T12:13:00-05:00,55.86,19.36,734.26,1235.24,0.52,32.29,0
2020-03-28T12:14:00-05:00,56.48,19.45,735.13,1267.88,1.93,66.6,0
2020-03-28T12:15:00-05:00,54.91,19.42,734.66,1243.47,0.56,85.78,0
2020-03-28T12:16:00-05:00,61.13,19.61,736.4,1234.21,0.81,269.72,0
2020-03-28T12:17:00-05:00,54.43,19.85,736.43,1167.02,1.2,232.84,0
2020-03-28T12:18:00-05:00,53,19.93,736.1,848.57,0.66,170.04,0
2020-03-28T12:19:00-05:00,56.78,20.02,737.27,525.7,1.64,181.09,0
2020-03-28T12:20:00-05:00,51.65,19.95,735.43,288.7,0.19,128.18,0
2020-03-28T12:21:00-05:00,54.8,19.89,735.43,293.41,1.27,181.08,0
2020-03-28T12:22:00-05:00,56.25,19.8,733.12,258.85,0.19,186.97,0
2020-03-28T12:23:00-05:00,51.96,19.79,732.85,300.76,0.49,53.66,0
2020-03-28T12:24:00-05:00,51.44,19.82,733.79,412.94,0.64,49.68,0
2020-03-28T12:25:00-05:00,52.27,19.71,734.29,287.52,0.8,89.47,0
2020-03-28T12:26:00-05:00,54.35,19.58,734.16,267.09,2.11,36.73,0
2020-03-28T12:27:00-05:00,54.26,19.35,732.85,259,1.78,35.77,0
2020-03-28T12:28:00-05:00,55.93,19.15,730.78,250.77,1.08,41.6,0
2020-03-28T12:29:00-05:00,56.44,19.1,730.71,271.5,1.85,39.8,0
2020-03-28T12:30:00-05:00,56.99,19.07,730.91,276.94,0.93,28.28,0
2020-03-28T12:31:00-05:00,56.48,18.95,730.01,282.08,1.9,345.76,0
2020-03-28T12:32:00-05:00,58.27,18.91,730.41,305.17,0.99,47.31,0
2020-03-28T12:33:00-05:00,57.95,18.88,730.41,318.55,2.09,64.34,0
2020-03-28T12:34:00-05:00,58.19,18.8,729.41,364.86,2.09,37.28,0
2020-03-28T12:35:00-05:00,59.93,18.79,729.07,376.77,0.76,76.97,0
2020-03-28T12:36:00-05:00,58.3,18.79,729.54,492.18,0.57,79.36,0
2020-03-28T12:37:00-05:00,57.87,18.83,729.57,749.33,0.94,35.48,0
2020-03-28T12:38:00-05:00,55.67,18.8,730.38,376.77,1.96,11.67,0
2020-03-28T12:39:00-05:00,55.11,18.72,729.07,422.93,1.03,340.5,0
2020-03-28T12:40:00-05:00,55.76,18.68,730.68,380.3,2.07,15.48,0
2020-03-28T12:41:00-05:00,55.74,18.68,729.07,350.89,1.06,56.74,0
2020-03-28T12:42:00-05:00,57.16,18.67,729.91,318.55,1.04,48.73,0
2020-03-28T12:43:00-05:00,56.88,18.7,729.37,297.37,0.62,51.38,0
2020-03-28T12:44:00-05:00,57.32,18.7,729.44,278.11,0.6,345.85,0
2020-03-28T12:45:00-05:00,59.42,18.75,730.18,287.67,0.56,224.9,0
2020-03-28T12:46:00-05:00,59.95,18.8,728.57,298.99,0.13,7.46,0
2020-03-28T12:47:00-05:00,57.37,18.84,728.43,285.47,2.38,55.9,0
2020-03-28T12:48:00-05:00,58.64,18.78,733.59,276.64,5.92,62.21,0
2020-03-28T12:49:00-05:00,58.03,18.54,734.49,268.41,2.53,5.57,0
2020-03-28T12:50:00-05:00,58.11,18.4,734.43,249.3,2.73,20.81,0
2020-03-28T12:51:00-05:00,59.76,18.33,734.23,218.57,2.97,25.85,0
2020-03-28T12:52:00-05:00,57.79,18.26,733.86,213.13,0.97,261.72,0
2020-03-28T12:53:00-05:00,59.09,18.18,733.32,223.57,0.8,33.57,0
2020-03-28T12:54:00-05:00,59.65,18.15,733.29,221.22,1.36,12.8,0
2020-03-28T12:55:00-05:00,58.8,18.13,733.76,218.86,1.71,53.55,0
2020-03-28T12:56:00-05:00,58.55,18.13,732.45,221.22,2,354.47,0
2020-03-28T12:57:00-05:00,60.05,18.13,733.52,215.48,1.87,35.93,0
2020-03-28T12:58:00-05:00,61.58,18.11,732.12,199.6,2.29,42.66,0
2020-03-28T12:59:00-05:00,60.67,18.05,731.55,184.9,0.59,353.88,0
2020-03-28T13:00:00-05:00,61.44,18.06,732.65,175.05,1.09,32.64,0
2020-03-28T13:01:00-05:00,62.26,18.11,732.45,172.11,0.18,250.14,0
2020-03-28T13:02:00-05:00,64.11,18.15,732.32,165.05,0.75,219.87,0
2020-03-28T13:03:00-05:00,65.2,18.09,731.31,158.88,0.59,213.21,0
2020-03-28T13:04:00-05:00,64.38,18.03,731.11,162.41,0.48,115.51,0
2020-03-28T13:05:00-05:00,65.59,18.03,731.15,162.11,0.74,130.05,0
2020-03-28T13:06:00-05:00,66.32,18.05,730.91,169.76,0.52,162.16,0
2020-03-28T13:07:00-05:00,66.03,18.02,729.27,165.64,0.84,222.27,0
2020-03-28T13:08:00-05:00,65.75,17.98,729.14,158.29,0.73,255.73,0
2020-03-28T13:09:00-05:00,65.39,17.92,730.28,161.97,0.61,133.22,0
2020-03-28T13:10:00-05:00,65.7,17.87,733.46,165.64,0.41,76.47,0
2020-03-28T13:11:00-05:00,68.19,17.87,734.29,170.35,0.31,66.38,0
2020-03-28T13:12:00-05:00,71.83,17.93,734.36,179.31,0.51,189.99,0
2020-03-28T13:13:00-05:00,70.46,17.93,733.39,185.34,0.56,218.87,0
2020-03-28T13:14:00-05:00,73.15,17.91,734.09,184.75,0.81,184,0
2020-03-28T13:15:00-05:00,73.2,17.85,733.66,181.23,0.21,129.08,0
2020-03-28T13:16:00-05:00,74.29,17.85,734.13,173.43,0.55,95.18,0
2020-03-28T13:17:00-05:00,72.82,17.85,733.32,169.17,0.18,350.5,0
2020-03-28T13:18:00-05:00,73.32,17.9,734.23,176.23,0.48,73.76,0
2020-03-28T13:19:00-05:00,73.71,17.94,733.69,190.34,0.35,177.08,0
2020-03-28T13:20:00-05:00,74.09,17.99,734.86,194.31,0.24,170.43,0
2020-03-28T13:21:00-05:00,72.05,18.02,734.16,207.4,0.43,142.21,0
2020-03-28T13:22:00-05:00,68.53,18.01,735,218.57,0.84,70.91,0
2020-03-28T13:23:00-05:00,66.13,18,735.8,238.71,0.72,71.5,0
2020-03-28T13:24:00-05:00,65.88,18.02,736.23,266.35,0.25,213.27,0
2020-03-28T13:25:00-05:00,67.5,18.1,735.63,282.53,0.61,56.78,0
2020-03-28T13:26:00-05:00,67.18,18.17,734.56,302.37,0.38,156.48,0
2020-03-28T13:27:00-05:00,67.68,18.22,734.16,315.61,1.91,44.54,0
2020-03-28T13:28:00-05:00,65.6,18.19,734.33,315.61,0.58,49.66,0
2020-03-28T13:29:00-05:00,65.02,18.18,734.23,322.37,0.48,122.19,0
2020-03-28T13:30:00-05:00,66.13,18.2,734.19,312.52,0.26,347.47,0
2020-03-28T13:31:00-05:00,65.78,18.29,734.19,370.74,0.56,29.44,0
2020-03-28T13:32:00-05:00,65.59,18.33,732.75,407.05,0.12,16.02,0
2020-03-28T13:33:00-05:00,65.67,18.45,734.49,494.68,0.65,342.54,0
2020-03-28T13:34:00-05:00,64.4,18.58,734.96,846.51,0.54,26.81,0
2020-03-28T13:35:00-05:00,63.84,18.77,732.65,1142.76,0.61,320.61,0
2020-03-28T13:36:00-05:00,65.99,18.96,733.86,1147.61,0.21,18.79,0
2020-03-28T13:37:00-05:00,62.64,19.18,734.29,1162.17,0.8,27.58,0
2020-03-28T13:38:00-05:00,62.15,19.32,733.39,1152.02,0.67,43.21,0
2020-03-28T13:39:00-05:00,62.58,19.54,733.39,1122.18,0.6,43.51,0
2020-03-28T13:40:00-05:00,64.55,19.82,734.09,1111.3,0.25,6.93,0
2020-03-28T13:41:00-05:00,61.06,20.14,734.19,1085.27,1.01,285.02,0
2020-03-28T13:42:00-05:00,63.6,20.39,734.26,1066.31,1.24,217.9,0
2020-03-28T13:43:00-05:00,62.8,20.63,735.67,1041.46,0.57,257.16,0
2020-03-28T13:44:00-05:00,58.63,20.82,733.59,1057.63,1.45,185.97,0
2020-03-28T13:45:00-05:00,56.86,20.93,732.82,1048.08,0.16,234.83,0
2020-03-28T13:46:00-05:00,58.21,21.14,732.62,1051.46,0.58,227.83,0
2020-03-28T13:47:00-05:00,59.2,21.4,732.72,1044.25,0.73,279.66,0
2020-03-28T13:48:00-05:00,56.46,21.54,733.66,1047.19,0.66,274.73,0
2020-03-28T13:49:00-05:00,54.61,21.6,731.95,1038.08,0.25,311.58,0
2020-03-28T13:50:00-05:00,59.38,21.73,732.52,1020.14,0.42,254.71,0
2020-03-28T13:51:00-05:00,59.8,21.87,733.39,410.88,0.9,211.89,0
2020-03-28T13:52:00-05:00,53.36,21.76,729.64,401.17,1.55,223.9,0
2020-03-28T13:53:00-05:00,55.69,21.47,732.95,403.53,0.84,213.94,0
2020-03-28T13:54:00-05:00,57.23,21.26,732.89,578.92,0.71,200.3,0
2020-03-28T13:55:00-05:00,59.4,21.08,732.75,375.59,0.67,192.94,0
2020-03-28T13:56:00-05:00,56.63,20.98,732.05,335.9,0.48,279.02,0
2020-03-28T13:57:00-05:00,55.91,20.88,730.04,316.19,0.98,77.33,0
2020-03-28T13:58:00-05:00,58.39,20.75,728.9,305.46,1.51,208.34,0
2020-03-28T13:59:00-05:00,59.12,20.56,731.75,278.56,0.8,176.05,0
2020-03-28T14:00:00-05:00,60.57,20.42,732.38,273.85,0.76,204.29,0
2020-03-28T14:01:00-05:00,61.37,20.24,732.62,262.97,0.7,214.91,0
2020-03-28T14:02:00-05:00,62.02,20.16,731.45,224.01,1.12,188.34,0
2020-03-28T14:03:00-05:00,63.26,20.06,731.48,212.25,0.6,260.72,0
2020-03-28T14:04:00-05:00,63.77,20.05,729,197.55,0.55,228.83,0
2020-03-28T14:05:00-05:00,63.09,20.04,728.74,202.84,0.89,176.09,0
2020-03-28T14:06:00-05:00,61.72,19.99,727.3,214.16,0.06,36.92,0
2020-03-28T14:07:00-05:00,61.82,19.98,726.96,209.75,1.01,205.05,0
2020-03-28T14:08:00-05:00,63.98,19.92,732.22,218.72,0.54,163.2,0
2020-03-28T14:09:00-05:00,60.96,19.78,733.22,208.57,0.74,257.75,0
2020-03-28T14:10:00-05:00,61.19,19.59,732.25,200.19,0.8,221.94,0
2020-03-28T14:11:00-05:00,61.72,19.41,731.51,211.81,0.58,242.12,0
2020-03-28T14:12:00-05:00,62.99,19.34,730.98,217.25,1.23,180.38,0
2020-03-28T14:13:00-05:00,63.33,19.22,730.44,208.43,0.69,190.35,0
2020-03-28T14:14:00-05:00,61.65,19.1,729.47,201.66,3.15,229.8,0
2020-03-28T14:15:00-05:00,61.58,18.98,728.77,200.63,1.06,214.29,0
2020-03-28T14:16:00-05:00,62.6,18.89,728.57,202.54,0.72,189.03,0
2020-03-28T14:17:00-05:00,64.6,18.82,734.16,213.72,0.41,266.1,0
2020-03-28T14:18:00-05:00,62.62,18.78,733.25,228.71,0.57,163.16,0
2020-03-28T14:19:00-05:00,63.54,18.76,732.59,231.21,0.86,218.22,0
2020-03-28T14:20:00-05:00,64.24,18.7,732.25,221.07,0.6,177.04,0
2020-03-28T14:21:00-05:00,66.82,18.71,733.39,203.57,0.74,253.76,0
2020-03-28T14:22:00-05:00,66.36,18.73,733.79,202.54,0.07,113.2,0
2020-03-28T14:23:00-05:00,65.91,18.76,733.05,204.9,2.38,226.87,0
2020-03-28T14:24:00-05:00,65.16,18.72,733.22,212.69,0.57,194.9,0
2020-03-28T14:25:00-05:00,65.84,18.74,732.99,471.16,0.75,192.96,0
2020-03-28T14:26:00-05:00,66.02,18.78,734.19,223.13,0.54,251.79,0
2020-03-28T14:27:00-05:00,64.47,18.82,734.06,199.16,0.57,198,0
2020-03-28T14:28:00-05:00,65.99,18.82,734.16,174.61,0.21,111.24,0
2020-03-28T14:29:00-05:00,68.33,18.85,732.99,171.08,0.56,194.94,0
2020-03-28T14:30:00-05:00,64.8,18.82,732.22,166.52,0.12,219.21,0
2020-03-28T14:31:00-05:00,65.13,18.85,732.69,178.29,0.53,302.64,0
2020-03-28T14:32:00-05:00,66.21,18.91,732.55,170.05,0.83,136.53,0
2020-03-28T14:33:00-05:00,63.79,18.9,732.28,166.67,0.57,46.69,0
2020-03-28T14:34:00-05:00,63.91,18.9,732.92,174.32,0.6,5.99,0
2020-03-28T14:35:00-05:00,66.04,18.94,732.38,202.99,0.63,209.95,0
2020-03-28T14:36:00-05:00,65.49,18.9,732.45,208.72,0.7,43.08,0
2020-03-28T14:37:00-05:00,66.76,18.88,731.01,195.34,0.71,156.2,0
2020-03-28T14:38:00-05:00,68.73,18.86,731.25,187.11,0.78,189.03,0
2020-03-28T14:39:00-05:00,68.9,18.78,731.05,187.25,0.3,250.78,0
2020-03-28T14:40:00-05:00,67.82,18.8,730.48,190.05,0.41,283.73,0
2020-03-28T14:41:00-05:00,69.38,18.8,730.95,177.4,0.26,152.16,0
2020-03-28T14:42:00-05:00,68.66,18.8,729.74,170.05,0.56,197.99,0
2020-03-28T14:43:00-05:00,68.18,18.8,729.2,170.35,0.47,57.03,0
2020-03-28T14:44:00-05:00,67.47,18.8,729.47,169.91,0.68,203.94,0
2020-03-28T14:45:00-05:00,66.25,18.76,729.57,164.61,0.38,171.44,0
2020-03-28T14:46:00-05:00,68.37,18.73,727.9,166.38,0.43,189.32,0
2020-03-28T14:47:00-05:00,69.22,18.7,728.97,159.61,0.41,355.73,0
2020-03-28T14:48:00-05:00,68.59,18.72,729,158.58,0.11,159.13,0
2020-03-28T14:49:00-05:00,68.95,18.74,729.07,158,0.54,343.87,0
2020-03-28T14:50:00-05:00,70.52,18.78,729,155.5,0.27,20.11,0
2020-03-28T14:51:00-05:00,68.32,18.79,729.94,173.58,0.43,28.99,0
2020-03-28T14:52:00-05:00,69.15,18.83,729.3,164.76,0.55,108.16,0
2020-03-28T14:53:00-05:00,64.16,18.78,727.9,160.5,0.6,347.84,0
2020-03-28T14:54:00-05:00,67.37,18.78,733.32,165.2,0.52,182.04,0
2020-03-28T14:55:00-05:00,66.69,18.73,732.55,159.03,0.22,331.89,0
2020-03-28T14:56:00-05:00,66.39,18.72,733.25,163.58,0.3,263.68,0
2020-03-28T14:57:00-05:00,66.61,18.72,733.02,160.94,0.55,203.93,0
2020-03-28T14:58:00-05:00,67.74,18.63,733.72,153.88,0.8,64.77,0
2020-03-28T14:59:00-05:00,69.78,18.58,733.22,157.85,0.3,205.01,0
2020-03-28T15:00:00-05:00,70.25,18.58,733.42,162.85,0.31,136.84,0
2020-03-28T15:01:00-05:00,70.42,18.58,732.28,164.61,0.44,190.99,0
2020-03-28T15:02:00-05:00,69.39,18.55,733.12,155.64,1.56,240.84,0
2020-03-28T15:03:00-05:00,68.66,18.47,732.89,152.41,0.6,209.95,0
2020-03-28T15:04:00-05:00,70.85,18.4,732.59,160.94,0.42,203.92,0
2020-03-28T15:05:00-05:00,71.33,18.39,732.22,145.94,0.5,41.11,0
2020-03-28T15:06:00-05:00,70.46,18.39,733.15,134.18,0.43,69.38,0
2020-03-28T15:07:00-05:00,71.45,18.41,733.32,132.71,0.58,302.64,0
2020-03-28T15:08:00-05:00,68.07,18.38,732.62,116.98,0.98,306.92,0
2020-03-28T15:09:00-05:00,68.57,18.31,733.05,93.31,0.52,205.01,0
2020-03-28T15:10:00-05:00,69.86,18.27,731.75,94.78,0.56,272.01,0
2020-03-28T15:11:00-05:00,70.2,18.27,732.55,109.48,0.61,168.12,0
2020-03-28T15:12:00-05:00,68.47,18.21,731.92,125.06,0.94,117.08,0
2020-03-28T15:13:00-05:00,69.27,18.13,731.48,133.44,0.19,259.72,0
2020-03-28T15:14:00-05:00,70.8,18.13,731.25,130.36,0.61,238.05,0
2020-03-28T15:15:00-05:00,69.6,18.09,731.41,124.92,0.09,139.22,0
2020-03-28T15:16:00-05:00,71.22,18.05,731.31,123.3,0.48,242.82,0
2020-03-28T15:17:00-05:00,70.36,18.09,730.91,123.45,0.28,307.67,0
2020-03-28T15:18:00-05:00,70.05,18.1,731.25,131.97,0.7,74.22,0
2020-03-28T15:19:00-05:00,70.92,18.12,731.01,136.09,0.51,349.43,0
2020-03-28T15:20:00-05:00,72.16,18.13,730.54,135.65,0.6,226.19,0
2020-03-28T15:21:00-05:00,71.9,18.1,729.41,130.06,0.73,215.94,0
2020-03-28T15:22:00-05:00,71.7,18.06,730.04,118.89,0.75,248.83,0
2020-03-28T15:23:00-05:00,71.55,18.03,729.04,108.6,0.58,153.16,0
2020-03-28T15:24:00-05:00,72.15,18,728.97,104.77,0.45,137.26,0
2020-03-28T15:25:00-05:00,70.12,17.94,728.94,104.48,0.72,169.42,0
2020-03-28T15:26:00-05:00,71.41,17.89,728,95.22,0.57,161.12,0
2020-03-28T15:27:00-05:00,71.18,17.83,732.55,97.28,0.66,179.47,0
2020-03-28T15:28:00-05:00,73.39,17.76,733.09,101.54,0.29,114.47,0
2020-03-28T15:29:00-05:00,74.62,17.76,732.48,104.77,0.57,43.83,0
2020-03-28T15:30:00-05:00,74.77,17.77,733.05,103.45,0.84,244.76,0
2020-03-28T15:31:00-05:00,73.22,17.74,731.95,104.04,0.55,216.31,0
2020-03-28T15:32:00-05:00,71.93,17.67,731.51,111.1,0.5,186.01,0
2020-03-28T15:33:00-05:00,72.46,17.6,730.48,112.57,1.25,152.17,0
2020-03-28T15:34:00-05:00,73.66,17.51,731.31,115.8,0.39,230.91,0
2020-03-28T15:35:00-05:00,74.66,17.47,730.38,120.65,0.85,197.02,0
2020-03-28T15:36:00-05:00,73.52,17.39,730.11,124.03,1.42,196.98,0
2020-03-28T15:37:00-05:00,72.56,17.31,730.68,125.5,0.51,214.94,0
2020-03-28T15:38:00-05:00,74.15,17.3,730.24,129.03,0.51,153.12,0
2020-03-28T15:39:00-05:00,75.86,17.29,729.97,129.91,0.58,165.13,0
2020-03-28T15:40:00-05:00,76.11,17.27,730.21,136.24,0.77,173.11,0
2020-03-28T15:41:00-05:00,73.88,17.23,729.51,149.18,0.6,212.9,0
2020-03-28T15:42:00-05:00,74.77,17.22,729.77,167.26,0.42,205.03,0
2020-03-28T15:43:00-05:00,74.89,17.27,730.01,238.86,0.54,225.91,0
2020-03-28T15:44:00-05:00,74.67,17.35,734.43,627.3,0.59,234.16,0
2020-03-28T15:45:00-05:00,73.68,17.49,736.54,642.73,0.81,217.9,0
2020-03-28T15:46:00-05:00,73.7,17.71,733.42,650.97,1.19,235.17,0
2020-03-28T15:47:00-05:00,71.39,17.99,732.69,650.67,0.97,279.65,0
2020-03-28T15:48:00-05:00,70.2,18.25,732.52,652.14,0.7,262.09,0
2020-03-28T15:49:00-05:00,68.49,18.52,733.15,638.18,1.49,221.95,0
2020-03-28T15:50:00-05:00,69.74,18.76,733.46,576.43,0.61,215.27,0
2020-03-28T15:51:00-05:00,67.8,18.94,732.12,422.2,0.88,224.89,0
2020-03-28T15:52:00-05:00,65.95,19.02,733.09,215.78,1.21,238.86,0
2020-03-28T15:53:00-05:00,65.65,19.08,732.69,207.69,0.56,282.7,0
2020-03-28T15:54:00-05:00,66.65,19.1,733.05,196.81,0.56,198.98,0
2020-03-28T15:55:00-05:00,67.22,19,729.84,177.55,0.9,275.72,0
2020-03-28T15:56:00-05:00,67.78,18.87,729.91,167.55,1.23,252.76,0
2020-03-28T15:57:00-05:00,67.79,18.78,727.83,150.06,0.65,201.91,0
2020-03-28T15:58:00-05:00,67.83,18.75,727.83,137.56,0.66,323.49,0
2020-03-28T15:59:00-05:00,67.87,18.68,732.32,119.77,1.63,226.86,0
2020-03-28T16:00:00-05:00,67.71,18.56,732.32,107.86,0.54,184.04,0
2020-03-28T16:01:00-05:00,68.04,18.47,732.82,106.39,0.64,228.16,0
2020-03-28T16:02:00-05:00,69.07,18.37,731.25,99.92,0.69,206.31,0
2020-03-28T16:03:00-05:00,69.82,18.3,730.64,101.1,0.87,228.18,0
2020-03-28T16:04:00-05:00,70.42,18.24,730.68,103.01,0.6,304.6,0
2020-03-28T16:05:00-05:00,70.77,18.16,730.18,120.95,0.83,204.28,0
2020-03-28T16:06:00-05:00,69.88,18.01,728,136.53,0.79,238.86,0
2020-03-28T16:07:00-05:00,70.34,17.89,727.63,146.68,0.6,178.41,0
2020-03-28T16:08:00-05:00,72.74,17.79,733.29,126.09,0.55,240.82,0
2020-03-28T16:09:00-05:00,72.24,17.71,731.15,105.22,0.6,226.14,0
2020-03-28T16:10:00-05:00,73.08,17.67,731.75,93.75,0.17,23.97,0
2020-03-28T16:11:00-05:00,72.09,17.65,732.52,66.55,0.51,244.76,0
2020-03-28T16:12:00-05:00,72.32,17.62,732.12,59.2,0.56,295.63,0
2020-03-28T16:13:00-05:00,72.13,17.62,731.18,48.61,0.56,245.77,0
2020-03-28T16:14:00-05:00,72.26,17.59,731.25,48.17,0.6,17.49,0
2020-03-28T16:15:00-05:00,73.33,17.57,731.92,46.7,0.68,92.68,0
2020-03-28T16:16:00-05:00,73.9,17.49,729.81,49.2,0.53,166.11,0
2020-03-28T16:17:00-05:00,75.22,17.47,729.67,58.17,0.25,186.96,0
2020-03-28T16:18:00-05:00,76.73,17.45,729.37,63.17,0.52,191.05,0
2020-03-28T16:19:00-05:00,75.36,17.42,730.01,72.87,1.12,206.98,0
2020-03-28T16:20:00-05:00,73.63,17.34,728.94,83.16,0.75,209.33,0
2020-03-28T16:21:00-05:00,73.59,17.27,728.6,95.66,0.59,224.89,0
2020-03-28T16:22:00-05:00,75.54,17.22,728.07,108.6,0.93,213.26,0
2020-03-28T16:23:00-05:00,73.48,17.17,728.67,97.57,0.66,186.98,0
2020-03-28T16:24:00-05:00,74.33,17.13,732.32,80.22,0.7,164.51,0
2020-03-28T16:25:00-05:00,75.53,17.07,733.32,61.25,0.57,233.83,0
2020-03-28T16:26:00-05:00,75.74,17.04,733.09,49.2,0.58,262.07,0
2020-03-28T16:27:00-05:00,74.01,16.98,732.12,48.61,0.59,123.94,0
2020-03-28T16:28:00-05:00,75.06,16.93,732.62,44.64,0.65,161.41,0
2020-03-28T16:29:00-05:00,76.29,16.86,731.45,44.2,0.4,279.67,0
2020-03-28T16:30:00-05:00,74.29,16.82,731.21,42.14,0.66,175.1,0
2020-03-28T16:31:00-05:00,74.9,16.78,730.84,38.32,0.51,275.73,0
2020-03-28T16:32:00-05:00,75.2,16.76,730.07,42.58,0.19,189.03,0
2020-03-28T16:33:00-05:00,74.39,16.74,730.34,42.58,0.47,170.04,0
2020-03-28T16:34:00-05:00,74.59,16.74,731.65,52.73,0.23,116.83,0
2020-03-28T16:35:00-05:00,75.53,16.73,729.97,54.05,0.55,167.36,0
2020-03-28T16:36:00-05:00,75.8,16.71,729.94,45.23,0.43,126.99,0
2020-03-28T16:37:00-05:00,75.26,16.69,729.07,34.2,0.37,178.06,0
2020-03-28T16:38:00-05:00,76.66,16.68,729.67,30.53,0.47,157.19,0
2020-03-28T16:39:00-05:00,75.1,16.65,728.67,35.97,0.47,196.26,0
2020-03-28T16:40:00-05:00,76.83,16.64,728.5,44.05,0.57,192.98,0
2020-03-28T16:41:00-05:00,76.99,16.6,728.53,56.84,0.32,81.26,0
2020-03-28T16:42:00-05:00,75.88,16.56,733.25,71.25,0.64,232.86,0
2020-03-28T16:43:00-05:00,75.56,16.52,733.49,75.66,0.44,206.36,0
2020-03-28T16:44:00-05:00,75.48,16.51,732.75,78.16,0.56,243.79,0
2020-03-28T16:45:00-05:00,76.08,16.48,733.46,67.58,0.24,239.22,0
2020-03-28T16:46:00-05:00,76.49,16.5,733.15,55.96,0.13,250.78,0
2020-03-28T16:47:00-05:00,75.74,16.51,733.39,52.29,0.27,30.79,0
2020-03-28T16:48:00-05:00,77.02,16.55,733.09,55.37,0.25,227.86,0
2020-03-28T16:49:00-05:00,75.61,16.56,733.12,55.23,0.52,163.19,0
2020-03-28T16:50:00-05:00,75.85,16.54,733.25,58.17,0.67,32.55,0
2020-03-28T16:51:00-05:00,76.75,16.53,732.25,59.78,0.27,212.9,0
2020-03-28T16:52:00-05:00,76.53,16.54,732.72,64.78,0.55,238.86,0
2020-03-28T16:53:00-05:00,76.02,16.56,733.09,59.78,0.33,127.28,0
2020-03-28T16:54:00-05:00,74.53,16.54,732.08,57.73,0.22,164.17,0
2020-03-28T16:55:00-05:00,74.82,16.55,733.49,53.61,0.6,78.66,0
2020-03-28T16:56:00-05:00,74.56,16.57,733.72,55.37,0.12,312.6,0
2020-03-28T16:57:00-05:00,74.79,16.61,732.79,58.61,0.14,1.75,0
2020-03-28T16:58:00-05:00,76.25,16.62,732.85,56.7,0.29,1.18,0
2020-03-28T16:59:00-05:00,77.17,16.66,732.95,52.73,0.63,198.95,0
2020-03-28T17:00:00-05:00,75.64,16.64,733.62,52.29,0.29,150.52,0
2020-03-28T17:01:00-05:00,76.34,16.62,733.79,51.85,0.28,246.72,0
2020-03-28T17:02:00-05:00,73.91,16.61,733.52,41.41,0.21,208.33,0
2020-03-28T17:03:00-05:00,73.7,16.62,732.45,34.2,0.23,168.09,0
2020-03-28T17:04:00-05:00,74.53,16.61,732.48,32,0.23,238.13,0
2020-03-28T17:05:00-05:00,74.65,16.63,732.15,33.61,0.12,267.76,0
2020-03-28T17:06:00-05:00,76.59,16.67,733.32,38.02,0.4,144.49,0
2020-03-28T17:07:00-05:00,75.28,16.64,732.79,42.58,0.16,154.24,0
2020-03-28T17:08:00-05:00,76.45,16.61,732.02,44.35,0.24,180.11,0
2020-03-28T17:09:00-05:00,76.16,16.6,732.25,45.96,0.11,128.21,0
2020-03-28T17:10:00-05:00,76.37,16.6,732.52,40.08,0.23,196.23,0
2020-03-28T17:11:00-05:00,76.13,16.58,731.72,34.35,0.19,225.16,0
2020-03-28T17:12:00-05:00,77.47,16.58,731.75,35.23,0.23,192.96,0
2020-03-28T17:13:00-05:00,76.64,16.58,732.92,34.35,0.37,284.68,0
2020-03-28T17:14:00-05:00,74.83,16.55,732.55,33.47,0.63,228.81,0
2020-03-28T17:15:00-05:00,74.98,16.54,731.38,32.59,0.26,216.91,0
2020-03-28T17:16:00-05:00,76.7,16.53,732.48,30.67,0.59,212.9,0
2020-03-28T17:17:00-05:00,78.07,16.47,731.45,23.03,0.75,225.24,0
2020-03-28T17:18:00-05:00,77.23,16.38,731.35,22.59,0.07,154.23,0
2020-03-28T17:19:00-05:00,77.9,16.36,730.54,21.26,0.35,238.09,0
2020-03-28T17:20:00-05:00,77.39,16.31,731.21,22.88,0.68,218.89,0
2020-03-28T17:21:00-05:00,78.16,16.27,731.41,26.85,0.32,120.58,0
2020-03-28T17:22:00-05:00,78.13,16.25,730.84,32.59,0.19,172.14,0
2020-03-28T17:23:00-05:00,79.49,16.22,730.81,36.7,0.44,176.44,0
2020-03-28T17:24:00-05:00,79.97,16.2,729.87,39.94,0.26,144.15,0
2020-03-28T17:25:00-05:00,79.75,16.17,730.51,42.14,0.32,205.98,0
2020-03-28T17:26:00-05:00,78.68,16.12,729.61,41.26,0.69,156.19,0
2020-03-28T17:27:00-05:00,78.51,16.08,729.07,41.7,0.49,241.83,0
2020-03-28T17:28:00-05:00,78.19,16.06,729.14,44.79,0.71,177.04,0
2020-03-28T17:29:00-05:00,78.02,16.02,730.48,42.88,0.57,143.02,0
2020-03-28T17:30:00-05:00,78.94,16.02,729.2,41.26,0.2,210.94,0
2020-03-28T17:31:00-05:00,79.01,16,729.54,39.5,0.06,218.9,0
2020-03-28T17:32:00-05:00,79.42,16.02,729.17,35.08,0.42,228.83,0
2020-03-28T17:33:00-05:00,79.58,16.02,729.84,33.76,0.21,272.67,0
2020-03-28T17:34:00-05:00,80.05,16.04,729.07,31.41,0.21,207.99,0
2020-03-28T17:35:00-05:00,79.15,16.02,729.47,29.5,0.13,133.93,0
2020-03-28T17:36:00-05:00,79.69,16,729.17,30.53,0.57,175.45,0
2020-03-28T17:37:00-05:00,78.37,15.95,733.79,30.82,0.54,167.14,0
2020-03-28T17:38:00-05:00,77.99,15.93,733.62,32.73,0.59,173.44,0
2020-03-28T17:39:00-05:00,80.09,15.94,733.69,34.5,0.32,236.79,0
2020-03-28T17:40:00-05:00,80.42,15.95,733.46,35.38,0.35,231.22,0
2020-03-28T17:41:00-05:00,81.05,15.96,734.06,32.88,0.59,175.08,0
2020-03-28T17:42:00-05:00,79.27,15.92,732.75,32.73,0.35,189.33,0
2020-03-28T17:43:00-05:00,80.12,15.92,732.79,30.97,0.24,179.41,0
2020-03-28T17:44:00-05:00,79.41,15.88,733.02,32.29,0.42,188.35,0
2020-03-28T17:45:00-05:00,79.21,15.84,733.15,27.15,0.28,150.19,0
2020-03-28T17:46:00-05:00,78.72,15.79,731.88,20.97,0.22,145.28,0
2020-03-28T17:47:00-05:00,77.95,15.78,732.72,18.32,0.27,180.11,0
2020-03-28T17:48:00-05:00,77.5,15.76,731.78,16.27,0.37,158.17,0
2020-03-28T17:49:00-05:00,78.25,15.76,732.55,13.03,0.18,137.83,0
2020-03-28T17:50:00-05:00,78.8,15.76,732.22,9.94,0.3,224.91,0
2020-03-28T17:51:00-05:00,79.19,15.75,731.58,10.24,0.49,128.39,0
2020-03-28T17:52:00-05:00,79.48,15.72,731.75,8.91,0.3,115.49,0
2020-03-28T17:53:00-05:00,79.87,15.7,730.84,8.77,0.58,129.35,0
2020-03-28T17:54:00-05:00,80.49,15.67,731.11,5.68,0.52,103.22,0
2020-03-28T17:55:00-05:00,80.37,15.64,730.34,2.74,0.64,151.51,0
2020-03-28T17:56:00-05:00,79.69,15.59,731.15,2.15,0.83,138.13,0
2020-03-28T17:57:00-05:00,80.03,15.53,731.28,0.98,0.85,123.52,0
2020-03-28T17:58:00-05:00,80.66,15.49,730.61,2.59,0.3,151.17,0
2020-03-28T17:59:00-05:00,80.41,15.45,730.14,1.71,0.62,152.48,0
2020-03-28T18:00:00-05:00,80.38,15.42,729.54,-0.2,0.57,150.16,0
2020-03-28T18:01:00-05:00,80.66,15.39,729.57,0.24,0.31,160.52,0
2020-03-28T18:02:00-05:00,81.32,15.36,729.91,0.39,0.56,140.25,0
2020-03-28T18:03:00-05:00,81.85,15.34,729.2,-0.2,0.56,131.63,0
2020-03-28T18:04:00-05:00,82.56,15.31,729.51,-1.38,0.2,226.83,0
2020-03-28T18:05:00-05:00,82.23,15.29,729.54,-1.23,0.58,130.23,0
2020-03-28T18:06:00-05:00,82.08,15.26,729.27,-0.05,0.44,194.94,0
2020-03-28T18:07:00-05:00,82.57,15.21,729.07,0.53,0.19,91.75,0
2020-03-28T18:08:00-05:00,82.99,15.18,734.33,-1.38,0.22,161.09,0
2020-03-28T18:09:00-05:00,82.62,15.13,733.92,-2.26,0.44,157.19,0
2020-03-28T18:10:00-05:00,83.6,15.08,733.52,-0.64,0.58,173.13,0
2020-03-28T18:11:00-05:00,83.89,15.03,733.96,-0.94,0.59,191.99,0
2020-03-28T18:12:00-05:00,84.34,14.99,733.82,-1.08,0.61,226.86,0
2020-03-28T18:13:00-05:00,83.86,14.96,734.46,-2.11,0.17,227.84,0
2020-03-28T18:14:00-05:00,84.21,14.92,732.72,0.09,0.57,185.34,0
2020-03-28T18:15:00-05:00,84.93,14.91,733.62,-2.26,0.24,157.2,0
2020-03-28T18:16:00-05:00,84.95,14.88,732.62,-0.35,0.79,235.18,0
2020-03-28T18:17:00-05:00,84.44,14.83,733.59,-2.55,0.45,179.42,0
2020-03-28T18:18:00-05:00,84.55,14.82,733.56,-2.11,0.47,177.39,0
2020-03-28T18:19:00-05:00,84.67,14.81,732.95,-0.64,0.58,199.98,0
2020-03-28T18:20:00-05:00,85.05,14.79,733.46,-0.2,0.65,214.32,0
2020-03-28T18:21:00-05:00,84.48,14.77,732.99,-0.79,0.84,207.01,0
2020-03-28T18:22:00-05:00,84.47,14.75,732.52,-1.97,0.76,238.04,0
2020-03-28T18:23:00-05:00,84.83,14.75,732.79,-1.97,0.57,207.99,0
2020-03-28T18:24:00-05:00,85.1,14.75,732.55,0.24,0.57,194.92,0
2020-03-28T18:25:00-05:00,85.52,14.74,732.38,-1.82,0.66,195.92,0
2020-03-28T18:26:00-05:00,85.52,14.73,732.89,-2.11,0.57,191.99,0
2020-03-28T18:27:00-05:00,85.62,14.71,733.29,-2.11,0.54,203.96,0
2020-03-28T18:28:00-05:00,85.77,14.69,732.05,-0.49,0.44,87.06,0
2020-03-28T18:29:00-05:00,85.62,14.68,733.29,-0.2,0.59,195.91,0
2020-03-28T18:30:00-05:00,86.14,14.69,731.85,-1.23,0.57,202.94,0
2020-03-28T18:31:00-05:00,86.15,14.67,732.35,-0.05,0.2,197.04,0
2020-03-28T18:32:00-05:00,86.17,14.67,732.79,-2.41,0.25,148.26,0
2020-03-28T18:33:00-05:00,86.45,14.67,732.08,-2.26,0.22,141.59,0
2020-03-28T18:34:00-05:00,86.4,14.65,732.38,-2.55,0.61,151.14,0
2020-03-28T18:35:00-05:00,86.27,14.65,732.02,-2.11,0.36,225.22,0
2020-03-28T18:36:00-05:00,86.36,14.63,732.15,-0.79,0.22,182.04,0
2020-03-28T18:37:00-05:00,86.46,14.62,731.98,-2.7,0.27,98.8,0
2020-03-28T18:38:00-05:00,86.3,14.61,732.18,-0.35,0.7,221.94,0
2020-03-28T18:39:00-05:00,86.74,14.62,731.82,-2.7,0.61,156.55,0
2020-03-28T18:40:00-05:00,86.82,14.59,732.22,-2.11,0.57,169.07,0
2020-03-28T18:41:00-05:00,86.94,14.57,732.42,-0.64,0.56,237.08,0
2020-03-28T18:42:00-05:00,86.67,14.55,731.05,-2.41,0.26,171.17,0
2020-03-28T18:43:00-05:00,86.74,14.55,731.41,-1.38,0.7,74.1,0
2020-03-28T18:44:00-05:00,87.07,14.56,731.35,-0.2,0.61,109.28,0
2020-03-28T18:45:00-05:00,87.36,14.59,732.18,-2.55,0.22,280.65,0
2020-03-28T18:46:00-05:00,87.23,14.59,731.78,-1.82,0.84,112.33,0
2020-03-28T18:47:00-05:00,87.1,14.58,731.65,-0.2,0.58,71.22,0
2020-03-28T18:48:00-05:00,86.94,14.57,730.98,-0.94,0.22,170.09,0
2020-03-28T18:49:00-05:00,87.08,14.58,731.45,-2.11,0.87,102.33,0
2020-03-28T18:50:00-05:00,86.61,14.58,731.85,-1.67,0.64,61.3,0
2020-03-28T18:51:00-05:00,86.46,14.56,731.72,-3.29,0.59,54.73,0
2020-03-28T18:52:00-05:00,86.56,14.55,731.51,-1.52,0.27,93.49,0
2020-03-28T18:53:00-05:00,86.86,14.58,731.75,-0.64,0.2,156.2,0
2020-03-28T18:54:00-05:00,86.88,14.59,731.58,-3.58,0.26,99.62,0
2020-03-28T18:55:00-05:00,86.94,14.59,731.35,-3.44,0.46,139.26,0
2020-03-28T18:56:00-05:00,86.74,14.57,730.58,-3.58,0.63,101.75,0
2020-03-28T18:57:00-05:00,86.54,14.54,730.54,-1.67,0.61,118.15,0
2020-03-28T18:58:00-05:00,86.28,14.53,730.98,-2.7,0.54,250.15,0
2020-03-28T18:59:00-05:00,84.85,14.49,730.88,-3.44,0.63,157.21,0
2020-03-28T19:00:00-05:00,82.05,14.46,730.48,-1.23,1.05,124.53,0
2020-03-28T19:01:00-05:00,82.09,14.48,731.51,-2.11,0.14,36.3,0
2020-03-28T19:02:00-05:00,83.56,14.51,730.68,-1.97,0.31,121.27,0
2020-03-28T19:03:00-05:00,84.16,14.53,730.01,-3.14,0.61,100.21,0
2020-03-28T19:04:00-05:00,79.17,14.49,730.21,-3.14,0.71,227.81,0
2020-03-28T19:05:00-05:00,80.27,14.49,729.97,-2.7,0.58,29.66,0
2020-03-28T19:06:00-05:00,82.24,14.53,730.41,-2.99,0.69,297.61,0
2020-03-28T19:07:00-05:00,81.42,14.53,731.08,-0.49,1.04,29.47,0
2020-03-28T19:08:00-05:00,78.76,14.51,730.28,-2.55,0.57,51.97,0
2020-03-28T19:09:00-05:00,78.28,14.52,731.08,-2.11,0.49,342.58,0
2020-03-28T19:10:00-05:00,78.8,14.52,731.38,-1.52,0.18,267.73,0
2020-03-28T19:11:00-05:00,81.16,14.54,730.58,-2.11,0.25,268.09,0
2020-03-28T19:12:00-05:00,81.52,14.55,730.48,-3.44,0.66,302.64,0
2020-03-28T19:13:00-05:00,80.6,14.52,730.24,-3.58,0.55,285.04,0
2020-03-28T19:14:00-05:00,79.83,14.47,730.78,-2.99,0.2,281.75,0
2020-03-28T19:15:00-05:00,79.12,14.46,730.68,-1.97,0.59,294.05,0
2020-03-28T19:16:00-05:00,79.48,14.46,730.58,-2.85,0.37,296.62,0
2020-03-28T19:17:00-05:00,79.86,14.45,729.77,-1.23,0.59,352.88,0
2020-03-28T19:18:00-05:00,80.68,14.43,730.51,-2.26,0.63,10.7,0
2020-03-28T19:19:00-05:00,81.38,14.41,730.41,-0.64,1.09,56.14,0
2020-03-28T19:20:00-05:00,82.41,14.37,729.27,-1.38,0.86,57.83,0
2020-03-28T19:21:00-05:00,83.1,14.34,729.84,-1.23,0.65,72.32,0
2020-03-28T19:22:00-05:00,83.5,14.31,729.37,-2.7,0.82,120.92,0
2020-03-28T19:23:00-05:00,83.98,14.3,730.14,-2.85,0.77,105.23,0
2020-03-28T19:24:00-05:00,84.65,14.32,729.71,-1.23,0.47,142.5,0
2020-03-28T19:25:00-05:00,84.93,14.28,728.8,-3.58,0.63,99.86,0
2020-03-28T19:26:00-05:00,85.24,14.28,729.74,-3.88,0.62,137.01,0
2020-03-28T19:27:00-05:00,85.38,14.26,730.74,-2.99,0.23,150.16,0
2020-03-28T19:28:00-05:00,85.14,14.21,729,-3.29,0.7,136.21,0
2020-03-28T19:29:00-05:00,85.53,14.18,734.93,-1.97,0.68,72.85,0
2020-03-28T19:30:00-05:00,85.53,14.16,734.33,-3.44,0.4,99.62,0
2020-03-28T19:31:00-05:00,86.14,14.14,735.06,-3.29,0.59,96.46,0
2020-03-28T19:32:00-05:00,86.8,14.14,735.26,-3.44,0.59,93.6,0
2020-03-28T19:33:00-05:00,87.26,14.14,733.79,-3.88,0.51,84.89,0
2020-03-28T19:34:00-05:00,87.71,14.11,734.96,-3.29,0.64,71.94,0
2020-03-28T19:35:00-05:00,88.14,14.11,734.73,-2.99,0.57,116.07,0
2020-03-28T19:36:00-05:00,88.12,14.1,735.1,-3.88,0.24,53.17,0
2020-03-28T19:37:00-05:00,88.37,14.1,734.19,-2.99,0.47,143.81,0
2020-03-28T19:38:00-05:00,87.83,14.08,734.96,-4.46,0.59,159.46,0
2020-03-28T19:39:00-05:00,87.46,14.08,734.39,-4.17,0.39,145.27,0
2020-03-28T19:40:00-05:00,86.62,14.02,733.86,-3.44,0.6,186.01,0
2020-03-28T19:41:00-05:00,86.35,14,734.29,-5.2,0.06,339.51,0
2020-03-28T19:42:00-05:00,86.01,13.95,733.82,-5.49,0.64,85.72,0
2020-03-28T19:43:00-05:00,86.24,13.91,733.69,-3.44,1.38,58.3,0
2020-03-28T19:44:00-05:00,82.14,13.87,733.19,-4.32,2.54,44.67,0
2020-03-28T19:45:00-05:00,79.59,13.89,732.85,-3.88,1.78,356.46,0
2020-03-28T19:46:00-05:00,78.68,13.91,733.96,-4.76,2.28,355.45,0
2020-03-28T19:47:00-05:00,78.97,13.95,733.62,-4.61,1.54,22.43,0
2020-03-28T19:48:00-05:00,79.63,13.95,732.65,-4.76,3.07,48.79,0
2020-03-28T19:49:00-05:00,78.03,13.94,734.26,-2.26,0.95,49.75,0
2020-03-28T19:50:00-05:00,78.06,13.94,733.46,-2.41,2.78,35.11,0
2020-03-28T19:51:00-05:00,78.44,13.96,733.39,-4.32,1.01,8.59,0
2020-03-28T19:52:00-05:00,78.21,13.95,733.72,-4.91,3.78,39.28,0
2020-03-28T19:53:00-05:00,77.59,13.97,733.86,-5.49,0.61,64.16,0
2020-03-28T19:54:00-05:00,77.9,13.94,732.85,-3.73,1.01,107.43,0
2020-03-28T19:55:00-05:00,78.06,13.94,733.49,-4.91,0.63,8.86,0
2020-03-28T19:56:00-05:00,77.92,13.93,733.69,-5.2,0.84,91.14,0
2020-03-28T19:57:00-05:00,79.69,13.88,733.15,-5.2,0.51,86.61,0
2020-03-28T19:58:00-05:00,80.27,13.82,732.32,-4.02,0.65,107.94,0
2020-03-28T19:59:00-05:00,80.39,13.74,731.88,-6.52,2.01,66.6,0
2020-03-28T20:00:00-05:00,78.39,13.74,732.92,-6.52,1.43,67.06,0
2020-03-28T20:01:00-05:00,77.96,13.8,732.08,-5.49,0.26,100.81,0
2020-03-28T20:02:00-05:00,78.78,13.81,733.42,-4.17,0.87,119.28,0
2020-03-28T20:03:00-05:00,79.85,13.74,731.61,-5.79,0.54,80.35,0
2020-03-28T20:04:00-05:00,80.99,13.68,731.41,-6.08,0.63,69.63,0
2020-03-28T20:05:00-05:00,81.73,13.59,732.28,-5.79,0.69,53.81,0
2020-03-28T20:06:00-05:00,82.45,13.5,731.21,-6.23,0.68,18.99,0
2020-03-28T20:07:00-05:00,82.69,13.42,731.18,-4.91,0.63,156.21,0
2020-03-28T20:08:00-05:00,82.1,13.33,731.55,-5.2,0.61,83.34,0
2020-03-28T20:09:00-05:00,82.02,13.3,730.71,-4.46,2.24,33.14,0
2020-03-28T20:10:00-05:00,81.12,13.34,731.51,-6.52,0.71,163.55,0
2020-03-28T20:11:00-05:00,81.68,13.34,730.34,-5.35,1.92,87.69,0
2020-03-28T20:12:00-05:00,81.32,13.3,730.74,-4.76,0.86,47.77,0
2020-03-28T20:13:00-05:00,80.13,13.28,731.18,-6.23,0.44,55.27,0
2020-03-28T20:14:00-05:00,79.22,13.32,731.25,-5.79,1.44,54.52,0
2020-03-28T20:15:00-05:00,78.63,13.39,731.41,-5.35,2.14,58.05,0
2020-03-28T20:16:00-05:00,77.47,13.5,731.21,-5.35,2.63,59.58,0
2020-03-28T20:17:00-05:00,77.88,13.57,730.74,-3.73,0.7,65.04,0
2020-03-28T20:18:00-05:00,79.31,13.54,731.78,-3.88,0.79,68.92,0
2020-03-28T20:19:00-05:00,78.51,13.46,731.15,-5.2,2.18,97.79,0
2020-03-28T20:20:00-05:00,78.61,13.46,730.74,-3.29,2.52,46.7,0
2020-03-28T20:21:00-05:00,76.93,13.54,731.61,-4.32,0.67,58.78,0
2020-03-28T20:22:00-05:00,77.9,13.56,731.51,-5.35,0.57,133.16,0
2020-03-28T20:23:00-05:00,79.04,13.5,731.98,-6.08,0.62,114.2,0
2020-03-28T20:24:00-05:00,79.59,13.44,731.28,-4.61,0.48,58.42,0
2020-03-28T20:25:00-05:00,79.49,13.34,730.18,-6.38,0.47,26.73,0
2020-03-28T20:26:00-05:00,79.24,13.32,730.58,-6.67,2.2,50.44,0
2020-03-28T20:27:00-05:00,78.31,13.38,731.01,-5.93,1.47,64.21,0
2020-03-28T20:28:00-05:00,77.94,13.42,729.81,-6.38,2.78,56.82,0
2020-03-28T20:29:00-05:00,78.2,13.44,731.21,-4.61,1.01,86.45,0
2020-03-28T20:30:00-05:00,78.28,13.41,730.68,-5.64,0.68,69.03,0
2020-03-28T20:31:00-05:00,77.12,13.4,730.07,-6.08,0.68,73.18,0
2020-03-28T20:32:00-05:00,76.16,13.45,729.57,-5.05,0.84,15.74,0
2020-03-28T20:33:00-05:00,75.74,13.53,730.01,-5.2,0.86,54.53,0
2020-03-28T20:34:00-05:00,75.99,13.56,730.54,-5.35,0.18,166.17,0
2020-03-28T20:35:00-05:00,75.6,13.58,730.71,-4.02,0.26,311.94,0
2020-03-28T20:36:00-05:00,76.7,13.56,730.98,-5.93,1.16,135.38,0
2020-03-28T20:37:00-05:00,75.75,13.55,730.41,-4.32,3.19,44.43,0
2020-03-28T20:38:00-05:00,75.91,13.59,731.11,-2.85,0.26,195.92,0
2020-03-28T20:39:00-05:00,75.7,13.59,730.41,-5.05,0.63,110.85,0
2020-03-28T20:40:00-05:00,75.67,13.64,735.87,-5.05,0.68,117.68,0
2020-03-28T20:41:00-05:00,75.57,13.65,735.87,-3.29,2.6,68.77,0
2020-03-28T20:42:00-05:00,74.58,13.69,734.93,-3.88,3.6,53.45,0
2020-03-28T20:43:00-05:00,74.23,13.79,736.3,-3.88,1.17,193.96,0
2020-03-28T20:44:00-05:00,74.05,13.81,735.4,-2.99,0.62,50.5,0
2020-03-28T20:45:00-05:00,73.67,13.8,736.17,-3.58,0.58,137.85,0
2020-03-28T20:46:00-05:00,74.11,13.81,735.13,-3.44,1.19,50.22,0
2020-03-28T20:47:00-05:00,74.71,13.79,736.17,-3.14,1.32,69.56,0
2020-03-28T20:48:00-05:00,74.79,13.76,734.79,-3.73,3.02,37.24,0
2020-03-28T20:49:00-05:00,75.39,13.73,735.16,-2.55,1.53,120.32,0
2020-03-28T20:50:00-05:00,75.2,13.68,735.97,-2.99,1.62,17.32,0
2020-03-28T20:51:00-05:00,75.66,13.64,736.4,-5.05,0.76,351.52,0
2020-03-28T20:52:00-05:00,75.5,13.6,735.33,-3.14,1.19,80.81,0
2020-03-28T20:53:00-05:00,75.18,13.59,735.03,-5.2,0.49,77.54,0
2020-03-28T20:54:00-05:00,73.52,13.68,735.73,-3.88,1.64,33.46,0
2020-03-28T20:55:00-05:00,73.07,13.76,735.3,-2.11,2.21,53.54,0
2020-03-28T20:56:00-05:00,72.96,13.81,735.93,-2.41,1.36,49.77,0
2020-03-28T20:57:00-05:00,72.92,13.84,736.07,-3.29,2.4,37.86,0
2020-03-28T20:58:00-05:00,74.52,13.8,736.4,-5.35,2.77,69.41,0
2020-03-28T20:59:00-05:00,74.76,13.71,735.3,-3.29,2.42,44.23,0
2020-03-28T21:00:00-05:00,75.33,13.64,736.23,-5.79,3.25,66.34,0
2020-03-28T21:01:00-05:00,74.22,13.66,735.5,-5.49,2.85,91.16,0
2020-03-28T21:02:00-05:00,74.18,13.71,737.34,-2.26,2.04,64.27,0
2020-03-28T21:03:00-05:00,73.34,13.75,736.7,-4.46,0.67,35.85,0
2020-03-28T21:04:00-05:00,73.83,13.74,735.73,-5.2,4.37,33.71,0
2020-03-28T21:05:00-05:00,73.73,13.72,735.93,-4.61,2.34,58.48,0
2020-03-28T21:06:00-05:00,73.86,13.71,736.33,-3.29,1.44,340.5,0
2020-03-28T21:07:00-05:00,74.09,13.7,736.57,-4.91,2.8,50.8,0
2020-03-28T21:08:00-05:00,74.21,13.69,736.5,-4.61,4.17,32.14,0
2020-03-28T21:09:00-05:00,74.73,13.67,736.74,-5.64,1.99,102.68,0
2020-03-28T21:10:00-05:00,73.54,13.69,735.8,-4.91,2.6,63.96,0
2020-03-28T21:11:00-05:00,74.62,13.67,735.8,-2.7,2.39,39.21,0
2020-03-28T21:12:00-05:00,73.86,13.65,736.1,-2.7,2.97,61.67,0
2020-03-28T21:13:00-05:00,74.25,13.68,735.8,-4.91,0.75,109.43,0
2020-03-28T21:14:00-05:00,74.28,13.62,736.3,-4.61,3.69,45.46,0
2020-03-28T21:15:00-05:00,74.69,13.62,736.54,-4.02,3.79,54.34,0
2020-03-28T21:16:00-05:00,73.57,13.64,735.26,-3.44,6.59,51.31,0
2020-03-28T21:17:00-05:00,72.94,13.72,736.77,-4.32,2.67,50.76,0
2020-03-28T21:18:00-05:00,73,13.76,736.7,-3.73,4.39,40.66,0
2020-03-28T21:19:00-05:00,72.58,13.77,736.37,-3.58,0.77,243.8,0
2020-03-28T21:20:00-05:00,73.81,13.74,737.34,-4.46,1.59,77.62,0
2020-03-28T21:21:00-05:00,74.33,13.63,737,-4.02,2.75,72.48,0
2020-03-28T21:22:00-05:00,73.44,13.62,736.27,-2.85,1.72,32.82,0
2020-03-28T21:23:00-05:00,72.71,13.68,736.6,-4.17,3.17,49.89,0
2020-03-28T21:24:00-05:00,72.98,13.71,736.5,-2.11,2.12,76.4,0
2020-03-28T21:25:00-05:00,72.62,13.68,737.14,-3.58,3.57,43.25,0
2020-03-28T21:26:00-05:00,72.06,13.75,736.87,-2.26,2.55,67.78,0
2020-03-28T21:27:00-05:00,72.28,13.74,737.14,-2.85,1.34,50.97,0
2020-03-28T21:28:00-05:00,73.21,13.71,736.8,-2.41,1.64,62.19,0
2020-03-28T21:29:00-05:00,73.56,13.66,737.41,-2.11,1.82,105.23,0
2020-03-28T21:30:00-05:00,72.84,13.64,737.44,-2.99,2.41,35.55,0
2020-03-28T21:31:00-05:00,73.14,13.66,736.8,-1.08,3.36,27.68,0
2020-03-28T21:32:00-05:00,73.23,13.66,737.54,-1.23,2.65,122.96,0
2020-03-28T21:33:00-05:00,73.57,13.64,737.54,-2.85,0.74,128.3,0
2020-03-28T21:34:00-05:00,73.61,13.6,736.64,-3.88,3.82,53.41,0
2020-03-28T21:35:00-05:00,72.55,13.68,736.9,-3.14,2.24,78.46,0
2020-03-28T21:36:00-05:00,72.12,13.74,736.47,-3.29,3.24,86.24,0
2020-03-28T21:37:00-05:00,71.27,13.8,736.77,-0.94,1.3,42.65,0
2020-03-28T21:38:00-05:00,72.13,13.81,737.24,-2.99,2.39,52.8,0
2020-03-28T21:39:00-05:00,72.92,13.73,737.04,-3.29,1.05,65.35,0
2020-03-28T21:40:00-05:00,72.86,13.67,737.77,-2.26,2.9,68.38,0
2020-03-28T21:41:00-05:00,72.37,13.7,736.84,-2.7,1.67,79.68,0
2020-03-28T21:42:00-05:00,73.02,13.7,737.14,-3.14,0.57,167.11,0
2020-03-28T21:43:00-05:00,72.53,13.69,737.51,-4.32,2.62,111.25,0
2020-03-28T21:44:00-05:00,73.28,13.68,737.37,-1.82,0.79,93.12,0
2020-03-28T21:45:00-05:00,74.08,13.6,736.17,-4.61,1.19,96.04,0
2020-03-28T21:46:00-05:00,73.18,13.53,736.03,-4.46,2.68,61.36,0
2020-03-28T21:47:00-05:00,72.38,13.62,736.67,-2.11,0.81,55.98,0
2020-03-28T21:48:00-05:00,70.92,13.7,737.44,-1.82,0.83,46.13,0
2020-03-28T21:49:00-05:00,70.98,13.8,736.8,-1.52,0.84,1.11,0
2020-03-28T21:50:00-05:00,71.83,13.79,737.44,-4.91,3.16,66.43,0
2020-03-28T21:51:00-05:00,69.84,13.82,737.1,-3.58,3.83,43.83,0
2020-03-28T21:52:00-05:00,69.68,13.9,736.6,-4.02,2.26,39.64,0
2020-03-28T21:53:00-05:00,69.86,13.93,737.37,-4.91,2.87,57.8,0
2020-03-28T21:54:00-05:00,69.39,13.96,737.34,-2.26,0.59,174.12,0
2020-03-28T21:55:00-05:00,70.91,13.94,737.47,-4.02,1.1,73.7,0
2020-03-28T21:56:00-05:00,70.76,13.88,736.4,-5.49,3.04,63.88,0
2020-03-28T21:57:00-05:00,70.58,13.81,737.71,-4.32,3.83,63.76,0
2020-03-28T21:58:00-05:00,70.08,13.83,736.33,-5.2,0.93,7.09,0
2020-03-28T21:59:00-05:00,70.24,13.82,736.64,-3.73,0.58,164.17,0
2020-03-28T22:00:00-05:00,71.44,13.78,736.17,-5.49,2.74,58.12,0
2020-03-28T22:01:00-05:00,71.89,13.64,736.13,-4.46,3.08,109.87,0
2020-03-28T22:02:00-05:00,70.93,13.69,736.77,-5.05,3.42,58.4,0
2020-03-28T22:03:00-05:00,70.8,13.67,736.8,-3.58,3.75,49.71,0
2020-03-28T22:04:00-05:00,70.31,13.71,736.23,-4.76,2.54,89.02,0
2020-03-28T22:05:00-05:00,70.62,13.71,736.94,-5.35,2.14,19.47,0
2020-03-28T22:06:00-05:00,70.9,13.67,736.1,-4.76,0.79,65.65,0
2020-03-28T22:07:00-05:00,71.03,13.64,736.67,-4.61,1.12,75.33,0
2020-03-28T22:08:00-05:00,70.95,13.63,736.47,-5.64,3.9,54.85,0
2020-03-28T22:09:00-05:00,70.77,13.63,736.77,-5.49,2.74,27.62,0
2020-03-28T22:10:00-05:00,70.85,13.62,736.6,-5.35,2.68,32.1,0
2020-03-28T22:11:00-05:00,70.56,13.61,736.8,-5.35,2.62,50.04,0
2020-03-28T22:12:00-05:00,70.47,13.62,735.9,-3.58,3.76,48.24,0
2020-03-28T22:13:00-05:00,69.4,13.68,736.8,-4.91,2.2,38.28,0
2020-03-28T22:14:00-05:00,69.79,13.7,735.8,-3.58,0.88,5.49,0
2020-03-28T22:15:00-05:00,70.27,13.67,735.77,-5.93,0.73,142.88,0
2020-03-28T22:16:00-05:00,69.76,13.64,735.43,-4.46,0.54,146.24,0
2020-03-28T22:17:00-05:00,70.87,13.66,735.33,-6.23,0.11,194.96,0
2020-03-28T22:18:00-05:00,71.31,13.6,735.06,-4.46,1.14,98.67,0
2020-03-28T22:19:00-05:00,71.57,13.52,735.53,-4.46,0.87,112.79,0
2020-03-28T22:20:00-05:00,71.07,13.5,736.27,-4.61,2.04,76.99,0
2020-03-28T22:21:00-05:00,71.64,13.48,734.9,-6.23,2.73,56.31,0
2020-03-28T22:22:00-05:00,70.97,13.46,734.73,-6.08,2.61,49.98,0
2020-03-28T22:23:00-05:00,71.11,13.49,734.93,-4.91,0.61,135.53,0
2020-03-28T22:24:00-05:00,70.87,13.46,735.33,-6.23,2.85,54.83,0
2020-03-28T22:25:00-05:00,70.8,13.46,735.26,-5.2,4.88,53.95,0
2020-03-28T22:26:00-05:00,70.74,13.47,735.03,-5.49,3.05,69.63,0
2020-03-28T22:27:00-05:00,70.39,13.48,735.2,-5.2,4.05,36.51,0
2020-03-28T22:28:00-05:00,70.75,13.45,735.9,-3.44,1.74,59.15,0
2020-03-28T22:29:00-05:00,69.33,13.51,736.07,-2.99,1.44,120.23,0
2020-03-28T22:30:00-05:00,68.95,13.56,735.6,-5.35,2.67,86.66,0
2020-03-28T22:31:00-05:00,68.49,13.63,735.8,-4.02,2.4,24.75,0
2020-03-28T22:32:00-05:00,68.57,13.64,735.67,-4.46,3.07,26.82,0
2020-03-28T22:33:00-05:00,68.01,13.68,736.6,-4.76,2.56,128.27,0
2020-03-28T22:34:00-05:00,67.62,13.7,736.03,-4.32,3.54,47.35,0
2020-03-28T22:35:00-05:00,67.4,13.76,736.13,-4.32,0.98,24.87,0
2020-03-28T22:36:00-05:00,67.67,13.75,735.63,-3.73,1.35,66.72,0
2020-03-28T22:37:00-05:00,67.92,13.72,736.5,-4.91,3.76,174.13,0
2020-03-28T22:38:00-05:00,67.17,13.71,736.13,-3.29,2.59,345.47,0
2020-03-28T22:39:00-05:00,66.56,13.78,736.64,-2.55,2.4,86.78,0
2020-03-28T22:40:00-05:00,67.28,13.76,735.9,-4.32,1.51,39.03,0
2020-03-28T22:41:00-05:00,66.97,13.74,736.37,-3.88,0.98,73.02,0
2020-03-28T22:42:00-05:00,67.76,13.72,736.03,-3.29,1.6,59.64,0
2020-03-28T22:43:00-05:00,67.62,13.68,734.93,-3.88,2.49,65.65,0
2020-03-28T22:44:00-05:00,68.41,13.64,734.73,-4.02,0.93,20.63,0
2020-03-28T22:45:00-05:00,67.88,13.66,735.3,-5.93,0.83,95.49,0
2020-03-28T22:46:00-05:00,68.51,13.6,736.2,-5.64,2.97,70.12,0
2020-03-28T22:47:00-05:00,69.6,13.56,735.53,-4.17,2.68,65.49,0
2020-03-28T22:48:00-05:00,68.68,13.52,735.36,-5.79,2.16,70.15,0
2020-03-28T22:49:00-05:00,68.15,13.55,734.63,-5.49,3.58,52.65,0
2020-03-28T22:50:00-05:00,67.82,13.6,736,-5.35,0.56,18.37,0
2020-03-28T22:51:00-05:00,68.49,13.58,735.67,-5.49,0.16,50.46,0
2020-03-28T22:52:00-05:00,67.99,13.55,735.83,-3.73,2.69,14.99,0
2020-03-28T22:53:00-05:00,68.4,13.53,735.36,-5.49,0.6,83.62,0
2020-03-28T22:54:00-05:00,69.03,13.48,735.87,-4.61,3.04,39.12,0
2020-03-28T22:55:00-05:00,67.39,13.5,735.56,-4.02,0.67,68.97,0
2020-03-28T22:56:00-05:00,69.33,13.52,734.76,-6.08,0.31,91.23,0
2020-03-28T22:57:00-05:00,70.3,13.42,735.13,-6.52,0.49,126.56,0
2020-03-28T22:58:00-05:00,70.91,13.32,733.99,-5.49,0.17,269.73,0
2020-03-28T22:59:00-05:00,71.52,13.21,734.39,-7.55,0.3,107.5,0
2020-03-28T23:00:00-05:00,70.57,13.12,732.95,-7.85,0.6,158.15,0
2020-03-28T23:01:00-05:00,70,13.06,733.76,-6.23,0.33,185.35,0
2020-03-28T23:02:00-05:00,70.1,13.05,733.39,-7.4,0.57,206.02,0
2020-03-28T23:03:00-05:00,71.09,12.99,733.92,-7.4,0.84,171.5,0
2020-03-28T23:04:00-05:00,71.81,12.91,733.36,-6.82,0.61,162.2,0
2020-03-28T23:05:00-05:00,72.19,12.85,733.42,-7.11,0.66,135.24,0
2020-03-28T23:06:00-05:00,72.9,12.79,732.55,-6.08,0.65,137.28,0
2020-03-28T23:07:00-05:00,73.07,12.73,732.42,-6.08,0.51,73.52,0
2020-03-28T23:08:00-05:00,73.23,12.67,732.82,-5.2,0.58,142.25,0
2020-03-28T23:09:00-05:00,72.86,12.66,733.42,-5.93,0.59,128.33,0
2020-03-28T23:10:00-05:00,73.17,12.65,732.59,-4.32,0.78,119.99,0
2020-03-28T23:11:00-05:00,73.67,12.67,732.79,-3.44,0.67,132.25,0
2020-03-28T23:12:00-05:00,73.99,12.65,731.82,-6.38,0.4,127.11,0
2020-03-28T23:13:00-05:00,74.69,12.59,732.05,-5.35,0.49,94.43,0
2020-03-28T23:14:00-05:00,74.83,12.52,731.48,-6.96,0.79,106.2,0
2020-03-28T23:15:00-05:00,74.25,12.46,731.38,-4.32,0.57,96.34,0
2020-03-28T23:16:00-05:00,74.31,12.43,731.82,-5.93,0.58,61.66,0
2020-03-28T23:17:00-05:00,74.29,12.45,737.2,-5.93,0.58,77.76,0
2020-03-28T23:18:00-05:00,75.28,12.37,735.9,-5.35,0.72,47.69,0
2020-03-28T23:19:00-05:00,75.56,12.26,736.67,-5.93,1.7,56.25,0
2020-03-28T23:20:00-05:00,75.76,12.19,736,-4.46,0.98,82.21,0
2020-03-28T23:21:00-05:00,75.43,12.12,737.34,-5.49,0.63,103.39,0
2020-03-28T23:22:00-05:00,75.65,12.09,736.4,-4.61,0.44,119.55,0
2020-03-28T23:23:00-05:00,76.08,12.05,735.9,-6.82,0.47,126.22,0
2020-03-28T23:24:00-05:00,76.45,12.01,735.67,-6.52,0.64,75.19,0
2020-03-28T23:25:00-05:00,76.35,11.97,735.56,-6.08,0.6,66.79,0
2020-03-28T23:26:00-05:00,76.01,11.93,736.03,-3.73,0.71,63.81,0
2020-03-28T23:27:00-05:00,76.36,11.88,736.43,-5.93,0.66,71.12,0
2020-03-28T23:28:00-05:00,75.74,11.87,734.93,-3.88,0.65,116.08,0
2020-03-28T23:29:00-05:00,75.91,11.87,735,-3.29,0.74,90.93,0
2020-03-28T23:30:00-05:00,75.92,11.87,735.9,-5.35,0.66,100.62,0
2020-03-28T23:31:00-05:00,76.14,11.87,735.5,-3.14,0.23,141.23,0
2020-03-28T23:32:00-05:00,76.32,11.87,735,-3.58,0.27,112.24,0
2020-03-28T23:33:00-05:00,76.79,11.85,735.73,-6.08,0.86,135.18,0
2020-03-28T23:34:00-05:00,77.26,11.81,734.79,-3.88,0.61,91.37,0
2020-03-28T23:35:00-05:00,77.45,11.85,735.6,-4.76,0.64,101.57,0
2020-03-28T23:36:00-05:00,77.08,11.88,735.13,-2.7,0.65,107.59,0
2020-03-28T23:37:00-05:00,76.99,11.93,735.8,-4.91,0.56,154.56,0
2020-03-28T23:38:00-05:00,76.85,11.95,735.16,-3.73,0.56,158.21,0
2020-03-28T23:39:00-05:00,76.9,11.94,735.4,-5.2,0.73,133.04,0
2020-03-28T23:40:00-05:00,76.87,11.96,735.36,-3.88,1.01,122.88,0
2020-03-28T23:41:00-05:00,76.33,11.96,735.93,-3.88,0.69,91.34,0
2020-03-28T23:42:00-05:00,76.61,11.95,734.9,-2.7,0.62,41.26,0
2020-03-28T23:43:00-05:00,76.18,11.97,734.93,-4.02,0.26,68.73,0
2020-03-28T23:44:00-05:00,76.49,11.95,734.63,-4.17,0.59,47.39,0
2020-03-28T23:45:00-05:00,76.98,11.86,735.36,-4.32,0.28,132.52,0
2020-03-28T23:46:00-05:00,77.13,11.83,735.53,-5.79,0.64,65.45,0
2020-03-28T23:47:00-05:00,78.3,11.72,734.26,-3.88,0.74,32.53,0
2020-03-28T23:48:00-05:00,79.18,11.62,734.73,-3.44,0.71,48.42,0
2020-03-28T23:49:00-05:00,79.27,11.55,733.69,-6.38,0.58,55.61,0
2020-03-28T23:50:00-05:00,79.22,11.52,733.86,-4.02,0.62,71,0
2020-03-28T23:51:00-05:00,80.19,11.49,733.56,-4.32,0.77,51.98,0
2020-03-28T23:52:00-05:00,80.17,11.46,734.66,-4.76,0.89,60.89,0
2020-03-28T23:53:00-05:00,79.97,11.45,733.56,-5.2,0.84,53.59,0
2020-03-28T23:54:00-05:00,80.19,11.42,733.32,-5.79,1.23,101.59,0
2020-03-28T23:55:00-05:00,80.17,11.4,733.49,-5.49,0.79,76.57,0
2020-03-28T23:56:00-05:00,80.51,11.37,733.05,-3.44,0.61,55.6,0
2020-03-28T23:57:00-05:00,80.98,11.32,732.72,-3.14,1.19,52.59,0
2020-03-28T23:58:00-05:00,81.66,11.26,733.59,-4.91,0.75,46.33,0
2020-03-28T23:59:00-05:00,82.39,11.18,733.25,-6.08,0.87,49.37,0
