time,[HUME],[TEMP],[PRES],[RADI],[RAPV],[DIRV],[PREC]
2020-03-14T00:00:00-05:00,96.44,11.94,733.69,0.39,0.71,197.35,0
2020-03-14T00:01:00-05:00,96.67,11.95,735.3,1.27,0.13,216.91,0
2020-03-14T00:02:00-05:00,96.7,11.97,734.43,-1.23,0.23,255.08,0.1
2020-03-14T00:03:00-05:00,96.86,11.99,735.3,-0.79,0.44,165.15,0
2020-03-14T00:04:00-05:00,96.93,11.99,735,-0.2,0.57,177.09,0
2020-03-14T00:05:00-05:00,96.71,11.98,735.53,-0.35,0.7,187.02,0
2020-03-14T00:06:00-05:00,96.68,11.99,735.33,0.98,0.53,152.18,0
2020-03-14T00:07:00-05:00,96.7,11.99,735.6,0.83,0.21,117.77,0
2020-03-14T00:08:00-05:00,96.83,11.99,735.9,-0.94,0.26,126.1,0.1
2020-03-14T00:09:00-05:00,96.68,12,734.29,-0.2,0.27,166.13,0
2020-03-14T00:10:00-05:00,96.81,11.99,735.53,0.83,0.51,163.2,0
2020-03-14T00:11:00-05:00,96.65,11.99,735.5,0.53,0.18,116.19,0
2020-03-14T00:12:00-05:00,96.57,11.98,735.3,-1.38,0.26,116.55,0
2020-03-14T00:13:00-05:00,96.54,11.99,734.93,-0.94,0.53,104.64,0
2020-03-14T00:14:00-05:00,96.4,11.95,735.06,-1.82,0.36,86.06,0
2020-03-14T00:15:00-05:00,96.36,11.93,734.66,0.09,0.52,63.52,0
2020-03-14T00:16:00-05:00,96.39,11.89,733.89,-0.49,0.5,52.29,0
2020-03-14T00:17:00-05:00,96.33,11.87,734.83,0.24,0.62,89.27,0
2020-03-14T00:18:00-05:00,96.41,11.87,734.53,-0.94,0.25,102.22,0
2020-03-14T00:19:00-05:00,96.31,11.83,733.92,-0.79,0.42,62.1,0
2020-03-14T00:20:00-05:00,96.3,11.83,733.56,0.83,0.6,101.16,0
2020-03-14T00:21:00-05:00,95.95,11.8,734.49,-1.67,0.99,102.15,0
2020-03-14T00:22:00-05:00,95.81,11.75,734.23,-1.67,0.36,100.17,0
2020-03-14T00:23:00-05:00,95.81,11.73,735.46,-1.67,0.93,100.97,0
2020-03-14T00:24:00-05:00,95.75,11.71,733.46,-1.08,0.74,99.31,0
2020-03-14T00:25:00-05:00,95.89,11.7,734.02,-1.23,0.57,88.19,0
2020-03-14T00:26:00-05:00,95.86,11.67,733.36,-1.82,0.71,79.97,0
2020-03-14T00:27:00-05:00,95.75,11.69,733.59,-1.97,0.63,86.08,0
2020-03-14T00:28:00-05:00,95.77,11.69,732.52,-0.49,0.06,104.28,0
2020-03-14T00:29:00-05:00,95.88,11.73,733.69,0.83,0.28,97.91,0
2020-03-14T00:30:00-05:00,95.97,11.73,734.9,-0.94,0.53,108.18,0
2020-03-14T00:31:00-05:00,96.09,11.73,734.43,-0.49,0.27,72.54,0
2020-03-14T00:32:00-05:00,95.98,11.71,733.96,0.98,0.64,93.91,0
2020-03-14T00:33:00-05:00,95.91,11.72,734.63,-0.49,0.63,96.51,0
2020-03-14T00:34:00-05:00,95.83,11.72,734.06,-1.52,0.38,87.84,0
2020-03-14T00:35:00-05:00,95.8,11.7,734.26,0.24,0.18,179.16,0
2020-03-14T00:36:00-05:00,95.99,11.73,734.33,0.83,0.33,131.46,0
2020-03-14T00:37:00-05:00,95.93,11.73,733.52,-0.35,0.14,85.74,0
2020-03-14T00:38:00-05:00,95.98,11.74,733.56,-1.38,0.35,94.62,0.1
2020-03-14T00:39:00-05:00,95.97,11.75,733.52,-1.08,0.58,95.39,0
2020-03-14T00:40:00-05:00,95.95,11.73,734.33,0.53,0.59,110.23,0
2020-03-14T00:41:00-05:00,95.92,11.72,734.63,-0.2,0.62,106.45,0
2020-03-14T00:42:00-05:00,95.83,11.7,734.13,-0.79,0.57,92.68,0
2020-03-14T00:43:00-05:00,95.75,11.71,733.66,-1.08,0.56,116.22,0
2020-03-14T00:44:00-05:00,95.78,11.71,734.43,-1.08,0.43,130.08,0
2020-03-14T00:45:00-05:00,95.89,11.73,733.39,-0.79,0.6,102.7,0
2020-03-14T00:46:00-05:00,96.09,11.75,733.49,-0.49,0.22,69.62,0
2020-03-14T00:47:00-05:00,95.92,11.76,733.42,1.56,0.23,131.04,0
2020-03-14T00:48:00-05:00,95.97,11.76,734.43,1.42,0.41,155.21,0
2020-03-14T00:49:00-05:00,95.99,11.79,734.56,1.71,0.56,145.28,0
2020-03-14T00:50:00-05:00,96.25,11.82,734.36,0.39,0.58,142.21,0
2020-03-14T00:51:00-05:00,96.09,11.81,733.76,-0.49,0.25,117.13,0
2020-03-14T00:52:00-05:00,96.09,11.82,734.16,-1.23,0.25,93.68,0
2020-03-14T00:53:00-05:00,96.23,11.83,733.49,-0.49,0.52,96.34,0
2020-03-14T00:54:00-05:00,96.05,11.83,733.32,0.83,0.54,105.06,0
2020-03-14T00:55:00-05:00,96.14,11.82,734.56,-1.52,0.27,139.61,0
2020-03-14T00:56:00-05:00,95.98,11.81,733.76,0.09,0.63,105.79,0
2020-03-14T00:57:00-05:00,96.03,11.8,733.72,-0.79,0.71,118.02,0.1
2020-03-14T00:58:00-05:00,95.95,11.79,734.36,1.27,0.71,114.52,0
2020-03-14T00:59:00-05:00,96.06,11.81,733.96,-0.64,0.82,101.34,0
2020-03-14T01:00:00-05:00,96.07,11.81,733.72,0.98,0.65,73.27,0
2020-03-14T01:01:00-05:00,95.91,11.81,734.46,-0.05,0.51,67.23,0
2020-03-14T01:02:00-05:00,95.89,11.81,733.66,-0.35,0.48,60.84,0
2020-03-14T01:03:00-05:00,96.04,11.81,734.36,1.27,0.5,88.1,0.1
2020-03-14T01:04:00-05:00,96.13,11.83,734.79,-0.64,0.62,108.16,0
2020-03-14T01:05:00-05:00,96.11,11.81,733.36,1.12,0.39,108.21,0
2020-03-14T01:06:00-05:00,96.15,11.81,734.23,1.42,0.44,123.41,0
2020-03-14T01:07:00-05:00,96.07,11.83,733.72,0.83,0.26,107.38,0
2020-03-14T01:08:00-05:00,96.29,11.83,733.02,1.12,0.13,113.86,0
2020-03-14T01:09:00-05:00,96.23,11.85,734.46,0.68,0.15,152.15,0
2020-03-14T01:10:00-05:00,96.41,11.86,735.03,1.12,0.06,172.16,0
2020-03-14T01:11:00-05:00,96.34,11.88,734.59,0.83,0.15,156.21,0
2020-03-14T01:12:00-05:00,96.32,11.89,733.99,-0.49,0.24,194.27,0.1
2020-03-14T01:13:00-05:00,96.43,11.89,735.33,-0.79,0.2,167.12,0
2020-03-14T01:14:00-05:00,96.29,11.91,734.09,-0.2,0.43,138.79,0
2020-03-14T01:15:00-05:00,96.33,11.9,735.2,0.98,0.49,150.18,0
2020-03-14T01:16:00-05:00,96.33,11.9,735.23,0.53,0.3,107.35,0.1
2020-03-14T01:17:00-05:00,96.25,11.89,734.59,-1.08,0.56,132.59,0
2020-03-14T01:18:00-05:00,96.34,11.89,734.36,1.27,0.54,144.55,0
2020-03-14T01:19:00-05:00,96.4,11.9,734.69,0.39,0.27,161.09,0
2020-03-14T01:20:00-05:00,96.46,11.9,734.16,-0.64,0.34,95.67,0
2020-03-14T01:21:00-05:00,96.47,11.91,734.63,-0.2,0.49,114.26,0
2020-03-14T01:22:00-05:00,96.55,11.93,733.89,-0.2,0.58,104.34,0
2020-03-14T01:23:00-05:00,96.45,11.94,735.06,0.53,0.55,89.68,0
2020-03-14T01:24:00-05:00,96.54,11.96,735.7,-0.49,0.34,70.28,0
2020-03-14T01:25:00-05:00,96.61,11.97,735.63,-0.05,0.52,97.01,0.1
2020-03-14T01:26:00-05:00,96.63,11.98,735.23,-1.08,0.25,95.47,0
2020-03-14T01:27:00-05:00,96.67,11.99,734.69,0.39,0.26,102.05,0
2020-03-14T01:28:00-05:00,96.71,12.01,735.16,-0.2,0.12,139.32,0
2020-03-14T01:29:00-05:00,96.58,12.02,735.56,-0.79,0.19,119.27,0
2020-03-14T01:30:00-05:00,96.61,12,735.06,-0.94,0.18,131.19,0
2020-03-14T01:31:00-05:00,96.67,12.02,735.13,0.68,0.32,157.55,0
2020-03-14T01:32:00-05:00,96.71,12.05,735.6,-1.08,0.19,186.98,0.1
2020-03-14T01:33:00-05:00,96.72,12.04,735.43,1.56,0.27,163.53,0
2020-03-14T01:34:00-05:00,96.65,12.04,735.53,-1.67,0.29,167.11,0
2020-03-14T01:35:00-05:00,96.61,12.05,735.26,0.98,0.59,164.51,0.1
2020-03-14T01:36:00-05:00,96.44,12.03,736.07,-0.05,0.56,172.49,0
2020-03-14T01:37:00-05:00,96.33,12.03,734.59,0.68,0.59,161.48,0
2020-03-14T01:38:00-05:00,96.5,12,735.43,-1.52,0.67,106.24,0.1
2020-03-14T01:39:00-05:00,96.48,12.01,734.43,-1.67,0.85,97.05,0
2020-03-14T01:40:00-05:00,96.59,11.99,735,-1.08,0.08,228.84,0
2020-03-14T01:41:00-05:00,96.03,11.98,735.56,-0.94,1.31,348.47,0
2020-03-14T01:42:00-05:00,95.73,11.88,734.66,-1.08,0.74,7.57,0.1
2020-03-14T01:43:00-05:00,95.19,11.83,733.62,-1.52,2.55,91.63,0.1
2020-03-14T01:44:00-05:00,94.88,11.86,734.83,-1.67,0.55,148.24,0
2020-03-14T01:45:00-05:00,94.33,11.91,733.36,-1.97,1.06,133.24,0
2020-03-14T01:46:00-05:00,93.75,11.94,733.99,0.68,0.15,195.91,0
2020-03-14T01:47:00-05:00,93.55,11.98,734.19,0.53,0.8,198.98,0.1
2020-03-14T01:48:00-05:00,93.89,11.99,733.52,0.09,0.37,169.1,0
2020-03-14T01:49:00-05:00,94.09,12.01,734.02,0.83,0.27,87.66,0
2020-03-14T01:50:00-05:00,94.27,12.01,734.36,-0.35,0.23,76.46,0
2020-03-14T01:51:00-05:00,94.58,12.03,733.29,-1.08,0.59,126.38,0
2020-03-14T01:52:00-05:00,94.44,11.99,733.69,-0.94,0.71,55.27,0
2020-03-14T01:53:00-05:00,94.73,11.97,733.42,-1.52,0.24,35.8,0
2020-03-14T01:54:00-05:00,95.06,11.96,734.39,-0.35,0.49,285.01,0
2020-03-14T01:55:00-05:00,95.56,12,733.52,1.42,0.2,201.98,0
2020-03-14T01:56:00-05:00,95.74,12.03,734.06,-0.35,0.32,355.84,0
2020-03-14T01:57:00-05:00,96.01,12.06,733.86,1.12,0.24,357.45,0
2020-03-14T01:58:00-05:00,95.96,12.11,735.26,-0.49,0.41,332.51,0
2020-03-14T01:59:00-05:00,96.1,12.1,734.16,-0.49,0.32,357.45,0
2020-03-14T02:00:00-05:00,96.28,12.15,734.39,0.24,0.72,308.64,0
2020-03-14T02:01:00-05:00,96.43,12.17,734.56,1.56,0.56,309.68,0
2020-03-14T02:02:00-05:00,96.41,12.2,734.33,2.15,0.74,230.91,0
2020-03-14T02:03:00-05:00,96.61,12.21,734.53,1.56,0.2,188.07,0
2020-03-14T02:04:00-05:00,96.63,12.23,736.27,-0.35,0.11,354.5,0
2020-03-14T02:05:00-05:00,96.78,12.24,734.79,1.86,0.17,342.56,0
2020-03-14T02:06:00-05:00,96.84,12.25,734.73,-0.2,0.36,71.48,0
2020-03-14T02:07:00-05:00,96.89,12.27,736.23,0.68,0.6,107.2,0
2020-03-14T02:08:00-05:00,96.66,12.29,736.37,-0.2,0.09,113.35,0
2020-03-14T02:09:00-05:00,96.81,12.28,734.56,1.42,0.46,181.43,0
2020-03-14T02:10:00-05:00,96.71,12.27,736.27,1.27,0.3,175.43,0
2020-03-14T02:11:00-05:00,96.71,12.25,736.54,1.42,0.37,173.46,0
2020-03-14T02:12:00-05:00,96.59,12.25,736.54,0.53,0.39,172.14,0
2020-03-14T02:13:00-05:00,96.43,12.24,735.46,-1.08,0.59,195.31,0
2020-03-14T02:14:00-05:00,96.49,12.23,735.36,-1.08,0.45,224.89,0
2020-03-14T02:15:00-05:00,96.67,12.21,735.56,0.39,0.59,210.29,0
2020-03-14T02:16:00-05:00,96.65,12.2,736.13,-0.64,0.16,145.3,0
2020-03-14T02:17:00-05:00,96.59,12.18,735.1,-1.82,0.15,223.96,0
2020-03-14T02:18:00-05:00,96.29,12.15,736.64,-1.67,0.23,230.85,0
2020-03-14T02:19:00-05:00,96.44,12.15,735.13,-0.2,0.06,80.03,0
2020-03-14T02:20:00-05:00,96.56,12.14,734.76,0.68,0.26,168.12,0
2020-03-14T02:21:00-05:00,96.5,12.13,736.17,-1.67,0.25,149.18,0
2020-03-14T02:22:00-05:00,96.46,12.13,734.93,-0.2,0.45,136.51,0
2020-03-14T02:23:00-05:00,96.28,12.09,735.93,0.68,0.31,170.09,0
2020-03-14T02:24:00-05:00,96.26,12.09,735.63,-1.82,0.23,186,0
2020-03-14T02:25:00-05:00,96.28,12.07,735.23,-1.52,0.22,160.14,0
2020-03-14T02:26:00-05:00,96.4,12.08,735.36,0.53,0.37,52.13,0
2020-03-14T02:27:00-05:00,96.59,12.07,735.73,-0.94,0.4,90.03,0
2020-03-14T02:28:00-05:00,96.49,12.05,735,-0.35,0.47,121.84,0
2020-03-14T02:29:00-05:00,96.39,12.05,735.63,-0.05,0.54,106.68,0
2020-03-14T02:30:00-05:00,96.63,12.06,734.66,-1.52,0.23,70.62,0
2020-03-14T02:31:00-05:00,96.69,12.07,734.96,-1.08,0.48,97.36,0
2020-03-14T02:32:00-05:00,96.56,12.06,736.1,-0.35,0.23,73.61,0
2020-03-14T02:33:00-05:00,96.59,12.07,736.07,1.12,0.29,73.56,0
2020-03-14T02:34:00-05:00,96.73,12.07,734.79,-1.08,0.15,87.13,0
2020-03-14T02:35:00-05:00,96.74,12.09,735.97,-1.08,0.06,67.56,0
2020-03-14T02:36:00-05:00,96.87,12.09,735.36,-0.94,0.22,160.17,0
2020-03-14T02:37:00-05:00,96.7,12.1,735.73,0.09,0.13,149.24,0
2020-03-14T02:38:00-05:00,96.75,12.11,735.33,-1.23,0.12,107.23,0
2020-03-14T02:39:00-05:00,96.78,12.11,735.3,-0.79,0.18,235.82,0
2020-03-14T02:40:00-05:00,96.86,12.11,736.13,0.68,0.19,227.83,0
2020-03-14T02:41:00-05:00,96.75,12.11,734.79,-1.38,0.16,198.97,0
2020-03-14T02:42:00-05:00,96.83,12.1,735.87,0.68,0.06,150.19,0
2020-03-14T02:43:00-05:00,96.67,12.11,735.2,-1.67,0.08,85.16,0
2020-03-14T02:44:00-05:00,96.87,12.11,735.56,-0.05,0.23,12,0
2020-03-14T02:45:00-05:00,96.85,12.11,734.73,-0.05,0.11,149.24,0
2020-03-14T02:46:00-05:00,96.86,12.12,735.93,1.12,0.17,142.21,0
2020-03-14T02:47:00-05:00,96.83,12.11,735.63,1.12,0.25,124.55,0
2020-03-14T02:48:00-05:00,96.65,12.11,735.33,-0.2,0.25,113.96,0
2020-03-14T02:49:00-05:00,96.7,12.1,734.9,-1.23,0.26,147.6,0
2020-03-14T02:50:00-05:00,96.66,12.09,735,-0.79,0.14,188.08,0
2020-03-14T02:51:00-05:00,96.58,12.07,735.3,0.53,0.29,92.31,0
2020-03-14T02:52:00-05:00,96.75,12.08,734.96,-0.2,0.16,207.03,0
2020-03-14T02:53:00-05:00,96.57,12.06,734.43,1.27,0.49,164.53,0
2020-03-14T02:54:00-05:00,96.51,12.07,735.93,0.98,0.22,162.22,0
2020-03-14T02:55:00-05:00,96.5,12.03,735.13,0.24,0.33,103.1,0
2020-03-14T02:56:00-05:00,96.66,12.04,734.69,-1.52,0.37,90.75,0
2020-03-14T02:57:00-05:00,96.67,12.04,735.53,-0.64,0.41,60.66,0
2020-03-14T02:58:00-05:00,96.61,12.03,734.93,0.09,0.53,95.3,0
2020-03-14T02:59:00-05:00,96.47,12.01,734.73,0.53,0.65,110.14,0
2020-03-14T03:00:00-05:00,96.37,12,735.23,0.68,0.55,110.48,0
2020-03-14T03:01:00-05:00,96.5,11.97,734.83,-1.97,0.6,112.3,0
2020-03-14T03:02:00-05:00,96.58,11.98,735.87,0.68,0.32,114.22,0
2020-03-14T03:03:00-05:00,96.43,11.96,735.33,-1.23,0.21,126.23,0
2020-03-14T03:04:00-05:00,96.59,11.97,734.33,-1.82,0.2,144.2,0
2020-03-14T03:05:00-05:00,96.66,11.99,735.46,-0.94,0.43,151.19,0
2020-03-14T03:06:00-05:00,96.81,12,735.36,-1.67,0.25,168.43,0
2020-03-14T03:07:00-05:00,96.71,11.99,735.3,-1.08,0.13,85.72,0
2020-03-14T03:08:00-05:00,96.76,11.99,735.67,-1.23,0.32,68.19,0
2020-03-14T03:09:00-05:00,96.78,12,734.73,-1.08,0.28,112.25,0
2020-03-14T03:10:00-05:00,96.65,11.98,735.26,0.68,0.72,104.9,0
2020-03-14T03:11:00-05:00,96.43,11.96,734.66,-1.97,0.57,81.82,0
2020-03-14T03:12:00-05:00,96.41,11.95,734.23,-1.38,0.58,107.73,0
2020-03-14T03:13:00-05:00,96.58,11.94,734.93,-0.35,0.63,112.31,0
2020-03-14T03:14:00-05:00,96.31,11.91,734.19,0.09,0.63,117.15,0
2020-03-14T03:15:00-05:00,96.35,11.86,734.76,0.39,0.39,147.24,0
2020-03-14T03:16:00-05:00,96.35,11.87,734.02,0.24,0.59,8.12,0
2020-03-14T03:17:00-05:00,96.63,11.9,734.9,0.83,0.47,328.81,0
2020-03-14T03:18:00-05:00,96.63,11.91,733.72,-1.08,0.24,27.42,0
2020-03-14T03:19:00-05:00,96.69,11.92,734.33,-1.82,0.06,75.96,0.1
2020-03-14T03:20:00-05:00,96.51,11.91,734.86,0.53,0.3,188.05,0
2020-03-14T03:21:00-05:00,96.46,11.93,734.26,-1.67,0.36,164.18,0
2020-03-14T03:22:00-05:00,96.36,11.89,734.36,-1.97,0.32,159.17,0
2020-03-14T03:23:00-05:00,96.33,11.85,734.23,-1.97,0.56,138.34,0
2020-03-14T03:24:00-05:00,96.27,11.84,735.3,-1.67,0.62,142.23,0
2020-03-14T03:25:00-05:00,96.1,11.83,733.99,-1.08,0.59,161.47,0
2020-03-14T03:26:00-05:00,96.05,11.79,733.82,-0.05,0.55,191.04,0
2020-03-14T03:27:00-05:00,96.03,11.77,734.02,-1.67,0.54,160.5,0
2020-03-14T03:28:00-05:00,96.03,11.73,734.36,-2.26,0.59,148.2,0
2020-03-14T03:29:00-05:00,96.07,11.75,733.42,-0.94,0.68,148.58,0
2020-03-14T03:30:00-05:00,96.15,11.71,733.46,-1.82,0.68,124.53,0
2020-03-14T03:31:00-05:00,96.27,11.7,734.29,0.83,0.59,145.39,0
2020-03-14T03:32:00-05:00,96.37,11.71,734.46,-1.08,0.29,131.03,0
2020-03-14T03:33:00-05:00,96.16,11.7,733.76,-1.67,0.73,102.8,0
2020-03-14T03:34:00-05:00,96.25,11.68,734.06,0.53,0.23,98.26,0
2020-03-14T03:35:00-05:00,96.39,11.69,734.33,-1.38,0.4,118.09,0
2020-03-14T03:36:00-05:00,96.35,11.7,734.06,-2.11,0.23,106.07,0
2020-03-14T03:37:00-05:00,96.35,11.71,734.06,0.09,0.5,133.26,0
2020-03-14T03:38:00-05:00,96.5,11.71,734.06,-1.97,0.21,144.17,0
2020-03-14T03:39:00-05:00,96.37,11.71,733.59,-2.55,0.27,101.21,0
2020-03-14T03:40:00-05:00,96.47,11.71,734.02,-1.67,0.53,98.76,0
2020-03-14T03:41:00-05:00,96.46,11.69,734.29,-0.79,0.23,184.03,0
2020-03-14T03:42:00-05:00,96.34,11.71,734.06,0.24,0.57,140.3,0
2020-03-14T03:43:00-05:00,96.21,11.71,733.25,-0.64,0.61,129.31,0
2020-03-14T03:44:00-05:00,96.36,11.69,732.72,0.09,0.6,125.6,0
2020-03-14T03:45:00-05:00,96.27,11.71,733.25,-0.64,0.29,87.45,0
2020-03-14T03:46:00-05:00,96.33,11.71,732.85,0.39,0.25,111.5,0
2020-03-14T03:47:00-05:00,96.44,11.71,733.19,0.39,0.25,161.13,0
2020-03-14T03:48:00-05:00,96.17,11.71,733.39,-1.97,0.64,165.5,0
2020-03-14T03:49:00-05:00,95.9,11.69,734.73,-0.94,0.57,131.09,0
2020-03-14T03:50:00-05:00,95.85,11.65,733.12,-0.64,0.59,140.62,0.1
2020-03-14T03:51:00-05:00,95.82,11.62,733.92,-0.49,0.69,193.28,0
2020-03-14T03:52:00-05:00,95.44,11.57,732.59,-0.35,0.66,197.28,0
2020-03-14T03:53:00-05:00,95.46,11.52,733.05,-1.67,0.63,177.06,0
2020-03-14T03:54:00-05:00,95.34,11.52,733.32,-0.79,1.02,231.89,0
2020-03-14T03:55:00-05:00,95.65,11.51,732.75,-1.52,0.58,262.69,0
2020-03-14T03:56:00-05:00,95.52,11.48,732.69,0.68,0.82,17.86,0
2020-03-14T03:57:00-05:00,95.18,11.42,732.92,0.24,0.99,275.76,0
2020-03-14T03:58:00-05:00,94.82,11.37,733.15,0.09,0.75,205.01,0
2020-03-14T03:59:00-05:00,94.42,11.32,732.35,-1.08,0.9,229.79,0
2020-03-14T04:00:00-05:00,94.16,11.26,731.78,-1.82,1.07,231.91,0
2020-03-14T04:01:00-05:00,93.57,11.21,732.45,-3.14,0.64,354.47,0
2020-03-14T04:02:00-05:00,93.35,11.19,730.91,-0.2,0.6,305.59,0
2020-03-14T04:03:00-05:00,92.82,11.19,732.12,-0.35,0.58,224.25,0.1
2020-03-14T04:04:00-05:00,92.52,11.18,732.65,-0.94,0.59,84.99,0
2020-03-14T04:05:00-05:00,92.37,11.16,730.38,0.09,0.85,152.51,0
2020-03-14T04:06:00-05:00,92.04,11.12,731.88,-1.97,0.57,180.12,0
2020-03-14T04:07:00-05:00,91.65,11.16,731.58,0.09,0.44,135.54,0
2020-03-14T04:08:00-05:00,91.82,11.18,730.34,-1.08,0.58,132.26,0
2020-03-14T04:09:00-05:00,91.9,11.2,731.68,-0.64,0.74,111.38,0
2020-03-14T04:10:00-05:00,92.16,11.19,730.58,-0.2,0.65,54.49,0
2020-03-14T04:11:00-05:00,92.33,11.18,730.68,-1.08,1.27,287.89,0
2020-03-14T04:12:00-05:00,92.58,11.16,731.01,-1.08,0.51,214.95,0
2020-03-14T04:13:00-05:00,92.87,11.16,730.18,0.09,0.56,264.81,0
2020-03-14T04:14:00-05:00,91.28,11.08,730.28,-1.38,0.56,19.94,0
2020-03-14T04:15:00-05:00,89.21,11.15,730.28,0.24,0.78,216.93,0
2020-03-14T04:16:00-05:00,88.66,11.22,730.81,-2.26,1.18,182.07,0
2020-03-14T04:17:00-05:00,88.2,11.28,729.87,-1.38,0.39,200.97,0.1
2020-03-14T04:18:00-05:00,88.46,11.32,731.05,0.83,0.71,124.73,0
2020-03-14T04:19:00-05:00,88.96,11.32,730.78,0.39,0.64,128.95,0
2020-03-14T04:20:00-05:00,89.67,11.31,730.88,0.24,0.59,183.02,0
2020-03-14T04:21:00-05:00,90.4,11.24,730.81,0.09,0.82,180.11,0
2020-03-14T04:22:00-05:00,90.83,11.17,731.01,0.83,0.58,147.57,0
2020-03-14T04:23:00-05:00,91.65,11.11,730.61,0.39,0.74,192.97,0
2020-03-14T04:24:00-05:00,92.01,11.12,730.88,-0.05,0.5,206.38,0
2020-03-14T04:25:00-05:00,91.49,11.13,729.94,-0.35,0.59,272.96,0
2020-03-14T04:26:00-05:00,91.47,11.14,730.58,-0.79,1.15,142.07,0.1
2020-03-14T04:27:00-05:00,91.24,11.13,729.44,-0.05,0.37,143.2,0
2020-03-14T04:28:00-05:00,91.4,11.1,730.51,-1.52,0.82,257.16,0
2020-03-14T04:29:00-05:00,91.28,11.06,729.84,0.39,0.77,162.2,0
2020-03-14T04:30:00-05:00,91.67,11.04,729.94,-0.2,1.51,106.57,0
2020-03-14T04:31:00-05:00,92.06,10.99,730.58,-1.97,0.8,58,0
2020-03-14T04:32:00-05:00,91.8,10.94,729.84,-1.08,0.66,17.12,0
2020-03-14T04:33:00-05:00,91.16,10.93,729.84,0.39,0.35,157.19,0
2020-03-14T04:34:00-05:00,91.54,10.96,729.44,0.53,0.69,66.58,0
2020-03-14T04:35:00-05:00,91.83,10.96,729.41,-0.05,0.58,88.55,0
2020-03-14T04:36:00-05:00,92.15,10.95,730.01,0.39,0.62,63.63,0
2020-03-14T04:37:00-05:00,92.54,10.94,730.14,0.83,0.17,159.16,0
2020-03-14T04:38:00-05:00,92.64,10.92,730.44,-0.49,1.01,76.35,0
2020-03-14T04:39:00-05:00,92.5,10.9,729.54,-1.38,0.54,38.94,0
2020-03-14T04:40:00-05:00,92.51,10.9,729.34,0.83,0.6,108.59,0
2020-03-14T04:41:00-05:00,92.68,10.9,729.54,0.98,0.75,54.79,0.1
2020-03-14T04:42:00-05:00,92.83,10.89,730.01,-0.64,0.88,52.2,0
2020-03-14T04:43:00-05:00,93.2,10.9,729.77,0.09,1.42,50.8,0
2020-03-14T04:44:00-05:00,93.03,10.88,729.41,-1.23,0.85,81.82,0
2020-03-14T04:45:00-05:00,93.37,10.88,730.84,-0.64,0.45,82.23,0
2020-03-14T04:46:00-05:00,93.63,10.9,729.87,-0.79,0.58,91.67,0
2020-03-14T04:47:00-05:00,93.71,10.9,730.74,0.39,0.82,103.51,0
2020-03-14T04:48:00-05:00,93.37,10.86,730.81,-1.08,0.66,87.98,0
2020-03-14T04:49:00-05:00,93.13,10.84,730.88,0.53,0.76,68.55,0
2020-03-14T04:50:00-05:00,93.38,10.84,729.87,-0.49,1,40.8,0
2020-03-14T04:51:00-05:00,93.79,10.86,730.95,0.83,0.62,57.5,0
2020-03-14T04:52:00-05:00,93.78,10.88,729.97,0.83,0.61,67.38,0
2020-03-14T04:53:00-05:00,93.72,10.86,729.91,-1.08,0.59,71.7,0
2020-03-14T04:54:00-05:00,93.86,10.85,729.97,-1.08,0.57,96.72,0
2020-03-14T04:55:00-05:00,93.92,10.86,729.71,-0.2,0.76,120.27,0
2020-03-14T04:56:00-05:00,93.58,10.81,729.24,0.09,0.68,97.59,0
2020-03-14T04:57:00-05:00,93.83,10.8,730.31,-1.38,0.6,114.21,0
2020-03-14T04:58:00-05:00,93.9,10.81,731.08,-1.23,0.61,111.55,0
2020-03-14T04:59:00-05:00,93.96,10.78,730.44,-1.23,0.78,86.08,0
2020-03-14T05:00:00-05:00,94.12,10.78,731.48,0.53,0.54,116.9,0
2020-03-14T05:01:00-05:00,94.34,10.8,731.38,0.24,0.87,97.51,0
2020-03-14T05:02:00-05:00,94.58,10.83,730.41,0.83,0.73,104.5,0
2020-03-14T05:03:00-05:00,94.71,10.85,729.84,-0.35,0.63,89.08,0
2020-03-14T05:04:00-05:00,94.7,10.88,729.24,1.71,0.85,106.76,0
2020-03-14T05:05:00-05:00,94.76,10.88,729.91,0.39,0.23,146.25,0
2020-03-14T05:06:00-05:00,94.69,10.9,730.24,-0.94,0.31,157.59,0
2020-03-14T05:07:00-05:00,94.71,10.9,731.48,-0.49,0.17,194.96,0
2020-03-14T05:08:00-05:00,94.8,10.89,731.38,-0.05,0.57,113.15,0
2020-03-14T05:09:00-05:00,94.9,10.9,730.51,0.98,0.58,156.24,0
2020-03-14T05:10:00-05:00,94.61,10.9,730.68,-0.79,0.6,151.14,0
2020-03-14T05:11:00-05:00,94.56,10.89,731.38,0.98,0.71,144.2,0
2020-03-14T05:12:00-05:00,94.71,10.88,731.15,0.98,0.65,141.25,0
2020-03-14T05:13:00-05:00,94.86,10.89,729.71,-1.52,0.24,91.52,0
2020-03-14T05:14:00-05:00,95.09,10.89,730.14,-0.94,0.47,94.66,0
2020-03-14T05:15:00-05:00,95.12,10.9,730.64,-1.23,0.56,98.62,0
2020-03-14T05:16:00-05:00,95.13,10.9,731.21,0.83,0.27,314.55,0
2020-03-14T05:17:00-05:00,94.78,10.89,730.41,-0.64,0.6,82.99,0
2020-03-14T05:18:00-05:00,94.88,10.88,730.78,1.12,0.19,90.57,0
2020-03-14T05:19:00-05:00,94.98,10.89,730.34,1.42,0.58,107.55,0
2020-03-14T05:20:00-05:00,94.7,10.89,730.95,-1.38,0.29,144.17,0
2020-03-14T05:21:00-05:00,94.83,10.9,730.21,-0.79,0.47,80.5,0
2020-03-14T05:22:00-05:00,94.74,10.9,730.71,-0.94,0.65,127.6,0
2020-03-14T05:23:00-05:00,94.38,10.89,730.81,-0.94,0.64,88.09,0
2020-03-14T05:24:00-05:00,94.69,10.88,730.48,-0.94,0.16,164.17,0
2020-03-14T05:25:00-05:00,94.72,10.89,731.75,-1.67,0.24,161.5,0
2020-03-14T05:26:00-05:00,94.62,10.88,730.18,0.39,0.57,127.17,0
2020-03-14T05:27:00-05:00,94.48,10.88,731.18,0.68,0.61,124.55,0
2020-03-14T05:28:00-05:00,94.68,10.87,731.01,0.98,0.5,128.77,0
2020-03-14T05:29:00-05:00,94.63,10.88,730.41,0.98,0.54,184.03,0
2020-03-14T05:30:00-05:00,94.61,10.88,729.71,1.12,0.63,76.67,0
2020-03-14T05:31:00-05:00,94.5,10.92,731.15,-1.52,0.31,117.21,0
2020-03-14T05:32:00-05:00,94.58,10.92,730.51,-1.38,0.5,100.1,0
2020-03-14T05:33:00-05:00,94.62,10.96,731.11,0.09,0.59,95.23,0
2020-03-14T05:34:00-05:00,94.76,10.97,730.61,-1.23,0.5,114.34,0
2020-03-14T05:35:00-05:00,94.91,10.99,731.48,-1.23,0.62,109.18,0
2020-03-14T05:36:00-05:00,94.79,11,731.65,-0.79,0.38,120.3,0
2020-03-14T05:37:00-05:00,94.86,11.02,730.34,-0.35,0.58,92.98,0
2020-03-14T05:38:00-05:00,94.95,11.04,731.75,-0.49,0.62,79.07,0
2020-03-14T05:39:00-05:00,94.98,11.06,731.15,-0.64,0.65,65.94,0
2020-03-14T05:40:00-05:00,94.97,11.1,730.84,-0.05,0.57,51.47,0
2020-03-14T05:41:00-05:00,94.99,11.15,731.08,-1.08,0.13,162.22,0
2020-03-14T05:42:00-05:00,94.71,11.16,730.28,-0.64,0.25,142.58,0
2020-03-14T05:43:00-05:00,94.72,11.16,731.85,-1.23,0.46,95.91,0
2020-03-14T05:44:00-05:00,94.85,11.18,731.98,-1.23,0.72,112.06,0
2020-03-14T05:45:00-05:00,94.69,11.14,731.58,-0.49,0.74,91.99,0
2020-03-14T05:46:00-05:00,94.39,11.14,731.85,1.27,0.79,58.66,0
2020-03-14T05:47:00-05:00,94.51,11.16,732.12,1.12,0.66,72.34,0
2020-03-14T05:48:00-05:00,94.32,11.16,732.15,-1.23,0.63,74.04,0
2020-03-14T05:49:00-05:00,94.32,11.16,732.55,1.27,0.56,61.2,0
2020-03-14T05:50:00-05:00,94.3,11.2,731.01,0.09,0.64,85.06,0
2020-03-14T05:51:00-05:00,94.18,11.22,731.68,0.53,0.55,122.23,0
2020-03-14T05:52:00-05:00,94.05,11.24,731.98,0.09,0.24,47.58,0
2020-03-14T05:53:00-05:00,94.17,11.25,732.12,-1.08,0.23,135.19,0
2020-03-14T05:54:00-05:00,94.14,11.26,730.91,1.27,0.25,160.14,0
2020-03-14T05:55:00-05:00,94.22,11.28,732.02,1.12,0.45,162.2,0
2020-03-14T05:56:00-05:00,94.07,11.28,731.05,-1.08,0.58,148.22,0
2020-03-14T05:57:00-05:00,94.06,11.29,732.45,1.27,0.6,148.49,0
2020-03-14T05:58:00-05:00,94.17,11.29,732.59,1.12,0.66,140.25,0
2020-03-14T05:59:00-05:00,94.23,11.3,731.88,1.86,0.26,170.39,0
2020-03-14T06:00:00-05:00,94.53,11.32,731.82,1.56,0.69,132.26,0
2020-03-14T06:01:00-05:00,94.61,11.32,732.08,-0.2,0.49,111.05,0
2020-03-14T06:02:00-05:00,94.72,11.31,732.18,1.86,0.55,120.98,0
2020-03-14T06:03:00-05:00,94.69,11.34,732.15,0.68,0.6,158.54,0
2020-03-14T06:04:00-05:00,94.65,11.34,732.55,0.83,0.62,147.24,0
2020-03-14T06:05:00-05:00,94.62,11.34,731.41,2.74,0.67,142.49,0
2020-03-14T06:06:00-05:00,94.53,11.36,732.62,2.3,0.66,135.48,0
2020-03-14T06:07:00-05:00,94.52,11.36,732.45,3.18,0.48,143.47,0
2020-03-14T06:08:00-05:00,94.7,11.38,731.51,4.5,0.71,104.98,0
2020-03-14T06:09:00-05:00,94.67,11.4,732.45,4.65,0.62,53.72,0
2020-03-14T06:10:00-05:00,94.8,11.41,732.99,5.09,0.4,37.57,0
2020-03-14T06:11:00-05:00,94.84,11.44,731.85,4.8,0.06,352.5,0
2020-03-14T06:12:00-05:00,94.84,11.43,731.65,6.42,0.58,115.22,0
2020-03-14T06:13:00-05:00,94.97,11.48,731.92,4.06,0.26,167.12,0
2020-03-14T06:14:00-05:00,94.75,11.45,732.05,6.71,0.48,130.27,0
2020-03-14T06:15:00-05:00,94.9,11.44,732.89,4.5,0.44,55.61,0
2020-03-14T06:16:00-05:00,94.93,11.46,731.92,7.15,0.55,49.73,0
2020-03-14T06:17:00-05:00,94.9,11.46,732.69,6.12,0.64,55.07,0
2020-03-14T06:18:00-05:00,94.96,11.48,732.89,7.3,0.56,109.29,0
2020-03-14T06:19:00-05:00,94.87,11.48,733.96,5.68,0.29,112.5,0
2020-03-14T06:20:00-05:00,94.74,11.49,733.09,8.03,0.23,95.7,0
2020-03-14T06:21:00-05:00,94.92,11.5,732.65,6.56,0.43,105.36,0
2020-03-14T06:22:00-05:00,94.61,11.5,732.18,6.86,0.35,76,0
2020-03-14T06:23:00-05:00,94.66,11.48,733.46,7.3,0.27,51.46,0
2020-03-14T06:24:00-05:00,94.32,11.46,732.85,9.21,0.46,83.62,0
2020-03-14T06:25:00-05:00,94.07,11.43,732.82,8.18,0.22,106.81,0
2020-03-14T06:26:00-05:00,94.29,11.44,733.29,9.06,0.55,134.66,0
2020-03-14T06:27:00-05:00,94.29,11.45,732.05,9.21,0.42,94.38,0
2020-03-14T06:28:00-05:00,94.46,11.46,732.05,10.97,0.43,108.52,0
2020-03-14T06:29:00-05:00,94.43,11.46,732.25,10.38,0.49,152.16,0
2020-03-14T06:30:00-05:00,94.37,11.44,733.39,12.74,0.58,87.07,0
2020-03-14T06:31:00-05:00,94.21,11.43,733.19,13.47,0.67,99.44,0
2020-03-14T06:32:00-05:00,94.15,11.46,732.22,12.3,0.32,135.4,0
2020-03-14T06:33:00-05:00,94.22,11.46,732.42,12.44,0.44,120.08,0
2020-03-14T06:34:00-05:00,94.28,11.48,732.99,15.09,0.62,116.23,0
2020-03-14T06:35:00-05:00,94.2,11.46,733.49,14.21,0.31,103.48,0
2020-03-14T06:36:00-05:00,93.99,11.48,732.42,13.62,0.34,82.67,0
2020-03-14T06:37:00-05:00,94.26,11.47,734.29,13.62,0.6,76.1,0
2020-03-14T06:38:00-05:00,94.26,11.49,733.46,13.77,0.46,79.79,0
2020-03-14T06:39:00-05:00,94.28,11.48,732.99,13.62,0.3,99.01,0
2020-03-14T06:40:00-05:00,94.07,11.48,732.75,15.68,0.63,77.83,0
2020-03-14T06:41:00-05:00,94.07,11.46,733.46,15.68,0.59,89.04,0
2020-03-14T06:42:00-05:00,94.07,11.46,733.39,18.32,0.52,90.43,0
2020-03-14T06:43:00-05:00,93.85,11.46,732.82,21.85,0.82,84.29,0
2020-03-14T06:44:00-05:00,93.75,11.46,733.42,24.5,0.58,110.16,0
2020-03-14T06:45:00-05:00,93.85,11.48,733.92,24.65,0.39,89.71,0
2020-03-14T06:46:00-05:00,93.96,11.48,732.52,27.73,0.69,66.53,0
2020-03-14T06:47:00-05:00,93.93,11.48,732.62,33.32,0.67,87.92,0
2020-03-14T06:48:00-05:00,94.07,11.49,733.32,39.79,0.58,107.21,0
2020-03-14T06:49:00-05:00,94.01,11.5,732.28,45.82,0.17,115.21,0
2020-03-14T06:50:00-05:00,94.29,11.52,733.69,56.11,0.52,89.03,0
2020-03-14T06:51:00-05:00,94.46,11.54,733.56,60.96,0.61,90.99,0
2020-03-14T06:52:00-05:00,94.16,11.54,734.09,67.72,0.6,106.12,0
2020-03-14T06:53:00-05:00,94.02,11.54,732.95,73.16,0.52,97.22,0
2020-03-14T06:54:00-05:00,93.76,11.52,733.99,73.02,0.82,109.86,0
2020-03-14T06:55:00-05:00,93.59,11.53,734.29,78.31,0.79,116.87,0
2020-03-14T06:56:00-05:00,93.55,11.54,732.75,86.4,0.64,109.63,0
2020-03-14T06:57:00-05:00,93.51,11.6,733.32,86.84,0.69,100.69,0
2020-03-14T06:58:00-05:00,93.06,11.61,734.16,89.34,0.64,78.17,0
2020-03-14T06:59:00-05:00,93.29,11.67,734.46,89.34,0.56,105.81,0
2020-03-14T07:00:00-05:00,93.09,11.7,733.92,90.66,0.59,77.89,0
2020-03-14T07:01:00-05:00,92.78,11.73,733.59,91.54,0.57,64.42,0
2020-03-14T07:02:00-05:00,92.53,11.77,735.23,93.16,0.32,88.32,0
2020-03-14T07:03:00-05:00,92.23,11.81,734.43,93.6,0.58,96.87,0
2020-03-14T07:04:00-05:00,92.47,11.83,735.23,91.1,0.49,57.14,0
2020-03-14T07:05:00-05:00,92.64,11.91,734.39,93.01,0.25,101.92,0
2020-03-14T07:06:00-05:00,92.48,11.93,733.99,93.6,0.58,145.27,0
2020-03-14T07:07:00-05:00,92.09,11.96,735.2,91.39,0.46,162.24,0
2020-03-14T07:08:00-05:00,92.39,11.96,734.69,91.25,0.29,155.24,0
2020-03-14T07:09:00-05:00,92.43,12.01,734.46,88.75,0.57,139.22,0
2020-03-14T07:10:00-05:00,92.47,12.02,735,90.07,0.57,74.75,0
2020-03-14T07:11:00-05:00,93.1,12.05,734.73,88.45,0.63,94.9,0
2020-03-14T07:12:00-05:00,92.83,12.07,734.96,84.48,0.59,62.75,0
2020-03-14T07:13:00-05:00,92.23,12.06,735.1,78.46,0.63,78.36,0
2020-03-14T07:14:00-05:00,91.3,12.03,736.17,67.72,0.6,94.76,0
2020-03-14T07:15:00-05:00,90.73,12.03,735.33,69.34,0.64,104.07,0
2020-03-14T07:16:00-05:00,90.26,12.05,735,83.16,0.63,119.29,0
2020-03-14T07:17:00-05:00,90.11,12.05,736.23,91.69,0.61,92.58,0
2020-03-14T07:18:00-05:00,89.88,12.07,736.13,86.98,0.74,106.22,0
2020-03-14T07:19:00-05:00,89.75,12.08,735.6,88.75,0.4,78.53,0
2020-03-14T07:20:00-05:00,90.33,12.11,735.13,103.6,0.26,118.44,0
2020-03-14T07:21:00-05:00,90.57,12.15,736.1,70.08,0.24,56.63,0
2020-03-14T07:22:00-05:00,90.46,12.18,735.7,75.08,0.4,96.17,0
2020-03-14T07:23:00-05:00,90.51,12.21,735.56,73.75,0.59,104.38,0
2020-03-14T07:24:00-05:00,90.72,12.22,735.26,78.02,0.55,65.39,0
2020-03-14T07:25:00-05:00,90.78,12.22,735.53,81.54,0.56,73,0
2020-03-14T07:26:00-05:00,90.4,12.22,735.67,93.16,0.42,82.44,0
2020-03-14T07:27:00-05:00,90.17,12.19,736.54,99.48,0.57,92.73,0
2020-03-14T07:28:00-05:00,90.39,12.21,736.47,110.95,0.56,74.6,0
2020-03-14T07:29:00-05:00,90.3,12.18,735.77,120.95,0.23,92.37,0
2020-03-14T07:30:00-05:00,90.37,12.17,736.8,129.62,0.3,142.25,0
2020-03-14T07:31:00-05:00,91.03,12.23,736.5,128.89,0.67,67.44,0
2020-03-14T07:32:00-05:00,90.79,12.25,736.37,108.89,0.65,92.77,0
2020-03-14T07:33:00-05:00,90.55,12.25,735.93,101.69,0.57,113.23,0
2020-03-14T07:34:00-05:00,90.38,12.26,736.64,101.69,0.74,100.31,0
2020-03-14T07:35:00-05:00,90.11,12.25,736.54,97.57,0.57,68.3,0
2020-03-14T07:36:00-05:00,90.4,12.29,736.84,92.42,0.62,78.41,0
2020-03-14T07:37:00-05:00,90.77,12.31,736.3,105.51,0.24,114.52,0
2020-03-14T07:38:00-05:00,90.69,12.35,737,108.01,0.15,96,0
2020-03-14T07:39:00-05:00,90.94,12.38,737.64,125.5,0.6,101.25,0
2020-03-14T07:40:00-05:00,90.39,12.4,736.74,195.34,0.68,95.16,0
2020-03-14T07:41:00-05:00,89.57,12.42,738.14,232.83,0.59,95.68,0
2020-03-14T07:42:00-05:00,89.6,12.45,738.04,185.05,0.16,43.24,0
2020-03-14T07:43:00-05:00,89.72,12.55,738.68,205.78,0.52,79.34,0
2020-03-14T07:44:00-05:00,90.05,12.63,739.38,188.28,0.24,72.19,0
2020-03-14T07:45:00-05:00,89.64,12.71,739.28,195.19,0.56,74.92,0
2020-03-14T07:46:00-05:00,89.3,12.82,739.08,208.13,0.5,57.74,0
2020-03-14T07:47:00-05:00,89.54,12.91,739.85,128,0.64,88.68,0
2020-03-14T07:48:00-05:00,89.18,12.97,739.25,115.36,0.63,65.4,0
2020-03-14T07:49:00-05:00,89.03,13.03,740.52,120.95,0.57,87.51,0
2020-03-14T07:50:00-05:00,88.86,13.03,740.85,135.06,0.29,34.67,0
2020-03-14T07:51:00-05:00,88.82,13.07,741.46,155.2,0.62,72.88,0
2020-03-14T07:52:00-05:00,88.51,13.06,742.09,166.96,0.61,80.65,0
2020-03-14T07:53:00-05:00,87.57,13.04,741.05,170.64,0.8,31.51,0
2020-03-14T07:54:00-05:00,87.57,13.03,742.53,167.55,0.63,41.19,0
2020-03-14T07:55:00-05:00,87.93,13.05,742.59,161.82,0.65,84.06,0
2020-03-14T07:56:00-05:00,87.45,13.06,738.51,157.7,0.61,56.46,0
2020-03-14T07:57:00-05:00,87.71,13.08,739.82,152.85,1,72.23,0
2020-03-14T07:58:00-05:00,86.6,13.04,738.48,153.44,0.63,35.44,0
2020-03-14T07:59:00-05:00,87.11,13.05,739.92,156.23,0.82,36.15,0
2020-03-14T08:00:00-05:00,87.83,13.05,738.74,158.73,0.58,62.66,0
2020-03-14T08:01:00-05:00,87.81,13.08,738.88,157.11,0.31,117.11,0
2020-03-14T08:02:00-05:00,87.14,13.08,739.08,155.06,0.07,265.78,0
2020-03-14T08:03:00-05:00,87.16,13.1,738.88,153.59,0.6,37.8,0
2020-03-14T08:04:00-05:00,87.34,13.11,738.88,162.85,0.86,47.78,0
2020-03-14T08:05:00-05:00,87.9,13.12,739.88,190.19,0.94,52.36,0
2020-03-14T08:06:00-05:00,87.64,13.12,738.64,182.26,0.87,51.44,0
2020-03-14T08:07:00-05:00,88.18,13.12,739.45,148.29,0.72,38.08,0
2020-03-14T08:08:00-05:00,88.05,13.11,739.08,146.23,0.9,44.47,0
2020-03-14T08:09:00-05:00,87.97,13.11,739.05,142.56,0.53,49.43,0
2020-03-14T08:10:00-05:00,88.14,13.11,740.08,141.24,0.62,72.16,0
2020-03-14T08:11:00-05:00,88.47,13.12,739.18,141.82,0.19,72.01,0
2020-03-14T08:12:00-05:00,87.98,13.14,739.88,148.88,0.6,47.95,0
2020-03-14T08:13:00-05:00,88.33,13.12,738.51,165.49,0.59,58.03,0
2020-03-14T08:14:00-05:00,87.99,13.15,740.45,162.41,0.55,39.88,0
2020-03-14T08:15:00-05:00,88.45,13.16,739.05,155.79,0.22,48.35,0
2020-03-14T08:16:00-05:00,88.72,13.2,738.91,140.35,0.59,29.26,0
2020-03-14T08:17:00-05:00,89.35,13.22,740.35,134.33,0.63,50.85,0
2020-03-14T08:18:00-05:00,88.88,13.25,739.45,130.94,0.35,95.26,0
2020-03-14T08:19:00-05:00,88.84,13.26,740.05,138.44,0.37,36.96,0
2020-03-14T08:20:00-05:00,89.16,13.31,741.12,153.88,0.37,21.88,0
2020-03-14T08:21:00-05:00,89.01,13.32,740.75,155.79,0.21,144.48,0
2020-03-14T08:22:00-05:00,88.76,13.34,739.88,153.44,0.68,37.3,0
2020-03-14T08:23:00-05:00,89.25,13.39,740.15,151.38,0.13,162.2,0
2020-03-14T08:24:00-05:00,90.02,13.43,741.05,143.29,0.2,132.4,0
2020-03-14T08:25:00-05:00,90.55,13.47,740.18,134.77,0.37,68.6,0
2020-03-14T08:26:00-05:00,89.13,13.48,740.15,134.47,0.58,69.48,0
2020-03-14T08:27:00-05:00,88.25,13.46,740.35,135.06,0.17,99.21,0
2020-03-14T08:28:00-05:00,88.17,13.5,740.52,134.47,0.15,89.67,0
2020-03-14T08:29:00-05:00,87.83,13.52,741.79,129.18,0.12,65.98,0
2020-03-14T08:30:00-05:00,88.59,13.57,741.32,124.18,0.06,80.86,0
2020-03-14T08:31:00-05:00,89.02,13.64,741.89,120.51,0.28,325.95,0
2020-03-14T08:32:00-05:00,88.39,13.65,742.69,116.83,0.26,14.35,0
2020-03-14T08:33:00-05:00,88.52,13.67,742.29,115.65,0.25,179.48,0
2020-03-14T08:34:00-05:00,88.98,13.72,742.66,113.45,0.32,146.27,0
2020-03-14T08:35:00-05:00,86.96,13.7,741.72,109.33,0.24,130.33,0
2020-03-14T08:36:00-05:00,85,13.66,742.59,109.48,0.46,89.11,0
2020-03-14T08:37:00-05:00,83.87,13.64,741.72,108.6,0.19,139.27,0
2020-03-14T08:38:00-05:00,83.66,13.65,741.79,110.8,0.56,110.72,0
2020-03-14T08:39:00-05:00,81.77,13.66,743.03,110.36,0.27,107.69,0
2020-03-14T08:40:00-05:00,83.44,13.68,742.86,113.74,0.09,12.36,0
2020-03-14T08:41:00-05:00,83.74,13.68,742.13,118.45,0.38,99.84,0
2020-03-14T08:42:00-05:00,84.77,13.73,742.63,128.74,0.11,159.15,0
2020-03-14T08:43:00-05:00,85.77,13.76,742.56,135.94,0.17,341.59,0
2020-03-14T08:44:00-05:00,84.61,13.74,740.45,148.59,0.12,26.93,0
2020-03-14T08:45:00-05:00,85.12,13.79,739.85,161.82,0.26,109.21,0
2020-03-14T08:46:00-05:00,86.98,13.85,739.25,174.76,0.29,164.51,0
2020-03-14T08:47:00-05:00,86.98,13.88,740.28,184.46,0.24,184.03,0
2020-03-14T08:48:00-05:00,86.96,13.89,739.05,191.66,0.27,205.35,0
2020-03-14T08:49:00-05:00,86.52,13.93,740.59,194.16,0.63,186.97,0
2020-03-14T08:50:00-05:00,84.24,13.86,740.38,187.99,0.22,204.26,0
2020-03-14T08:51:00-05:00,85.34,13.89,739.51,178.14,0.21,200.94,0
2020-03-14T08:52:00-05:00,86.63,13.93,740.02,172.26,0.26,108.14,0
2020-03-14T08:53:00-05:00,83.94,13.94,740.45,167.85,0.38,136.18,0
2020-03-14T08:54:00-05:00,81.17,13.93,739.92,168.58,0.25,159.17,0
2020-03-14T08:55:00-05:00,82.11,13.97,740.89,176.67,0.35,182.34,0
2020-03-14T08:56:00-05:00,81.66,13.98,740.15,191.81,0.29,219.17,0
2020-03-14T08:57:00-05:00,82.26,14.02,739.92,210.63,0.56,157.16,0
2020-03-14T08:58:00-05:00,79.73,14.04,740.99,230.48,0.06,146.28,0
2020-03-14T08:59:00-05:00,79.23,14.09,740.22,237.68,0.18,87.93,0
2020-03-14T09:00:00-05:00,80.33,14.18,739.85,236.07,0.52,303.61,0
2020-03-14T09:01:00-05:00,79.26,14.25,741.59,220.04,0.07,296.62,0
2020-03-14T09:02:00-05:00,79.65,14.34,740.89,199.02,0.24,353.53,0
2020-03-14T09:03:00-05:00,78.86,14.38,740.38,175.93,0.34,44.01,0
2020-03-14T09:04:00-05:00,77.88,14.41,739.28,155.94,0.27,66.64,0
2020-03-14T09:05:00-05:00,78.22,14.45,738.91,138.88,0.3,344.87,0
2020-03-14T09:06:00-05:00,80.16,14.49,739.68,125.36,0.29,297.59,0
2020-03-14T09:07:00-05:00,79.47,14.53,738.34,117.86,0.4,291.08,0
2020-03-14T09:08:00-05:00,78.31,14.53,739.85,112.57,0.07,288.61,0
2020-03-14T09:09:00-05:00,79.63,14.57,738.34,113.74,0.29,244.15,0
2020-03-14T09:10:00-05:00,80.39,14.61,738.48,115.8,0.34,184.03,0
2020-03-14T09:11:00-05:00,82.09,14.63,738.28,120.8,0.48,192.36,0
2020-03-14T09:12:00-05:00,79.63,14.59,737.61,122.86,0.36,216.89,0
2020-03-14T09:13:00-05:00,79.67,14.52,738.08,124.77,0.26,205.03,0.1
2020-03-14T09:14:00-05:00,79.85,14.48,738.58,119.92,0.13,165.15,0
2020-03-14T09:15:00-05:00,78.32,14.45,738.44,118.3,0.52,39.81,0
2020-03-14T09:16:00-05:00,78.48,14.47,738.41,115.07,0.29,307.68,0
2020-03-14T09:17:00-05:00,77,14.46,737.47,111.54,0.25,14.46,0
2020-03-14T09:18:00-05:00,76.74,14.45,738.54,111.54,0.32,49.31,0
2020-03-14T09:19:00-05:00,76.74,14.46,737.41,112.86,0.25,50.62,0
2020-03-14T09:20:00-05:00,78.98,14.47,738.38,112.42,0.52,61.71,0
2020-03-14T09:21:00-05:00,80.06,14.48,738.08,115.36,0.48,41.66,0
2020-03-14T09:22:00-05:00,80.62,14.47,737.27,119.33,0.21,153.51,0
2020-03-14T09:23:00-05:00,80.5,14.49,736.5,123.89,0.07,314.55,0
2020-03-14T09:24:00-05:00,79.65,14.49,736.64,132.41,0.27,296.01,0
2020-03-14T09:25:00-05:00,80.09,14.52,738.54,138.44,0.26,211.94,0
2020-03-14T09:26:00-05:00,80.64,14.54,737.61,143.74,0.31,202.3,0
2020-03-14T09:27:00-05:00,80.74,14.53,737.77,155.06,0.37,252.74,0
2020-03-14T09:28:00-05:00,78.94,14.52,736.9,163.14,0.56,258.16,0
2020-03-14T09:29:00-05:00,79.19,14.5,738.08,174.61,0.12,341.59,0
2020-03-14T09:30:00-05:00,80.31,14.53,738.48,181.52,0.29,123.52,0
2020-03-14T09:31:00-05:00,77.53,14.47,738.51,187.55,0.59,194.94,0
2020-03-14T09:32:00-05:00,81.48,14.5,737.84,189.17,0.24,175.1,0
2020-03-14T09:33:00-05:00,81.26,14.49,737.54,187.69,0.51,182.05,0
2020-03-14T09:34:00-05:00,81.59,14.52,738.81,184.02,0.24,185.99,0
2020-03-14T09:35:00-05:00,83.86,14.56,738.21,184.17,0.2,266.77,0
2020-03-14T09:36:00-05:00,83.54,14.59,738.58,184.17,0.22,298.72,0
2020-03-14T09:37:00-05:00,83.54,14.65,739.65,187.25,0.2,220.14,0
2020-03-14T09:38:00-05:00,83.88,14.67,739.82,187.4,0.32,230.09,0
2020-03-14T09:39:00-05:00,83.25,14.68,740.38,190.64,0.58,208.95,0
2020-03-14T09:40:00-05:00,82.63,14.69,740.42,188.87,0.36,225.88,0
2020-03-14T09:41:00-05:00,82.4,14.73,740.38,193.58,0.58,210.29,0
2020-03-14T09:42:00-05:00,81.61,14.73,740.79,194.9,0.06,184.03,0
2020-03-14T09:43:00-05:00,80.83,14.74,740.72,199.75,0.68,232.22,0
2020-03-14T09:44:00-05:00,80.27,14.71,739.55,201.81,0.45,185.02,0
2020-03-14T09:45:00-05:00,81.77,14.71,741.32,212.1,0.17,295.98,0
2020-03-14T09:46:00-05:00,81.6,14.74,740.45,235.62,0.59,293.66,0
2020-03-14T09:47:00-05:00,80.54,14.76,740.32,264.44,0.26,185.37,0
2020-03-14T09:48:00-05:00,82.36,14.81,741.86,294.43,0.42,197.01,0
2020-03-14T09:49:00-05:00,78.36,14.78,742.03,319.87,0.45,187.24,0
2020-03-14T09:50:00-05:00,80.79,14.81,742.49,337.37,0.42,233.85,0
2020-03-14T09:51:00-05:00,79.69,14.81,741.99,341.33,0.61,248.8,0
2020-03-14T09:52:00-05:00,78.74,14.79,739.48,336.63,0.63,229.8,0
2020-03-14T09:53:00-05:00,78.17,14.81,739.85,322.96,0.38,287.6,0
2020-03-14T09:54:00-05:00,77.99,14.84,738.91,309.14,0.19,300.68,0
2020-03-14T09:55:00-05:00,78.68,14.87,740.18,297.67,0.42,203.9,0
2020-03-14T09:56:00-05:00,77.86,14.93,738.28,285.61,1.02,246.71,0
2020-03-14T09:57:00-05:00,75.58,14.93,738.54,279.44,0.54,314.53,0
2020-03-14T09:58:00-05:00,76.12,14.93,738.51,281.64,0.22,236.8,0
2020-03-14T09:59:00-05:00,76.73,14.97,738.48,286.79,0.51,233.86,0
2020-03-14T10:00:00-05:00,77.63,15.03,739.72,302.52,0.66,259.1,0
2020-03-14T10:01:00-05:00,74.04,15.02,739.55,315.9,0.76,259.76,0
2020-03-14T10:02:00-05:00,76.26,15.1,739.31,329.87,0.21,85.34,0
2020-03-14T10:03:00-05:00,76.28,15.17,738.91,345.3,0.55,1.76,0
2020-03-14T10:04:00-05:00,75.26,15.26,740.08,356.33,0.43,1.57,0
2020-03-14T10:05:00-05:00,77.7,15.37,739.45,368.53,0.22,119.69,0
2020-03-14T10:06:00-05:00,77.02,15.49,739.55,385,0.31,291.04,0
2020-03-14T10:07:00-05:00,73.93,15.55,739.48,406.76,1.17,19.05,0
2020-03-14T10:08:00-05:00,71.54,15.55,738.61,426.9,0.64,345.49,0
2020-03-14T10:09:00-05:00,70.16,15.55,738.74,437.64,0.52,354.46,0
2020-03-14T10:10:00-05:00,70.72,15.63,738.51,431.61,0.26,251.79,0
2020-03-14T10:11:00-05:00,70.48,15.71,739.95,420.58,0.25,136.29,0
2020-03-14T10:12:00-05:00,69.49,15.76,738.51,428.37,0.62,326.94,0
2020-03-14T10:13:00-05:00,71.98,15.83,738.18,434.11,0.47,1.2,0
2020-03-14T10:14:00-05:00,73.23,15.92,739.21,435.28,0.26,76.09,0
2020-03-14T10:15:00-05:00,72.04,16,738.08,426.46,0.66,254.68,0
2020-03-14T10:16:00-05:00,70.59,16.06,738.18,429.7,0.57,6.73,0
2020-03-14T10:17:00-05:00,73.57,16.13,739.28,457.92,0.55,162.49,0
2020-03-14T10:18:00-05:00,75.29,16.24,739.38,911.34,0.54,164.16,0
2020-03-14T10:19:00-05:00,74.14,16.32,740.02,520.26,0.61,250.14,0
2020-03-14T10:20:00-05:00,73.12,16.37,740.82,558.05,0.7,223.89,0
2020-03-14T10:21:00-05:00,72.14,16.38,739.95,676.25,0.79,218.27,0
2020-03-14T10:22:00-05:00,70.36,16.36,739.75,716.69,0.62,178.04,0
2020-03-14T10:23:00-05:00,77.03,16.48,742.03,1336.39,0.68,210.32,0
2020-03-14T10:24:00-05:00,75.56,16.66,738.14,981.92,0.82,206.98,0
2020-03-14T10:25:00-05:00,72.24,16.8,738.48,522.61,0.59,221.12,0
2020-03-14T10:26:00-05:00,71.38,16.91,739.25,514.68,0.55,286.66,0
2020-03-14T10:27:00-05:00,69.88,17.03,738.31,613.03,1.16,318.61,0
2020-03-14T10:28:00-05:00,72.71,17.13,738.21,524.97,0.58,172.13,0
2020-03-14T10:29:00-05:00,71.36,17.24,738.04,858.42,0.96,304.6,0
2020-03-14T10:30:00-05:00,73.68,17.37,739.11,433.37,0.21,48.77,0
2020-03-14T10:31:00-05:00,68.97,17.37,738.18,399.41,0.73,228.82,0
2020-03-14T10:32:00-05:00,69.41,17.37,738.61,374.42,0.6,280.61,0
2020-03-14T10:33:00-05:00,68.95,17.37,739.15,360.89,0.25,256.78,0
2020-03-14T10:34:00-05:00,67.97,17.41,737.67,358.1,0.48,183.06,0
2020-03-14T10:35:00-05:00,67,17.4,737.67,451.46,0.82,236.78,0
2020-03-14T10:36:00-05:00,68.41,17.38,738.48,522.76,0.68,189.41,0
2020-03-14T10:37:00-05:00,66.09,17.32,738.01,411.61,0.65,217.91,0
2020-03-14T10:38:00-05:00,66.37,17.24,738.18,400.29,1.46,227.23,0
2020-03-14T10:39:00-05:00,63.51,17.06,737.77,391.91,0.86,149.19,0
2020-03-14T10:40:00-05:00,66,16.99,738.51,398.38,0.67,202.29,0
2020-03-14T10:41:00-05:00,67.7,16.99,737.71,661.99,0.24,245.76,0
2020-03-14T10:42:00-05:00,68.1,17.04,738.24,693.16,0.58,265.13,0
2020-03-14T10:43:00-05:00,67.46,17.13,738.85,1087.77,0.91,250.78,0
2020-03-14T10:44:00-05:00,63.49,17.12,737.94,472.19,0.62,259.75,0
2020-03-14T10:45:00-05:00,65.24,17.16,738.81,540.7,0.62,286.92,0
2020-03-14T10:46:00-05:00,64.71,17.19,738.51,968.54,0.6,250.76,0
2020-03-14T10:47:00-05:00,69.85,17.35,738.85,1203.77,0.64,204.97,0
2020-03-14T10:48:00-05:00,66.46,17.55,737.54,649.5,0.82,266.75,0
2020-03-14T10:49:00-05:00,62.73,17.56,738.24,406.17,0.79,193.96,0
2020-03-14T10:50:00-05:00,60.77,17.51,737.24,361.33,0.23,83.29,0
2020-03-14T10:51:00-05:00,60.04,17.49,736.87,345.6,0.55,205,0
2020-03-14T10:52:00-05:00,60.43,17.5,736.2,333.4,0.22,320.56,0
2020-03-14T10:53:00-05:00,60.13,17.51,737.81,323.84,0.49,317.94,0
2020-03-14T10:54:00-05:00,62.54,17.54,736.8,313.55,0.64,71.93,0
2020-03-14T10:55:00-05:00,61.7,17.52,736.67,307.81,0.61,45.56,0
2020-03-14T10:56:00-05:00,63.85,17.54,736.57,306.64,0.37,182.05,0
2020-03-14T10:57:00-05:00,65.53,17.6,737.54,311.49,0.6,50.34,0
2020-03-14T10:58:00-05:00,66.2,17.69,737.34,314.58,0.1,53.27,0
2020-03-14T10:59:00-05:00,65.2,17.71,736.6,326.04,0.6,74.44,0
2020-03-14T11:00:00-05:00,62.14,17.65,736.54,337.95,0.92,16.87,0
2020-03-14T11:01:00-05:00,62.99,17.55,736.47,367.21,1.1,55.27,0
2020-03-14T11:02:00-05:00,63.21,17.49,736.4,432.64,0.61,357.44,0
2020-03-14T11:03:00-05:00,64.76,17.48,736.47,660.23,0.63,3.72,0
2020-03-14T11:04:00-05:00,65.61,17.55,737.74,585.25,1.15,24.71,0
2020-03-14T11:05:00-05:00,65.67,17.64,737.84,511,0.99,2.7,0
2020-03-14T11:06:00-05:00,62.63,17.67,737.1,893.85,0.19,329.53,0
2020-03-14T11:07:00-05:00,64.47,17.79,737.24,714.92,0.97,39.05,0
2020-03-14T11:08:00-05:00,63.23,17.82,738.58,1208.77,0.63,276.68,0
2020-03-14T11:09:00-05:00,65.37,17.99,739.48,1187.9,0.54,15.07,0
2020-03-14T11:10:00-05:00,70.01,18.21,740.45,695.07,0.67,265.77,0
2020-03-14T11:11:00-05:00,66.15,18.35,738.31,1070.13,0.63,287.61,0
2020-03-14T11:12:00-05:00,62.7,18.42,738.31,678.02,0.66,337.83,0
2020-03-14T11:13:00-05:00,65.01,18.52,738.44,432.05,0.56,281.73,0
2020-03-14T11:14:00-05:00,66.67,18.64,738.61,369.71,0.42,270.06,0
2020-03-14T11:15:00-05:00,64.92,18.73,737.67,370.45,0.65,297.58,0
2020-03-14T11:16:00-05:00,66.79,18.75,737.1,351.33,0.3,247.1,0
2020-03-14T11:17:00-05:00,61.97,18.72,737.37,383.24,0.24,57.49,0
2020-03-14T11:18:00-05:00,63.87,18.74,737.64,371.62,0.29,238.07,0
2020-03-14T11:19:00-05:00,62.43,18.78,737.77,777.41,0.28,175.36,0
2020-03-14T11:20:00-05:00,62.93,18.83,738.41,763.29,0.42,99.49,0
2020-03-14T11:21:00-05:00,62.73,18.86,737.64,547.76,0.21,13.26,0
2020-03-14T11:22:00-05:00,60.33,18.9,737.07,440.58,0.57,87.6,0
2020-03-14T11:23:00-05:00,60.49,18.91,737.27,449.1,0.1,219.86,0
2020-03-14T11:24:00-05:00,63.73,18.96,738.24,637,0.55,224.9,0
2020-03-14T11:25:00-05:00,61.6,18.95,738.41,822.98,0.2,234.83,0
2020-03-14T11:26:00-05:00,62.39,18.94,736.94,503.5,0.82,191.01,0
2020-03-14T11:27:00-05:00,62.73,18.88,737.07,407.79,0.68,209.93,0
2020-03-14T11:28:00-05:00,62.28,18.74,737.31,357.8,0.79,235.79,0
2020-03-14T11:29:00-05:00,64.47,18.68,737,321.78,0.59,189.38,0
2020-03-14T11:30:00-05:00,62.84,18.57,737.07,305.31,0.43,240.82,0
2020-03-14T11:31:00-05:00,61.09,18.42,737.44,288.55,0.76,142.54,0
2020-03-14T11:32:00-05:00,59.28,18.29,737.47,276.35,0.15,157.19,0
2020-03-14T11:33:00-05:00,58.37,18.27,737.97,269.59,0.6,71.54,0
2020-03-14T11:34:00-05:00,58.43,18.16,738.11,270.91,0.49,37.3,0
2020-03-14T11:35:00-05:00,58.98,18.06,737.54,275.91,0.67,357.84,0
2020-03-14T11:36:00-05:00,59.98,18.01,737.94,278.26,0.78,37.85,0
2020-03-14T11:37:00-05:00,62.43,18.01,737.74,276.64,0.37,97.4,0
2020-03-14T11:38:00-05:00,64.91,18.03,737.94,276.94,0.73,208.95,0
2020-03-14T11:39:00-05:00,63.83,17.97,738.08,283.41,0.24,202.95,0
2020-03-14T11:40:00-05:00,67.3,17.99,738.08,287.67,0.59,242.83,0
2020-03-14T11:41:00-05:00,63.35,17.95,737.17,296.05,0.68,237.79,0
2020-03-14T11:42:00-05:00,61.74,17.89,737.1,302.08,0.5,270.68,0
2020-03-14T11:43:00-05:00,62.06,17.85,737.2,319.28,0.26,251.77,0
2020-03-14T11:44:00-05:00,65.01,17.9,738.04,330.31,0.22,218.89,0
2020-03-14T11:45:00-05:00,64.26,17.97,739.85,346.19,0.92,63.03,0
2020-03-14T11:46:00-05:00,61.68,17.99,739.41,355.6,0.77,35.38,0
2020-03-14T11:47:00-05:00,61.31,17.99,740.35,371.92,0.4,116.19,0
2020-03-14T11:48:00-05:00,62.36,18.05,740.72,349.42,0.54,236.13,0
2020-03-14T11:49:00-05:00,65.18,18.13,740.38,331.78,0.29,270.69,0
2020-03-14T11:50:00-05:00,65.39,18.16,737.91,312.96,0.61,313.92,0
2020-03-14T11:51:00-05:00,66.96,18.21,737,295.61,0.39,289.62,0
2020-03-14T11:52:00-05:00,66.82,18.25,737.04,283.11,0.14,335.95,0
2020-03-14T11:53:00-05:00,64.54,18.29,737.57,267.53,0.2,233.12,0
2020-03-14T11:54:00-05:00,65.58,18.34,737.24,249.15,0.63,329.82,0
2020-03-14T11:55:00-05:00,64.62,18.37,737.37,240.62,0.12,61.06,0
2020-03-14T11:56:00-05:00,63.72,18.39,737.1,236.07,0.46,334.59,0
2020-03-14T11:57:00-05:00,62.1,18.35,737.37,235.04,0.68,3.7,0
2020-03-14T11:58:00-05:00,61.46,18.26,737.34,236.8,0.59,14.94,0
2020-03-14T11:59:00-05:00,61.49,18.19,737.24,239.3,0.12,179.11,0
2020-03-14T12:00:00-05:00,63.18,18.21,736.17,247.09,0.49,24.93,0
2020-03-14T12:01:00-05:00,60.55,18.12,737.47,250.18,0.59,347.45,0
2020-03-14T12:02:00-05:00,62.2,18.06,737.04,251.8,0.17,83.83,0
2020-03-14T12:03:00-05:00,63.71,18.05,736.74,254.59,0.57,346.48,0
2020-03-14T12:04:00-05:00,63.73,18.08,736.43,260.91,0.55,160.12,0
2020-03-14T12:05:00-05:00,63.89,18.11,736.47,267.68,0.56,52.69,0
2020-03-14T12:06:00-05:00,62.14,18.11,735.73,277.23,0.75,53.88,0
2020-03-14T12:07:00-05:00,62.72,18.07,736.77,281.79,0.8,64.94,0
2020-03-14T12:08:00-05:00,62.65,17.96,735.67,282.08,1.15,47.77,0
2020-03-14T12:09:00-05:00,62.52,17.81,734.56,281.79,0.6,60.35,0
2020-03-14T12:10:00-05:00,64.06,17.75,735.06,283.55,0.42,354.46,0
2020-03-14T12:11:00-05:00,63.47,17.73,734.69,291.94,0.25,320.92,0
2020-03-14T12:12:00-05:00,63.99,17.75,735.23,300.02,0.47,77.63,0
2020-03-14T12:13:00-05:00,64.14,17.77,735.03,303.4,0.76,38.02,0
2020-03-14T12:14:00-05:00,63.59,17.77,735.33,307.08,0.86,40.74,0
2020-03-14T12:15:00-05:00,63.79,17.76,734.93,311.49,0.58,342.58,0
2020-03-14T12:16:00-05:00,63.39,17.76,734.76,311.64,0.62,9.45,0
2020-03-14T12:17:00-05:00,64.2,17.81,736,307.67,0.8,31.57,0
2020-03-14T12:18:00-05:00,64.6,17.82,735.36,304.14,0.48,142.2,0
2020-03-14T12:19:00-05:00,67.78,17.87,733.99,307.37,0.5,168.09,0
2020-03-14T12:20:00-05:00,64.88,17.87,733.09,321.49,0.45,188.07,0
2020-03-14T12:21:00-05:00,64.93,17.93,733.89,364.27,0.07,335.53,0
2020-03-14T12:22:00-05:00,66.04,18.04,734.23,341.19,0.86,52.05,0
2020-03-14T12:23:00-05:00,63.53,18.13,734.53,326.49,0.72,354.44,0
2020-03-14T12:24:00-05:00,64.52,18.21,734.96,340.16,0.65,291.04,0
2020-03-14T12:25:00-05:00,64.72,18.31,735.06,358.68,0.66,287.61,0
2020-03-14T12:26:00-05:00,63.13,18.37,735.33,386.03,0.66,163.51,0
2020-03-14T12:27:00-05:00,61.24,18.43,735.03,406.17,0.1,272.93,0
2020-03-14T12:28:00-05:00,61.76,18.5,735.16,423.67,0.25,101.5,0
2020-03-14T12:29:00-05:00,61.38,18.57,735.6,448.37,0.22,344.5,0
2020-03-14T12:30:00-05:00,60.27,18.68,736.5,473.07,0.72,297.9,0
2020-03-14T12:31:00-05:00,59.38,18.75,736.6,504.68,0.59,265.77,0
2020-03-14T12:32:00-05:00,59.95,18.82,737.34,525.85,0.54,312.55,0
2020-03-14T12:33:00-05:00,60.94,18.9,737.57,585.1,0.26,259.75,0
2020-03-14T12:34:00-05:00,61.68,19,737.94,601.42,0.55,307.68,0
2020-03-14T12:35:00-05:00,59.51,19.07,739.18,554.81,0.5,290.71,0
2020-03-14T12:36:00-05:00,60.97,19.16,740.42,536.14,0.26,174.08,0
2020-03-14T12:37:00-05:00,62.9,19.22,736.03,504.68,0.43,300.64,0
2020-03-14T12:38:00-05:00,61.66,19.32,737.04,509.38,0.22,203.92,0
2020-03-14T12:39:00-05:00,63.63,19.38,736.13,571.43,0.54,241.82,0
2020-03-14T12:40:00-05:00,60.93,19.41,736.77,596.86,1.15,246.74,0
2020-03-14T12:41:00-05:00,56.73,19.28,737.14,546.29,0.59,222.28,0
2020-03-14T12:42:00-05:00,57.21,19.19,736.47,521.88,0.19,65.46,0
2020-03-14T12:43:00-05:00,58.57,19.2,736.5,579.22,1.23,236.17,0
2020-03-14T12:44:00-05:00,59.53,19.21,737.51,504.82,0.7,238.86,0
2020-03-14T12:45:00-05:00,60.33,19.19,737.41,508.94,1.54,225.22,0
2020-03-14T12:46:00-05:00,57.67,19.15,736.33,579.81,0.28,296.59,0
2020-03-14T12:47:00-05:00,61.93,19.18,736.6,503.35,1.34,232.26,0
2020-03-14T12:48:00-05:00,63.46,19.18,736.94,475.42,0.72,200.94,0
2020-03-14T12:49:00-05:00,60.22,19.2,736.7,442.49,0.68,249.8,0
2020-03-14T12:50:00-05:00,61.8,19.22,736.97,405.44,0.41,237.77,0
2020-03-14T12:51:00-05:00,58.78,19.18,736.23,375.3,0.07,339.49,0
2020-03-14T12:52:00-05:00,58.59,19.2,736.7,344.42,0.56,147.2,0
2020-03-14T12:53:00-05:00,58.57,19.22,737.47,325.31,0.72,229.8,0
2020-03-14T12:54:00-05:00,59.55,19.21,736.9,316.49,0.58,249.8,0
2020-03-14T12:55:00-05:00,61.05,19.24,736.27,320.6,0.41,260.73,0
2020-03-14T12:56:00-05:00,63.67,19.26,735.97,333.1,0.52,206.01,0
2020-03-14T12:57:00-05:00,62.85,19.3,736.27,350.6,0.66,233.86,0
2020-03-14T12:58:00-05:00,62.85,19.26,736.4,370.74,0.41,246.12,0
2020-03-14T12:59:00-05:00,65.97,19.26,736.1,387.5,0.22,30.49,0
2020-03-14T13:00:00-05:00,68.11,19.3,737.04,389.41,0.59,196.27,0
2020-03-14T13:01:00-05:00,65.29,19.3,737.07,401.47,0.59,218.2,0
2020-03-14T13:02:00-05:00,64.9,19.29,736.87,490.42,0.61,162.55,0
2020-03-14T13:03:00-05:00,62.52,19.27,738.68,707.72,0.57,249.77,0
2020-03-14T13:04:00-05:00,61.64,19.3,739.41,786.67,0.6,250.16,0
2020-03-14T13:05:00-05:00,62.43,19.38,736.43,568.19,0.34,258.74,0
2020-03-14T13:06:00-05:00,63.26,19.44,736.17,527.61,0.66,285.95,0
2020-03-14T13:07:00-05:00,62.54,19.5,736.1,569.52,0.68,228.82,0
2020-03-14T13:08:00-05:00,64.8,19.49,736.07,745.5,0.46,217.9,0
2020-03-14T13:09:00-05:00,66.88,19.5,736.37,992.65,1.03,229.78,0
2020-03-14T13:10:00-05:00,65.57,19.51,736.74,753.29,0.76,267.74,0
2020-03-14T13:11:00-05:00,64.72,19.5,736.07,514.68,2.39,229.79,0
2020-03-14T13:12:00-05:00,64.52,19.35,736.4,495.56,0.6,258.8,0
2020-03-14T13:13:00-05:00,65.28,19.3,735.83,468.22,0.69,247.81,0
2020-03-14T13:14:00-05:00,65.91,19.24,736.1,736.09,0.36,166.14,0
2020-03-14T13:15:00-05:00,66.33,19.28,737.2,518.5,0.57,262.95,0
2020-03-14T13:16:00-05:00,67.04,19.38,737.51,527.61,0.29,317.55,0
2020-03-14T13:17:00-05:00,65.51,19.46,738.34,495.12,0.62,281,0
2020-03-14T13:18:00-05:00,65.49,19.55,738.61,482.77,0.67,283.65,0
2020-03-14T13:19:00-05:00,63.48,19.58,738.85,469.98,0.6,32.39,0
2020-03-14T13:20:00-05:00,64.47,19.58,737.67,455.13,0.58,188.04,0
2020-03-14T13:21:00-05:00,63.81,19.56,738.31,398.38,0.63,234.22,0
2020-03-14T13:22:00-05:00,66.47,19.56,737.51,372.65,0.77,228.79,0
2020-03-14T13:23:00-05:00,63.83,19.49,736.67,360.59,0.98,300.92,0
2020-03-14T13:24:00-05:00,64.77,19.4,734.86,364.27,0.58,219.85,0
2020-03-14T13:25:00-05:00,64.18,19.26,735.1,379.41,0.81,239.86,0
2020-03-14T13:26:00-05:00,65.29,19.18,734.06,355.6,1.09,157.17,0
2020-03-14T13:27:00-05:00,66.19,19.06,732.59,308.84,1.34,66.17,0
2020-03-14T13:28:00-05:00,63.68,18.92,731.68,265.62,0.21,66.75,0
2020-03-14T13:29:00-05:00,63.62,18.78,730.64,237.1,0.77,88.74,0
2020-03-14T13:30:00-05:00,65.47,18.74,731.11,210.78,0.51,329.48,0
2020-03-14T13:31:00-05:00,66.18,18.74,730.98,201.22,0.3,241.82,0
2020-03-14T13:32:00-05:00,65.07,18.75,736.33,199.02,0.24,201.95,0
2020-03-14T13:33:00-05:00,69.15,18.75,735.77,193.72,0.57,183.03,0
2020-03-14T13:34:00-05:00,65.75,18.7,735.93,179.02,0.33,213.21,0
2020-03-14T13:35:00-05:00,67.48,18.62,735.6,173.73,0.56,195.93,0
2020-03-14T13:36:00-05:00,66.99,18.52,734.63,171.67,0.66,181.42,0
2020-03-14T13:37:00-05:00,67.42,18.41,733.72,169.61,0.83,227.83,0
2020-03-14T13:38:00-05:00,69.29,18.35,733.29,168.73,0.23,224.25,0
2020-03-14T13:39:00-05:00,66.43,18.34,733.15,170.35,0.06,48.83,0
2020-03-14T13:40:00-05:00,67.96,18.33,732.35,177.7,0.57,224.23,0
2020-03-14T13:41:00-05:00,66.55,18.33,732.22,189.46,0.18,239.82,0
2020-03-14T13:42:00-05:00,66.47,18.28,731.31,204.9,0.76,207.97,0
2020-03-14T13:43:00-05:00,66.19,18.2,731.28,232.68,0.39,316.59,0
2020-03-14T13:44:00-05:00,67.18,18.21,731.25,221.07,1.23,294.66,0
2020-03-14T13:45:00-05:00,69.07,18.17,731.31,175.93,1.06,225.87,0
2020-03-14T13:46:00-05:00,68.94,18.1,729.97,133.15,0.7,215.93,0
2020-03-14T13:47:00-05:00,71.83,18,735.13,78.02,1.11,90.66,0
2020-03-14T13:48:00-05:00,72.17,17.81,735.77,50.38,0.96,231.86,0
2020-03-14T13:49:00-05:00,72.26,17.57,734.93,38.91,1.33,225.86,0
2020-03-14T13:50:00-05:00,74.36,17.37,733.89,29.79,0.85,220.85,0
2020-03-14T13:51:00-05:00,74.75,17.21,732.62,26.26,0.69,198.4,0
2020-03-14T13:52:00-05:00,75.98,17.06,732.65,22.59,0.79,186.96,0
2020-03-14T13:53:00-05:00,77.43,16.92,730.38,20.38,0.83,204.25,0
2020-03-14T13:54:00-05:00,77.13,16.77,731.25,18.03,0.61,181.07,0
2020-03-14T13:55:00-05:00,77.78,16.66,730.78,20.97,0.63,264.08,0
2020-03-14T13:56:00-05:00,77.49,16.57,736.1,22.29,0.53,222.95,0
2020-03-14T13:57:00-05:00,77.92,16.51,736.27,23.32,0.64,219.22,0
2020-03-14T13:58:00-05:00,78.83,16.45,736.74,27.15,0.59,115.45,0
2020-03-14T13:59:00-05:00,78.57,16.41,735.63,30.53,0.58,230.12,0
2020-03-14T14:00:00-05:00,79.33,16.35,735.43,37,0.32,258.79,0
2020-03-14T14:01:00-05:00,78.72,16.3,734.46,38.61,0.65,208.95,0
2020-03-14T14:02:00-05:00,79.69,16.2,734.59,40.08,0.61,259.76,0
2020-03-14T14:03:00-05:00,78.98,16.16,734.56,42.14,0.74,213.98,0
2020-03-14T14:04:00-05:00,79.15,16.11,733.36,43.61,0.58,57.99,0
2020-03-14T14:05:00-05:00,79.28,16.07,733.46,48.17,0.26,231.86,0
2020-03-14T14:06:00-05:00,79.35,16.05,733.29,50.23,0.24,174.08,0
2020-03-14T14:07:00-05:00,79.74,16.03,734.02,50.52,0.33,26.16,0
2020-03-14T14:08:00-05:00,80.34,16.02,733.99,53.61,0.54,310.61,0
2020-03-14T14:09:00-05:00,80.41,16.04,733.79,48.02,0.21,231.86,0
2020-03-14T14:10:00-05:00,79.13,16.02,733.92,40.23,0.25,115.98,0
2020-03-14T14:11:00-05:00,79.77,16.01,732.18,29.79,0.2,235.77,0
2020-03-14T14:12:00-05:00,80.89,16.02,732.42,25.68,0.28,335.9,0
2020-03-14T14:13:00-05:00,79.48,15.97,732.12,23.32,1.1,50.37,0
2020-03-14T14:14:00-05:00,81.67,15.96,730.58,22.73,0.28,297.93,0
2020-03-14T14:15:00-05:00,82.89,15.95,730.68,24.65,0.3,324.6,0.1
2020-03-14T14:16:00-05:00,82.88,15.9,736.4,25.82,0.95,59.51,0
2020-03-14T14:17:00-05:00,83.97,15.86,735.93,32.88,0.49,130.59,0.1
2020-03-14T14:18:00-05:00,84.15,15.76,736.5,44.64,0.97,144.54,0
2020-03-14T14:19:00-05:00,85.05,15.66,736.33,53.76,0.19,85.02,0
2020-03-14T14:20:00-05:00,84.94,15.55,735.93,49.35,0.59,121.22,0.1
2020-03-14T14:21:00-05:00,85.77,15.48,733.72,44.79,0.57,145.27,0.1
2020-03-14T14:22:00-05:00,86.89,15.42,733.39,46.41,1.66,64.15,0
2020-03-14T14:23:00-05:00,87.49,15.33,732.99,36.55,0.65,218.9,0
2020-03-14T14:24:00-05:00,87.95,15.26,732.62,31.26,0.84,160.16,0.1
2020-03-14T14:25:00-05:00,88.94,15.17,733.25,29.06,2.08,65.63,0
2020-03-14T14:26:00-05:00,89.18,15.09,732.35,25.68,1.21,88.85,0.1
2020-03-14T14:27:00-05:00,87.59,14.97,731.01,21.41,0.32,302.6,0.1
2020-03-14T14:28:00-05:00,88.03,14.97,730.51,17.59,0.24,20.82,0
2020-03-14T14:29:00-05:00,89.42,14.99,731.11,12.3,0.95,100.48,0.1
2020-03-14T14:30:00-05:00,88.31,14.94,735.56,10.83,0.74,56.76,0.1
2020-03-14T14:31:00-05:00,89.21,14.92,734.29,11.12,0.61,78.24,0.2
2020-03-14T14:32:00-05:00,90,14.91,735.67,11.12,0.2,15.6,0
2020-03-14T14:33:00-05:00,89.96,14.85,735.93,12.88,0.63,349.78,0.1
2020-03-14T14:34:00-05:00,89.92,14.81,733.96,15.53,0.51,337.54,0
2020-03-14T14:35:00-05:00,90.34,14.77,734.16,15.82,0.64,68.84,0
2020-03-14T14:36:00-05:00,91.32,14.79,734.06,20.82,0.74,190.99,0
2020-03-14T14:37:00-05:00,89.46,14.63,734.43,19.65,0.97,294.99,0
2020-03-14T14:38:00-05:00,88.12,14.61,733.89,17.59,0.82,148.2,0
2020-03-14T14:39:00-05:00,88.25,14.63,733.32,13.47,0.71,275.75,0
2020-03-14T14:40:00-05:00,87.24,14.63,732.15,14.35,0.71,50.05,0.1
2020-03-14T14:41:00-05:00,86.68,14.67,732.02,12.3,2.05,40.03,0
2020-03-14T14:42:00-05:00,87.52,14.69,732.12,13.33,3.31,21.99,0
2020-03-14T14:43:00-05:00,88.29,14.69,732.45,15.97,0.67,251.79,0.1
2020-03-14T14:44:00-05:00,89.44,14.66,732.12,15.82,0.58,244.79,0
2020-03-14T14:45:00-05:00,89.29,14.59,731.75,18.32,1.07,172.14,0.1
2020-03-14T14:46:00-05:00,90.27,14.52,732.32,22,1.32,59.06,0.2
2020-03-14T14:47:00-05:00,90.34,14.42,732.65,23.76,2.03,99.29,0.5
2020-03-14T14:48:00-05:00,90.52,14.3,731.88,21.85,1.52,54,0.5
2020-03-14T14:49:00-05:00,91.13,14.22,731.95,24.2,1.43,88.7,0.5
2020-03-14T14:50:00-05:00,91.94,14.17,732.18,23.18,0.59,95.35,0.2
2020-03-14T14:51:00-05:00,92.44,14.16,732.05,23.03,0.62,353.77,0
2020-03-14T14:52:00-05:00,92.72,14.12,733.05,24.5,0.69,34.73,0.1
2020-03-14T14:53:00-05:00,92.95,14.08,733.02,27,0.85,62.46,0.1
2020-03-14T14:54:00-05:00,90.79,13.94,732.18,28.32,4.55,56.28,0.1
2020-03-14T14:55:00-05:00,89.76,13.92,730.91,28.91,3.92,55.01,0.1
2020-03-14T14:56:00-05:00,89.3,13.9,731.48,28.03,2.7,79.32,0.1
2020-03-14T14:57:00-05:00,88.4,13.88,730.11,30.97,2.09,64.27,0.1
2020-03-14T14:58:00-05:00,88.7,13.86,729.87,31.85,2.74,37.24,0
2020-03-14T14:59:00-05:00,87.65,13.83,730.64,30.97,2.07,52.09,0.1
2020-03-14T15:00:00-05:00,85.1,13.82,735.56,29.79,0.89,90.37,0.1
2020-03-14T15:01:00-05:00,87.26,13.86,735.1,31.11,0.82,49.03,0.1
2020-03-14T15:02:00-05:00,89.6,13.85,735.63,30.82,1.15,48.85,0
2020-03-14T15:03:00-05:00,90.49,13.8,735.16,30.09,0.88,75.34,0.1
2020-03-14T15:04:00-05:00,91.24,13.74,735.77,27,0.65,83.57,0
2020-03-14T15:05:00-05:00,91.94,13.68,735.56,28.62,0.92,66.01,0
2020-03-14T15:06:00-05:00,92.26,13.66,734.63,26.56,0.62,97.07,0
2020-03-14T15:07:00-05:00,92.78,13.62,735.77,27.44,0.61,158.2,0
2020-03-14T15:08:00-05:00,92.89,13.62,734.63,26.26,0.59,184.01,0
2020-03-14T15:09:00-05:00,92.89,13.57,735.16,28.03,0.83,142.56,0
2020-03-14T15:10:00-05:00,93.01,13.53,734.09,30.67,1.03,97.93,0
2020-03-14T15:11:00-05:00,92.93,13.54,735.3,28.17,1.56,112.45,0
2020-03-14T15:12:00-05:00,93.11,13.58,735,27.73,0.5,190.03,0.1
2020-03-14T15:13:00-05:00,93.35,13.62,735.7,29.5,0.61,130.41,0
2020-03-14T15:14:00-05:00,93.71,13.64,735.23,27.15,0.22,199.98,0
2020-03-14T15:15:00-05:00,93.86,13.67,736,26.85,0.59,209.31,0
2020-03-14T15:16:00-05:00,93.67,13.67,736.2,27.73,0.85,139.28,0
2020-03-14T15:17:00-05:00,93.59,13.66,735.83,24.35,0.61,124.51,0
2020-03-14T15:18:00-05:00,94.01,13.68,735,24.5,0.38,151.16,0
2020-03-14T15:19:00-05:00,93.65,13.66,735.03,21.71,0.78,140.27,0
2020-03-14T15:20:00-05:00,93.79,13.63,735.46,20.38,0.5,25.14,0
2020-03-14T15:21:00-05:00,94.24,13.67,735.1,19.5,0.61,139.46,0
2020-03-14T15:22:00-05:00,94.2,13.68,735.5,22.15,0.57,98.64,0
2020-03-14T15:23:00-05:00,94.19,13.69,734.56,21.26,0.73,121.12,0
2020-03-14T15:24:00-05:00,94.33,13.71,736.07,24.35,0.62,125.52,0
2020-03-14T15:25:00-05:00,94.24,13.7,736.67,25.68,0.61,95.05,0
2020-03-14T15:26:00-05:00,94.41,13.72,736.43,26.12,0.55,159.17,0
2020-03-14T15:27:00-05:00,94.37,13.73,736.54,29.94,0.36,148.24,0
2020-03-14T15:28:00-05:00,93.89,13.7,735.33,31.11,0.56,119.46,0
2020-03-14T15:29:00-05:00,94.15,13.71,736.5,36.26,0.47,160.12,0
2020-03-14T15:30:00-05:00,94.11,13.72,735.73,36.41,0.64,146.6,0
2020-03-14T15:31:00-05:00,94.08,13.7,736.33,38.47,0.68,54.72,0
2020-03-14T15:32:00-05:00,93.89,13.67,735.87,40.67,0.67,62.62,0
2020-03-14T15:33:00-05:00,94.46,13.7,735.77,39.64,0.82,137.3,0
2020-03-14T15:34:00-05:00,93.93,13.69,735.67,39.79,0.82,39.42,0
2020-03-14T15:35:00-05:00,94.21,13.71,736.1,39.94,1.38,16.84,0
2020-03-14T15:36:00-05:00,93.41,13.68,735.53,38.76,0.77,244.05,0
2020-03-14T15:37:00-05:00,93.69,13.71,735.7,35.23,0.62,182.05,0
2020-03-14T15:38:00-05:00,92.87,13.64,736.54,32.59,0.94,169.11,0
2020-03-14T15:39:00-05:00,93.01,13.7,736.1,31.41,0.49,102.27,0
2020-03-14T15:40:00-05:00,92.95,13.66,734.79,30.67,0.6,74.36,0
2020-03-14T15:41:00-05:00,92.91,13.68,734.53,31.26,0.92,63.73,0.1
2020-03-14T15:42:00-05:00,92.93,13.68,735.46,37,0.63,72.39,0
2020-03-14T15:43:00-05:00,93.41,13.7,735.33,44.79,0.74,54.41,0
2020-03-14T15:44:00-05:00,93.89,13.74,736.27,46.99,0.69,58.94,0
2020-03-14T15:45:00-05:00,94.03,13.76,736.57,49.93,0.54,191.96,0
2020-03-14T15:46:00-05:00,94.3,13.8,735.46,51.99,0.72,36.74,0
2020-03-14T15:47:00-05:00,93.86,13.78,735.53,53.32,0.97,43.1,0
2020-03-14T15:48:00-05:00,93.92,13.77,736.03,52.14,0.49,69.05,0
2020-03-14T15:49:00-05:00,94.03,13.77,736.9,54.64,0.26,190.37,0
2020-03-14T15:50:00-05:00,93.89,13.79,736.07,53.17,0.73,74.95,0
2020-03-14T15:51:00-05:00,94.02,13.8,736.17,52.43,0.63,86.39,0
2020-03-14T15:52:00-05:00,94.13,13.84,737.34,49.93,0.81,37.6,0
2020-03-14T15:53:00-05:00,94.3,13.83,736.3,48.46,0.61,29.65,0
2020-03-14T15:54:00-05:00,94.4,13.88,736.67,48.32,0.25,153.1,0
2020-03-14T15:55:00-05:00,94.57,13.89,735.7,53.32,0.66,117.15,0
2020-03-14T15:56:00-05:00,94.28,13.89,737.61,59.05,0.57,81.91,0
2020-03-14T15:57:00-05:00,93.92,13.88,737.81,63.61,0.71,58.22,0
2020-03-14T15:58:00-05:00,94.11,13.86,736.77,62.87,0.76,77.48,0
2020-03-14T15:59:00-05:00,94.49,13.92,736.67,57.14,0.91,74.55,0
2020-03-14T16:00:00-05:00,93.76,13.88,737.04,43.32,0.52,93.49,0
2020-03-14T16:01:00-05:00,93.83,13.87,737.04,33.47,0.55,349.44,0
2020-03-14T16:02:00-05:00,94.01,13.91,737.1,24.94,0.62,202.93,0
2020-03-14T16:03:00-05:00,93.81,13.92,737.94,21.26,0.6,105.2,0
2020-03-14T16:04:00-05:00,93.47,13.86,737.14,18.03,0.56,6.8,0
2020-03-14T16:05:00-05:00,93.68,13.86,736.4,16.85,0.55,198.02,0
2020-03-14T16:06:00-05:00,93.68,13.89,737.14,19.5,0.23,291.02,0
2020-03-14T16:07:00-05:00,93.85,13.9,736.94,20.38,0.36,220.88,0
2020-03-14T16:08:00-05:00,93.59,13.9,737.64,28.47,0.89,145.63,0
2020-03-14T16:09:00-05:00,93.75,13.87,737.67,35.23,0.6,191.01,0
2020-03-14T16:10:00-05:00,93.85,13.87,737.57,39.79,0.72,212.26,0
2020-03-14T16:11:00-05:00,94.2,13.85,737.54,50.82,0.66,202.95,0
2020-03-14T16:12:00-05:00,94.53,13.88,737.87,60.37,0.59,125.55,0
2020-03-14T16:13:00-05:00,94.83,13.9,737.64,71.69,0.34,278.69,0
2020-03-14T16:14:00-05:00,94.7,13.9,737.37,82.72,0.83,215.23,0
2020-03-14T16:15:00-05:00,94.67,13.9,738.01,98.16,0.31,170.04,0
2020-03-14T16:16:00-05:00,94.76,13.9,737.71,104.63,0.46,254.77,0
2020-03-14T16:17:00-05:00,94.72,13.92,737.94,95.81,0.46,164.16,0
2020-03-14T16:18:00-05:00,94.57,13.9,739.08,81.25,0.27,200.97,0
2020-03-14T16:19:00-05:00,94.64,13.93,738.41,64.93,0.25,183.04,0
2020-03-14T16:20:00-05:00,94.29,13.92,738.28,55.08,0.87,177.11,0
2020-03-14T16:21:00-05:00,94.42,13.92,739.11,49.64,0.64,225.91,0
2020-03-14T16:22:00-05:00,94.5,13.92,738.44,46.99,0.71,176.1,0
2020-03-14T16:23:00-05:00,94.38,13.92,738.28,43.76,0.21,81.25,0
2020-03-14T16:24:00-05:00,94.52,13.95,739.15,41.85,0.8,158.42,0
2020-03-14T16:25:00-05:00,94.48,13.96,738.85,40.82,0.24,312.93,0
2020-03-14T16:26:00-05:00,94.35,13.97,738.68,45.23,0.58,155.21,0
2020-03-14T16:27:00-05:00,94.24,13.96,739.05,49.05,0.76,205.37,0
2020-03-14T16:28:00-05:00,94.3,13.96,740.32,48.91,0.5,170.09,0
2020-03-14T16:29:00-05:00,94.05,13.94,738.48,49.93,0.67,175.45,0
2020-03-14T16:30:00-05:00,94.01,13.93,739.25,50.82,0.61,54.55,0
2020-03-14T16:31:00-05:00,94.34,13.96,739.72,50.52,0.6,75.25,0
2020-03-14T16:32:00-05:00,94.38,13.98,738.74,45.08,0.61,70.75,0
2020-03-14T16:33:00-05:00,94.49,14,738.51,39.94,0.67,106.61,0
2020-03-14T16:34:00-05:00,94.47,13.99,739.72,33.17,0.44,124.25,0
2020-03-14T16:35:00-05:00,94.36,14.02,738.04,30.82,0.62,46.76,0
2020-03-14T16:36:00-05:00,94.24,14,738.51,30.97,0.27,202.93,0
2020-03-14T16:37:00-05:00,94.15,14.01,739.68,31.56,0.69,126.86,0
2020-03-14T16:38:00-05:00,94.32,14,738.58,32.44,0.56,125.02,0
2020-03-14T16:39:00-05:00,94.2,14.01,738.41,32.44,0.42,84.64,0
2020-03-14T16:40:00-05:00,94.26,14.02,738.28,33.32,0.55,91.36,0
2020-03-14T16:41:00-05:00,94.58,14.02,739.18,32.59,0.66,46.07,0
2020-03-14T16:42:00-05:00,94.4,14.03,739.35,30.97,0.24,113.15,0
2020-03-14T16:43:00-05:00,94.28,14.02,739.31,26.41,0.47,156.16,0
2020-03-14T16:44:00-05:00,93.92,14,739.28,28.17,0.48,103.43,0
2020-03-14T16:45:00-05:00,93.99,13.98,738.11,28.76,0.06,134.76,0
2020-03-14T16:46:00-05:00,93.79,13.98,739.68,26.56,0.48,68.77,0
2020-03-14T16:47:00-05:00,93.85,13.98,738.68,26.26,0.55,44.28,0
2020-03-14T16:48:00-05:00,93.75,13.98,739.51,23.47,0.26,66.94,0
2020-03-14T16:49:00-05:00,93.78,13.99,738.98,20.68,0.66,77.07,0
2020-03-14T16:50:00-05:00,92.83,13.91,739.05,19.06,0.28,3.06,0
2020-03-14T16:51:00-05:00,92.68,13.93,738.14,17,0.25,123.41,0
2020-03-14T16:52:00-05:00,92.56,13.92,739.38,17.74,0.61,84.67,0
2020-03-14T16:53:00-05:00,92.68,13.94,737.94,19.79,0.82,113.25,0
2020-03-14T16:54:00-05:00,92.31,13.91,738.28,22.29,0.59,102.88,0
2020-03-14T16:55:00-05:00,92.52,13.92,737.64,22.59,0.73,75.13,0
2020-03-14T16:56:00-05:00,92.83,13.93,737.97,21.85,0.59,65.45,0
2020-03-14T16:57:00-05:00,92.76,13.92,738.61,19.5,0.77,63.86,0
2020-03-14T16:58:00-05:00,92.5,13.89,737.34,16.41,0.22,141.2,0
2020-03-14T16:59:00-05:00,92.87,13.88,737.81,13.18,0.59,68.07,0
2020-03-14T17:00:00-05:00,92.78,13.9,737.77,13.33,0.17,85.96,0
2020-03-14T17:01:00-05:00,92.83,13.9,738.51,10.68,0.56,347.49,0
2020-03-14T17:02:00-05:00,93.1,13.92,737.41,12.3,0.33,64.38,0
2020-03-14T17:03:00-05:00,93.4,13.94,738.04,10.83,0.61,336.88,0
2020-03-14T17:04:00-05:00,93.25,13.93,738.88,12.15,0.13,300.7,0
2020-03-14T17:05:00-05:00,93.31,13.92,737,11.27,0.3,218.26,0.1
2020-03-14T17:06:00-05:00,93.13,13.9,736.67,11.27,0.64,308.95,0.1
2020-03-14T17:07:00-05:00,93.27,13.88,737.24,12.15,0.37,327.92,0.2
2020-03-14T17:08:00-05:00,93.05,13.86,737.27,10.68,0.32,337.51,0.1
2020-03-14T17:09:00-05:00,93.18,13.83,737.27,9.65,0.62,37.78,0
2020-03-14T17:10:00-05:00,93.05,13.81,737.31,10.97,0.67,56.3,0
2020-03-14T17:11:00-05:00,93.05,13.79,735.8,10.09,0.74,76.08,0
2020-03-14T17:12:00-05:00,93.09,13.79,737,9.94,0.24,90.76,0
2020-03-14T17:13:00-05:00,93.5,13.81,737.14,7.74,0.23,248.83,0
2020-03-14T17:14:00-05:00,93.39,13.83,735.97,8.77,0.56,170.06,0.1
2020-03-14T17:15:00-05:00,93.04,13.79,735.77,4.65,0.58,200.96,0
2020-03-14T17:16:00-05:00,92.93,13.71,736.1,4.06,0.32,189.06,0
2020-03-14T17:17:00-05:00,93.47,13.68,735.13,3.33,0.19,67.89,0
2020-03-14T17:18:00-05:00,93.73,13.67,734.93,2,0.54,56.07,0.1
2020-03-14T17:19:00-05:00,93.43,13.64,735.8,0.98,1.81,143.19,0
2020-03-14T17:20:00-05:00,93.53,13.58,734.59,1.12,3.1,64.03,0
2020-03-14T17:21:00-05:00,89.86,13.46,734.86,2.3,5.15,52.57,0.1
2020-03-14T17:22:00-05:00,80.66,13.2,732.92,3.03,4.38,45.93,0.3
2020-03-14T17:23:00-05:00,80.67,12.92,731.15,1.86,4.65,83.59,0.6
2020-03-14T17:24:00-05:00,83.82,12.63,729.37,3.18,2.36,49.26,0.5
2020-03-14T17:25:00-05:00,83.8,12.25,733.92,4.65,4.47,72.47,0.4
2020-03-14T17:26:00-05:00,84.06,11.93,734.86,3.92,2.8,41.4,0.3
2020-03-14T17:27:00-05:00,84.26,11.66,734.13,5.09,6.29,67.86,0.3
2020-03-14T17:28:00-05:00,84.94,11.41,733.52,5.39,3.3,44.43,0.3
2020-03-14T17:29:00-05:00,85.93,11.25,734.13,5.53,3.94,72.9,0.2
2020-03-14T17:30:00-05:00,88.92,11.1,734.59,4.8,3.07,66.95,0.2
2020-03-14T17:31:00-05:00,89.31,10.89,733.79,6.27,2.98,53.42,0.2
2020-03-14T17:32:00-05:00,89.79,10.78,734.43,6.12,2.88,60.77,0.1
2020-03-14T17:33:00-05:00,90.1,10.74,733.76,6.56,2.85,58.7,0
2020-03-14T17:34:00-05:00,91.32,10.74,735.23,9.21,1.92,65.25,0
2020-03-14T17:35:00-05:00,92.19,10.68,734.46,8.62,0.79,91.64,0.1
2020-03-14T17:36:00-05:00,92.62,10.66,734.86,7.89,3.85,48.54,0
2020-03-14T17:37:00-05:00,93.38,10.59,733.76,8.03,3.18,50.6,0.1
2020-03-14T17:38:00-05:00,94.13,10.58,735.43,9.06,1.46,52.28,0
2020-03-14T17:39:00-05:00,94.39,10.6,733.99,8.91,1.27,68.86,0.1
2020-03-14T17:40:00-05:00,94.74,10.62,734.43,7.44,2.6,46.76,0.1
2020-03-14T17:41:00-05:00,95.04,10.66,735.33,7.89,1.1,45.36,0.1
2020-03-14T17:42:00-05:00,95.38,10.67,734.06,8.18,0.59,94.39,0.1
2020-03-14T17:43:00-05:00,95.58,10.71,735.67,8.62,0.3,216.24,0.1
2020-03-14T17:44:00-05:00,95.45,10.72,734.69,6.71,0.69,69.54,0.1
2020-03-14T17:45:00-05:00,95.67,10.72,734.9,6.12,0.28,164.51,0
2020-03-14T17:46:00-05:00,95.36,10.72,733.82,5.83,0.94,212.9,0.1
2020-03-14T17:47:00-05:00,95.34,10.69,733.66,5.83,1.11,222.3,0
2020-03-14T17:48:00-05:00,95.4,10.68,734.93,5.97,0.73,214.95,0.1
2020-03-14T17:49:00-05:00,95.52,10.67,733.32,7.59,0.87,121.62,0
2020-03-14T17:50:00-05:00,95.75,10.67,734.09,5.97,0.19,108.81,0
2020-03-14T17:51:00-05:00,96.05,10.69,733.56,6.42,0.7,78.69,0.1
2020-03-14T17:52:00-05:00,96.4,10.73,735.33,5.53,0.62,93.98,0
2020-03-14T17:53:00-05:00,96.38,10.74,733.96,7.44,0.61,170.09,0
2020-03-14T17:54:00-05:00,96.29,10.72,733.89,6.56,0.6,150.15,0
2020-03-14T17:55:00-05:00,96.3,10.74,734.23,6.86,0.23,100.54,0.1
2020-03-14T17:56:00-05:00,96.52,10.76,734.26,6.56,0.26,145.28,0
2020-03-14T17:57:00-05:00,96.39,10.76,735.63,5.53,0.57,192.97,0.1
2020-03-14T17:58:00-05:00,96.26,10.75,735.06,4.8,0.72,134.21,0
2020-03-14T17:59:00-05:00,96.11,10.72,734.83,6.12,0.74,135.19,0.1
2020-03-14T18:00:00-05:00,96.05,10.7,734.66,6.12,0.74,138.2,0
2020-03-14T18:01:00-05:00,95.81,10.66,734.83,4.36,0.94,145.29,0
2020-03-14T18:02:00-05:00,96.07,10.64,734.63,4.06,0.61,141.64,0
2020-03-14T18:03:00-05:00,96.05,10.62,734.02,4.21,0.75,136.73,0.1
2020-03-14T18:04:00-05:00,96.15,10.62,734.26,3.18,0.78,138.66,0
2020-03-14T18:05:00-05:00,96.15,10.62,733.89,3.47,0.72,147.24,0
2020-03-14T18:06:00-05:00,96.17,10.62,735.2,2.74,0.61,150.51,0
2020-03-14T18:07:00-05:00,95.99,10.58,735.1,4.94,0.72,137.33,0.1
2020-03-14T18:08:00-05:00,95.96,10.56,733.79,2.45,0.74,174.45,0
2020-03-14T18:09:00-05:00,95.93,10.55,733.86,3.03,0.78,173.15,0
2020-03-14T18:10:00-05:00,96.17,10.56,734.93,4.21,0.66,71.56,0
2020-03-14T18:11:00-05:00,96.33,10.58,735.2,2.59,0.58,76.05,0
2020-03-14T18:12:00-05:00,96.39,10.56,734.46,4.5,1.11,64.89,0
2020-03-14T18:13:00-05:00,96.45,10.57,734.73,2.15,1.21,54.59,0
2020-03-14T18:14:00-05:00,96.75,10.62,734.73,2.59,0.8,69.39,0
2020-03-14T18:15:00-05:00,96.69,10.63,735.56,3.62,0.81,58.09,0
2020-03-14T18:16:00-05:00,96.51,10.61,734.36,2.15,0.63,67.61,0
2020-03-14T18:17:00-05:00,96.62,10.64,734.86,0.09,0.42,72.79,0
2020-03-14T18:18:00-05:00,96.52,10.63,735.53,2.15,0.68,78.53,0
2020-03-14T18:19:00-05:00,96.49,10.63,734.43,-0.05,0.72,89.77,0
2020-03-14T18:20:00-05:00,96.4,10.64,734.43,1.71,0.61,176.08,0
2020-03-14T18:21:00-05:00,96.19,10.66,734.49,-0.94,0.31,191.36,0
2020-03-14T18:22:00-05:00,95.97,10.64,734.53,-1.08,0.6,128.59,0
2020-03-14T18:23:00-05:00,95.65,10.64,735.36,-0.94,0.17,209.31,0
2020-03-14T18:24:00-05:00,95.69,10.65,734.73,-0.64,0.85,130.29,0
2020-03-14T18:25:00-05:00,95.18,10.61,735.06,0.39,0.85,137.67,0
2020-03-14T18:26:00-05:00,95.35,10.61,735,0.53,0.56,127.23,0
2020-03-14T18:27:00-05:00,95.54,10.62,735,-1.82,0.26,57.76,0
2020-03-14T18:28:00-05:00,95.79,10.64,734.43,-2.26,0.39,105.78,0
2020-03-14T18:29:00-05:00,95.77,10.64,734.16,-1.38,0.24,139.27,0
2020-03-14T18:30:00-05:00,95.82,10.64,735.1,-0.64,0.72,98.84,0
2020-03-14T18:31:00-05:00,95.7,10.63,734.76,0.68,0.93,54.09,0
2020-03-14T18:32:00-05:00,95.74,10.62,735.06,-1.08,0.8,99.67,0
2020-03-14T18:33:00-05:00,95.63,10.6,735.03,1.56,0.76,93.86,0
2020-03-14T18:34:00-05:00,95.96,10.6,735.4,-0.2,0.49,158.17,0
2020-03-14T18:35:00-05:00,95.83,10.6,735.7,1.56,0.58,85.97,0
2020-03-14T18:36:00-05:00,95.77,10.6,734.16,0.09,0.58,78.46,0
2020-03-14T18:37:00-05:00,95.87,10.6,733.72,0.98,0.64,76.97,0
2020-03-14T18:38:00-05:00,95.78,10.59,735.83,1.12,1.04,102.54,0
2020-03-14T18:39:00-05:00,95.6,10.54,734.66,-0.94,0.8,81.5,0
2020-03-14T18:40:00-05:00,95.24,10.54,733.92,2,0.9,51.14,0
2020-03-14T18:41:00-05:00,95.28,10.54,735.23,-0.35,1.17,90.29,0
2020-03-14T18:42:00-05:00,95.14,10.53,734.46,0.83,1.08,110.52,0
2020-03-14T18:43:00-05:00,95.15,10.57,735.2,-0.64,0.72,83.86,0
2020-03-14T18:44:00-05:00,95.5,10.62,736.13,1.86,0.82,93.2,0
2020-03-14T18:45:00-05:00,95.69,10.68,735.73,0.98,0.66,118.03,0
2020-03-14T18:46:00-05:00,95.69,10.68,734.16,1.86,0.53,94.74,0
2020-03-14T18:47:00-05:00,95.71,10.7,735.77,0.09,0.73,58.5,0
2020-03-14T18:48:00-05:00,95.59,10.7,735.2,-0.2,1.26,105.39,0
2020-03-14T18:49:00-05:00,95.55,10.69,736.43,1.27,0.25,6.82,0
2020-03-14T18:50:00-05:00,95.73,10.72,735.87,2.3,0.86,69.46,0
2020-03-14T18:51:00-05:00,95.45,10.7,734.26,1.71,0.64,85.36,0
2020-03-14T18:52:00-05:00,95.4,10.72,734.29,1.12,0.72,73.7,0
2020-03-14T18:53:00-05:00,95.51,10.73,734.9,1.56,0.64,105.23,0
2020-03-14T18:54:00-05:00,95.4,10.74,735.53,-0.2,0.76,66.99,0
2020-03-14T18:55:00-05:00,95.37,10.74,734.13,1.12,0.77,112.9,0
2020-03-14T18:56:00-05:00,95.06,10.71,734.09,0.53,0.75,73.23,0
2020-03-14T18:57:00-05:00,95.25,10.73,736.07,0.39,0.57,44.11,0
2020-03-14T18:58:00-05:00,95.47,10.8,736.27,0.09,0.37,49.69,0
2020-03-14T18:59:00-05:00,95.67,10.84,734.36,0.24,0.6,64.11,0
2020-03-14T19:00:00-05:00,95.18,10.84,734.36,1.56,1.05,107.73,0
2020-03-14T19:01:00-05:00,95.08,10.82,735.6,1.86,0.44,75.01,0
2020-03-14T19:02:00-05:00,95.19,10.84,735.43,0.98,0.34,122.66,0
2020-03-14T19:03:00-05:00,95.04,10.85,735.77,1.86,0.16,335.89,0
2020-03-14T19:04:00-05:00,95.08,10.85,735.73,1.12,0.23,282.72,0
2020-03-14T19:05:00-05:00,95.31,10.88,734.19,1.42,0.58,101.4,0
2020-03-14T19:06:00-05:00,95.01,10.88,736.37,-0.79,1.04,86.15,0
2020-03-14T19:07:00-05:00,94.42,10.83,734.23,1.27,0.77,92.98,0
2020-03-14T19:08:00-05:00,94.12,10.85,736.07,0.98,0.59,64.79,0
2020-03-14T19:09:00-05:00,93.87,10.86,734.63,1.86,0.73,83.1,0
2020-03-14T19:10:00-05:00,93.98,10.86,735.26,1.42,0.65,120.29,0
2020-03-14T19:11:00-05:00,94.03,10.89,735.6,0.24,0.63,76.82,0
2020-03-14T19:12:00-05:00,93.93,10.91,734.23,-0.64,0.59,59.95,0
2020-03-14T19:13:00-05:00,93.61,10.91,736.57,-0.35,0.64,73.61,0
2020-03-14T19:14:00-05:00,93.96,10.94,736.27,1.12,0.63,81.49,0
2020-03-14T19:15:00-05:00,94.45,11.02,736.17,1.12,0.88,35.04,0
2020-03-14T19:16:00-05:00,94.82,11.06,734.79,0.53,1.32,24.62,0
2020-03-14T19:17:00-05:00,95.18,11.11,734.83,0.39,1.55,75.69,0
2020-03-14T19:18:00-05:00,95.16,11.12,734.46,-0.05,1.22,55.66,0
2020-03-14T19:19:00-05:00,95.35,11.17,734.13,2,0.69,63.46,0
2020-03-14T19:20:00-05:00,95.43,11.23,734.19,0.09,0.81,9.04,0
2020-03-14T19:21:00-05:00,95.52,11.24,735.2,-0.49,1.52,79.16,0
2020-03-14T19:22:00-05:00,95.27,11.24,736.4,-0.05,0.6,57.68,0
2020-03-14T19:23:00-05:00,95.15,11.27,735.1,0.09,2.07,60.73,0
2020-03-14T19:24:00-05:00,95.18,11.27,736.54,1.56,1.79,88.07,0
2020-03-14T19:25:00-05:00,95,11.3,737.07,0.39,0.64,77.59,0
2020-03-14T19:26:00-05:00,94.94,11.29,734.13,-0.94,0.91,70.59,0
2020-03-14T19:27:00-05:00,95.14,11.33,736.13,-1.08,0.71,88.09,0
2020-03-14T19:28:00-05:00,95.22,11.35,734.59,-0.2,0.16,121.62,0
2020-03-14T19:29:00-05:00,95.42,11.4,736.47,0.98,0.58,56.84,0
2020-03-14T19:30:00-05:00,95.6,11.43,734.46,1.56,0.66,38.14,0
2020-03-14T19:31:00-05:00,95.65,11.46,736.67,1.42,0.3,159.13,0
2020-03-14T19:32:00-05:00,95.53,11.48,736.03,-0.64,0.72,51.52,0
2020-03-14T19:33:00-05:00,95.65,11.48,735.06,2.15,0.67,41.84,0
2020-03-14T19:34:00-05:00,95.59,11.49,734.53,1.71,0.93,37.73,0
2020-03-14T19:35:00-05:00,95.73,11.52,735.93,0.39,0.65,89.1,0
2020-03-14T19:36:00-05:00,95.65,11.55,734.53,-0.2,0.35,77.98,0
2020-03-14T19:37:00-05:00,95.65,11.54,736.5,1.12,0.33,90.75,0
2020-03-14T19:38:00-05:00,95.72,11.56,735.67,1.71,0.57,77.88,0
2020-03-14T19:39:00-05:00,95.83,11.57,736.2,1.12,0.58,54.54,0
2020-03-14T19:40:00-05:00,95.71,11.6,735.9,-0.05,0.19,225.86,0
2020-03-14T19:41:00-05:00,95.83,11.63,734.43,-0.05,0.45,47.91,0
2020-03-14T19:42:00-05:00,95.82,11.67,734.59,-0.35,0.21,71.76,0
2020-03-14T19:43:00-05:00,95.78,11.67,734.46,0.98,0.26,196.26,0
2020-03-14T19:44:00-05:00,95.89,11.67,735.9,0.09,0.23,167.13,0
2020-03-14T19:45:00-05:00,95.73,11.68,736.7,0.09,0.49,130.17,0
2020-03-14T19:46:00-05:00,95.75,11.69,734.83,0.39,0.27,109.23,0
2020-03-14T19:47:00-05:00,95.89,11.69,734.79,0.39,0.15,81.8,0
2020-03-14T19:48:00-05:00,95.98,11.73,735.63,-0.49,0.52,104.11,0
2020-03-14T19:49:00-05:00,95.89,11.72,735.43,-0.49,0.42,136.2,0
2020-03-14T19:50:00-05:00,95.73,11.74,734.49,0.39,0.57,58.82,0
2020-03-14T19:51:00-05:00,95.76,11.75,736.5,0.39,0.62,94.16,0
2020-03-14T19:52:00-05:00,95.69,11.76,736,1.27,0.56,128.34,0
2020-03-14T19:53:00-05:00,95.82,11.79,734.96,-0.64,0.21,110.05,0
2020-03-14T19:54:00-05:00,95.69,11.81,735.23,-0.64,0.6,84.55,0
2020-03-14T19:55:00-05:00,95.81,11.8,735.33,1.71,0.48,136.24,0
2020-03-14T19:56:00-05:00,95.61,11.81,735.56,-0.64,0.43,80.24,0
2020-03-14T19:57:00-05:00,95.75,11.83,735.5,0.24,0.21,100.74,0
2020-03-14T19:58:00-05:00,95.83,11.85,735.63,-0.94,0.38,152.5,0
2020-03-14T19:59:00-05:00,95.8,11.88,736.07,1.42,0.43,78.6,0
2020-03-14T20:00:00-05:00,95.54,11.86,735.26,0.83,0.47,162.54,0
2020-03-14T20:01:00-05:00,95.68,11.86,735.23,-0.64,0.58,151.16,0
2020-03-14T20:02:00-05:00,95.75,11.89,735.5,0.09,0.65,119.78,0
2020-03-14T20:03:00-05:00,95.69,11.89,736.13,-0.05,0.3,56.12,0
2020-03-14T20:04:00-05:00,95.69,11.91,735.77,-0.64,0.49,40.88,0
2020-03-14T20:05:00-05:00,95.69,11.92,734.53,-0.79,0.21,89.97,0
2020-03-14T20:06:00-05:00,95.73,11.95,735.1,0.09,0.27,120.27,0
2020-03-14T20:07:00-05:00,95.61,11.95,735.43,1.42,0.45,126.92,0
2020-03-14T20:08:00-05:00,95.63,11.95,734.53,-1.08,0.36,145.29,0
2020-03-14T20:09:00-05:00,95.65,11.95,736.6,-0.64,0.52,161.13,0
2020-03-14T20:10:00-05:00,95.5,11.93,736.6,0.83,0.26,104.82,0
2020-03-14T20:11:00-05:00,95.52,11.95,735.36,0.83,0.18,100.25,0
2020-03-14T20:12:00-05:00,95.48,11.97,734.73,1.56,0.36,132.28,0
2020-03-14T20:13:00-05:00,95.5,11.97,734.53,0.39,0.56,101.58,0
2020-03-14T20:14:00-05:00,95.43,11.96,734.9,-1.52,0.61,57.65,0
2020-03-14T20:15:00-05:00,95.52,12.02,736.7,-1.23,0.61,50.5,0
2020-03-14T20:16:00-05:00,95.81,12.05,735.06,-1.67,0.7,48.52,0
2020-03-14T20:17:00-05:00,95.77,12.07,734.49,-0.35,0.64,75.81,0
2020-03-14T20:18:00-05:00,95.51,12.07,736.74,-2.26,0.59,63.28,0
2020-03-14T20:19:00-05:00,95.55,12.09,735.1,-0.2,0.23,53.37,0
2020-03-14T20:20:00-05:00,95.45,12.09,736.43,-0.79,0.37,73.92,0
2020-03-14T20:21:00-05:00,95.28,12.05,736.97,-1.52,0.63,135.56,0
2020-03-14T20:22:00-05:00,95.18,12.07,734.73,0.68,0.52,151.15,0
2020-03-14T20:23:00-05:00,95,12.05,735.56,-0.64,0.54,137.31,0
2020-03-14T20:24:00-05:00,95.02,12.07,736.74,-0.05,0.55,131.38,0
2020-03-14T20:25:00-05:00,94.98,12.1,735.03,-0.2,0.57,127.23,0
2020-03-14T20:26:00-05:00,94.98,12.09,736.13,-1.08,0.6,118.45,0
2020-03-14T20:27:00-05:00,94.71,12.1,735.23,1.12,0.63,120.3,0
2020-03-14T20:28:00-05:00,94.75,12.1,734.79,-0.2,0.58,94.79,0
2020-03-14T20:29:00-05:00,94.46,12.1,736.27,-0.35,0.64,104.49,0
2020-03-14T20:30:00-05:00,94.35,12.1,737.07,-1.23,0.55,103.42,0
2020-03-14T20:31:00-05:00,94.35,12.13,737.31,-0.94,0.46,135.19,0
2020-03-14T20:32:00-05:00,94.11,12.14,736.64,0.68,0.52,131.55,0
2020-03-14T20:33:00-05:00,94.03,12.15,734.96,1.86,0.43,45.98,0
2020-03-14T20:34:00-05:00,94.28,12.19,735.2,0.39,0.4,42.98,0
2020-03-14T20:35:00-05:00,94.38,12.19,736.74,4.94,0.23,148.24,0
2020-03-14T20:36:00-05:00,94.18,12.19,735.4,0.53,0.27,120.3,0
2020-03-14T20:37:00-05:00,93.91,12.18,736.5,-0.2,0.26,140.22,0
2020-03-14T20:38:00-05:00,93.91,12.18,736.43,-1.38,0.55,149.56,0
2020-03-14T20:39:00-05:00,93.93,12.19,736.07,-0.79,0.21,161.09,0
2020-03-14T20:40:00-05:00,93.91,12.21,737.41,1.56,0.24,135.55,0
2020-03-14T20:41:00-05:00,93.89,12.2,737.31,1.27,0.22,151.16,0
2020-03-14T20:42:00-05:00,93.83,12.19,735.97,0.98,0.28,110.29,0
2020-03-14T20:43:00-05:00,93.73,12.2,737.07,0.09,0.52,161.12,0
2020-03-14T20:44:00-05:00,93.57,12.2,737.44,0.39,0.62,163.19,0
2020-03-14T20:45:00-05:00,93.51,12.19,737.07,1.12,0.56,163.19,0
2020-03-14T20:46:00-05:00,93.37,12.21,737.47,-0.94,0.59,164.18,0
2020-03-14T20:47:00-05:00,93.23,12.21,736.7,-0.05,0.59,131.44,0
2020-03-14T20:48:00-05:00,93.28,12.22,736.07,-0.79,0.54,74.69,0
2020-03-14T20:49:00-05:00,93.58,12.25,736.54,-0.49,0.29,46.81,0
2020-03-14T20:50:00-05:00,93.73,12.26,736.54,0.53,0.54,87.24,0
2020-03-14T20:51:00-05:00,93.47,12.24,735.6,0.39,0.19,104.74,0
2020-03-14T20:52:00-05:00,93.72,12.25,736.03,1.71,0.3,66.71,0
2020-03-14T20:53:00-05:00,93.73,12.26,735.3,-0.64,0.65,55.47,0
2020-03-14T20:54:00-05:00,93.88,12.26,737.2,-0.05,0.24,51.76,0
2020-03-14T20:55:00-05:00,94.05,12.27,735.46,0.09,0.44,93.42,0
2020-03-14T20:56:00-05:00,93.95,12.25,737.47,0.39,0.7,89.65,0
2020-03-14T20:57:00-05:00,94.05,12.23,736.87,0.09,0.55,105.55,0
2020-03-14T20:58:00-05:00,94.2,12.23,735.46,0.39,0.23,156.19,0
2020-03-14T20:59:00-05:00,94.12,12.23,736.94,0.83,0.24,130.65,0
2020-03-14T21:00:00-05:00,94.26,12.23,737.71,2.15,0.15,78.81,0
2020-03-14T21:01:00-05:00,94.34,12.25,736.57,-0.05,0.23,68.08,0
2020-03-14T21:02:00-05:00,94.52,12.25,737.37,-0.79,0.13,185.01,0
2020-03-14T21:03:00-05:00,94.21,12.23,737.67,1.86,0.54,141.23,0
2020-03-14T21:04:00-05:00,94.01,12.22,736.87,0.09,0.23,110.1,0
2020-03-14T21:05:00-05:00,94.36,12.22,736.43,-0.49,0.57,66.78,0
2020-03-14T21:06:00-05:00,94.29,12.24,735.9,-0.64,0.58,94.15,0
2020-03-14T21:07:00-05:00,94.36,12.25,737.1,-0.35,0.37,84.81,0
2020-03-14T21:08:00-05:00,94.35,12.25,736.23,1.56,0.6,82.35,0
2020-03-14T21:09:00-05:00,94.52,12.25,736.7,-0.05,0.33,83.99,0
2020-03-14T21:10:00-05:00,94.37,12.23,735.36,-0.35,0.6,101.87,0
2020-03-14T21:11:00-05:00,94.54,12.23,737.37,0.53,0.32,114.39,0
2020-03-14T21:12:00-05:00,94.69,12.25,735.83,-0.35,0.14,168.45,0
2020-03-14T21:13:00-05:00,94.53,12.25,736.77,0.68,0.25,99.13,0
2020-03-14T21:14:00-05:00,94.7,12.26,737.27,1.27,0.23,101.83,0
2020-03-14T21:15:00-05:00,94.7,12.26,737.54,0.53,0.22,83.98,0
2020-03-14T21:16:00-05:00,94.68,12.26,737,0.39,0.17,71.87,0
2020-03-14T21:17:00-05:00,94.78,12.27,736.94,2,0.19,109.51,0
2020-03-14T21:18:00-05:00,94.42,12.26,735.73,-0.79,0.64,150.44,0
2020-03-14T21:19:00-05:00,94.07,12.21,736.94,0.39,0.66,151.14,0
2020-03-14T21:20:00-05:00,93.86,12.19,736.97,1.27,0.85,146.29,0
2020-03-14T21:21:00-05:00,93.91,12.19,735.43,1.56,0.66,154.24,0
2020-03-14T21:22:00-05:00,93.67,12.19,736.23,0.98,0.62,155.21,0
2020-03-14T21:23:00-05:00,93.61,12.2,737.44,1.56,0.65,144.2,0
2020-03-14T21:24:00-05:00,93.51,12.2,736.37,0.83,0.6,151.19,0
2020-03-14T21:25:00-05:00,93.38,12.2,735.8,2.74,0.65,159.13,0
2020-03-14T21:26:00-05:00,93.41,12.2,735.73,0.53,0.22,128.81,0
2020-03-14T21:27:00-05:00,93.55,12.22,737.67,2.3,0.55,149.21,0
2020-03-14T21:28:00-05:00,93.57,12.23,735.43,0.24,0.24,135.46,0
2020-03-14T21:29:00-05:00,93.7,12.25,735.3,1.56,0.56,126.56,0
2020-03-14T21:30:00-05:00,93.74,12.27,736.4,-0.05,0.59,98.86,0
2020-03-14T21:31:00-05:00,93.58,12.27,737.54,0.39,0.6,100.85,0
2020-03-14T21:32:00-05:00,93.74,12.26,736.43,-0.64,0.56,139.24,0
2020-03-14T21:33:00-05:00,93.5,12.27,736.27,1.86,0.54,91.75,0
2020-03-14T21:34:00-05:00,93.81,12.27,736.03,-0.35,0.27,138.27,0
2020-03-14T21:35:00-05:00,93.48,12.25,736.54,-0.05,0.64,102.88,0
2020-03-14T21:36:00-05:00,93.43,12.25,737,1.12,0.25,86.96,0
2020-03-14T21:37:00-05:00,93.35,12.25,735.53,0.39,0.58,89.41,0
2020-03-14T21:38:00-05:00,93.37,12.25,737.47,0.39,0.48,126.16,0
2020-03-14T21:39:00-05:00,93.42,12.23,736.27,0.68,0.6,104.23,0
2020-03-14T21:40:00-05:00,93.46,12.28,736.13,2.45,0.54,104.94,0
2020-03-14T21:41:00-05:00,93.08,12.25,737.87,2.59,0.57,129.88,0
2020-03-14T21:42:00-05:00,92.99,12.26,736.84,1.12,0.5,60.59,0
2020-03-14T21:43:00-05:00,93.21,12.28,737.67,1.86,0.34,113.05,0
2020-03-14T21:44:00-05:00,93.04,12.29,736.07,2.15,0.6,90.45,0
2020-03-14T21:45:00-05:00,92.78,12.28,736.57,0.68,0.54,111.39,0
2020-03-14T21:46:00-05:00,92.61,12.27,737.81,2.74,0.36,69.23,0
2020-03-14T21:47:00-05:00,92.44,12.29,737.07,0.53,0.61,105.08,0
2020-03-14T21:48:00-05:00,92.59,12.29,737.44,2,0.33,101.64,0
2020-03-14T21:49:00-05:00,92.81,12.31,737.71,1.86,0.32,157.19,0
2020-03-14T21:50:00-05:00,92.38,12.31,736.27,2.45,0.42,112.98,0
2020-03-14T21:51:00-05:00,92.39,12.29,737.44,0.24,0.19,118.93,0
2020-03-14T21:52:00-05:00,92.61,12.32,736.1,2.45,0.35,106.84,0
2020-03-14T21:53:00-05:00,92.57,12.32,736.47,-0.05,0.33,48.62,0
2020-03-14T21:54:00-05:00,92.75,12.33,737.81,0.53,0.31,121.86,0
2020-03-14T21:55:00-05:00,92.46,12.31,735.83,1.12,0.56,43.04,0
2020-03-14T21:56:00-05:00,92.69,12.31,736.5,1.42,0.6,76.33,0
2020-03-14T21:57:00-05:00,92.3,12.31,736,1.56,0.31,46.54,0
2020-03-14T21:58:00-05:00,92.38,12.31,737.77,0.83,0.24,88.68,0
2020-03-14T21:59:00-05:00,92.54,12.33,737.04,0.09,0.23,85.04,0
2020-03-14T22:00:00-05:00,92.44,12.33,735.93,-0.05,0.56,87.66,0
2020-03-14T22:01:00-05:00,92.16,12.33,735.97,1.56,0.59,134.72,0
2020-03-14T22:02:00-05:00,92.1,12.32,737.57,2.15,0.56,108.21,0
2020-03-14T22:03:00-05:00,92.13,12.35,737.24,0.53,0.36,136.23,0
2020-03-14T22:04:00-05:00,91.87,12.32,737,0.68,0.54,120.3,0
2020-03-14T22:05:00-05:00,91.96,12.33,735.87,0.68,0.56,139.28,0
2020-03-14T22:06:00-05:00,92.18,12.35,736.94,-0.94,0.33,134.21,0
2020-03-14T22:07:00-05:00,92.21,12.35,735.87,-0.49,0.67,95.02,0
2020-03-14T22:08:00-05:00,92.3,12.37,736.03,1.86,0.24,79.54,0
2020-03-14T22:09:00-05:00,91.89,12.33,737.81,0.83,0.31,90.29,0
2020-03-14T22:10:00-05:00,91.79,12.33,736.54,-0.64,0.66,101.43,0
2020-03-14T22:11:00-05:00,91.9,12.31,735.67,-0.2,0.53,126.62,0
2020-03-14T22:12:00-05:00,92.22,12.33,737,0.68,0.39,143.21,0
2020-03-14T22:13:00-05:00,92.08,12.31,736.4,2.15,0.54,153.48,0
2020-03-14T22:14:00-05:00,92.45,12.31,737.07,0.83,0.11,186,0
2020-03-14T22:15:00-05:00,92.35,12.29,737.1,-0.49,0.54,134.13,0
2020-03-14T22:16:00-05:00,92.17,12.31,737.87,-1.08,0.42,156.18,0
2020-03-14T22:17:00-05:00,92.23,12.26,737.61,-0.49,0.59,147.24,0
2020-03-14T22:18:00-05:00,91.8,12.25,737.97,0.83,0.61,146.54,0
2020-03-14T22:19:00-05:00,91.56,12.23,735.77,-0.94,0.59,145.57,0
2020-03-14T22:20:00-05:00,91.81,12.24,737.47,1.71,0.45,138.28,0
2020-03-14T22:21:00-05:00,92.12,12.24,736,1.56,0.42,136.21,0
2020-03-14T22:22:00-05:00,92.06,12.25,737.2,0.24,0.56,122.22,0
2020-03-14T22:23:00-05:00,92.19,12.24,736.47,1.56,0.34,139.26,0
2020-03-14T22:24:00-05:00,92.4,12.25,737.07,0.09,0.29,148.23,0
2020-03-14T22:25:00-05:00,92.51,12.23,737.04,1.42,0.43,127.23,0
2020-03-14T22:26:00-05:00,92.56,12.23,736.6,0.68,0.6,112.95,0
2020-03-14T22:27:00-05:00,92.58,12.23,736.5,-0.2,0.33,138.91,0
2020-03-14T22:28:00-05:00,92.54,12.23,737.44,1.12,0.58,120.39,0
2020-03-14T22:29:00-05:00,92.56,12.21,736.97,-0.2,0.51,114.39,0
2020-03-14T22:30:00-05:00,92.74,12.22,736.5,1.27,0.59,115.65,0
2020-03-14T22:31:00-05:00,92.46,12.21,735.73,0.39,0.58,117.19,0
2020-03-14T22:32:00-05:00,92.6,12.21,736.43,0.98,0.66,120.62,0
2020-03-14T22:33:00-05:00,92.51,12.21,737.31,0.68,0.32,137.32,0
2020-03-14T22:34:00-05:00,92.61,12.23,736.03,0.83,0.63,119.5,0
2020-03-14T22:35:00-05:00,92.38,12.21,736,2.74,0.63,117.2,0
2020-03-14T22:36:00-05:00,92.31,12.23,736.57,1.71,0.61,112.04,0
2020-03-14T22:37:00-05:00,92.33,12.23,737.54,2.59,0.57,51,0
2020-03-14T22:38:00-05:00,92.34,12.25,736.7,3.03,0.68,35.34,0
2020-03-14T22:39:00-05:00,92.49,12.29,737.61,3.47,0.51,69.6,0
2020-03-14T22:40:00-05:00,92.22,12.31,736.03,3.18,0.23,163.2,0
2020-03-14T22:41:00-05:00,92.17,12.31,736.74,0.98,0.3,145.28,0
2020-03-14T22:42:00-05:00,92.03,12.33,737.77,2.59,0.25,128.28,0
2020-03-14T22:43:00-05:00,92.09,12.33,737.27,2.45,0.52,139.24,0
2020-03-14T22:44:00-05:00,91.81,12.33,737.74,0.24,0.35,81.6,0
2020-03-14T22:45:00-05:00,91.9,12.32,737.31,0.09,0.55,56.57,0
2020-03-14T22:46:00-05:00,91.56,12.3,736.77,0.09,0.57,110.26,0
2020-03-14T22:47:00-05:00,91.63,12.31,736.03,2.74,0.45,107.82,0
2020-03-14T22:48:00-05:00,91.62,12.3,735.93,1.42,0.41,109.17,0
2020-03-14T22:49:00-05:00,91.61,12.31,735.53,1.86,0.2,73.24,0
2020-03-14T22:50:00-05:00,91.94,12.31,736.07,0.39,0.59,110.07,0
2020-03-14T22:51:00-05:00,92.12,12.31,736.67,1.56,0.13,169.44,0
2020-03-14T22:52:00-05:00,92.36,12.33,736.07,0.24,0.21,91.6,0
2020-03-14T22:53:00-05:00,92.3,12.3,736.74,1.12,0.6,148.48,0
2020-03-14T22:54:00-05:00,92.17,12.29,737.61,1.86,0.56,143.2,0
2020-03-14T22:55:00-05:00,92.28,12.29,737.54,0.24,0.59,164.2,0
2020-03-14T22:56:00-05:00,92.33,12.26,736.4,0.09,0.64,166.16,0
2020-03-14T22:57:00-05:00,92.38,12.27,735.53,1.42,0.71,155.2,0
2020-03-14T22:58:00-05:00,92.48,12.27,736.3,1.56,0.61,149.18,0
2020-03-14T22:59:00-05:00,92.63,12.26,737,2.89,0.5,166.11,0
2020-03-14T23:00:00-05:00,92.99,12.27,736.47,-0.35,0.19,123.71,0
2020-03-14T23:01:00-05:00,93.12,12.27,737.71,0.68,0.23,102.27,0
2020-03-14T23:02:00-05:00,93.44,12.27,737.61,1.71,0.18,102.65,0
2020-03-14T23:03:00-05:00,93.41,12.26,737,1.86,0.54,119.67,0
2020-03-14T23:04:00-05:00,93.46,12.25,736.64,0.68,0.52,121.29,0
2020-03-14T23:05:00-05:00,93.44,12.26,737.37,1.56,0.38,106.68,0
2020-03-14T23:06:00-05:00,93.57,12.27,737.61,0.09,0.28,180.47,0
2020-03-14T23:07:00-05:00,93.61,12.26,735.73,-0.35,0.37,143.18,0
2020-03-14T23:08:00-05:00,93.58,12.27,737.07,0.39,0.33,153.47,0
2020-03-14T23:09:00-05:00,93.59,12.26,735.77,1.56,0.26,161.13,0
2020-03-14T23:10:00-05:00,93.59,12.28,736.2,1.27,0.23,158.53,0
2020-03-14T23:11:00-05:00,93.74,12.27,736.27,-0.79,0.23,146.27,0
2020-03-14T23:12:00-05:00,93.68,12.28,737,-0.35,0.52,136.47,0
2020-03-14T23:13:00-05:00,93.63,12.27,735.7,2,0.46,119.31,0
2020-03-14T23:14:00-05:00,93.71,12.27,737.57,1.56,0.46,112.01,0
2020-03-14T23:15:00-05:00,93.59,12.27,736.5,-0.79,0.53,125.8,0
2020-03-14T23:16:00-05:00,93.61,12.28,736.37,0.68,0.49,127.21,0
2020-03-14T23:17:00-05:00,93.53,12.3,735.8,0.68,0.28,113.85,0
2020-03-14T23:18:00-05:00,93.74,12.31,737.47,2,0.48,105.27,0
2020-03-14T23:19:00-05:00,93.79,12.29,737.44,-0.2,0.23,143.21,0
2020-03-14T23:20:00-05:00,93.92,12.29,735.56,-0.64,0.16,178.03,0
2020-03-14T23:21:00-05:00,93.86,12.3,735.33,-0.94,0.2,169.09,0
2020-03-14T23:22:00-05:00,93.69,12.29,735.33,0.39,0.35,134.6,0
2020-03-14T23:23:00-05:00,93.66,12.29,736.27,-0.2,0.23,140.05,0
2020-03-14T23:24:00-05:00,93.86,12.28,735.97,-0.94,0.2,151.14,0
2020-03-14T23:25:00-05:00,93.95,12.27,737.57,-0.49,0.17,141.53,0
2020-03-14T23:26:00-05:00,93.92,12.26,737.1,-1.08,0.21,122.73,0
2020-03-14T23:27:00-05:00,93.99,12.24,736.74,-0.35,0.17,141.58,0
2020-03-14T23:28:00-05:00,93.98,12.26,735.56,-0.94,0.49,116.18,0
2020-03-14T23:29:00-05:00,93.59,12.21,736.67,-0.64,0.59,106.38,0
2020-03-14T23:30:00-05:00,93.38,12.18,735.73,2,0.68,107.77,0
2020-03-14T23:31:00-05:00,93.19,12.19,737.24,2.3,0.3,97.35,0
2020-03-14T23:32:00-05:00,93.26,12.21,736.8,0.83,0.24,106.19,0
2020-03-14T23:33:00-05:00,93.39,12.22,736.03,0.68,0.4,140.3,0
2020-03-14T23:34:00-05:00,93.27,12.22,735.43,0.39,0.12,148.2,0
2020-03-14T23:35:00-05:00,93.37,12.23,737.34,1.27,0.22,88.96,0
2020-03-14T23:36:00-05:00,93.53,12.23,737.64,0.83,0.36,139.29,0
2020-03-14T23:37:00-05:00,93.31,12.22,737.61,-0.2,0.34,122.28,0
2020-03-14T23:38:00-05:00,93.48,12.23,736.27,1.27,0.44,114.57,0
2020-03-14T23:39:00-05:00,93.57,12.22,735.7,0.09,0.49,118.19,0
2020-03-14T23:40:00-05:00,93.48,12.22,737.1,0.68,0.27,121.28,0
2020-03-14T23:41:00-05:00,93.23,12.22,735.33,2,0.25,61.41,0
2020-03-14T23:42:00-05:00,93.26,12.19,737.44,2.15,0.56,106.38,0
2020-03-14T23:43:00-05:00,93.05,12.19,737.51,0.83,0.37,118.2,0
2020-03-14T23:44:00-05:00,92.93,12.17,735.3,-0.64,0.29,102.64,0
2020-03-14T23:45:00-05:00,93.1,12.21,737.24,0.53,0.21,134.54,0
2020-03-14T23:46:00-05:00,93.07,12.18,735.6,0.83,0.22,166.49,0
2020-03-14T23:47:00-05:00,92.84,12.19,737.44,0.09,0.33,226.83,0
2020-03-14T23:48:00-05:00,92.92,12.19,736.6,1.42,0.58,157.56,0
2020-03-14T23:49:00-05:00,92.74,12.21,737.07,-0.05,0.34,167.13,0
2020-03-14T23:50:00-05:00,92.69,12.22,736.77,1.27,0.54,182.35,0
2020-03-14T23:51:00-05:00,92.72,12.21,735.87,0.83,0.35,183.05,0
2020-03-14T23:52:00-05:00,92.49,12.19,735.13,0.83,0.48,157.21,0
2020-03-14T23:53:00-05:00,92.43,12.19,736.8,0.53,0.51,152.16,0
2020-03-14T23:54:00-05:00,92.59,12.21,735.93,0.09,0.31,132.03,0
2020-03-14T23:55:00-05:00,92.75,12.23,736.07,-0.05,0.38,110.4,0
2020-03-14T23:56:00-05:00,92.8,12.23,736.13,2.15,0.39,136.21,0
2020-03-14T23:57:00-05:00,92.74,12.23,735.26,1.56,0.49,102.39,0
2020-03-14T23:58:00-05:00,92.87,12.23,735.03,-0.05,0.37,90.15,0
2020-03-14T23:59:00-05:00,92.74,12.21,737.54,1.86,0.51,107.49,0
