time,[HUME],[TEMP],[PRES],[RADI],[RAPV],[DIRV],[PREC]
2020-03-19T00:00:00-05:00,85.6,12.07,738.78,-1.23,0.57,79.59,0
2020-03-19T00:01:00-05:00,85.51,12.07,739.05,-2.26,0.61,121.57,0
2020-03-19T00:02:00-05:00,85.41,12.07,739.82,-0.2,0.73,92.77,0
2020-03-19T00:03:00-05:00,85.12,12.09,739.75,-2.85,0.58,64.62,0
2020-03-19T00:04:00-05:00,85.35,12.13,739.55,-1.82,0.38,105.79,0
2020-03-19T00:05:00-05:00,85.17,12.13,739.08,-1.82,0.6,104.73,0
2020-03-19T00:06:00-05:00,85.36,12.11,738.88,-1.38,0.61,62.31,0
2020-03-19T00:07:00-05:00,85.71,12.12,739.41,-0.94,0.62,42.44,0
2020-03-19T00:08:00-05:00,85.61,12.13,739.75,-2.26,0.62,87.72,0
2020-03-19T00:09:00-05:00,85.5,12.09,739.51,-3.29,0.6,1.15,0
2020-03-19T00:10:00-05:00,86,12.12,739.08,-2.85,0.8,49.01,0
2020-03-19T00:11:00-05:00,85.88,12.12,739.51,-3.73,0.08,162.21,0
2020-03-19T00:12:00-05:00,85.19,12.1,739.51,-3.73,0.7,121.32,0
2020-03-19T00:13:00-05:00,85.56,12.09,739.65,-4.02,0.45,67.66,0
2020-03-19T00:14:00-05:00,85.18,12.1,739.41,-4.46,0.55,81.22,0
2020-03-19T00:15:00-05:00,85.63,12.08,738.81,-3.73,0.11,329.25,0
2020-03-19T00:16:00-05:00,85.13,12.08,738.71,-4.32,0.63,97.25,0
2020-03-19T00:17:00-05:00,84.8,12.07,738.68,-3.88,0.66,64.75,0
2020-03-19T00:18:00-05:00,84.85,12.05,738.95,-2.99,0.58,79,0
2020-03-19T00:19:00-05:00,84.69,12.07,738.98,-2.11,0.78,91.31,0
2020-03-19T00:20:00-05:00,84.61,12.06,739.01,-2.55,0.69,85.5,0
2020-03-19T00:21:00-05:00,84.85,12.05,738.01,-2.7,0.23,116.19,0
2020-03-19T00:22:00-05:00,84.9,12.03,737.74,-2.99,0.57,126.52,0
2020-03-19T00:23:00-05:00,84.68,11.99,738.78,-4.02,0.24,165.13,0
2020-03-19T00:24:00-05:00,84.91,11.97,738.54,-2.55,0.52,136.55,0
2020-03-19T00:25:00-05:00,84.98,11.93,738.01,-3.73,0.56,138.27,0
2020-03-19T00:26:00-05:00,85.29,11.91,737.91,-2.55,0.51,129.83,0
2020-03-19T00:27:00-05:00,85.17,11.87,737.04,-4.61,0.42,23.02,0
2020-03-19T00:28:00-05:00,85.05,11.87,737.87,-2.55,0.6,101.69,0
2020-03-19T00:29:00-05:00,85.18,11.86,737.77,-2.11,0.66,169.09,0
2020-03-19T00:30:00-05:00,84.9,11.85,737.57,-2.99,0.34,47.82,0
2020-03-19T00:31:00-05:00,85.09,11.85,738.61,-1.08,0.57,42.96,0
2020-03-19T00:32:00-05:00,85.45,11.85,737.91,-4.17,0.23,226.86,0
2020-03-19T00:33:00-05:00,85.41,11.83,737.81,-1.38,0.31,242.82,0
2020-03-19T00:34:00-05:00,85.01,11.83,737.51,-1.08,0.59,188.05,0
2020-03-19T00:35:00-05:00,84.73,11.81,738.01,-2.85,0.46,158.21,0
2020-03-19T00:36:00-05:00,84.89,11.8,737.67,-2.99,0.59,201.97,0
2020-03-19T00:37:00-05:00,84.68,11.81,738.24,-0.94,0.22,163.19,0
2020-03-19T00:38:00-05:00,85.01,11.8,738.14,-1.52,0.22,103.02,0
2020-03-19T00:39:00-05:00,85.14,11.8,737.64,-0.49,0.67,122.88,0
2020-03-19T00:40:00-05:00,85.24,11.78,738.28,-0.64,0.55,149.23,0
2020-03-19T00:41:00-05:00,84.81,11.81,737.77,-2.11,0.79,357.8,0
2020-03-19T00:42:00-05:00,85.39,11.85,738.34,-1.52,0.54,257.79,0
2020-03-19T00:43:00-05:00,84.95,11.84,738.18,-0.05,0.62,51.32,0
2020-03-19T00:44:00-05:00,85.1,11.85,738.68,-1.97,0.58,97.75,0
2020-03-19T00:45:00-05:00,85.09,11.87,738.81,-1.97,0.54,101.29,0
2020-03-19T00:46:00-05:00,85.39,11.85,737.34,-0.35,0.24,48.15,0
2020-03-19T00:47:00-05:00,85.31,11.85,738.44,-1.52,0.35,49.37,0
2020-03-19T00:48:00-05:00,85.42,11.84,737.81,-1.82,0.66,35.89,0
2020-03-19T00:49:00-05:00,85.85,11.83,738.51,-1.97,0.55,139.3,0
2020-03-19T00:50:00-05:00,85.22,11.83,738.54,-1.23,0.49,46.33,0
2020-03-19T00:51:00-05:00,85.57,11.81,738.48,0.83,0.31,139.09,0
2020-03-19T00:52:00-05:00,85.06,11.83,738.61,-2.11,0.42,132.67,0
2020-03-19T00:53:00-05:00,84.66,11.81,738.48,-2.26,0.16,93.95,0
2020-03-19T00:54:00-05:00,84.61,11.81,739.11,-2.41,0.32,137.31,0
2020-03-19T00:55:00-05:00,84.49,11.84,739.08,-1.52,0.39,140.24,0
2020-03-19T00:56:00-05:00,84.54,11.83,738.21,-2.41,0.22,181.09,0
2020-03-19T00:57:00-05:00,84.94,11.85,739.05,-1.82,0.57,123.26,0
2020-03-19T00:58:00-05:00,84.14,11.85,738.91,-1.67,0.48,51.95,0
2020-03-19T00:59:00-05:00,83.9,11.87,738.28,-2.11,0.49,118.03,0
2020-03-19T01:00:00-05:00,84.25,11.87,738.88,0.39,0.46,105.54,0
2020-03-19T01:01:00-05:00,84.38,11.88,738.31,-2.41,0.57,119.34,0
2020-03-19T01:02:00-05:00,84.12,11.91,738.81,-0.05,0.55,89.16,0
2020-03-19T01:03:00-05:00,83.53,11.91,738.91,-2.41,0.73,53.88,0
2020-03-19T01:04:00-05:00,83.37,11.91,739.28,-0.35,0.6,90.87,0
2020-03-19T01:05:00-05:00,84.16,11.93,738.78,-0.64,0.33,238.87,0
2020-03-19T01:06:00-05:00,83.98,11.94,739.15,-1.97,0.24,103.53,0
2020-03-19T01:07:00-05:00,83.48,11.93,739.08,-0.94,0.21,120.33,0
2020-03-19T01:08:00-05:00,83.68,11.93,739.01,-2.99,0.28,151.17,0
2020-03-19T01:09:00-05:00,83.35,11.93,738.81,-1.38,0.51,84.22,0
2020-03-19T01:10:00-05:00,83.36,11.95,738.78,-2.55,0.55,60.4,0
2020-03-19T01:11:00-05:00,83,11.96,738.48,-0.49,0.55,85.96,0
2020-03-19T01:12:00-05:00,82.71,11.96,739.92,-2.85,0.58,69.74,0
2020-03-19T01:13:00-05:00,82.33,11.97,738.01,-2.99,0.55,57.88,0
2020-03-19T01:14:00-05:00,82.72,12,738.38,-2.26,0.22,42.27,0
2020-03-19T01:15:00-05:00,83.61,11.98,738.85,-4.46,0.52,82.85,0
2020-03-19T01:16:00-05:00,82.97,11.95,738.44,-1.82,0.34,89.08,0
2020-03-19T01:17:00-05:00,83.05,11.93,738.61,-4.61,0.32,37.14,0
2020-03-19T01:18:00-05:00,84,11.93,738.01,-4.17,0.62,106.24,0
2020-03-19T01:19:00-05:00,83.31,11.9,738.38,-3.58,0.25,27.63,0
2020-03-19T01:20:00-05:00,83.61,11.87,738.58,-5.05,0.62,105.39,0
2020-03-19T01:21:00-05:00,83.64,11.85,737.91,-5.2,0.5,125.52,0
2020-03-19T01:22:00-05:00,82.78,11.83,737.71,-4.76,0.64,32.16,0
2020-03-19T01:23:00-05:00,83.52,11.84,737.2,-2.85,0.64,122.73,0
2020-03-19T01:24:00-05:00,82.91,11.83,737.44,-4.61,0.52,90.11,0
2020-03-19T01:25:00-05:00,83.24,11.83,737.07,-2.85,0.85,42.95,0
2020-03-19T01:26:00-05:00,83.2,11.83,737.57,-4.02,0.58,8.88,0
2020-03-19T01:27:00-05:00,83.06,11.79,737.67,-3.14,0.64,177.06,0
2020-03-19T01:28:00-05:00,82.57,11.78,736.54,-5.49,0.52,148.25,0
2020-03-19T01:29:00-05:00,82.81,11.75,736.74,-2.85,0.37,145.28,0
2020-03-19T01:30:00-05:00,82.72,11.75,737.51,-6.08,0.34,148.25,0
2020-03-19T01:31:00-05:00,82.89,11.74,737.27,-5.64,0.46,125.13,0
2020-03-19T01:32:00-05:00,82.79,11.72,737.31,-5.64,0.61,84.42,0
2020-03-19T01:33:00-05:00,83.1,11.7,736.94,-4.91,0.57,117.05,0
2020-03-19T01:34:00-05:00,83.23,11.65,737,-5.93,0.6,89.75,0
2020-03-19T01:35:00-05:00,83.38,11.64,735.77,-2.55,0.73,79.9,0
2020-03-19T01:36:00-05:00,83.62,11.59,736.7,-5.35,0.62,83.65,0
2020-03-19T01:37:00-05:00,83.86,11.55,736.74,-3.73,0.72,96.31,0
2020-03-19T01:38:00-05:00,83.5,11.55,736.6,-3.58,0.58,126.57,0
2020-03-19T01:39:00-05:00,83.59,11.55,736.33,-4.17,0.58,103.25,0
2020-03-19T01:40:00-05:00,83.66,11.53,736.5,-4.32,0.66,117.8,0
2020-03-19T01:41:00-05:00,83.86,11.5,736.57,-4.46,0.64,135.88,0
2020-03-19T01:42:00-05:00,84.15,11.45,736.23,-4.91,0.68,77.81,0
2020-03-19T01:43:00-05:00,84.09,11.43,736.1,-4.91,0.64,122.73,0
2020-03-19T01:44:00-05:00,84.32,11.38,735.9,-5.49,0.97,113.61,0
2020-03-19T01:45:00-05:00,84.28,11.34,736.13,-3.14,0.61,76.14,0
2020-03-19T01:46:00-05:00,84.5,11.32,735.43,-2.85,0.5,81.36,0
2020-03-19T01:47:00-05:00,84.6,11.3,735.06,-4.32,0.69,53.1,0
2020-03-19T01:48:00-05:00,84.86,11.32,735.63,-3.88,0.53,112.43,0
2020-03-19T01:49:00-05:00,84.89,11.32,736,-3.29,0.69,81.25,0
2020-03-19T01:50:00-05:00,84.84,11.29,735.67,-5.05,0.59,88.86,0
2020-03-19T01:51:00-05:00,84.48,11.28,735.3,-3.58,0.57,94.58,0
2020-03-19T01:52:00-05:00,84.67,11.31,735.5,-2.7,0.72,73.8,0
2020-03-19T01:53:00-05:00,84.63,11.27,735.43,-2.7,0.56,67.84,0
2020-03-19T01:54:00-05:00,84.56,11.3,735.16,-3.58,0.45,73.78,0
2020-03-19T01:55:00-05:00,84.69,11.28,735.23,-3.29,0.54,93.83,0
2020-03-19T01:56:00-05:00,84.57,11.26,735.03,-3.88,0.68,119.6,0
2020-03-19T01:57:00-05:00,84.41,11.21,734.86,-2.99,0.69,107.69,0
2020-03-19T01:58:00-05:00,84.77,11.21,734.69,-4.46,0.58,125.31,0
2020-03-19T01:59:00-05:00,84.97,11.14,735.36,-3.14,0.64,132.74,0
2020-03-19T02:00:00-05:00,85.11,11.12,734.83,-2.7,0.61,101.34,0
2020-03-19T02:01:00-05:00,85.05,11.08,734.46,-4.32,0.47,65.61,0
2020-03-19T02:02:00-05:00,85.16,11.07,734.86,-2.99,0.52,84.99,0
2020-03-19T02:03:00-05:00,85.46,11.05,734.73,-3.44,0.59,102.71,0
2020-03-19T02:04:00-05:00,85.46,11,734.46,-5.49,0.6,86.02,0
2020-03-19T02:05:00-05:00,85.21,10.97,734.79,-4.32,0.55,105.98,0
2020-03-19T02:06:00-05:00,85.34,10.96,734.76,-2.55,0.49,100.26,0
2020-03-19T02:07:00-05:00,85.4,10.96,734.29,-2.85,0.45,118.34,0
2020-03-19T02:08:00-05:00,85.35,10.94,733.86,-3.73,0.35,49.19,0
2020-03-19T02:09:00-05:00,86.1,10.94,734.13,-4.76,0.56,49.3,0
2020-03-19T02:10:00-05:00,86.29,10.89,734.33,-5.79,0.2,203.93,0
2020-03-19T02:11:00-05:00,85.8,10.88,733.66,-3.44,0.58,173.13,0
2020-03-19T02:12:00-05:00,85.63,10.91,734.26,-4.02,0.59,172.13,0
2020-03-19T02:13:00-05:00,85.25,10.92,734.09,-2.41,0.59,155.21,0
2020-03-19T02:14:00-05:00,85.23,10.92,734.19,-2.26,0.59,158.53,0
2020-03-19T02:15:00-05:00,85.27,10.96,734.86,-3.73,0.68,134.21,0
2020-03-19T02:16:00-05:00,85.31,10.95,734.09,-3.14,0.63,114.89,0
2020-03-19T02:17:00-05:00,85.61,10.94,734.29,-3.44,0.61,113.29,0
2020-03-19T02:18:00-05:00,85.75,10.96,734.56,-2.85,0.57,130.6,0
2020-03-19T02:19:00-05:00,85.66,10.96,734.73,-3.73,0.57,155.23,0
2020-03-19T02:20:00-05:00,85.53,10.98,734.63,-4.17,0.62,141.54,0
2020-03-19T02:21:00-05:00,85.44,11,734.9,-3.58,0.61,149.21,0
2020-03-19T02:22:00-05:00,85.49,10.98,734.86,-2.7,0.75,142.58,0
2020-03-19T02:23:00-05:00,85.7,10.98,734.56,-1.67,0.57,128.3,0
2020-03-19T02:24:00-05:00,85.84,10.98,735.26,-3.44,0.64,94.46,0
2020-03-19T02:25:00-05:00,87.26,11,735.46,-2.55,0.27,128.3,0
2020-03-19T02:26:00-05:00,87.43,11.04,734.9,-1.97,0.2,62.9,0
2020-03-19T02:27:00-05:00,87.12,11.06,734.63,-1.38,0.55,44.69,0
2020-03-19T02:28:00-05:00,87.17,11.05,735.13,-2.99,0.43,54.19,0
2020-03-19T02:29:00-05:00,87.7,11.04,735,-1.67,0.61,72.1,0
2020-03-19T02:30:00-05:00,88.26,11.04,734.02,-0.64,0.36,126.17,0
2020-03-19T02:31:00-05:00,88.96,11.08,734.9,-1.97,0.6,129.83,0
2020-03-19T02:32:00-05:00,89.31,11.1,735.06,-2.26,0.11,83.08,0
2020-03-19T02:33:00-05:00,88.9,11.1,735.46,-3.29,0.56,136.79,0
2020-03-19T02:34:00-05:00,89.04,11.12,735.7,-1.67,0.57,190.04,0
2020-03-19T02:35:00-05:00,88.81,11.12,735.9,-0.49,0.59,196.27,0
2020-03-19T02:36:00-05:00,88.81,11.08,735.33,-1.97,0.44,209.95,0
2020-03-19T02:37:00-05:00,88.68,11.08,736.03,-0.64,0.49,214.29,0
2020-03-19T02:38:00-05:00,88.76,11.06,735.97,-1.38,0.28,18.24,0
2020-03-19T02:39:00-05:00,88.85,11.06,735.7,0.39,0.25,10.25,0
2020-03-19T02:40:00-05:00,88.84,11.04,735.63,0.39,0.3,46.57,0
2020-03-19T02:41:00-05:00,89.34,11.04,734.53,-1.38,0.24,100.55,0
2020-03-19T02:42:00-05:00,89.24,11.04,736,-2.26,0.53,81.04,0
2020-03-19T02:43:00-05:00,89.16,11.03,735.03,-2.99,0.57,82.41,0
2020-03-19T02:44:00-05:00,89.06,11.01,735.77,-4.17,0.73,89.15,0
2020-03-19T02:45:00-05:00,89.16,10.98,734.79,-2.99,0.58,89.93,0
2020-03-19T02:46:00-05:00,88.89,10.96,735.1,-2.85,0.51,91.79,0
2020-03-19T02:47:00-05:00,88.9,10.93,735.56,-2.26,0.58,101.98,0
2020-03-19T02:48:00-05:00,88.71,10.9,735.43,-4.61,0.67,108.17,0
2020-03-19T02:49:00-05:00,87.87,10.88,735.67,-4.32,0.53,111.25,0
2020-03-19T02:50:00-05:00,87.76,10.86,735.73,-4.17,0.28,137.3,0
2020-03-19T02:51:00-05:00,87.75,10.84,735.23,-3.44,0.26,127.32,0
2020-03-19T02:52:00-05:00,87.98,10.84,734.39,-4.02,0.57,102.89,0
2020-03-19T02:53:00-05:00,87.95,10.82,733.72,-4.02,0.09,136.21,0
2020-03-19T02:54:00-05:00,88.15,10.82,733.89,-4.61,0.57,226.22,0
2020-03-19T02:55:00-05:00,88.18,10.8,734.26,-3.14,0.63,191.99,0
2020-03-19T02:56:00-05:00,88.21,10.79,734.69,-2.99,0.62,154.59,0
2020-03-19T02:57:00-05:00,88.65,10.79,734.76,-3.88,0.57,134.19,0
2020-03-19T02:58:00-05:00,89.06,10.78,733.76,-4.02,0.65,80.02,0
2020-03-19T02:59:00-05:00,89.55,10.78,734.53,-1.67,0.58,106.2,0
2020-03-19T03:00:00-05:00,89.74,10.78,734.56,-3.44,0.6,107.33,0
2020-03-19T03:01:00-05:00,89.92,10.76,734.73,-1.97,0.51,106.26,0
2020-03-19T03:02:00-05:00,89.96,10.73,734.39,-1.52,0.19,103.24,0
2020-03-19T03:03:00-05:00,90.24,10.73,735.03,-1.97,0.61,132.25,0
2020-03-19T03:04:00-05:00,90.17,10.72,733.62,-2.7,0.42,118.34,0
2020-03-19T03:05:00-05:00,90.27,10.7,733.69,-4.61,0.26,123.38,0
2020-03-19T03:06:00-05:00,90.34,10.7,733.42,-2.11,0.58,71.56,0
2020-03-19T03:07:00-05:00,90.19,10.7,733.56,-3.44,0.75,101.56,0
2020-03-19T03:08:00-05:00,90.27,10.69,733.92,-3.44,0.57,40.78,0
2020-03-19T03:09:00-05:00,90.03,10.69,733.99,-2.11,0.28,232.85,0
2020-03-19T03:10:00-05:00,89.92,10.68,733.69,-4.32,0.83,155.24,0
2020-03-19T03:11:00-05:00,89.62,10.66,734.13,-3.14,0.58,159.47,0
2020-03-19T03:12:00-05:00,89.77,10.66,733.42,-4.17,0.54,158.41,0
2020-03-19T03:13:00-05:00,90.28,10.66,733.76,-4.32,0.62,165.45,0
2020-03-19T03:14:00-05:00,90.59,10.68,734.19,-3.58,0.63,131.02,0
2020-03-19T03:15:00-05:00,90.81,10.69,733.62,-3.58,0.78,137.66,0
2020-03-19T03:16:00-05:00,90.75,10.68,733.36,-4.32,0.33,115.88,0
2020-03-19T03:17:00-05:00,91.15,10.68,733.39,-4.32,0.18,159.53,0
2020-03-19T03:18:00-05:00,91.33,10.7,733.89,-2.41,0.56,131.25,0
2020-03-19T03:19:00-05:00,91.74,10.72,734.13,-3.73,0.45,142.49,0
2020-03-19T03:20:00-05:00,91.84,10.75,733.52,-3.58,0.5,113.33,0
2020-03-19T03:21:00-05:00,91.78,10.78,733.59,-2.7,0.66,103.24,0
2020-03-19T03:22:00-05:00,91.64,10.78,733.62,-3.14,0.61,87.25,0
2020-03-19T03:23:00-05:00,91.35,10.78,733.39,-1.38,0.65,94.52,0
2020-03-19T03:24:00-05:00,90.99,10.78,733.79,-3.29,0.69,100.32,0
2020-03-19T03:25:00-05:00,91.19,10.76,733.72,-2.26,0.25,75.49,0
2020-03-19T03:26:00-05:00,91.28,10.75,733.59,-4.02,0.63,113.39,0
2020-03-19T03:27:00-05:00,91.47,10.76,734.16,-2.11,0.48,152.16,0
2020-03-19T03:28:00-05:00,91.43,10.78,733.79,-3.29,0.57,176.08,0
2020-03-19T03:29:00-05:00,90.93,10.8,734.09,-2.26,0.65,220.85,0
2020-03-19T03:30:00-05:00,90.78,10.78,733.59,-2.85,0.63,221.21,0
2020-03-19T03:31:00-05:00,90.8,10.76,733.69,-4.17,0.6,199.93,0
2020-03-19T03:32:00-05:00,90.76,10.68,733.29,-4.17,0.46,207.32,0
2020-03-19T03:33:00-05:00,90.83,10.64,733.69,-4.91,0.59,120.29,0
2020-03-19T03:34:00-05:00,90.89,10.6,733.12,-5.93,0.6,143.56,0
2020-03-19T03:35:00-05:00,91.03,10.55,733.02,-4.61,0.67,130.39,0
2020-03-19T03:36:00-05:00,91.1,10.52,733.25,-3.58,0.59,155.61,0
2020-03-19T03:37:00-05:00,91.26,10.52,733.22,-2.7,0.65,139.26,0
2020-03-19T03:38:00-05:00,91.13,10.51,733.66,-4.91,0.64,112.25,0
2020-03-19T03:39:00-05:00,90.86,10.52,733.25,-5.2,0.4,143.18,0
2020-03-19T03:40:00-05:00,90.57,10.5,732.79,-4.91,0.61,145.51,0
2020-03-19T03:41:00-05:00,90.63,10.52,733.42,-4.61,0.73,141.24,0
2020-03-19T03:42:00-05:00,90.51,10.5,733.36,-2.26,0.61,164.16,0
2020-03-19T03:43:00-05:00,90.19,10.51,732.92,-5.05,0.62,144.21,0
2020-03-19T03:44:00-05:00,90.09,10.49,734.06,-4.17,0.56,170.06,0
2020-03-19T03:45:00-05:00,89.79,10.45,733.25,-5.05,0.63,148.52,0
2020-03-19T03:46:00-05:00,90.13,10.45,733.56,-5.05,0.64,147.45,0
2020-03-19T03:47:00-05:00,90.14,10.44,733.46,-5.05,0.64,152.15,0
2020-03-19T03:48:00-05:00,90.51,10.45,733.25,-5.2,0.62,127.5,0
2020-03-19T03:49:00-05:00,90.45,10.44,732.75,-5.49,0.55,121.59,0
2020-03-19T03:50:00-05:00,90.51,10.45,733.72,-4.61,0.57,119.31,0
2020-03-19T03:51:00-05:00,90.81,10.45,732.89,-3.14,0.57,108.33,0
2020-03-19T03:52:00-05:00,91.43,10.47,732.69,-4.17,0.6,95.69,0
2020-03-19T03:53:00-05:00,91.69,10.47,733.42,-1.97,0.45,94.66,0
2020-03-19T03:54:00-05:00,91.8,10.48,733.15,-3.14,0.23,122.99,0
2020-03-19T03:55:00-05:00,91.8,10.48,733.56,-3.73,0.28,133.63,0
2020-03-19T03:56:00-05:00,91.72,10.49,733.15,-2.26,0.35,144.17,0
2020-03-19T03:57:00-05:00,91.98,10.48,733.19,-2.11,0.49,112.55,0
2020-03-19T03:58:00-05:00,92.12,10.5,733.56,-1.67,0.64,95.51,0
2020-03-19T03:59:00-05:00,92.28,10.53,733.79,-2.11,0.58,85.2,0
2020-03-19T04:00:00-05:00,92.34,10.56,733.29,-0.49,0.37,104.4,0
2020-03-19T04:01:00-05:00,92.1,10.54,733.29,-1.08,0.64,116.66,0
2020-03-19T04:02:00-05:00,91.86,10.53,734.19,-1.97,0.29,94.79,0
2020-03-19T04:03:00-05:00,91.25,10.49,733.79,-1.08,0.51,68.37,0
2020-03-19T04:04:00-05:00,90.92,10.45,732.92,-2.41,0.63,88.88,0
2020-03-19T04:05:00-05:00,90.49,10.45,733.22,-3.29,0.6,101.74,0
2020-03-19T04:06:00-05:00,90.37,10.45,733.29,-3.29,0.55,96.72,0
2020-03-19T04:07:00-05:00,90.14,10.44,733.92,-1.38,0.65,97.48,0
2020-03-19T04:08:00-05:00,89.33,10.42,733.42,-3.73,0.58,92.96,0
2020-03-19T04:09:00-05:00,89.38,10.42,733.66,-2.99,0.41,134.93,0
2020-03-19T04:10:00-05:00,89.2,10.4,733.19,-4.02,0.6,122.9,0
2020-03-19T04:11:00-05:00,88.66,10.41,733.82,-4.76,0.63,114.06,0
2020-03-19T04:12:00-05:00,88.07,10.38,733.46,-2.55,0.58,115.19,0
2020-03-19T04:13:00-05:00,87.9,10.38,733.29,-4.91,0.61,129.61,0
2020-03-19T04:14:00-05:00,88.39,10.37,732.42,-5.05,0.64,127.58,0
2020-03-19T04:15:00-05:00,88.84,10.37,732.75,-5.2,0.41,141.2,0
2020-03-19T04:16:00-05:00,88.95,10.34,732.55,-4.61,0.51,136.49,0
2020-03-19T04:17:00-05:00,88.82,10.32,732.59,-2.85,0.65,135.22,0
2020-03-19T04:18:00-05:00,88.39,10.3,732.99,-4.02,0.62,147.25,0
2020-03-19T04:19:00-05:00,87.34,10.23,733.15,-2.55,0.91,140.49,0
2020-03-19T04:20:00-05:00,86.74,10.21,732.45,-4.61,0.8,141.73,0
2020-03-19T04:21:00-05:00,86.3,10.21,732.99,-2.85,0.57,134.19,0
2020-03-19T04:22:00-05:00,86.46,10.2,733.29,-4.17,0.56,111.47,0
2020-03-19T04:23:00-05:00,86.54,10.19,732.99,-3.73,0.58,103.91,0
2020-03-19T04:24:00-05:00,86.64,10.18,732.75,-2.85,0.59,112.2,0
2020-03-19T04:25:00-05:00,86.82,10.17,736.84,-4.61,0.43,157.2,0
2020-03-19T04:26:00-05:00,87.16,10.17,737.54,-1.67,0.49,147.27,0
2020-03-19T04:27:00-05:00,87.44,10.17,736.84,-2.11,0.32,128.63,0
2020-03-19T04:28:00-05:00,87.79,10.17,736.7,-3.88,0.12,157.22,0
2020-03-19T04:29:00-05:00,88.27,10.17,737.84,-3.58,0.59,113.64,0
2020-03-19T04:30:00-05:00,88.7,10.17,737.94,-2.55,0.6,112.24,0
2020-03-19T04:31:00-05:00,88.9,10.17,737.2,-1.82,0.63,146.6,0
2020-03-19T04:32:00-05:00,89.04,10.16,737.57,-2.41,0.58,138.27,0
2020-03-19T04:33:00-05:00,89.32,10.16,737,-1.08,0.71,135.24,0
2020-03-19T04:34:00-05:00,89.6,10.15,737.94,-2.85,0.33,99.55,0
2020-03-19T04:35:00-05:00,89.54,10.16,736.94,-2.7,0.31,94.55,0
2020-03-19T04:36:00-05:00,89.54,10.15,737.44,-0.2,0.57,134.42,0
2020-03-19T04:37:00-05:00,88.88,10.15,737.14,0.53,0.62,127.21,0
2020-03-19T04:38:00-05:00,88.29,10.14,737,-0.94,0.27,110.14,0
2020-03-19T04:39:00-05:00,88.13,10.13,737,-1.38,0.6,134.17,0
2020-03-19T04:40:00-05:00,88.36,10.15,737.54,0.68,0.58,80.62,0
2020-03-19T04:41:00-05:00,88.97,10.13,737.71,0.68,0.58,92.95,0
2020-03-19T04:42:00-05:00,89.31,10.17,737.47,0.39,0.65,131.1,0
2020-03-19T04:43:00-05:00,88.55,10.18,737.91,-0.64,0.57,121.27,0
2020-03-19T04:44:00-05:00,88.2,10.17,737.87,-0.49,0.57,123.23,0
2020-03-19T04:45:00-05:00,87.3,10.17,736.97,-1.08,0.6,126.23,0
2020-03-19T04:46:00-05:00,86.7,10.17,737.27,0.24,0.59,113.23,0
2020-03-19T04:47:00-05:00,86.06,10.17,737.57,1.12,0.61,103.05,0
2020-03-19T04:48:00-05:00,85.64,10.17,737.81,-0.79,0.6,73.47,0
2020-03-19T04:49:00-05:00,85.36,10.19,737.2,-1.67,0.57,66.58,0
2020-03-19T04:50:00-05:00,85.38,10.23,737.17,-1.67,0.6,76.41,0
2020-03-19T04:51:00-05:00,85.09,10.24,736.97,-1.38,0.76,79.54,0
2020-03-19T04:52:00-05:00,84.84,10.27,737.81,-1.38,0.63,95.36,0
2020-03-19T04:53:00-05:00,84.94,10.29,736.6,-1.52,0.6,70.8,0
2020-03-19T04:54:00-05:00,85.22,10.32,735.83,-0.49,0.55,95,0
2020-03-19T04:55:00-05:00,85.7,10.34,737.61,-1.82,0.65,79.95,0
2020-03-19T04:56:00-05:00,85.73,10.38,737.81,0.09,0.81,119.2,0
2020-03-19T04:57:00-05:00,85.78,10.38,737.97,-2.11,0.49,125.22,0
2020-03-19T04:58:00-05:00,85.87,10.37,736.87,-0.94,0.56,139.03,0
2020-03-19T04:59:00-05:00,87.15,10.4,737.07,-0.79,0.57,155.24,0
2020-03-19T05:00:00-05:00,87.73,10.42,737.81,-1.23,0.69,184.04,0
2020-03-19T05:01:00-05:00,88.07,10.43,738.08,-1.82,0.32,187,0
2020-03-19T05:02:00-05:00,88.17,10.44,737.51,-1.97,0.61,140.94,0
2020-03-19T05:03:00-05:00,88.24,10.42,737.47,-1.23,0.68,132.26,0
2020-03-19T05:04:00-05:00,88.13,10.43,737.2,-3.44,0.56,114.52,0
2020-03-19T05:05:00-05:00,88.11,10.42,737.24,-1.67,0.57,122.81,0
2020-03-19T05:06:00-05:00,87.79,10.39,737.17,-3.73,0.76,87.32,0
2020-03-19T05:07:00-05:00,88.01,10.37,737.71,-2.55,0.58,100.51,0
2020-03-19T05:08:00-05:00,88.17,10.36,737.17,-3.88,0.26,141.22,0
2020-03-19T05:09:00-05:00,88.4,10.35,737.41,-1.82,0.65,114.08,0
2020-03-19T05:10:00-05:00,88.92,10.35,737.1,-3.88,0.56,157.17,0
2020-03-19T05:11:00-05:00,89.47,10.34,736.94,-3.58,0.71,142.58,0
2020-03-19T05:12:00-05:00,90.11,10.34,736.67,-4.46,0.63,147.28,0
2020-03-19T05:13:00-05:00,90.37,10.34,736.77,-2.11,0.67,139.21,0
2020-03-19T05:14:00-05:00,90.13,10.33,737.51,-4.02,0.52,143.19,0
2020-03-19T05:15:00-05:00,89.92,10.32,737.27,-3.88,0.65,106.26,0
2020-03-19T05:16:00-05:00,89.92,10.3,736.94,-3.14,0.53,153.13,0
2020-03-19T05:17:00-05:00,90.02,10.31,737.54,-3.14,0.55,140.78,0
2020-03-19T05:18:00-05:00,89.89,10.27,736.8,-3.73,0.54,141.26,0
2020-03-19T05:19:00-05:00,90.3,10.27,737.24,-3.14,0.7,121.29,0
2020-03-19T05:20:00-05:00,90.45,10.25,736.57,-1.67,0.57,129.06,0
2020-03-19T05:21:00-05:00,90.41,10.26,736.57,-3.14,0.56,123.64,0
2020-03-19T05:22:00-05:00,90.41,10.25,736.64,-1.23,0.66,122.31,0
2020-03-19T05:23:00-05:00,90.68,10.24,736.7,-3.44,0.57,113.93,0
2020-03-19T05:24:00-05:00,90.79,10.23,736.84,-2.41,0.58,104.61,0
2020-03-19T05:25:00-05:00,90.65,10.23,736.9,-3.29,0.64,98.92,0
2020-03-19T05:26:00-05:00,90.37,10.23,737.14,-1.52,0.63,106.04,0
2020-03-19T05:27:00-05:00,90.19,10.2,737.14,-1.82,0.6,115.94,0
2020-03-19T05:28:00-05:00,90.12,10.19,737.1,-2.11,0.68,108.57,0
2020-03-19T05:29:00-05:00,89.58,10.17,737.57,-1.08,0.56,115.18,0
2020-03-19T05:30:00-05:00,89.56,10.16,736.74,-1.23,0.61,135.16,0
2020-03-19T05:31:00-05:00,89.12,10.15,736.07,-2.99,0.6,105.81,0
2020-03-19T05:32:00-05:00,88.85,10.13,736.64,-1.38,0.65,102.65,0
2020-03-19T05:33:00-05:00,88.67,10.12,735.56,-4.02,0.67,73.53,0
2020-03-19T05:34:00-05:00,88.8,10.13,736.64,-3.88,0.69,77.98,0
2020-03-19T05:35:00-05:00,88.65,10.13,736.43,-3.14,0.66,73.86,0
2020-03-19T05:36:00-05:00,88.27,10.14,736.5,-2.85,0.64,91.26,0
2020-03-19T05:37:00-05:00,88.11,10.13,736.3,-2.7,0.5,99.84,0
2020-03-19T05:38:00-05:00,88.03,10.13,735.53,-2.7,0.6,103.43,0
2020-03-19T05:39:00-05:00,88.19,10.13,735.36,-3.88,0.6,44.38,0
2020-03-19T05:40:00-05:00,88.67,10.13,736,-2.7,0.62,89.81,0
2020-03-19T05:41:00-05:00,88.82,10.11,735.06,-1.97,0.57,89.93,0
2020-03-19T05:42:00-05:00,89.06,10.1,735.87,-2.11,0.39,140.27,0
2020-03-19T05:43:00-05:00,89.2,10.09,735.06,-3.58,0.53,137.14,0
2020-03-19T05:44:00-05:00,89.51,10.07,734.76,-3.44,0.53,141.24,0
2020-03-19T05:45:00-05:00,89.75,10.07,734.93,-4.46,0.62,127.5,0
2020-03-19T05:46:00-05:00,89.72,10.08,735.67,-4.17,0.62,105.47,0
2020-03-19T05:47:00-05:00,89.53,10.06,735.4,-3.14,0.61,112.84,0
2020-03-19T05:48:00-05:00,89.35,10.03,735.77,-2.85,0.58,89.64,0
2020-03-19T05:49:00-05:00,89.22,10.01,735.7,-2.7,0.6,129.08,0
2020-03-19T05:50:00-05:00,89.21,9.99,734.39,-4.32,0.6,127.69,0
2020-03-19T05:51:00-05:00,88.95,9.97,735.5,-2.41,0.7,155.51,0
2020-03-19T05:52:00-05:00,88.88,9.98,736.03,-3.88,0.62,143.19,0
2020-03-19T05:53:00-05:00,88.49,9.97,735.06,-1.23,0.97,105.25,0
2020-03-19T05:54:00-05:00,87.26,9.98,735.67,-3.73,1.23,101.16,0
2020-03-19T05:55:00-05:00,86.2,9.97,735.3,-1.82,0.94,100.46,0
2020-03-19T05:56:00-05:00,86.33,10.09,735.9,-0.79,3.09,43.48,0
2020-03-19T05:57:00-05:00,81.15,10.35,735.5,-0.79,0.69,57.2,0
2020-03-19T05:58:00-05:00,83.09,10.49,735.5,-0.94,0.59,113.22,0
2020-03-19T05:59:00-05:00,82.73,10.48,736.07,-0.79,0.54,158.17,0
2020-03-19T06:00:00-05:00,82.79,10.44,735.36,1.27,0.63,90.49,0
2020-03-19T06:01:00-05:00,82.75,10.4,735.97,0.09,1.24,93.47,0
2020-03-19T06:02:00-05:00,82.17,10.33,735.26,4.06,1.86,67.21,0
2020-03-19T06:03:00-05:00,80.6,10.39,736.57,6.12,3.25,41.34,0
2020-03-19T06:04:00-05:00,80.15,10.54,736.37,7.74,5.03,49.38,0
2020-03-19T06:05:00-05:00,78.9,10.67,737.37,8.33,3.86,46.65,0
2020-03-19T06:06:00-05:00,78.1,10.8,736.97,12,2.71,37.01,0
2020-03-19T06:07:00-05:00,78.68,10.86,737.61,13.18,0.8,117.98,0
2020-03-19T06:08:00-05:00,78.26,10.87,737.24,15.68,0.89,81.08,0
2020-03-19T06:09:00-05:00,78.27,10.93,737.57,18.62,0.97,75.51,0
2020-03-19T06:10:00-05:00,76.82,11.06,737.94,19.65,2.54,84.73,0
2020-03-19T06:11:00-05:00,76.12,11.17,739.41,22.59,3.03,124.24,0
2020-03-19T06:12:00-05:00,76.14,11.2,738.64,24.06,1.58,74.08,0
2020-03-19T06:13:00-05:00,77.12,11.18,739.25,24.65,0.38,296.59,0
2020-03-19T06:14:00-05:00,76.2,11.19,739.48,27.73,0.65,307.69,0
2020-03-19T06:15:00-05:00,75.96,11.2,739.68,28.91,0.62,113.74,0
2020-03-19T06:16:00-05:00,76.12,11.23,738.51,32.29,0.49,51.2,0
2020-03-19T06:17:00-05:00,76,11.22,738.91,31.26,0.92,60.1,0
2020-03-19T06:18:00-05:00,75.89,11.28,739.51,34.06,0.81,166.13,0
2020-03-19T06:19:00-05:00,78.94,11.21,739.21,35.53,0.92,176.11,0
2020-03-19T06:20:00-05:00,81.74,11.14,739.05,37.73,0.59,247.83,0
2020-03-19T06:21:00-05:00,82.68,11.12,739.78,39.2,0.52,187.33,0
2020-03-19T06:22:00-05:00,83.4,11.06,739.01,40.23,0.75,181.08,0
2020-03-19T06:23:00-05:00,84.26,10.94,738.44,41.85,0.62,123.58,0
2020-03-19T06:24:00-05:00,85.32,10.91,739.62,44.35,0.73,132.23,0
2020-03-19T06:25:00-05:00,85.9,10.88,739.72,46.26,0.94,95.92,0
2020-03-19T06:26:00-05:00,85.98,10.84,739.82,48.17,0.97,104.46,0
2020-03-19T06:27:00-05:00,85.5,10.83,739.51,51.55,0.6,52.74,0
2020-03-19T06:28:00-05:00,None,None,None,None,None,None,None
2020-03-19T06:29:00-05:00,86.61,10.82,739.78,53.02,1.12,90.63,0
2020-03-19T06:30:00-05:00,None,None,None,None,None,None,None
2020-03-19T06:31:00-05:00,85.88,10.9,739.98,59.93,0.21,5.66,0
2020-03-19T06:32:00-05:00,85.09,10.91,740.18,64.34,0.6,214.94,0
2020-03-19T06:33:00-05:00,85.05,10.92,740.99,63.61,0.78,287.63,0
2020-03-19T06:34:00-05:00,85.68,10.92,739.78,66.84,1.16,179.4,0
2020-03-19T06:35:00-05:00,85.89,10.91,739.68,66.4,0.63,234.19,0
2020-03-19T06:36:00-05:00,86.38,10.91,739.11,68.46,0.43,149.23,0
2020-03-19T06:37:00-05:00,86.09,10.9,739.58,68.61,0.43,0.87,0
2020-03-19T06:38:00-05:00,84.32,10.9,740.42,73.02,0.6,320.92,0
2020-03-19T06:39:00-05:00,80.52,10.96,740.22,73.16,0.64,288.61,0
2020-03-19T06:40:00-05:00,82.17,11.03,740.89,75.66,0.58,272.02,0
2020-03-19T06:41:00-05:00,83.95,11.06,740.89,77.57,0.58,130.29,0
2020-03-19T06:42:00-05:00,82.93,11.05,741.49,80.07,0.8,235.19,0
2020-03-19T06:43:00-05:00,80.81,11.02,740.35,81.84,0.59,208.98,0
2020-03-19T06:44:00-05:00,81.39,11.06,740.49,80.81,0.76,236.2,0
2020-03-19T06:45:00-05:00,82.82,11.08,741.92,81.84,0.62,213.98,0
2020-03-19T06:46:00-05:00,82.93,11.04,740.79,82.13,0.96,274.01,0
2020-03-19T06:47:00-05:00,83.17,11.02,740.82,85.37,0.62,91.93,0
2020-03-19T06:48:00-05:00,83.22,11.02,741.36,84.63,0.54,121.23,0
2020-03-19T06:49:00-05:00,82.56,11.02,741.52,87.13,0.46,189.06,0
2020-03-19T06:50:00-05:00,82.99,11,741.62,89.19,0.89,249.81,0
2020-03-19T06:51:00-05:00,82.89,11.03,741.09,89.04,0.74,154.24,0
2020-03-19T06:52:00-05:00,80.39,10.98,741.66,90.22,0.22,194.94,0
2020-03-19T06:53:00-05:00,79.81,11.01,741.66,94.48,0.72,217.94,0
2020-03-19T06:54:00-05:00,79.84,11.03,741.66,96.1,0.71,291.71,0
2020-03-19T06:55:00-05:00,79.89,11.07,741.32,95.07,1.04,291.69,0
2020-03-19T06:56:00-05:00,79.62,11.11,741.96,97.72,3.36,162.21,0
2020-03-19T06:57:00-05:00,76.95,11.15,742.26,99.63,0.58,187.33,0
2020-03-19T06:58:00-05:00,76.93,11.23,741.99,101.69,1.06,73.7,0
2020-03-19T06:59:00-05:00,76.24,11.27,742.73,104.77,1.61,38.29,0
2020-03-19T07:00:00-05:00,75.64,11.34,743,107.27,0.87,17.15,0
2020-03-19T07:01:00-05:00,75.92,11.4,743.3,108.74,0.28,158.56,0
2020-03-19T07:02:00-05:00,75.22,11.43,743.2,111.68,0.28,125.03,0
2020-03-19T07:03:00-05:00,74.52,11.48,743.36,133,3.17,352.89,0
2020-03-19T07:04:00-05:00,74.37,11.54,743.06,156.67,0.85,354.49,0
2020-03-19T07:05:00-05:00,73.86,11.62,738.61,150.5,0.5,261.98,0
2020-03-19T07:06:00-05:00,73.32,11.7,737.87,161.52,0.56,14.51,0
2020-03-19T07:07:00-05:00,73.01,11.79,737.67,172.7,1.2,73.4,0
2020-03-19T07:08:00-05:00,73.39,11.89,738.44,212.4,0.11,335.83,0
2020-03-19T07:09:00-05:00,73.45,11.99,737.81,236.51,0.26,335.83,0
2020-03-19T07:10:00-05:00,73.61,12.12,737.94,247.24,1.95,273.74,0
2020-03-19T07:11:00-05:00,73.09,12.18,738.44,257.97,2.51,3.73,0
2020-03-19T07:12:00-05:00,71.71,12.29,737.87,267.09,0.27,194.94,0
2020-03-19T07:13:00-05:00,69.64,12.43,738.18,267.09,2.74,68.69,0
2020-03-19T07:14:00-05:00,68.5,12.58,737.61,252.09,2.74,346.5,0
2020-03-19T07:15:00-05:00,68.04,12.71,738.11,252.39,2.19,48.36,0
2020-03-19T07:16:00-05:00,68.43,12.83,737.54,255.33,2.25,78.88,0
2020-03-19T07:17:00-05:00,68.32,12.91,737.77,256.5,0.58,191,0
2020-03-19T07:18:00-05:00,69.7,12.96,738.51,247.53,0.73,159.48,0
2020-03-19T07:19:00-05:00,71.13,13.02,738.68,247.39,0.71,330.51,0
2020-03-19T07:20:00-05:00,70.2,13.1,738.41,248.12,0.36,311,0
2020-03-19T07:21:00-05:00,66.63,13.15,737.57,258.12,2.01,63.72,0
2020-03-19T07:22:00-05:00,66.45,13.24,737.71,266.06,0.63,169.44,0
2020-03-19T07:23:00-05:00,68.44,13.36,737.94,280.03,1.3,197.04,0
2020-03-19T07:24:00-05:00,68.13,13.36,738.44,295.9,0.28,68.45,0
2020-03-19T07:25:00-05:00,65.63,13.48,738.28,290.91,0.72,63.62,0
2020-03-19T07:26:00-05:00,64.9,13.56,737.47,303.11,2.45,57.27,0
2020-03-19T07:27:00-05:00,66.85,13.66,737.84,301.05,0.94,195.94,0
2020-03-19T07:28:00-05:00,65.23,13.7,738.38,308.25,0.51,138.31,0
2020-03-19T07:29:00-05:00,64.46,13.78,738.04,314.72,1.25,179.13,0
2020-03-19T07:30:00-05:00,63.03,13.74,738.14,311.64,3.08,214.94,0
2020-03-19T07:31:00-05:00,63.09,13.74,738.04,324.57,0.56,181.1,0
2020-03-19T07:32:00-05:00,65.66,13.82,737.41,329.13,0.87,276.7,0
2020-03-19T07:33:00-05:00,66.53,13.94,739.38,303.11,0.13,7.7,0
2020-03-19T07:34:00-05:00,63.76,13.97,738.44,293.99,1,277.69,0
2020-03-19T07:35:00-05:00,64.66,14.04,740.69,305.76,0.66,252.12,0
2020-03-19T07:36:00-05:00,64.84,14.09,740.72,323.1,0.6,165.13,0
2020-03-19T07:37:00-05:00,65,14.13,740.59,352.07,0.24,245.11,0
2020-03-19T07:38:00-05:00,67.06,14.22,739.65,362.95,0.19,248.84,0
2020-03-19T07:39:00-05:00,66.96,14.3,740.82,350.3,0.61,252.14,0
2020-03-19T07:40:00-05:00,64.93,14.38,737.51,352.66,0.67,198.97,0
2020-03-19T07:41:00-05:00,64.95,14.31,737.67,345.3,1.35,165.17,0
2020-03-19T07:42:00-05:00,65.02,14.26,737.37,338.25,0.86,274,0
2020-03-19T07:43:00-05:00,66.82,14.27,737.37,319.72,0.71,209.24,0
2020-03-19T07:44:00-05:00,69.44,14.28,738.28,309.28,0.6,216.88,0
2020-03-19T07:45:00-05:00,69.36,14.28,738.21,322.07,0.63,217.92,0
2020-03-19T07:46:00-05:00,66.94,14.24,738.01,308.4,0.88,213.96,0
2020-03-19T07:47:00-05:00,67.31,14.2,737.97,331.78,2.13,282.72,0
2020-03-19T07:48:00-05:00,65.61,14.19,737.57,347.51,1.97,281.72,0
2020-03-19T07:49:00-05:00,65.46,14.2,738.48,370.59,0.78,242.8,0
2020-03-19T07:50:00-05:00,66.51,14.23,738.41,381.77,0.7,215.29,0
2020-03-19T07:51:00-05:00,66.97,14.27,739.08,387.21,0.97,226.86,0
2020-03-19T07:52:00-05:00,66.68,14.3,738.31,384.71,0.78,282.03,0
2020-03-19T07:53:00-05:00,67.45,14.37,737.47,389.85,0.65,255.68,0
2020-03-19T07:54:00-05:00,66.81,14.43,738.14,376.47,0.68,275.08,0
2020-03-19T07:55:00-05:00,66.32,14.51,738.41,374.12,0.63,228.82,0
2020-03-19T07:56:00-05:00,67.62,14.57,739.08,343.54,0.57,230.15,0
2020-03-19T07:57:00-05:00,68.98,14.64,738.21,313.55,1.26,231.86,0
2020-03-19T07:58:00-05:00,67.73,14.69,737.77,266.65,1.12,210.17,0
2020-03-19T07:59:00-05:00,66.25,14.64,738.01,247.83,0.61,222.9,0
2020-03-19T08:00:00-05:00,64.36,14.59,737.27,262.97,0.29,270.73,0
2020-03-19T08:01:00-05:00,66.73,14.62,737.47,272.38,0.59,228.83,0
2020-03-19T08:02:00-05:00,67.68,14.63,737.74,284,0.69,256.78,0
2020-03-19T08:03:00-05:00,64.71,14.61,737.47,281.94,0.67,275.7,0
2020-03-19T08:04:00-05:00,65.31,14.63,737.64,303.84,0.52,297.59,0
2020-03-19T08:05:00-05:00,65.26,14.61,738.28,311.64,0.64,226.83,0
2020-03-19T08:06:00-05:00,65.75,14.59,738.51,309.87,0.66,222.93,0
2020-03-19T08:07:00-05:00,63.91,14.53,736.87,316.34,0.91,265.82,0
2020-03-19T08:08:00-05:00,64.14,14.49,737.77,332.95,0.2,234.81,0
2020-03-19T08:09:00-05:00,63.81,14.51,737.57,326.34,0.59,252.12,0
2020-03-19T08:10:00-05:00,65.03,14.53,737.77,355.01,0.68,247.83,0
2020-03-19T08:11:00-05:00,64.37,14.59,737.41,380,0.25,328.93,0
2020-03-19T08:12:00-05:00,66.07,14.68,737.77,396.62,0.55,307.67,0
2020-03-19T08:13:00-05:00,67.32,14.78,737.94,394.85,0.59,205.37,0
2020-03-19T08:14:00-05:00,68.7,14.83,739.58,422.79,0.93,338.5,0
2020-03-19T08:15:00-05:00,63.6,14.83,739.15,438.37,0.71,321.89,0
2020-03-19T08:16:00-05:00,64.68,14.91,739.48,421.61,0.6,265.1,0
2020-03-19T08:17:00-05:00,65.21,14.99,740.38,387.5,0.58,253.05,0
2020-03-19T08:18:00-05:00,65.02,15.07,739.72,407.64,0.4,317.6,0
2020-03-19T08:19:00-05:00,65.68,15.17,740.32,451.46,0.29,295.59,0
2020-03-19T08:20:00-05:00,65.59,15.25,737.97,489.68,0.62,193.93,0
2020-03-19T08:21:00-05:00,63.11,15.31,737.61,493.21,0.49,207.94,0
2020-03-19T08:22:00-05:00,63.13,15.43,737.54,502.47,0.06,172.14,0
2020-03-19T08:23:00-05:00,60.81,15.49,738.58,472.33,0.76,233.85,0
2020-03-19T08:24:00-05:00,61.53,15.44,737.67,481.45,1.2,201.89,0
2020-03-19T08:25:00-05:00,60.79,15.33,738.78,533.05,0.58,241.85,0
2020-03-19T08:26:00-05:00,61.34,15.27,738.34,549.37,2.2,225.34,0
2020-03-19T08:27:00-05:00,60.83,15.17,737.84,545.4,2.01,223.89,0
2020-03-19T08:28:00-05:00,62.67,15.14,737.71,526.73,1.06,217.25,0
2020-03-19T08:29:00-05:00,63.67,15.18,738.61,518.64,0.5,213.96,0
2020-03-19T08:30:00-05:00,62.89,15.23,738.31,520.12,0.83,128.63,0
2020-03-19T08:31:00-05:00,61.86,15.35,737.94,542.17,0.6,53.54,0
2020-03-19T08:32:00-05:00,61.15,15.55,738.44,563.19,0.74,269.09,0
2020-03-19T08:33:00-05:00,58.74,15.62,737.97,591.42,0.76,219.86,0
2020-03-19T08:34:00-05:00,59.71,15.49,738.61,583.48,0.77,299,0
2020-03-19T08:35:00-05:00,61.24,15.52,737.04,588.19,0.55,284.66,0
2020-03-19T08:36:00-05:00,63.97,15.65,737.81,575.98,0.59,251.75,0
2020-03-19T08:37:00-05:00,62.2,15.79,737.51,568.34,0.62,262.69,0
2020-03-19T08:38:00-05:00,61.07,15.88,738.44,574.37,2.39,242.79,0
2020-03-19T08:39:00-05:00,60.16,15.94,738.34,569.96,1.83,285.64,0
2020-03-19T08:40:00-05:00,59.91,16,737.44,584.07,0.56,225.84,0
2020-03-19T08:41:00-05:00,62.2,16.11,738.41,568.49,0.85,218.87,0
2020-03-19T08:42:00-05:00,62.44,16.24,737.81,566.28,0.85,296.59,0
2020-03-19T08:43:00-05:00,62.49,16.34,737.77,569.07,0.54,234.84,0
2020-03-19T08:44:00-05:00,61.71,16.41,737.84,566.28,0.73,183.99,0
2020-03-19T08:45:00-05:00,58.58,16.41,738.11,567.31,1.08,340.82,0
2020-03-19T08:46:00-05:00,61.88,16.43,737.47,569.07,0.55,274.74,0
2020-03-19T08:47:00-05:00,60.03,16.5,738.41,566.43,0.61,287.97,0
2020-03-19T08:48:00-05:00,58.3,16.58,738.01,550.84,0.47,237.75,0
2020-03-19T08:49:00-05:00,57.59,16.65,738.28,531.58,0.36,280.01,0
2020-03-19T08:50:00-05:00,57.91,16.74,738.31,530.41,2.03,295.91,0
2020-03-19T08:51:00-05:00,57.19,16.79,738.28,515.85,0.28,146.54,0
2020-03-19T08:52:00-05:00,58.02,16.87,737.74,496.59,0.57,32.43,0
2020-03-19T08:53:00-05:00,57.72,16.94,737.84,495.56,0.35,245.77,0
2020-03-19T08:54:00-05:00,58.76,16.96,737.34,485.56,0.71,230.89,0
2020-03-19T08:55:00-05:00,56.34,16.87,737.51,496.3,0.61,291.65,0
2020-03-19T08:56:00-05:00,56.89,16.82,738.14,488.65,0.67,225.87,0
2020-03-19T08:57:00-05:00,57.78,16.7,738.68,476.74,1.74,307.66,0
2020-03-19T08:58:00-05:00,58.15,16.6,738.31,501.44,0.59,60.6,0
2020-03-19T08:59:00-05:00,59.08,16.54,737.54,509.09,2.93,246.71,0
2020-03-19T09:00:00-05:00,58.49,16.4,736.3,537.46,0.66,191.95,0
2020-03-19T09:01:00-05:00,59.66,16.4,736.9,555.11,0.23,24.6,0
2020-03-19T09:02:00-05:00,57.99,16.46,737.47,581.28,0.65,292.05,0
2020-03-19T09:03:00-05:00,60.26,16.54,738.38,576.57,0.6,181.03,0
2020-03-19T09:04:00-05:00,59.42,16.63,738.78,590.98,0.76,299.05,0
2020-03-19T09:05:00-05:00,59.34,16.66,738.91,570.69,0.42,259.74,0
2020-03-19T09:06:00-05:00,59.87,16.76,739.62,582.16,0.38,166.49,0
2020-03-19T09:07:00-05:00,57.01,16.81,739.65,557.75,1.66,155.2,0
2020-03-19T09:08:00-05:00,56.41,16.76,738.38,530.85,0.77,21.93,0
2020-03-19T09:09:00-05:00,58.74,16.77,738.58,547.31,0.65,253.75,0
2020-03-19T09:10:00-05:00,57.53,16.78,737.77,539.96,1.91,273.76,0
2020-03-19T09:11:00-05:00,57.21,16.76,738.88,572.9,0.87,265.75,0
2020-03-19T09:12:00-05:00,56.29,16.73,737.87,628.62,0.87,312.57,0
2020-03-19T09:13:00-05:00,55.92,16.82,738.21,656.26,0.22,260.71,0
2020-03-19T09:14:00-05:00,55.59,16.93,739.31,701.98,0.56,214.93,0
2020-03-19T09:15:00-05:00,56.8,17,739.21,725.8,0.86,198.95,0
2020-03-19T09:16:00-05:00,54.85,16.97,739.55,712.42,1.8,0.86,0
2020-03-19T09:17:00-05:00,56.8,17.06,739.82,704.63,0.38,284.65,0
2020-03-19T09:18:00-05:00,55.67,17.13,738.38,718.3,0.55,267.74,0
2020-03-19T09:19:00-05:00,55.03,17.23,737.31,775.64,2.15,1.12,0
2020-03-19T09:20:00-05:00,58.06,17.4,738.78,790.79,0.63,206.02,0
2020-03-19T09:21:00-05:00,56.35,17.53,738.44,798.72,0.76,249.18,0
2020-03-19T09:22:00-05:00,56.96,17.57,738.58,818.43,1.61,255.69,0
2020-03-19T09:23:00-05:00,58.47,17.6,738.68,820.63,0.6,300.04,0
2020-03-19T09:24:00-05:00,58.49,17.74,738.21,806.22,0.62,232.19,0
2020-03-19T09:25:00-05:00,58.52,17.9,737.34,811.81,0.59,200.34,0
2020-03-19T09:26:00-05:00,57.53,18.05,738.11,848.27,1.66,249.8,0
2020-03-19T09:27:00-05:00,52.51,18.15,739.31,875.18,1.08,285.91,0
2020-03-19T09:28:00-05:00,52.25,18.21,738.74,910.61,0.83,266.76,0
2020-03-19T09:29:00-05:00,52.39,18.16,737.94,940.01,2.32,280.61,0
2020-03-19T09:30:00-05:00,54.39,18.15,738.85,947.95,0.26,215.88,0
2020-03-19T09:31:00-05:00,54.77,18.25,737.41,824.75,1.2,155.19,0
2020-03-19T09:32:00-05:00,53.19,18.17,737.41,454.4,1.04,266.76,0
2020-03-19T09:33:00-05:00,52.69,18.01,737.81,363.39,0.48,315.76,0
2020-03-19T09:34:00-05:00,51.63,17.95,737.57,341.48,0.8,2.69,0
2020-03-19T09:35:00-05:00,52.73,17.85,736.77,357.21,1.06,285.65,0
2020-03-19T09:36:00-05:00,54.18,17.79,736.84,349.13,0.57,248.14,0
2020-03-19T09:37:00-05:00,56.12,17.73,736.5,331.34,1.17,241.83,0
2020-03-19T09:38:00-05:00,54.85,17.63,735.26,321.34,0.86,279.97,0
2020-03-19T09:39:00-05:00,53.43,17.53,735.77,325.75,0.73,262.67,0
2020-03-19T09:40:00-05:00,54.83,17.53,734.96,373.09,0.63,245.14,0
2020-03-19T09:41:00-05:00,54.75,17.47,735.1,315.46,0.57,251.76,0
2020-03-19T09:42:00-05:00,55.36,17.39,734.73,296.05,0.6,257.15,0
2020-03-19T09:43:00-05:00,56.82,17.34,733.96,288.11,0.71,210.93,0
2020-03-19T09:44:00-05:00,57.52,17.26,733.96,272.67,0.63,203.9,0
2020-03-19T09:45:00-05:00,55.49,17.15,733.66,251.65,0.61,203.88,0
2020-03-19T09:46:00-05:00,55.9,17.03,737.61,250.33,0.51,242.8,0
2020-03-19T09:47:00-05:00,59.36,16.98,737.41,257.24,0.6,181.06,0
2020-03-19T09:48:00-05:00,59.64,16.92,737.54,283.55,0.58,191.97,0
2020-03-19T09:49:00-05:00,61.13,16.81,737.71,271.79,0.57,279.67,0
2020-03-19T09:50:00-05:00,57.76,16.79,737.81,396.47,0.33,236.77,0
2020-03-19T09:51:00-05:00,59.02,16.79,737.54,251.06,0.58,183,0
2020-03-19T09:52:00-05:00,59.21,16.76,738.34,246.06,0.5,182.02,0
2020-03-19T09:53:00-05:00,57.19,16.76,737.77,244.15,0.21,238.16,0
2020-03-19T09:54:00-05:00,59.59,16.79,738.18,266.06,0.4,212.87,0
2020-03-19T09:55:00-05:00,58.11,16.8,737.37,408.97,0.98,225.25,0
2020-03-19T09:56:00-05:00,58.15,16.79,738.14,283.55,0.56,286.66,0
2020-03-19T09:57:00-05:00,56.91,16.83,737.34,289.73,0.3,217.25,0
2020-03-19T09:58:00-05:00,57.84,16.87,737.51,327.81,0.59,265.04,0
2020-03-19T09:59:00-05:00,58.96,16.92,738.31,356.48,0.55,248.2,0
2020-03-19T10:00:00-05:00,57.69,17.01,738.41,745.5,0.38,243.79,0
2020-03-19T10:01:00-05:00,56.24,17.08,737.81,481.6,1.3,288.91,0
2020-03-19T10:02:00-05:00,54.65,17.15,737.51,1024.55,0.62,286.65,0
2020-03-19T10:03:00-05:00,57.23,17.29,737.64,815.34,0.55,95.98,0
2020-03-19T10:04:00-05:00,57.45,17.45,738.44,471.89,0.68,230.9,0
2020-03-19T10:05:00-05:00,56.3,17.58,737.31,485.71,0.57,154.24,0
2020-03-19T10:06:00-05:00,54.18,17.7,738.34,569.66,0.69,68.55,0
2020-03-19T10:07:00-05:00,52.45,17.82,739.25,973.39,0.69,88.61,0
2020-03-19T10:08:00-05:00,54.68,17.94,740.45,479.98,0.39,308.63,0
2020-03-19T10:09:00-05:00,54.56,18.09,741.09,499.68,0.54,273.73,0
2020-03-19T10:10:00-05:00,55.33,18.15,740.99,338.25,0.69,274.11,0
2020-03-19T10:11:00-05:00,54.71,18.21,741.22,934.87,0.57,248.79,0
2020-03-19T10:12:00-05:00,54.55,18.28,741.76,628.91,0.82,204.28,0
2020-03-19T10:13:00-05:00,54.23,18.31,738.54,1088.36,1.21,218.87,0
2020-03-19T10:14:00-05:00,52.53,18.39,736.84,1116.44,0.75,191.34,0
2020-03-19T10:15:00-05:00,51.69,18.47,737.14,1045.58,0.07,10.88,0
2020-03-19T10:16:00-05:00,54.75,18.7,737.74,910.61,0.5,220.26,0
2020-03-19T10:17:00-05:00,53.26,18.96,737.74,1075.86,0.29,275.7,0
2020-03-19T10:18:00-05:00,51.69,19.12,737.77,773.58,0.64,287.91,0
2020-03-19T10:19:00-05:00,48.87,19.24,737.44,513.35,1.66,247.82,0
2020-03-19T10:20:00-05:00,49.03,19.28,736.8,492.18,0.59,212.89,0
2020-03-19T10:21:00-05:00,49.84,19.31,737.81,519.53,0.3,280.63,0
2020-03-19T10:22:00-05:00,51.29,19.4,738.24,525.26,0.56,173.13,0
2020-03-19T10:23:00-05:00,48.91,19.46,737.67,529.23,0.94,30.59,0
2020-03-19T10:24:00-05:00,48.16,19.27,737.81,533.2,0.76,192.96,0
2020-03-19T10:25:00-05:00,50.15,19.2,737.44,514.38,2.02,253.75,0
2020-03-19T10:26:00-05:00,50.97,19.08,736.2,500.27,0.67,208.93,0
2020-03-19T10:27:00-05:00,51.76,18.99,736.03,488.36,0.6,283.7,0
2020-03-19T10:28:00-05:00,50.96,18.99,736.87,467.48,1.18,277.66,0
2020-03-19T10:29:00-05:00,49.88,18.94,735.67,438.66,0.75,176.43,0
2020-03-19T10:30:00-05:00,50.03,18.87,734.63,415.29,0.66,216.9,0
2020-03-19T10:31:00-05:00,51,18.84,735,406.91,0.92,244.14,0
2020-03-19T10:32:00-05:00,52.91,18.82,734.96,411.02,0.56,283.68,0
2020-03-19T10:33:00-05:00,52.38,18.78,734.29,428.23,0.56,210.3,0
2020-03-19T10:34:00-05:00,53.38,18.78,734.26,448.96,1.41,252.78,0
2020-03-19T10:35:00-05:00,51.29,18.8,733.32,446.9,0.39,347.73,0
2020-03-19T10:36:00-05:00,51.6,18.82,734.86,426.9,0.55,240.83,0
2020-03-19T10:37:00-05:00,49.21,18.78,733.72,409.85,0.7,264.76,0
2020-03-19T10:38:00-05:00,50.57,18.64,736.77,389.56,1.66,224.89,0
2020-03-19T10:39:00-05:00,48.68,18.5,737.97,375,1,200.93,0
2020-03-19T10:40:00-05:00,48.02,18.39,736.47,373.24,0.48,19.33,0
2020-03-19T10:41:00-05:00,50.44,18.4,738.01,377.06,1.01,244.1,0
2020-03-19T10:42:00-05:00,52.39,18.38,737.84,382.65,0.84,274.78,0
2020-03-19T10:43:00-05:00,48.5,18.35,737.64,378.24,0.66,284.65,0
2020-03-19T10:44:00-05:00,49.48,18.29,738.28,377.8,0.8,292.68,0
2020-03-19T10:45:00-05:00,50.21,18.31,736.97,396.47,0.24,129.44,0
2020-03-19T10:46:00-05:00,50.14,18.25,737.2,430.58,1.33,135.56,0
2020-03-19T10:47:00-05:00,50.15,18.17,736.94,460.86,0.62,44.35,0
2020-03-19T10:48:00-05:00,47.86,18.07,737.24,589.8,1.78,11.65,0
2020-03-19T10:49:00-05:00,48.39,17.91,738.34,452.63,0.65,137.27,0
2020-03-19T10:50:00-05:00,52.51,17.89,737.07,419.4,1.29,303.99,0
2020-03-19T10:51:00-05:00,55.78,17.76,737.04,398.67,1.67,41.77,0
2020-03-19T10:52:00-05:00,58.25,17.68,736.23,390,1.44,94.25,0
2020-03-19T10:53:00-05:00,57.51,17.65,737.04,390.44,2.18,0.84,0
2020-03-19T10:54:00-05:00,58.55,17.64,736.27,387.79,0.39,153.13,0
2020-03-19T10:55:00-05:00,61.75,17.71,735.8,389.12,0.65,271.68,0
2020-03-19T10:56:00-05:00,60.17,17.79,736.43,403.53,0.97,130.91,0
2020-03-19T10:57:00-05:00,58.76,17.83,735.43,409.55,0.23,193.93,0
2020-03-19T10:58:00-05:00,59.14,17.94,736.67,418.52,0.47,141.54,0
2020-03-19T10:59:00-05:00,55.96,18.01,736.2,436.02,0.57,237.74,0
2020-03-19T11:00:00-05:00,53.38,18.08,737.27,441.31,1.25,276.7,0
2020-03-19T11:01:00-05:00,53.16,18.11,736.43,442.05,0.42,8.08,0
2020-03-19T11:02:00-05:00,55.27,18.16,735.9,454.4,0.59,183.04,0
2020-03-19T11:03:00-05:00,54.47,18.19,736.8,823.28,0.24,68.69,0
2020-03-19T11:04:00-05:00,57.22,18.3,737.17,859,0.61,253.72,0
2020-03-19T11:05:00-05:00,57.13,18.42,737.77,1020.29,0.7,203.25,0
2020-03-19T11:06:00-05:00,51.35,18.47,737.34,1145.41,0.56,231.85,0
2020-03-19T11:07:00-05:00,53.8,18.6,738.08,610.39,0.57,275.09,0
2020-03-19T11:08:00-05:00,56.03,18.74,739.38,715.07,0.25,167.08,0
2020-03-19T11:09:00-05:00,54.37,18.9,740.02,518.64,0.65,198.36,0
2020-03-19T11:10:00-05:00,53.42,19.02,740.35,525.11,0.36,157.17,0
2020-03-19T11:11:00-05:00,53.65,19.13,736.8,486.45,0.6,11.8,0
2020-03-19T11:12:00-05:00,49.59,19.18,737.34,437.34,1.49,306.54,0
2020-03-19T11:13:00-05:00,50.69,19.08,736.67,428.37,0.57,225.86,0
2020-03-19T11:14:00-05:00,48.97,19,736.9,438.52,0.44,162.48,0
2020-03-19T11:15:00-05:00,48.51,18.97,736.27,387.65,0.35,265.1,0
2020-03-19T11:16:00-05:00,51.24,19,736.74,367.06,0.57,302.63,0
2020-03-19T11:17:00-05:00,48.36,19,737,361.92,0.94,0.8,0
2020-03-19T11:18:00-05:00,47.52,19.01,737.57,383.82,0.53,333.61,0
2020-03-19T11:19:00-05:00,50.03,19.07,736.57,360.3,0.57,188.99,0
2020-03-19T11:20:00-05:00,50.39,19.1,737.61,357.21,1.8,41.78,0
2020-03-19T11:21:00-05:00,50.49,19.06,737.94,342.95,0.75,31.97,0
2020-03-19T11:22:00-05:00,48.76,19.01,737.34,331.34,0.64,334.92,0
2020-03-19T11:23:00-05:00,49.05,18.98,737.37,331.93,0.5,14.97,0
2020-03-19T11:24:00-05:00,50.8,19,737.51,361.48,0.55,313.9,0
2020-03-19T11:25:00-05:00,50.09,19.02,738.08,1174.37,0.91,315.51,0
2020-03-19T11:26:00-05:00,53.59,19.12,738.78,1082.48,0.73,248.18,0
2020-03-19T11:27:00-05:00,53.77,19.2,739.38,1146.29,0.79,268.69,0
2020-03-19T11:28:00-05:00,52.27,19.33,737.04,1013.67,0.32,109.13,0
2020-03-19T11:29:00-05:00,50.29,19.41,736.4,464.83,0.6,263.68,0
2020-03-19T11:30:00-05:00,51.04,19.42,736.7,454.69,0.34,342.5,0
2020-03-19T11:31:00-05:00,51.14,19.47,736.84,914.58,0.51,356.44,0
2020-03-19T11:32:00-05:00,47.86,19.42,736.74,601.42,1.43,2.69,0
2020-03-19T11:33:00-05:00,48.14,19.31,736.77,490.42,0.14,199.93,0
2020-03-19T11:34:00-05:00,48.7,19.27,737.24,439.69,0.74,47.26,0
2020-03-19T11:35:00-05:00,49.82,19.19,736.7,399.26,0.56,13.32,0
2020-03-19T11:36:00-05:00,48.98,19.2,737.34,378.68,1.46,348.42,0
2020-03-19T11:37:00-05:00,48.79,19.23,736.4,370.59,0.59,184.37,0
2020-03-19T11:38:00-05:00,48.28,19.14,736.17,356.04,1.33,36.29,0
2020-03-19T11:39:00-05:00,48.73,19.02,735.6,342.66,2.43,36.95,0
2020-03-19T11:40:00-05:00,48.59,18.92,736.03,338.1,0.74,24.57,0
2020-03-19T11:41:00-05:00,49.03,18.85,734.36,323.84,0.72,39.57,0
2020-03-19T11:42:00-05:00,49.51,18.78,734.9,301.05,0.96,39.82,0
2020-03-19T11:43:00-05:00,52.15,18.81,734.96,288.26,0.25,254.08,0
2020-03-19T11:44:00-05:00,52.16,18.83,734.23,284.88,0.58,228.81,0
2020-03-19T11:45:00-05:00,51.89,18.86,733.72,289.88,0.58,145.53,0
2020-03-19T11:46:00-05:00,52.56,18.84,733.72,291.05,0.25,303.57,0
2020-03-19T11:47:00-05:00,50.83,18.78,732.85,293.85,0.14,95.06,0
2020-03-19T11:48:00-05:00,54.9,18.78,732.69,302.52,0.58,249.09,0
2020-03-19T11:49:00-05:00,52.79,18.83,732.95,317.81,0.43,177.08,0
2020-03-19T11:50:00-05:00,51.4,18.9,733.99,333.98,0.95,41.01,0
2020-03-19T11:51:00-05:00,49.25,18.84,733.52,347.36,1.32,48.31,0
2020-03-19T11:52:00-05:00,49.31,18.8,732.15,360.89,0.85,70.49,0
2020-03-19T11:53:00-05:00,49.03,18.72,735.9,386.03,0.64,60.3,0
2020-03-19T11:54:00-05:00,49.35,18.6,736.33,396.32,1.05,73.35,0
2020-03-19T11:55:00-05:00,48.61,18.47,736.7,406.61,1.29,39.88,0
2020-03-19T11:56:00-05:00,50.87,18.39,737.14,988.83,0.37,261.09,0
2020-03-19T11:57:00-05:00,51.25,18.47,737,1198.48,0.23,219.88,0
2020-03-19T11:58:00-05:00,53.27,18.64,737,1219.06,0.55,262.07,0
2020-03-19T11:59:00-05:00,57.75,18.88,735.93,1207.01,0.57,339.47,0
2020-03-19T12:00:00-05:00,55.55,19.18,736.4,1196.28,1.09,211.36,0
2020-03-19T12:01:00-05:00,51.71,19.38,736.67,1195.69,0.56,320.53,0
2020-03-19T12:02:00-05:00,52.88,19.64,736.13,1169.22,0.51,252.08,0
2020-03-19T12:03:00-05:00,50.48,19.9,737.1,1176.43,0.89,297.58,0
2020-03-19T12:04:00-05:00,49.71,20.01,737.94,956.33,1.7,210.95,0
2020-03-19T12:05:00-05:00,48.99,20.04,737.47,468.07,2.12,207.94,0
2020-03-19T12:06:00-05:00,49.38,19.93,736.57,1056.16,0.77,249.8,0
2020-03-19T12:07:00-05:00,46.31,19.83,735.77,933.84,0.06,291.67,0
2020-03-19T12:08:00-05:00,47.3,19.76,736.07,442.19,0.89,21.1,0
2020-03-19T12:09:00-05:00,47.23,19.76,736.54,394.56,0.79,278.66,0
2020-03-19T12:10:00-05:00,49.01,19.78,735.53,360.01,2.08,293.66,0
2020-03-19T12:11:00-05:00,48.65,19.7,735.3,343.39,1.05,300.7,0
2020-03-19T12:12:00-05:00,47.51,19.59,733.52,306.78,0.93,344.49,0
2020-03-19T12:13:00-05:00,50.02,19.48,732.48,285.91,0.49,10.8,0
2020-03-19T12:14:00-05:00,51.88,19.47,732.59,294.73,0.61,207.97,0
2020-03-19T12:15:00-05:00,51.65,19.42,731.85,313.69,0.68,255.05,0
2020-03-19T12:16:00-05:00,50.13,19.38,732.02,331.19,0.08,202.93,0
2020-03-19T12:17:00-05:00,52.78,19.4,732.75,343.25,0.5,285,0
2020-03-19T12:18:00-05:00,51.44,19.43,735.8,370.59,0.23,256.8,0
2020-03-19T12:19:00-05:00,52.65,19.46,736.64,392.2,1.03,280.96,0
2020-03-19T12:20:00-05:00,52.62,19.44,735.77,369.12,0.47,239.82,0
2020-03-19T12:21:00-05:00,53.34,19.5,735.56,365.01,0.56,229.79,0
2020-03-19T12:22:00-05:00,51.1,19.52,736.03,387.5,0.61,217.19,0
2020-03-19T12:23:00-05:00,52.22,19.5,736.64,422.34,0.58,220.45,0
2020-03-19T12:24:00-05:00,54.24,19.52,736.87,407.79,0.54,146.25,0
2020-03-19T12:25:00-05:00,56.08,19.61,736.5,408.08,1.01,176.05,0
2020-03-19T12:26:00-05:00,53.15,19.52,736.64,1053.96,0.88,191.94,0
2020-03-19T12:27:00-05:00,54.6,19.44,736.17,978.53,0.24,301.65,0
2020-03-19T12:28:00-05:00,53.32,19.41,735.93,402.06,1.6,25.9,0
2020-03-19T12:29:00-05:00,52.88,19.44,737.24,401.47,0.57,73,0
2020-03-19T12:30:00-05:00,54.4,19.46,736.7,460.57,0.56,224.25,0
2020-03-19T12:31:00-05:00,55.64,19.54,736.4,458.37,0.63,38.23,0
2020-03-19T12:32:00-05:00,54.83,19.63,737.47,479.68,0.47,279.99,0
2020-03-19T12:33:00-05:00,56.07,19.78,738.78,954.28,0.5,288.57,0
2020-03-19T12:34:00-05:00,52.01,19.84,736.03,358.24,1.76,224.26,0
2020-03-19T12:35:00-05:00,53.24,19.77,736.64,334.42,0.64,332.44,0
2020-03-19T12:36:00-05:00,54.24,19.82,736.6,316.49,0.92,333.92,0
2020-03-19T12:37:00-05:00,51.39,19.84,735.73,955.01,0.59,31.19,0
2020-03-19T12:38:00-05:00,51.54,19.66,735.63,553.49,0.26,26.95,0
2020-03-19T12:39:00-05:00,52.49,19.7,736.17,1121,0.26,214.93,0
2020-03-19T12:40:00-05:00,53.54,19.78,735.53,1158.64,2.16,246.75,0
2020-03-19T12:41:00-05:00,55.22,19.84,736.2,960.89,0.77,242.8,0
2020-03-19T12:42:00-05:00,56.05,20.05,735.06,1104.53,0.91,173.12,0
2020-03-19T12:43:00-05:00,51.78,20.19,736.4,1056.31,0.56,104.86,0
2020-03-19T12:44:00-05:00,53.58,20.24,735.56,407.79,1.32,134.22,0
2020-03-19T12:45:00-05:00,50.68,20.25,736.33,449.69,2.55,208.97,0
2020-03-19T12:46:00-05:00,51.97,19.99,733.99,385.15,0.85,203.9,0
2020-03-19T12:47:00-05:00,53.33,19.99,735.06,778.14,0.54,234.21,0
2020-03-19T12:48:00-05:00,51.08,19.99,735.77,371.33,0.9,15.99,0
2020-03-19T12:49:00-05:00,51.65,20.02,736.07,553.78,0.87,347.85,0
2020-03-19T12:50:00-05:00,51.96,20.12,736.57,434.99,0.74,229.83,0
2020-03-19T12:51:00-05:00,51,20.1,736.33,405.14,2.18,299.06,0
2020-03-19T12:52:00-05:00,51.73,19.97,736.03,324.28,0.46,162.24,0
2020-03-19T12:53:00-05:00,52.31,19.91,735.87,284.44,0.7,342.9,0
2020-03-19T12:54:00-05:00,53.16,19.83,736.23,263.27,0.2,255.68,0
2020-03-19T12:55:00-05:00,55.58,19.85,735.03,242.68,0.52,346.47,0
2020-03-19T12:56:00-05:00,51.48,19.82,734.46,235.77,0.59,335.82,0
2020-03-19T12:57:00-05:00,53.48,19.82,734.46,230.48,0.28,242.11,0
2020-03-19T12:58:00-05:00,52.56,19.82,734.93,229.89,0.34,0.76,0
2020-03-19T12:59:00-05:00,53.44,19.79,733.36,232.68,0.64,314.51,0
2020-03-19T13:00:00-05:00,52.41,19.74,733.29,235.77,0.56,335.53,0
2020-03-19T13:01:00-05:00,53.78,19.74,733.36,246.65,0.76,35.72,0
2020-03-19T13:02:00-05:00,54.52,19.73,732.99,283.7,0.06,252.74,0
2020-03-19T13:03:00-05:00,56.18,19.77,734.13,959.27,0.48,254.72,0
2020-03-19T13:04:00-05:00,55.27,19.79,733.52,320.31,0.5,90.72,0
2020-03-19T13:05:00-05:00,54.65,19.82,733.42,320.16,0.89,140.29,0
2020-03-19T13:06:00-05:00,55.1,19.77,733.42,355.6,1.36,62.68,0
2020-03-19T13:07:00-05:00,57.59,19.72,733.22,559.52,0.55,238.82,0
2020-03-19T13:08:00-05:00,59.38,19.76,733.72,1069.98,1.03,238.11,0
2020-03-19T13:09:00-05:00,56.38,19.88,736.07,1051.31,0.93,215.93,0
2020-03-19T13:10:00-05:00,55.77,19.95,735.7,1072.34,0.81,200.32,0
2020-03-19T13:11:00-05:00,56.02,20.07,736.64,1073.66,0.93,221.94,0
2020-03-19T13:12:00-05:00,56.18,20.2,737.64,1035.73,1.25,220.18,0
2020-03-19T13:13:00-05:00,52.58,20.3,735.83,877.53,0.59,206.98,0
2020-03-19T13:14:00-05:00,52.47,20.39,734.79,718.3,1.31,185.99,0
2020-03-19T13:15:00-05:00,54.75,20.37,735.3,914.58,0.6,277.66,0
2020-03-19T13:16:00-05:00,51.4,20.43,735.03,1076.31,1.07,304.62,0
2020-03-19T13:17:00-05:00,55.96,20.51,735.06,1114.68,0.98,294.63,0
2020-03-19T13:18:00-05:00,51.71,20.65,735.87,1128.2,2.62,240.82,0
2020-03-19T13:19:00-05:00,55.98,20.73,734.93,1134.82,0.86,202.92,0
2020-03-19T13:20:00-05:00,53.18,20.86,734.63,1142.76,1.04,245.74,0
2020-03-19T13:21:00-05:00,52.75,20.87,735.23,1122.47,1.22,255.72,0
2020-03-19T13:22:00-05:00,55.12,20.9,736.1,1061.9,0.87,193.95,0
2020-03-19T13:23:00-05:00,56.02,21.02,736.03,959.13,2.36,201.27,0
2020-03-19T13:24:00-05:00,58.07,21.07,735.1,385.44,0.84,229.78,0
2020-03-19T13:25:00-05:00,54.59,21.07,733.49,349.13,1.43,200.3,0
2020-03-19T13:26:00-05:00,54.41,20.93,731.85,326.78,1.89,209.94,0
2020-03-19T13:27:00-05:00,55.54,20.81,735.73,312.67,0.93,208.3,0
2020-03-19T13:28:00-05:00,52.8,20.61,735.3,306.05,1.58,209.94,0
2020-03-19T13:29:00-05:00,53.84,20.35,734.46,321.19,1.59,209.21,0
2020-03-19T13:30:00-05:00,54.1,20.05,735.7,378.09,1.36,206.25,0
2020-03-19T13:31:00-05:00,58.53,19.92,735.83,573.34,1.07,178.3,0
2020-03-19T13:32:00-05:00,58.95,19.94,736.37,1043.67,2.31,221.9,0
2020-03-19T13:33:00-05:00,57.71,19.97,735.56,1063.07,0.79,219.85,0
2020-03-19T13:34:00-05:00,58.55,20.09,735.13,421.46,1.43,196.98,0
2020-03-19T13:35:00-05:00,57.23,20.13,735.97,354.57,2.94,223.86,0
2020-03-19T13:36:00-05:00,58.8,20.08,735.93,330.6,0.96,198.97,0
2020-03-19T13:37:00-05:00,59.02,19.99,734.9,323.84,1.24,197.99,0
2020-03-19T13:38:00-05:00,56.72,19.84,733.69,332.07,2.08,215.9,0
2020-03-19T13:39:00-05:00,58.37,19.7,731.78,333.4,2.36,221.95,0
2020-03-19T13:40:00-05:00,57.63,19.64,734.26,384.27,2.26,205.33,0
2020-03-19T13:41:00-05:00,58.76,19.58,733.05,475.71,2.27,291.66,0
2020-03-19T13:42:00-05:00,59.52,19.6,735.16,1081.89,1.14,247.12,0
2020-03-19T13:43:00-05:00,59.54,19.64,735.97,452.34,2.08,219.87,0
2020-03-19T13:44:00-05:00,60.55,19.66,734.46,382.8,1.45,211.31,0
2020-03-19T13:45:00-05:00,59.06,19.54,733.46,374.42,0.56,129.32,0
2020-03-19T13:46:00-05:00,59.6,19.49,732.82,495.56,2.03,268.13,0
2020-03-19T13:47:00-05:00,58.61,19.38,733.19,502.33,0.91,264.79,0
2020-03-19T13:48:00-05:00,61.11,19.35,734.29,1052.19,0.7,236.8,0
2020-03-19T13:49:00-05:00,62.18,19.48,736.67,1066.31,0.91,223.89,0
2020-03-19T13:50:00-05:00,62.89,19.72,735.23,1045.58,0.97,273.78,0
2020-03-19T13:51:00-05:00,61.62,19.92,734.86,1031.61,1.92,208.94,0
2020-03-19T13:52:00-05:00,59.9,20.06,735.63,1029.85,0.91,206.02,0
2020-03-19T13:53:00-05:00,58.66,20.2,735.06,1032.2,2.57,244.76,0
2020-03-19T13:54:00-05:00,58.24,20.37,735.77,1040.58,0.69,177.05,0
2020-03-19T13:55:00-05:00,57.89,20.51,735.77,1041.17,1.83,176.08,0
2020-03-19T13:56:00-05:00,55.26,20.54,735.63,1015.73,1.75,221.92,0
2020-03-19T13:57:00-05:00,58.21,20.59,736,757.71,1.3,237.15,0
2020-03-19T13:58:00-05:00,57.02,20.72,735.3,360.74,0.98,211.89,0
2020-03-19T13:59:00-05:00,54.69,20.68,734.83,374.12,1.96,222.28,0
2020-03-19T14:00:00-05:00,57,20.59,732.79,396.17,0.62,220.81,0
2020-03-19T14:01:00-05:00,55.12,20.51,731.48,380.59,0.73,216.29,0
2020-03-19T14:02:00-05:00,55.17,20.47,731.82,1039.84,0.36,293.67,0
2020-03-19T14:03:00-05:00,54.75,20.53,735,1058.96,0.71,227.21,0
2020-03-19T14:04:00-05:00,57.27,20.59,737.14,1062.49,2.39,198.3,0
2020-03-19T14:05:00-05:00,53.7,20.7,737.97,1025.88,0.65,216.19,0
2020-03-19T14:06:00-05:00,56.56,20.83,735.13,1035.73,2.21,298.7,0
2020-03-19T14:07:00-05:00,56.25,20.99,735.26,1003.97,0.87,193.95,0
2020-03-19T14:08:00-05:00,51.99,20.95,735.8,963.54,3.02,220.86,0
2020-03-19T14:09:00-05:00,52.76,20.88,735.93,818.13,1.62,155.2,0
2020-03-19T14:10:00-05:00,56.72,20.91,734.96,641.85,1.31,225.86,0
2020-03-19T14:11:00-05:00,55.29,20.98,735.5,959.72,0.94,212.9,0
2020-03-19T14:12:00-05:00,51.93,21.03,735.13,992.94,1.1,254.73,0
2020-03-19T14:13:00-05:00,56.06,21.08,735.1,982.06,0.67,184,0
2020-03-19T14:14:00-05:00,53.85,21.18,735.06,957.51,1.27,213.22,0
2020-03-19T14:15:00-05:00,53.41,21.28,736.57,938.1,0.66,211.9,0
2020-03-19T14:16:00-05:00,53.33,21.42,735.63,966.04,1.18,212.25,0
2020-03-19T14:17:00-05:00,50.14,21.46,735.6,943.54,3.22,225.85,0
2020-03-19T14:18:00-05:00,52.84,21.28,735.43,937.96,0.82,258.15,0
2020-03-19T14:19:00-05:00,51.11,21.28,735,946.19,1.43,206.97,0
2020-03-19T14:20:00-05:00,49.71,21.19,734.59,953.54,0.49,209.3,0
2020-03-19T14:21:00-05:00,50.8,21.12,734.79,950.6,1.01,239.87,0
2020-03-19T14:22:00-05:00,55.89,21.2,735.83,942.37,1.28,187.26,0
2020-03-19T14:23:00-05:00,52.69,21.32,735.6,928.55,0.58,137.85,0
2020-03-19T14:24:00-05:00,52.04,21.33,734.66,918.25,0.79,163.19,0
2020-03-19T14:25:00-05:00,53.22,21.4,736.43,905.91,1.43,192.98,0
2020-03-19T14:26:00-05:00,53.13,21.39,735.4,874,0.98,203.92,0
2020-03-19T14:27:00-05:00,51.67,21.39,735.1,880.18,0.16,208.95,0
2020-03-19T14:28:00-05:00,54.16,21.51,736.94,900.32,0.8,200.96,0
2020-03-19T14:29:00-05:00,50.62,21.62,734.16,910.17,1.66,212.87,0
2020-03-19T14:30:00-05:00,48.78,21.61,735.06,911.49,0.69,232.85,0
2020-03-19T14:31:00-05:00,51.36,21.56,734.73,365.01,2.2,228.21,0
2020-03-19T14:32:00-05:00,52.19,21.51,735.03,878.71,0.94,280.63,0
2020-03-19T14:33:00-05:00,53.4,21.52,734.96,892.38,1.46,193.35,0
2020-03-19T14:34:00-05:00,49.97,21.58,734.93,859.89,2.27,267.73,0
2020-03-19T14:35:00-05:00,49.37,21.51,733.76,869.74,2.29,224.24,0
2020-03-19T14:36:00-05:00,53.17,21.44,734.63,843.71,1.86,192.97,0
2020-03-19T14:37:00-05:00,54.3,21.51,734.69,824.01,0.74,227.23,0
2020-03-19T14:38:00-05:00,52.65,21.56,734.43,820.93,1.45,193.95,0
2020-03-19T14:39:00-05:00,53.3,21.62,736.37,822.54,1.73,218.19,0
2020-03-19T14:40:00-05:00,51.23,21.54,735.06,833.28,0.76,212.87,0
2020-03-19T14:41:00-05:00,48.47,21.49,734.23,817.69,0.9,206.99,0
2020-03-19T14:42:00-05:00,49.39,21.42,734.86,809.31,1.79,188.05,0
2020-03-19T14:43:00-05:00,50.4,21.39,735.03,868.71,2.32,227.83,0
2020-03-19T14:44:00-05:00,51.84,21.44,735.43,860.92,0.51,36.49,0
2020-03-19T14:45:00-05:00,51.21,21.54,737.41,866.94,0.43,256.79,0
2020-03-19T14:46:00-05:00,54.21,21.71,734.63,824.31,0.26,102.63,0
2020-03-19T14:47:00-05:00,49.93,21.73,734.33,826.51,3.13,240.16,0
2020-03-19T14:48:00-05:00,49.27,21.44,735.2,806.08,2.5,212.21,0
2020-03-19T14:49:00-05:00,51.57,21.24,734.93,776.08,3.24,195.92,0
2020-03-19T14:50:00-05:00,53.6,21.12,733.12,736.68,1.9,193.32,0
2020-03-19T14:51:00-05:00,51.4,20.96,732.42,749.62,1.41,227.86,0
2020-03-19T14:52:00-05:00,52.19,20.88,732.62,750.35,0.59,245.14,0
2020-03-19T14:53:00-05:00,54.43,20.89,735.1,743,0.73,201.92,0
2020-03-19T14:54:00-05:00,52.31,20.96,734.59,743.15,0.69,206.39,0
2020-03-19T14:55:00-05:00,50.9,21.04,736.23,745.8,0.67,238.86,0
2020-03-19T14:56:00-05:00,51.54,21.1,735.73,739.77,0.83,211.24,0
2020-03-19T14:57:00-05:00,50.76,21.13,735.97,765.5,0.7,261.71,0
2020-03-19T14:58:00-05:00,50.82,21.15,735.9,748.74,2.06,228.82,0
2020-03-19T14:59:00-05:00,53.86,21.19,735.97,756.68,0.78,193.96,0
2020-03-19T15:00:00-05:00,51.74,21.29,736.97,767.7,0.83,212.87,0
2020-03-19T15:01:00-05:00,53.26,21.36,736.5,743.59,2.16,232.85,0
2020-03-19T15:02:00-05:00,49.77,21.38,736.6,735.21,0.88,181.09,0
2020-03-19T15:03:00-05:00,50.02,21.31,735.6,723.6,0.63,205.02,0
2020-03-19T15:04:00-05:00,49.06,21.16,734.23,712.13,1.89,215.93,0
2020-03-19T15:05:00-05:00,50.41,21.05,734.49,749.47,0.64,243.18,0
2020-03-19T15:06:00-05:00,53.1,21.08,736.07,716.24,1.14,199.96,0
2020-03-19T15:07:00-05:00,51.02,21.19,737.2,725.95,0.74,243.18,0
2020-03-19T15:08:00-05:00,48.91,21.33,735.1,738.15,0.61,237.77,0
2020-03-19T15:09:00-05:00,49.03,21.46,735.3,726.98,1.98,234.24,0
2020-03-19T15:10:00-05:00,47.84,21.48,734.36,720.8,0.53,201.94,0
2020-03-19T15:11:00-05:00,51.2,21.59,736.8,718.45,0.72,203.31,0
2020-03-19T15:12:00-05:00,49.39,21.72,738.71,710.8,1.06,203.93,0
2020-03-19T15:13:00-05:00,50.22,21.78,737.41,705.95,2.68,203.01,0
2020-03-19T15:14:00-05:00,51.58,21.61,736.2,705.07,1.76,200.97,0
2020-03-19T15:15:00-05:00,52.24,21.57,735.26,714.04,0.98,184.98,0
2020-03-19T15:16:00-05:00,51.53,21.55,734.93,705.07,2.96,259.74,0
2020-03-19T15:17:00-05:00,53.31,21.44,733.22,696.1,2.25,195.89,0
2020-03-19T15:18:00-05:00,52.63,21.4,732.79,694.04,2.14,226.83,0
2020-03-19T15:19:00-05:00,52.63,21.38,732.92,699.93,0.89,203.89,0
2020-03-19T15:20:00-05:00,53.04,21.44,735.23,688.02,1.45,194.22,0
2020-03-19T15:21:00-05:00,52.42,21.55,735.9,667.43,2.18,223.28,0
2020-03-19T15:22:00-05:00,51.87,21.64,735.7,635.97,2.68,205.35,0
2020-03-19T15:23:00-05:00,52.26,21.48,734.26,628.03,1.91,190,0
2020-03-19T15:24:00-05:00,50.46,21.28,731.58,655.82,2.31,234.23,0
2020-03-19T15:25:00-05:00,52.8,21.19,731.61,683.46,2.57,221.9,0
2020-03-19T15:26:00-05:00,51.92,21.01,729.47,689.19,2.79,228.22,0
2020-03-19T15:27:00-05:00,51.93,20.79,735.06,674.05,3.03,236.79,0
2020-03-19T15:28:00-05:00,53.63,20.69,733.96,656.55,3.05,227.24,0
2020-03-19T15:29:00-05:00,52.28,20.71,735.2,644.79,2.28,232.85,0
2020-03-19T15:30:00-05:00,52.51,20.64,734.23,639.65,1.82,207.99,0
2020-03-19T15:31:00-05:00,53.82,20.55,733.29,623.03,2.05,209.94,0
2020-03-19T15:32:00-05:00,55.2,20.53,733.15,605.09,1.97,188.08,0
2020-03-19T15:33:00-05:00,55.61,20.52,732.75,608.33,1.07,176.08,0
2020-03-19T15:34:00-05:00,55.77,20.57,732.22,598.77,0.87,193.95,0
2020-03-19T15:35:00-05:00,56.74,20.53,731.68,581.87,0.68,180.09,0
2020-03-19T15:36:00-05:00,56.5,20.57,731.95,558.49,2.14,201.91,0
2020-03-19T15:37:00-05:00,53.86,20.6,730.95,538.2,0.79,254.68,0
2020-03-19T15:38:00-05:00,52.57,20.54,730.68,544.82,2.42,227.83,0
2020-03-19T15:39:00-05:00,53.21,20.39,733.79,533.49,0.62,186.33,0
2020-03-19T15:40:00-05:00,54.59,20.37,734.43,549.23,0.4,159.17,0
2020-03-19T15:41:00-05:00,55.19,20.44,735.1,584.66,0.32,235.2,0
2020-03-19T15:42:00-05:00,57.96,20.6,734.13,599.8,0.52,173.13,0
2020-03-19T15:43:00-05:00,56.96,20.86,735.36,614.21,0.6,208.32,0
2020-03-19T15:44:00-05:00,55.71,21.07,735.23,607.59,1.35,198,0
2020-03-19T15:45:00-05:00,50.32,21.05,734.16,574.22,0.95,287.01,0
2020-03-19T15:46:00-05:00,51.2,20.96,733.09,534.96,0.81,197.99,0
2020-03-19T15:47:00-05:00,53.06,20.93,733.32,506.88,2.34,201.26,0
2020-03-19T15:48:00-05:00,53.28,20.92,731.68,489.53,1.48,248.8,0
2020-03-19T15:49:00-05:00,50.74,20.82,730.84,485.86,1.42,200.94,0
2020-03-19T15:50:00-05:00,54.44,20.74,730.34,465.57,0.67,215.95,0
2020-03-19T15:51:00-05:00,54.3,20.72,734.23,482.04,0.82,198.95,0
2020-03-19T15:52:00-05:00,54.2,20.68,734.73,464.25,0.63,230.89,0
2020-03-19T15:53:00-05:00,54.51,20.71,734.83,459.84,2.34,242.79,0
2020-03-19T15:54:00-05:00,53.09,20.72,734.02,463.81,1.04,271.98,0
2020-03-19T15:55:00-05:00,54.43,20.7,734.33,437.64,1.18,207.28,0
2020-03-19T15:56:00-05:00,55.17,20.71,734.19,434.11,0.99,201.29,0
2020-03-19T15:57:00-05:00,54.43,20.65,734.36,453.37,0.53,267.74,0
2020-03-19T15:58:00-05:00,54.44,20.61,734.29,469.54,1.03,200.34,0
2020-03-19T15:59:00-05:00,54.8,20.59,733.49,487.48,0.7,198.95,0
2020-03-19T16:00:00-05:00,55.51,20.57,734.09,490.42,0.89,211.3,0
2020-03-19T16:01:00-05:00,54.99,20.63,735.9,473.36,1.14,230.89,0
2020-03-19T16:02:00-05:00,55.31,20.68,735.97,470.57,2.1,183.38,0
2020-03-19T16:03:00-05:00,55.32,20.71,734.76,456.9,0.84,193.96,0
2020-03-19T16:04:00-05:00,53.32,20.59,733.22,430.28,0.99,214.23,0
2020-03-19T16:05:00-05:00,53,20.39,733.56,432.78,0.77,217.92,0
2020-03-19T16:06:00-05:00,54.46,20.31,733.52,420.43,0.65,198.95,0
2020-03-19T16:07:00-05:00,55.49,20.28,732.12,419.11,0.81,214.93,0
2020-03-19T16:08:00-05:00,54.88,20.31,733.05,443.66,0.83,315.52,0
2020-03-19T16:09:00-05:00,53.92,20.35,735.1,436.46,0.64,300.64,0
2020-03-19T16:10:00-05:00,53.96,20.43,736.77,421.17,0.56,298.67,0
2020-03-19T16:11:00-05:00,56.5,20.5,735.03,385.59,0.98,219.87,0
2020-03-19T16:12:00-05:00,52.81,20.53,734.9,361.62,0.59,209.92,0
2020-03-19T16:13:00-05:00,52.39,20.51,732.15,348.39,1.76,239.3,0
2020-03-19T16:14:00-05:00,51.66,20.35,729.97,395.73,0.9,188.05,0
2020-03-19T16:15:00-05:00,50.98,20.23,729.94,408.23,0.63,202.27,0
2020-03-19T16:16:00-05:00,51.52,20.12,734.66,402.35,0.63,188.07,0
2020-03-19T16:17:00-05:00,54.66,20.14,733.92,407.2,0.62,299.11,0
2020-03-19T16:18:00-05:00,55.07,20.17,734.83,409.99,0.72,227.86,0
2020-03-19T16:19:00-05:00,55.97,20.18,734.29,395.15,0.95,211.29,0
2020-03-19T16:20:00-05:00,55.42,20.1,734.63,401.76,1.91,202.89,0
2020-03-19T16:21:00-05:00,56.51,20.07,734.43,383.82,0.3,288.87,0
2020-03-19T16:22:00-05:00,56.01,20.13,735.77,370.3,0.52,167.09,0
2020-03-19T16:23:00-05:00,53.88,20.21,736.03,371.77,0.65,324.61,0
2020-03-19T16:24:00-05:00,54.1,20.25,736.6,379.12,1.96,244.78,0
2020-03-19T16:25:00-05:00,54.49,20.26,737.41,395.73,0.27,218.89,0
2020-03-19T16:26:00-05:00,56.45,20.31,736.74,373.97,1.59,202.93,0
2020-03-19T16:27:00-05:00,55.89,20.32,736.97,361.04,0.87,225.85,0
2020-03-19T16:28:00-05:00,57.05,20.24,734.13,320.02,1.28,205.3,0
2020-03-19T16:29:00-05:00,56.16,20.13,734.19,318.4,2.34,237.09,0
2020-03-19T16:30:00-05:00,57.11,19.96,731.15,326.49,0.8,222.93,0
2020-03-19T16:31:00-05:00,57.77,19.86,729.84,325.9,2.39,231.85,0
2020-03-19T16:32:00-05:00,57.09,19.74,733.86,311.49,0.74,234.21,0
2020-03-19T16:33:00-05:00,57.58,19.63,734.26,264.74,1.2,189.06,0
2020-03-19T16:34:00-05:00,58.21,19.48,734.53,162.11,0.61,204.24,0
2020-03-19T16:35:00-05:00,60.31,19.43,733.96,124.33,0.87,218.87,0
2020-03-19T16:36:00-05:00,60.77,19.39,733.86,124.92,0.59,1.14,0
2020-03-19T16:37:00-05:00,61.82,19.4,733.32,127.12,1.61,210.96,0
2020-03-19T16:38:00-05:00,59.91,19.29,731.95,126.97,0.78,213.21,0
2020-03-19T16:39:00-05:00,59.6,19.21,731.05,125.95,0.75,205,0
2020-03-19T16:40:00-05:00,60.59,19.15,734.23,127.56,0.63,219.88,0
2020-03-19T16:41:00-05:00,59.59,19.08,734.79,126.24,0.91,201.92,0
2020-03-19T16:42:00-05:00,60.41,18.98,734.73,126.68,1.65,215.94,0
2020-03-19T16:43:00-05:00,61.11,18.91,734.46,126.53,0.92,203.93,0
2020-03-19T16:44:00-05:00,61.7,18.84,734.69,152.85,0.95,206.98,0
2020-03-19T16:45:00-05:00,62.17,18.83,734.69,139.18,1.56,213.93,0
2020-03-19T16:46:00-05:00,63.6,18.74,734.59,158.58,0.69,189.05,0
2020-03-19T16:47:00-05:00,63.69,18.73,733.05,99.33,0.75,194.91,0
2020-03-19T16:48:00-05:00,63.4,18.71,733.02,91.84,0.6,201.93,0
2020-03-19T16:49:00-05:00,63.19,18.64,730.68,85.37,0.56,220.23,0
2020-03-19T16:50:00-05:00,64.66,18.56,735.63,80.66,0.63,171.15,0
2020-03-19T16:51:00-05:00,65.21,18.47,735.13,84.63,0.34,195.28,0
2020-03-19T16:52:00-05:00,65.1,18.39,734.83,86.1,0.57,208.94,0
2020-03-19T16:53:00-05:00,65.49,18.3,734.56,81.4,1.03,199.37,0
2020-03-19T16:54:00-05:00,65.68,18.19,734.36,73.16,1.9,231.9,0
2020-03-19T16:55:00-05:00,64.76,18.09,734.46,69.78,0.33,321.88,0
2020-03-19T16:56:00-05:00,66.27,18.03,734.02,70.37,0.77,239.85,0
2020-03-19T16:57:00-05:00,65.94,17.95,733.79,71.84,0.67,213.15,0
2020-03-19T16:58:00-05:00,65.04,17.88,733.89,70.81,0.61,251.76,0
2020-03-19T16:59:00-05:00,65.12,17.8,733.39,71.11,0.65,193.95,0
2020-03-19T17:00:00-05:00,66.11,17.73,732.02,70.81,0.52,214.94,0
2020-03-19T17:01:00-05:00,66.49,17.66,731.75,73.02,0.62,212.9,0
2020-03-19T17:02:00-05:00,67.08,17.6,731.45,73.16,0.7,206.28,0
2020-03-19T17:03:00-05:00,66.69,17.57,730.74,76.1,0.64,247.02,0
2020-03-19T17:04:00-05:00,68.74,17.54,730.48,75.08,1.34,201.93,0
2020-03-19T17:05:00-05:00,66.35,17.5,734.46,77.72,0.74,216.91,0
2020-03-19T17:06:00-05:00,67.65,17.44,734.56,78.75,0.75,212.89,0
2020-03-19T17:07:00-05:00,68.08,17.39,735.87,81.99,0.51,272.66,0
2020-03-19T17:08:00-05:00,68.64,17.38,734.53,82.43,0.31,278,0
2020-03-19T17:09:00-05:00,68.47,17.4,734.66,85.51,0.57,233.82,0
2020-03-19T17:10:00-05:00,66.62,17.37,734.33,85.51,0.61,206.36,0
2020-03-19T17:11:00-05:00,67.4,17.35,733.66,86.4,0.55,264.8,0
2020-03-19T17:12:00-05:00,68.53,17.29,734.16,85.81,0.93,204.23,0
2020-03-19T17:13:00-05:00,68.51,17.23,733.32,81.4,0.38,272.66,0
2020-03-19T17:14:00-05:00,69.13,17.17,732.92,72.58,0.16,50.91,0
2020-03-19T17:15:00-05:00,68,17.12,733.52,62.87,0.57,176.09,0
2020-03-19T17:16:00-05:00,68.39,17.04,732.79,58.17,0.31,88.96,0
2020-03-19T17:17:00-05:00,68.55,17.04,732.38,53.61,1.97,318.57,0
2020-03-19T17:18:00-05:00,67.7,16.94,732.35,48.17,1.21,120.05,0
2020-03-19T17:19:00-05:00,68.33,16.84,731.61,45.23,0.62,105.93,0
2020-03-19T17:20:00-05:00,69.15,16.72,730.68,46.26,2.35,80.67,0
2020-03-19T17:21:00-05:00,69.17,16.59,735.63,45.82,0.57,73.59,0
2020-03-19T17:22:00-05:00,69.67,16.48,735,44.94,0.59,147.2,0
2020-03-19T17:23:00-05:00,70.22,16.43,734.9,44.64,0.61,43.39,0
2020-03-19T17:24:00-05:00,70.68,16.36,735.06,46.99,1.19,96.42,0
2020-03-19T17:25:00-05:00,70.86,16.32,735.2,46.99,1.76,87.91,0
2020-03-19T17:26:00-05:00,71.13,16.28,735.23,44.79,0.61,65.57,0
2020-03-19T17:27:00-05:00,71.84,16.24,735.06,43.02,0.24,74.07,0
2020-03-19T17:28:00-05:00,71.87,16.23,735.03,41.41,0.66,66.13,0
2020-03-19T17:29:00-05:00,72.29,16.16,735.6,40.82,1,112.95,0
2020-03-19T17:30:00-05:00,73.07,16.08,734.56,38.76,1.12,219.87,0
2020-03-19T17:31:00-05:00,73.38,16.02,736.1,37.73,0.52,262.08,0
2020-03-19T17:32:00-05:00,74.21,15.98,735.63,37,0.65,299.68,0
2020-03-19T17:33:00-05:00,73.26,15.91,735.36,33.61,0.75,41.43,0
2020-03-19T17:34:00-05:00,74.15,15.83,734.43,33.61,0.69,202.92,0
2020-03-19T17:35:00-05:00,75.12,15.75,733.86,29.2,0.64,126.15,0
2020-03-19T17:36:00-05:00,75.3,15.66,733.59,27.73,1.04,130.81,0
2020-03-19T17:37:00-05:00,75.31,15.58,733.72,27.29,0.52,134.77,0
2020-03-19T17:38:00-05:00,75.33,15.55,732.65,29.64,0.55,132.08,0
2020-03-19T17:39:00-05:00,75.4,15.51,732.99,27,0.79,60.16,0
2020-03-19T17:40:00-05:00,75.86,15.5,734.02,23.03,0.57,199,0
2020-03-19T17:41:00-05:00,75.59,15.45,733.02,18.32,0.53,98.3,0
2020-03-19T17:42:00-05:00,76,15.47,732.48,16.71,0.7,190.01,0
2020-03-19T17:43:00-05:00,76.61,15.41,732.32,15.53,0.6,145.29,0
2020-03-19T17:44:00-05:00,76.69,15.36,731.61,12.74,0.17,202.95,0
2020-03-19T17:45:00-05:00,76.71,15.32,732.15,14.94,0.28,154.23,0
2020-03-19T17:46:00-05:00,76.75,15.3,732.32,16.27,0.64,125.67,0
2020-03-19T17:47:00-05:00,76.26,15.29,731.55,13.91,0.16,217.94,0
2020-03-19T17:48:00-05:00,76.61,15.29,731.92,14.06,0.54,204.28,0
2020-03-19T17:49:00-05:00,76.81,15.27,730.74,14.06,0.35,250.79,0
2020-03-19T17:50:00-05:00,76.52,15.25,731.05,13.18,0.32,185.32,0
2020-03-19T17:51:00-05:00,76.73,15.24,730.74,13.03,0.19,260.73,0
2020-03-19T17:52:00-05:00,76.58,15.24,730.88,9.94,0.53,277.05,0
2020-03-19T17:53:00-05:00,76.23,15.19,731.08,8.91,0.66,290.71,0
2020-03-19T17:54:00-05:00,75.95,15.21,729.87,6.42,0.22,236.08,0
2020-03-19T17:55:00-05:00,76.06,15.18,730.48,6.12,0.18,318.6,0
2020-03-19T17:56:00-05:00,75.83,15.19,730.28,4.8,0.46,320.58,0
2020-03-19T17:57:00-05:00,75.84,15.19,730.95,3.92,0.11,117.6,0
2020-03-19T17:58:00-05:00,76.2,15.19,730.28,5.97,0.23,23.43,0
2020-03-19T17:59:00-05:00,76.41,15.19,736.3,4.21,0.53,12.8,0
2020-03-19T18:00:00-05:00,76.19,15.17,735.93,4.5,0.19,252.78,0
2020-03-19T18:01:00-05:00,76.18,15.17,736.33,4.8,0.24,284.68,0
2020-03-19T18:02:00-05:00,76.39,15.18,736.17,2.15,0.16,325.6,0
2020-03-19T18:03:00-05:00,76.47,15.16,735.33,1.71,0.49,1.76,0
2020-03-19T18:04:00-05:00,76.71,15.17,735.87,0.68,0.43,24.78,0
2020-03-19T18:05:00-05:00,77.19,15.18,736.17,-0.79,0.9,67.71,0
2020-03-19T18:06:00-05:00,77.16,15.18,736,0.53,0.54,184.99,0
2020-03-19T18:07:00-05:00,77.89,15.19,736.1,-1.23,0.61,76.45,0
2020-03-19T18:08:00-05:00,77.66,15.17,735.63,0.24,0.79,121.92,0
2020-03-19T18:09:00-05:00,77.65,15.18,735.97,1.27,0.15,54.37,0
2020-03-19T18:10:00-05:00,78.44,15.18,736.17,2.15,0.26,111.44,0
2020-03-19T18:11:00-05:00,78.56,15.19,736.07,0.53,0.56,76.68,0
2020-03-19T18:12:00-05:00,78.26,15.18,735.33,2,0.29,123.06,0
2020-03-19T18:13:00-05:00,78.56,15.17,736.23,-0.05,0.31,39.65,0
2020-03-19T18:14:00-05:00,78.88,15.17,736.13,-0.35,0.49,71.22,0
2020-03-19T18:15:00-05:00,79.44,15.18,735.46,-0.94,0.25,35.01,0
2020-03-19T18:16:00-05:00,79.15,15.19,736,-0.49,0.14,74.09,0
2020-03-19T18:17:00-05:00,78.98,15.16,735.9,-0.64,0.46,247.82,0
2020-03-19T18:18:00-05:00,78.6,15.15,736.17,-1.52,0.58,289.62,0
2020-03-19T18:19:00-05:00,78.64,15.11,735.46,-1.38,0.6,72.76,0
2020-03-19T18:20:00-05:00,78.37,15.12,736.03,-2.55,0.47,21.3,0
2020-03-19T18:21:00-05:00,78.06,15.11,735.8,-1.82,0.22,322.55,0
2020-03-19T18:22:00-05:00,77.8,15.13,736.03,-1.97,0.23,25.04,0
2020-03-19T18:23:00-05:00,78.22,15.13,735.56,-1.38,0.35,252.75,0
2020-03-19T18:24:00-05:00,77.1,15.12,735.77,-1.38,0.12,308,0
2020-03-19T18:25:00-05:00,76.87,15.12,735.16,-1.08,0.59,93.79,0
2020-03-19T18:26:00-05:00,77.43,15.13,735.97,-3.58,0.85,58.11,0
2020-03-19T18:27:00-05:00,76.61,15.11,735.8,-2.99,0.63,52.54,0
2020-03-19T18:28:00-05:00,76.69,15.09,734.59,-3.73,0.92,34.28,0
2020-03-19T18:29:00-05:00,77.17,15.09,735.4,-3.44,0.98,54.82,0
2020-03-19T18:30:00-05:00,77.73,15.07,734.53,-2.99,0.82,67.01,0
2020-03-19T18:31:00-05:00,78.02,15.04,735.1,-4.46,1.28,3.67,0
2020-03-19T18:32:00-05:00,77.21,15.03,734.16,-6.23,0.39,322.9,0
2020-03-19T18:33:00-05:00,77.13,15,733.89,-6.82,0.56,42.13,0
2020-03-19T18:34:00-05:00,77.85,14.97,733.66,-5.79,0.66,68.96,0
2020-03-19T18:35:00-05:00,77.94,14.96,734.73,-5.79,0.59,60.44,0
2020-03-19T18:36:00-05:00,77.78,14.94,733.39,-6.23,0.26,346.5,0
2020-03-19T18:37:00-05:00,78.09,14.91,733.29,-4.61,0.94,32.47,0
2020-03-19T18:38:00-05:00,77.59,14.91,733.89,-4.91,1.35,346.48,0
2020-03-19T18:39:00-05:00,78.51,14.87,733.09,-4.32,0.87,101.15,0
2020-03-19T18:40:00-05:00,77.91,14.85,733.42,-1.97,1.15,80,0
2020-03-19T18:41:00-05:00,77.35,14.81,733.62,-3.14,1.03,78.34,0
2020-03-19T18:42:00-05:00,77.9,14.8,733.05,-1.52,1.05,355.45,0
2020-03-19T18:43:00-05:00,77.62,14.78,733.99,-2.85,1.56,24.25,0
2020-03-19T18:44:00-05:00,77.63,14.78,732.65,-2.55,0.86,64.74,0
2020-03-19T18:45:00-05:00,77.68,14.75,733.52,-2.41,2.36,39.39,0
2020-03-19T18:46:00-05:00,77.67,14.73,733.69,-0.94,0.92,41.37,0
2020-03-19T18:47:00-05:00,77.59,14.71,733.22,-2.41,0.59,346.81,0
2020-03-19T18:48:00-05:00,76.97,14.69,734.02,-2.11,0.58,147.22,0
2020-03-19T18:49:00-05:00,76.7,14.65,734.16,-2.85,1.11,61.48,0
2020-03-19T18:50:00-05:00,77.37,14.62,733.25,-1.97,1.78,55.15,0
2020-03-19T18:51:00-05:00,77.9,14.61,732.89,-2.26,2.24,56.64,0
2020-03-19T18:52:00-05:00,76.86,14.58,733.59,-2.55,4.2,31.43,0
2020-03-19T18:53:00-05:00,77.05,14.51,733.15,-3.44,1.02,45.4,0
2020-03-19T18:54:00-05:00,77.78,14.49,733.52,-1.67,1.4,90.69,0
2020-03-19T18:55:00-05:00,77.87,14.47,732.79,-3.88,0.63,89.97,0
2020-03-19T18:56:00-05:00,77.47,14.43,732.42,-2.26,2.34,66.34,0
2020-03-19T18:57:00-05:00,77.65,14.41,733.39,-1.23,1.3,24.66,0
2020-03-19T18:58:00-05:00,77.49,14.34,732.72,-1.67,0.7,29.26,0
2020-03-19T18:59:00-05:00,77.59,14.34,732.79,-1.08,0.95,84,0
2020-03-19T19:00:00-05:00,77.45,14.3,732.85,-3.58,2.67,43.63,0
2020-03-19T19:01:00-05:00,77.61,14.25,732.99,-1.67,2.6,349.47,0
2020-03-19T19:02:00-05:00,78.46,14.24,732.38,-0.94,2.55,71.88,0
2020-03-19T19:03:00-05:00,78.32,14.22,733.09,-1.67,1.61,24.78,0
2020-03-19T19:04:00-05:00,78.44,14.19,733.15,-1.97,1.71,37.36,0
2020-03-19T19:05:00-05:00,78.06,14.17,732.72,-3.58,0.74,1.73,0
2020-03-19T19:06:00-05:00,77.75,14.14,732.32,-3.44,3.96,41,0
2020-03-19T19:07:00-05:00,77.78,14.11,732.38,-2.7,2.42,57.85,0
2020-03-19T19:08:00-05:00,78.32,14.08,732.45,-1.23,0.96,110.55,0
2020-03-19T19:09:00-05:00,77.94,14.08,731.55,-3.88,1.84,125.09,0
2020-03-19T19:10:00-05:00,78.29,14.04,732.15,-2.55,1.18,10.07,0
2020-03-19T19:11:00-05:00,77.94,14.04,732.08,-3.88,1.43,4.65,0
2020-03-19T19:12:00-05:00,78.24,14.02,732.59,-3.73,1.46,47.87,0
2020-03-19T19:13:00-05:00,78.13,14.03,732.02,-3.88,1.23,74.98,0
2020-03-19T19:14:00-05:00,78.18,14,732.32,-3.88,2.91,31.82,0
2020-03-19T19:15:00-05:00,78.17,13.99,731.38,-3.88,3.78,34.99,0
2020-03-19T19:16:00-05:00,78.25,13.94,731.61,-4.17,2.56,50.16,0
2020-03-19T19:17:00-05:00,78.32,13.94,731.88,-2.85,2.97,63.92,0
2020-03-19T19:18:00-05:00,78.55,13.91,731.65,-2.26,2.14,65.35,0
2020-03-19T19:19:00-05:00,78.43,13.9,737.27,-5.49,2.53,52.06,0
2020-03-19T19:20:00-05:00,78.09,13.88,736.43,-2.85,2.81,34.94,0
2020-03-19T19:21:00-05:00,78.37,13.9,737.27,-3.58,1.29,88.49,0
2020-03-19T19:22:00-05:00,78.86,13.87,737.04,-4.61,3.09,28.21,0
2020-03-19T19:23:00-05:00,78.01,13.88,736.87,-2.41,2.89,72.78,0
2020-03-19T19:24:00-05:00,77.9,13.84,737.17,-3.58,1.46,54.55,0
2020-03-19T19:25:00-05:00,78.62,13.85,737.31,-3.29,3.37,44.73,0
2020-03-19T19:26:00-05:00,78.39,13.83,736.33,-5.49,2.09,30.61,0
2020-03-19T19:27:00-05:00,78.27,13.81,737.04,-5.35,1.95,35.2,0
2020-03-19T19:28:00-05:00,78.24,13.81,736.6,-3.73,2.38,59.01,0
2020-03-19T19:29:00-05:00,78.47,13.76,737.1,-3.14,0.66,288.94,0
2020-03-19T19:30:00-05:00,78.68,13.75,737.04,-4.91,2.58,82.67,0
2020-03-19T19:31:00-05:00,78.72,13.73,735.93,-4.61,5.25,64.8,0
2020-03-19T19:32:00-05:00,78.65,13.7,736.2,-2.26,2.3,71.94,0
2020-03-19T19:33:00-05:00,78.99,13.69,736.17,-4.61,3.01,71.82,0
2020-03-19T19:34:00-05:00,79.24,13.66,736.07,-4.61,3.36,44.84,0
2020-03-19T19:35:00-05:00,79.19,13.62,736.4,-4.91,5.12,45.56,0
2020-03-19T19:36:00-05:00,79.14,13.6,735.83,-3.44,2.86,56.2,0
2020-03-19T19:37:00-05:00,79.19,13.56,736.03,-2.26,2.71,62.06,0
2020-03-19T19:38:00-05:00,80.03,13.55,735.56,-4.17,1.85,16.43,0
2020-03-19T19:39:00-05:00,79.49,13.54,735.36,-2.99,3.94,36.75,0
2020-03-19T19:40:00-05:00,79.71,13.53,736.33,-2.55,1.94,87.31,0
2020-03-19T19:41:00-05:00,79.45,13.52,735.87,-3.29,2.81,69.82,0
2020-03-19T19:42:00-05:00,79.12,13.5,735.67,-3.73,0.98,58.22,0
2020-03-19T19:43:00-05:00,79.52,13.5,735.26,-3.44,3.32,37.36,0
2020-03-19T19:44:00-05:00,79.13,13.48,735.33,-2.55,2.4,49.2,0
2020-03-19T19:45:00-05:00,79.33,13.48,734.56,-1.67,1.49,39.16,0
2020-03-19T19:46:00-05:00,79.03,13.48,735.4,-3.73,2.56,38.43,0
2020-03-19T19:47:00-05:00,79.13,13.48,735.6,-3.29,1.44,36.8,0
2020-03-19T19:48:00-05:00,79.41,13.48,735.6,-2.11,2.73,60.42,0
2020-03-19T19:49:00-05:00,78.9,13.5,735.97,-2.55,4.26,24.15,0
2020-03-19T19:50:00-05:00,78.7,13.5,735.83,-1.97,2.21,74.53,0
2020-03-19T19:51:00-05:00,78.64,13.48,736.17,-1.23,3.23,30.31,0
2020-03-19T19:52:00-05:00,78.15,13.5,735.5,-1.67,3.05,70.62,0
2020-03-19T19:53:00-05:00,77.82,13.5,735.53,-2.85,2.54,62.03,0
2020-03-19T19:54:00-05:00,77.59,13.5,735.33,-1.52,3.03,47.13,0
2020-03-19T19:55:00-05:00,77.52,13.52,736,-2.26,3.18,74.99,0
2020-03-19T19:56:00-05:00,77.12,13.53,735.06,-1.82,3.38,39.32,0
2020-03-19T19:57:00-05:00,77.23,13.51,735.53,-2.99,3.72,39.5,0
2020-03-19T19:58:00-05:00,77.12,13.51,735.77,-3.44,3.4,74.75,0
2020-03-19T19:59:00-05:00,77.14,13.49,735.03,-1.82,3.5,62.81,0
2020-03-19T20:00:00-05:00,76.76,13.52,735.3,-3.73,2.23,64.82,0
2020-03-19T20:01:00-05:00,77.14,13.54,736.43,-2.55,1.28,24.09,0
2020-03-19T20:02:00-05:00,76.73,13.54,736.37,-0.79,2.54,55.07,0
2020-03-19T20:03:00-05:00,76.77,13.55,736.33,-2.7,2.88,94.35,0
2020-03-19T20:04:00-05:00,76.81,13.55,736.23,-3.44,4.29,39.24,0
2020-03-19T20:05:00-05:00,76.57,13.56,736,-2.99,2.08,29.7,0
2020-03-19T20:06:00-05:00,76.93,13.58,735.7,-1.52,4.3,65.78,0
2020-03-19T20:07:00-05:00,76.73,13.57,735.67,-3.29,2.73,24.06,0
2020-03-19T20:08:00-05:00,76.81,13.54,736.07,-1.23,2.19,53.45,0
2020-03-19T20:09:00-05:00,76.99,13.54,736.27,-3.14,3.17,59.03,0
2020-03-19T20:10:00-05:00,77.48,13.54,736.23,-1.52,2.28,50.62,0
2020-03-19T20:11:00-05:00,77.94,13.52,736.23,-1.38,1.23,74.41,0
2020-03-19T20:12:00-05:00,77.04,13.51,736.17,-4.02,1.78,69.33,0
2020-03-19T20:13:00-05:00,77.03,13.52,735.4,-2.7,2.33,48.94,0
2020-03-19T20:14:00-05:00,77.61,13.52,734.96,-2.26,0.83,27.39,0
2020-03-19T20:15:00-05:00,78.13,13.49,736.03,-3.73,0.6,92.26,0
2020-03-19T20:16:00-05:00,78.2,13.46,735.16,-2.85,0.68,118.15,0
2020-03-19T20:17:00-05:00,78.44,13.43,735.93,-3.14,0.6,83.42,0
2020-03-19T20:18:00-05:00,78.35,13.39,735.1,-4.46,2.1,36.62,0
2020-03-19T20:19:00-05:00,78.3,13.4,735.77,-4.32,2.36,50.17,0
2020-03-19T20:20:00-05:00,77.22,13.41,735.3,-3.58,2.68,36.73,0
2020-03-19T20:21:00-05:00,76.33,13.49,735.8,-0.49,0.57,97.2,0
2020-03-19T20:22:00-05:00,76.53,13.54,735.53,0.09,1.1,1.09,0
2020-03-19T20:23:00-05:00,76.19,13.57,735.53,0.39,1.41,57.01,0
2020-03-19T20:24:00-05:00,75.77,13.6,736.4,-0.94,2.98,66.75,0
2020-03-19T20:25:00-05:00,75.68,13.64,736.17,-1.23,2.54,74.37,0
2020-03-19T20:26:00-05:00,76.11,13.62,735.77,-1.08,1.02,131.64,0
2020-03-19T20:27:00-05:00,76.88,13.62,736.2,-1.23,0.24,63.69,0
2020-03-19T20:28:00-05:00,76.44,13.6,737.07,-0.49,0.69,68.92,0
2020-03-19T20:29:00-05:00,77.78,13.6,736.74,-1.52,0.86,352.52,0
2020-03-19T20:30:00-05:00,77.42,13.58,736,-2.41,0.67,151.19,0
2020-03-19T20:31:00-05:00,78.18,13.54,736.6,-1.67,1.47,59.34,0
2020-03-19T20:32:00-05:00,77.52,13.54,736,-1.52,2.46,63.65,0
2020-03-19T20:33:00-05:00,76.55,13.55,735.6,-2.26,1.31,63.64,0
2020-03-19T20:34:00-05:00,77.27,13.6,736.37,0.53,1.79,70.95,0
2020-03-19T20:35:00-05:00,77.08,13.6,736.57,0.53,0.73,134.15,0
2020-03-19T20:36:00-05:00,76.86,13.6,737.07,-1.08,1.26,61.62,0
2020-03-19T20:37:00-05:00,77.01,13.58,736.67,-0.94,2.5,23.12,0
2020-03-19T20:38:00-05:00,76.79,13.57,736.94,0.24,2.07,9.99,0
2020-03-19T20:39:00-05:00,76.47,13.57,736.7,-1.52,2.41,70.43,0
2020-03-19T20:40:00-05:00,76.45,13.56,736.94,-0.05,3.31,39.88,0
2020-03-19T20:41:00-05:00,76.09,13.56,736.5,0.68,2.85,41.2,0
2020-03-19T20:42:00-05:00,75.77,13.56,736.7,-0.79,0.09,92.2,0
2020-03-19T20:43:00-05:00,76.62,13.56,736.57,-1.67,1.55,31.88,0
2020-03-19T20:44:00-05:00,75.82,13.58,736.94,-0.94,4.26,30.73,0
2020-03-19T20:45:00-05:00,75,13.59,737.07,-0.35,2.43,56.62,0
2020-03-19T20:46:00-05:00,75.28,13.62,737.27,-1.67,2.47,66.64,0
2020-03-19T20:47:00-05:00,74.84,13.64,737.24,-1.97,2.29,52.04,0
2020-03-19T20:48:00-05:00,75.16,13.65,736.97,-2.26,2.36,62.79,0
2020-03-19T20:49:00-05:00,74.96,13.65,737.34,0.09,1.5,74.72,0
2020-03-19T20:50:00-05:00,75.23,13.65,736.64,0.53,1.42,37.16,0
2020-03-19T20:51:00-05:00,75.67,13.68,736.77,-1.23,2.75,51.69,0
2020-03-19T20:52:00-05:00,75.36,13.68,736.84,-1.97,0.57,69.49,0
2020-03-19T20:53:00-05:00,76.1,13.68,737.87,-0.35,2.31,35.94,0
2020-03-19T20:54:00-05:00,74.95,13.68,737.81,-1.08,1.17,84.78,0
2020-03-19T20:55:00-05:00,75.81,13.72,737.17,0.09,2.45,88.63,0
2020-03-19T20:56:00-05:00,75.88,13.68,736.8,-2.7,1.37,75.17,0
2020-03-19T20:57:00-05:00,75.46,13.66,737.34,-2.55,2.26,97.31,0
2020-03-19T20:58:00-05:00,75.6,13.62,737.17,-1.52,2.02,93.67,0
2020-03-19T20:59:00-05:00,75.44,13.62,736.84,-1.08,2.02,62.95,0
2020-03-19T21:00:00-05:00,75.37,13.62,737.24,-2.11,2.08,74.79,0
2020-03-19T21:01:00-05:00,75.26,13.6,737,-0.79,2.84,63.82,0
2020-03-19T21:02:00-05:00,75.42,13.56,737.1,-2.41,2.15,28.66,0
2020-03-19T21:03:00-05:00,74.99,13.56,736.47,-0.94,1.23,32.87,0
2020-03-19T21:04:00-05:00,74.88,13.56,736.94,-1.67,2.73,70.59,0
2020-03-19T21:05:00-05:00,75.64,13.55,736.2,-2.99,3.77,97.13,0
2020-03-19T21:06:00-05:00,74.41,13.58,736.43,-2.85,3.23,73.18,0
2020-03-19T21:07:00-05:00,74.55,13.58,736.97,-1.67,1.53,158.41,0
2020-03-19T21:08:00-05:00,74.65,13.55,736.23,-2.85,0.29,347.73,0
2020-03-19T21:09:00-05:00,75.19,13.53,736.97,-3.73,1.01,71.89,0
2020-03-19T21:10:00-05:00,75.02,13.52,736.64,-4.17,2.73,49.71,0
2020-03-19T21:11:00-05:00,74.85,13.51,736.27,-2.41,2.62,47.54,0
2020-03-19T21:12:00-05:00,74.89,13.5,735.97,-1.23,2.36,54.97,0
2020-03-19T21:13:00-05:00,75.07,13.47,736.03,-4.02,2.37,30.38,0
2020-03-19T21:14:00-05:00,74.95,13.45,735.06,-2.7,3.01,51.27,0
2020-03-19T21:15:00-05:00,74.8,13.49,735.93,-2.85,1.59,63.64,0
2020-03-19T21:16:00-05:00,74.83,13.48,735.6,-2.7,1.78,81.01,0
2020-03-19T21:17:00-05:00,74.87,13.46,735.63,-2.41,2.79,73.66,0
2020-03-19T21:18:00-05:00,75.22,13.42,735.4,-2.11,2.51,40.43,0
2020-03-19T21:19:00-05:00,74.85,13.4,735.3,-3.88,3.26,19.91,0
2020-03-19T21:20:00-05:00,74.44,13.41,736.2,-3.73,2.05,105.3,0
2020-03-19T21:21:00-05:00,74.03,13.44,735.53,-2.99,1.29,136.53,0
2020-03-19T21:22:00-05:00,74.27,13.43,735.36,-2.7,2.28,55.9,0
2020-03-19T21:23:00-05:00,74.27,13.38,735.13,-3.88,2.59,43.73,0
2020-03-19T21:24:00-05:00,74.47,13.39,734.96,-2.85,1.06,115.19,0
2020-03-19T21:25:00-05:00,74.77,13.37,734.43,-4.61,2.44,50.42,0
2020-03-19T21:26:00-05:00,73.91,13.38,734.96,-2.26,2.84,38.68,0
2020-03-19T21:27:00-05:00,73.81,13.4,734.93,-1.67,0.95,19.88,0
2020-03-19T21:28:00-05:00,73.98,13.42,734.96,-3.14,1.71,37.37,0
2020-03-19T21:29:00-05:00,74.89,13.38,735.5,-2.7,2.35,44.93,0
2020-03-19T21:30:00-05:00,74.93,13.34,735.1,-2.7,2.51,38.62,0
2020-03-19T21:31:00-05:00,75.76,13.34,735.33,-2.99,1.03,75.37,0
2020-03-19T21:32:00-05:00,76.65,13.32,735.33,-2.11,0.75,113.23,0
2020-03-19T21:33:00-05:00,75.8,13.25,735.2,-2.85,2.26,62.31,0
2020-03-19T21:34:00-05:00,75.34,13.22,734.76,-1.97,0.69,47.47,0
2020-03-19T21:35:00-05:00,75.71,13.2,735.03,-1.38,2.55,61.12,0
2020-03-19T21:36:00-05:00,74.45,13.24,735.3,-2.85,1.49,79.34,0
2020-03-19T21:37:00-05:00,74.73,13.32,735.36,-0.49,1.66,47.99,0
2020-03-19T21:38:00-05:00,74.99,13.27,735.16,-0.94,1.89,48.17,0
2020-03-19T21:39:00-05:00,75.1,13.24,734.79,-2.11,2.2,72.77,0
2020-03-19T21:40:00-05:00,74.23,13.28,734.9,0.24,1.5,94.8,0
2020-03-19T21:41:00-05:00,74.86,13.28,735.63,-2.26,0.88,25.13,0
2020-03-19T21:42:00-05:00,75.2,13.23,734.33,-0.05,0.83,56.24,0
2020-03-19T21:43:00-05:00,75.76,13.2,735,-1.82,1.19,36.84,0
2020-03-19T21:44:00-05:00,76.28,13.16,735.1,-1.38,0.57,25.04,0
2020-03-19T21:45:00-05:00,76.44,13.18,734.06,1.12,1.06,71.22,0
2020-03-19T21:46:00-05:00,76.06,13.23,735.4,0.68,1.05,72.18,0
2020-03-19T21:47:00-05:00,75.95,13.26,735.67,-0.94,0.22,85.58,0
2020-03-19T21:48:00-05:00,75.73,13.28,735.26,-0.64,1.24,38.22,0
2020-03-19T21:49:00-05:00,74.71,13.3,735.36,-0.79,1.12,16.23,0
2020-03-19T21:50:00-05:00,74.71,13.33,735.23,0.83,2.25,12.85,0
2020-03-19T21:51:00-05:00,74.53,13.34,735.8,-0.05,1.96,79.34,0
2020-03-19T21:52:00-05:00,74.68,13.32,736.07,-1.52,0.44,16.29,0
2020-03-19T21:53:00-05:00,75.06,13.31,734.59,0.53,1.15,38.57,0
2020-03-19T21:54:00-05:00,74.79,13.3,734.96,-1.38,4.19,49.85,0
2020-03-19T21:55:00-05:00,75.04,13.3,735.67,-1.82,1.37,42.01,0
2020-03-19T21:56:00-05:00,75.19,13.3,735.53,-1.97,1,13.76,0
2020-03-19T21:57:00-05:00,75.1,13.27,736.13,-0.05,1.62,84,0
2020-03-19T21:58:00-05:00,75.11,13.28,735.73,-1.82,1.36,17.89,0
2020-03-19T21:59:00-05:00,74.95,13.31,735.83,-3.14,1.07,58.94,0
2020-03-19T22:00:00-05:00,74.81,13.32,736.47,-3.14,2.9,34.71,0
2020-03-19T22:01:00-05:00,74.59,13.38,735.23,-2.7,0.62,109.28,0
2020-03-19T22:02:00-05:00,74.54,13.37,735.23,-3.29,3,55.17,0
2020-03-19T22:03:00-05:00,74.8,13.38,735.3,-0.79,2.25,53.46,0
2020-03-19T22:04:00-05:00,74.63,13.36,735.16,-2.85,2.2,62.01,0
2020-03-19T22:05:00-05:00,74.96,13.36,735.33,-2.99,0.7,30.38,0
2020-03-19T22:06:00-05:00,75.18,13.36,735,-3.29,1.19,33.84,0
2020-03-19T22:07:00-05:00,75.18,13.36,735.53,-3.58,2.52,43.45,0
2020-03-19T22:08:00-05:00,74.73,13.39,736.3,-2.55,1.36,30.42,0
2020-03-19T22:09:00-05:00,74.37,13.4,735.03,-3.14,3.47,61.89,0
2020-03-19T22:10:00-05:00,73.91,13.44,735.63,-1.52,2.7,81.88,0
2020-03-19T22:11:00-05:00,74.33,13.42,735.2,-1.67,0.2,342.56,0
2020-03-19T22:12:00-05:00,74.05,13.41,735.6,-2.41,3.36,107.26,0
2020-03-19T22:13:00-05:00,73.89,13.37,735.73,-0.94,1.55,39.65,0
2020-03-19T22:14:00-05:00,74.59,13.36,735.16,-1.23,2.19,72.71,0
2020-03-19T22:15:00-05:00,74.31,13.36,735.67,-0.79,1.87,91.58,0
2020-03-19T22:16:00-05:00,74.47,13.37,736.07,-2.11,0.6,176.41,0
2020-03-19T22:17:00-05:00,74.32,13.34,735.23,-1.38,0.61,31.58,0
2020-03-19T22:18:00-05:00,74.44,13.35,735.93,-1.67,2.17,74.8,0
2020-03-19T22:19:00-05:00,74.69,13.34,735.6,-2.99,0.77,72.96,0
2020-03-19T22:20:00-05:00,74.58,13.31,735.53,-1.82,1.83,52.7,0
2020-03-19T22:21:00-05:00,74.57,13.3,735,-3.73,2.45,58.84,0
2020-03-19T22:22:00-05:00,74.85,13.26,734.49,-3.14,2.78,82.32,0
2020-03-19T22:23:00-05:00,75.27,13.23,734.66,-2.85,2.94,51.16,0
2020-03-19T22:24:00-05:00,74.72,13.26,734.93,-1.23,2.64,58,0
2020-03-19T22:25:00-05:00,74.67,13.26,734.9,-1.82,2.9,53.64,0
2020-03-19T22:26:00-05:00,74.99,13.26,734.66,-4.02,1,279.66,0
2020-03-19T22:27:00-05:00,75.3,13.23,735.13,-3.29,1,74.61,0
2020-03-19T22:28:00-05:00,75.65,13.24,734.86,-2.55,1.22,56.38,0
2020-03-19T22:29:00-05:00,75.77,13.22,734.66,-3.14,2.95,52.06,0
2020-03-19T22:30:00-05:00,75.36,13.26,734.79,-1.67,1.96,52.4,0
2020-03-19T22:31:00-05:00,75.23,13.28,734.63,-2.26,1.52,58.11,0
2020-03-19T22:32:00-05:00,75.08,13.29,735.16,-1.52,1.24,151.2,0
2020-03-19T22:33:00-05:00,75.54,13.28,734.69,-1.52,1.63,54.61,0
2020-03-19T22:34:00-05:00,75.73,13.22,734.96,-4.17,1.72,51.34,0
2020-03-19T22:35:00-05:00,75.76,13.18,734.96,-1.67,1.24,48.97,0
2020-03-19T22:36:00-05:00,75.58,13.24,735.4,-2.85,1.8,54.62,0
2020-03-19T22:37:00-05:00,75.48,13.26,734.76,-1.23,0.24,343.86,0
2020-03-19T22:38:00-05:00,76.17,13.24,734.96,-2.7,1.06,47.41,0
2020-03-19T22:39:00-05:00,76.32,13.23,734.83,-0.79,0.63,101.55,0
2020-03-19T22:40:00-05:00,77.14,13.21,735.1,-1.97,0.23,351.52,0
2020-03-19T22:41:00-05:00,77.07,13.17,734.26,-3.44,0.25,6.22,0
2020-03-19T22:42:00-05:00,77.33,13.12,735.4,-1.38,0.77,45.18,0
2020-03-19T22:43:00-05:00,77.59,13.06,733.82,-1.38,0.57,275.72,0
2020-03-19T22:44:00-05:00,77.72,13.01,734.26,-3.14,1.92,69.58,0
2020-03-19T22:45:00-05:00,77.63,12.96,733.49,-1.82,0.61,86.97,0
2020-03-19T22:46:00-05:00,78.3,12.93,733.99,-1.23,1.51,77.74,0
2020-03-19T22:47:00-05:00,77.57,12.89,734.09,-0.64,1.39,64.26,0
2020-03-19T22:48:00-05:00,77.48,12.88,734.56,0.68,0.92,61.44,0
2020-03-19T22:49:00-05:00,77.67,12.9,734.19,-0.64,0.81,58.17,0
2020-03-19T22:50:00-05:00,77.57,12.9,734.26,-1.67,1.51,60,0
2020-03-19T22:51:00-05:00,77.77,12.88,734.79,-2.11,0.77,43.62,0
2020-03-19T22:52:00-05:00,77.89,12.91,733.62,-1.82,0.56,103.58,0
2020-03-19T22:53:00-05:00,77.88,12.89,735.06,-1.23,2.16,93.86,0
2020-03-19T22:54:00-05:00,76.76,12.88,735.63,-1.23,3.45,58.57,0
2020-03-19T22:55:00-05:00,75.06,13.03,735.03,0.98,1.01,36.08,0
2020-03-19T22:56:00-05:00,74.95,13.18,735.46,2,2.92,58.35,0
2020-03-19T22:57:00-05:00,73.95,13.28,735.23,0.24,1.28,67.8,0
2020-03-19T22:58:00-05:00,74.28,13.32,734.83,-0.64,0.57,24.91,0
2020-03-19T22:59:00-05:00,74.99,13.35,735.43,-1.23,0.9,48.23,0
2020-03-19T23:00:00-05:00,74.12,13.36,735.93,-1.23,0.89,296.86,0
2020-03-19T23:01:00-05:00,74.28,13.37,735.36,0.39,2.97,32.37,0
2020-03-19T23:02:00-05:00,73.88,13.35,736.13,-1.08,0.59,67.88,0
2020-03-19T23:03:00-05:00,74.06,13.32,736.03,0.98,2.36,71.93,0
2020-03-19T23:04:00-05:00,74.42,13.3,736.37,-1.38,1.62,22.06,0
2020-03-19T23:05:00-05:00,74.8,13.27,735.56,0.24,0.85,54.36,0
2020-03-19T23:06:00-05:00,74.89,13.24,735.97,-0.64,1.46,2.74,0
2020-03-19T23:07:00-05:00,74.69,13.22,735.53,-0.05,0.82,56.36,0
2020-03-19T23:08:00-05:00,75.25,13.22,736.17,-0.79,0.68,9.1,0
2020-03-19T23:09:00-05:00,75,13.2,735.53,-1.97,0.06,8.88,0
2020-03-19T23:10:00-05:00,75.08,13.18,736.27,0.09,0.76,22.01,0
2020-03-19T23:11:00-05:00,75.1,13.16,736,-2.26,0.75,59.78,0
2020-03-19T23:12:00-05:00,75.45,13.16,734.73,-1.08,0.5,13.56,0
2020-03-19T23:13:00-05:00,75.69,13.14,736.23,-2.11,2.55,60.94,0
2020-03-19T23:14:00-05:00,75.64,13.12,735.3,-1.67,0.29,173.12,0
2020-03-19T23:15:00-05:00,75.66,13.09,735.93,-0.2,1.92,35.04,0
2020-03-19T23:16:00-05:00,74.74,13.1,736.13,-1.52,0.65,40,0
2020-03-19T23:17:00-05:00,75.37,13.1,735.87,-1.82,1.29,86.67,0
2020-03-19T23:18:00-05:00,75.81,13.09,736.54,-0.49,0.6,104.72,0
2020-03-19T23:19:00-05:00,76.1,13.06,734.63,-1.82,0.72,31.87,0
2020-03-19T23:20:00-05:00,76.52,13.05,735.43,-0.79,0.88,66.69,0
2020-03-19T23:21:00-05:00,77.11,13.02,735.93,-0.79,0.65,148.94,0
2020-03-19T23:22:00-05:00,78.04,13.03,735.46,-1.97,0.6,133.88,0
2020-03-19T23:23:00-05:00,77.35,12.98,735.16,0.98,0.6,106.2,0
2020-03-19T23:24:00-05:00,77.88,12.97,735.16,-1.08,0.56,58.78,0
2020-03-19T23:25:00-05:00,77.11,12.97,734.9,0.53,0.58,94.39,0
2020-03-19T23:26:00-05:00,76.87,13.02,735.4,-1.52,0.97,74.13,0
2020-03-19T23:27:00-05:00,75.72,13.06,735.5,-0.94,1.05,52.58,0
2020-03-19T23:28:00-05:00,75.44,13.08,735.16,0.98,0.68,136.36,0
2020-03-19T23:29:00-05:00,75.78,13.12,736,0.83,0.31,207.98,0
2020-03-19T23:30:00-05:00,74.83,13.15,736.03,-1.67,2.44,20.89,0
2020-03-19T23:31:00-05:00,73.87,13.18,735.53,-0.49,2.27,51.35,0
2020-03-19T23:32:00-05:00,73.83,13.2,735.93,-0.05,1.22,40.57,0
2020-03-19T23:33:00-05:00,74.31,13.24,735.33,0.53,0.57,307.68,0
2020-03-19T23:34:00-05:00,74.31,13.26,736.17,0.39,0.62,192.32,0
2020-03-19T23:35:00-05:00,74.07,13.27,735.26,-1.08,0.81,114.22,0
2020-03-19T23:36:00-05:00,73.64,13.24,735.73,0.39,1.3,151.52,0
2020-03-19T23:37:00-05:00,73.36,13.28,735.93,-1.52,0.73,104.25,0
2020-03-19T23:38:00-05:00,73.19,13.3,736.13,-0.94,0.65,104.95,0
2020-03-19T23:39:00-05:00,72.36,13.32,736.2,0.53,0.75,73.23,0
2020-03-19T23:40:00-05:00,72.3,13.33,736.23,-0.2,0.58,119.54,0
2020-03-19T23:41:00-05:00,73.32,13.36,736.07,-0.79,0.41,128.3,0
2020-03-19T23:42:00-05:00,73.42,13.36,736.1,-0.79,0.5,107.39,0
2020-03-19T23:43:00-05:00,73.78,13.38,735.63,-0.94,0.64,105.19,0
2020-03-19T23:44:00-05:00,75.15,13.37,735.93,-2.55,0.7,160.13,0
2020-03-19T23:45:00-05:00,74.64,13.37,735.46,-2.55,0.78,174.13,0
2020-03-19T23:46:00-05:00,74.59,13.32,735.6,-1.08,0.75,169.07,0
2020-03-19T23:47:00-05:00,75.02,13.29,735.13,-3.14,0.55,210.96,0
2020-03-19T23:48:00-05:00,74.96,13.24,735.26,-2.11,0.63,214.94,0
2020-03-19T23:49:00-05:00,75.57,13.2,735.36,-2.26,0.6,199.3,0
2020-03-19T23:50:00-05:00,76.95,13.16,735.77,-3.58,0.37,182.07,0
2020-03-19T23:51:00-05:00,78.2,13.12,735.4,-1.52,0.32,193.33,0
2020-03-19T23:52:00-05:00,78.34,13.09,735.46,-3.29,0.44,160.13,0
2020-03-19T23:53:00-05:00,78.32,13.06,734.33,-3.14,0.61,151.5,0
2020-03-19T23:54:00-05:00,78.63,13,734.86,-1.08,0.75,108.02,0
2020-03-19T23:55:00-05:00,79.41,13,734.43,-2.11,0.6,201.27,0
2020-03-19T23:56:00-05:00,80.02,12.97,735.06,-2.26,0.58,177.36,0
2020-03-19T23:57:00-05:00,80.31,12.94,734.79,-0.49,0.49,184.3,0
2020-03-19T23:58:00-05:00,80.66,12.93,734.79,-2.7,0.41,110.95,0
2020-03-19T23:59:00-05:00,80.75,12.93,734.83,-0.35,0.53,142.21,0
