[SEG],[RADI]
0,0.09
60,0.83
120,2.89
180,1.56
240,2.45
300,1.86
360,3.33
420,4.21
480,6.12
540,5.97
600,6.12
660,9.36
720,10.83
780,14.8
840,18.03
900,19.79
960,20.68
1020,21.41
1080,21.85
1140,26.56
1200,30.97
1260,34.35
1320,34.06
1380,36.85
1440,40.08
1500,39.2
1560,39.05
1620,38.02
1680,38.17
1740,38.61
1800,39.64
1860,42.44
1920,42.88
1980,41.55
2040,42.88
2100,41.7
2160,39.79
2220,39.79
2280,39.79
2340,41.26
2400,39.64
2460,35.67
2520,29.64
2580,25.97
2640,24.2
2700,24.5
2760,22.88
2820,20.53
2880,21.41
2940,22.73
3000,21.56
3060,25.97
3120,26.56
3180,28.47
3240,28.91
3300,29.35
3360,30.23
3420,30.82
3480,29.06
3540,31.85
3600,31.56
3660,35.23
3720,37.73
3780,39.2
3840,43.02
3900,50.82
3960,59.34
4020,63.61
4080,64.05
4140,69.78
4200,74.93
4260,82.28
4320,86.54
4380,93.6
4440,103.45
4500,111.54
4560,205.19
4620,273.85
4680,312.52
4740,327.96
4800,329.57
4860,316.93
4920,297.23
4980,239.59
5040,213.87
5100,216.95
5160,212.84
5220,143.74
5280,145.94
5340,145.94
5400,167.99
5460,192.84
5520,279.73
5580,278.56
5640,283.11
5700,293.99
5760,300.32
5820,301.2
5880,308.11
5940,295.9
6000,290.91
6060,284.73
6120,273.41
6180,283.41
6240,288.85
6300,298.55
6360,296.93
6420,316.19
6480,325.75
6540,323.99
6600,337.95
6660,338.25
6720,338.84
6780,347.8
6840,357.95
6900,356.77
6960,359.27
7020,361.62
7080,366.48
7140,376.77
7200,389.71
7260,388.24
7320,398.82
7380,405.29
7440,411.02
7500,414.85
7560,404.26
7620,402.94
7680,402.5
7740,171.96
7800,162.7
7860,162.55
7920,166.96
7980,209.01
8040,176.67
8100,181.96
8160,230.33
8220,275.47
8280,448.51
8340,485.56
8400,470.57
8460,487.62
8520,490.71
8580,503.35
8640,505.71
8700,514.82
8760,528.94
8820,525.11
8880,538.05
8940,536.43
9000,556.14
9060,515.41
9120,540.7
9180,555.4
9240,583.04
9300,581.28
9360,568.78
9420,573.93
9480,577.16
9540,581.87
9600,587.75
9660,600.1
9720,617.89
9780,633.32
9840,669.64
9900,618.18
9960,683.31
10020,558.34
10080,716.69
10140,374.27
10200,384.27
10260,351.48
10320,364.56
10380,381.77
10440,587.45
10500,325.9
10560,320.6
10620,352.95
10680,345.75
10740,360.15
10800,320.75
10860,356.04
10920,367.36
10980,341.78
11040,383.38
11100,506.88
11160,408.82
11220,348.39
11280,305.17
11340,259.3
11400,214.75
11460,188.58
11520,170.35
11580,165.2
11640,156.53
11700,148.88
11760,139.03
11820,126.24
11880,113.89
11940,103.3
12000,97.57
12060,96.25
12120,102.42
12180,110.07
12240,120.21
12300,138.44
12360,154.76
12420,173.43
12480,191.37
12540,208.57
12600,227.83
12660,246.8
12720,258.27
12780,272.97
12840,276.64
12900,285.76
12960,315.31
13020,320.31
13080,310.31
13140,301.79
13200,310.46
13260,335.45
13320,388.82
13380,451.16
13440,412.05
13500,425.43
13560,389.56
13620,345.89
13680,302.96
13740,257.83
13800,217.83
13860,185.78
13920,159.47
13980,140.35
14040,123.59
14100,116.39
14160,112.27
14220,112.57
14280,112.13
14340,115.65
14400,115.65
14460,119.92
14520,125.5
14580,130.94
14640,134.77
14700,136.24
14760,137.12
14820,134.33
14880,135.35
14940,137.27
15000,135.8
15060,140.35
15120,145.94
15180,152.85
15240,159.76
15300,161.67
15360,165.94
15420,165.79
15480,164.76
15540,160.79
15600,160.05
15660,159.47
15720,162.26
15780,163.29
15840,162.41
15900,160.94
15960,159.47
16020,157.26
16080,156.97
16140,146.68
16200,131.97
16260,116.98
16320,107.86
16380,112.86
16440,127.42
16500,143.15
16560,148.88
16620,143.59
16680,137.71
16740,134.47
16800,130.8
16860,131.24
16920,130.06
16980,127.42
17040,121.53
17100,116.54
17160,118.89
17220,123.74
17280,125.36
17340,127.56
17400,130.36
17460,135.65
17520,132.86
17580,129.62
17640,120.95
17700,117.12
17760,112.13
17820,108.74
17880,106.54
17940,101.54
18000,99.04
18060,100.51
18120,104.04
18180,106.39
18240,102.86
18300,102.13
18360,107.13
18420,114.92
18480,125.36
18540,142.41
18600,166.82
18660,195.93
18720,233.13
18780,264.74
18840,284.73
18900,285.76
18960,281.2
19020,281.2
19080,250.62
19140,228.86
19200,207.69
19260,181.52
19320,164.17
19380,157.41
19440,155.35
19500,154.03
19560,156.53
19620,158.88
19680,159.61
19740,161.82
19800,162.11
19860,165.49
19920,171.82
19980,177.84
20040,179.76
20100,184.31
20160,187.99
20220,191.66
20280,198.13
20340,207.1
20400,216.81
20460,225.48
20520,225.48
20580,220.63
20640,214.16
20700,200.63
20760,187.11
20820,174.9
20880,173.87
20940,184.31
21000,188.14
21060,189.9
21120,188.28
21180,181.52
21240,177.55
21300,177.11
21360,176.37
21420,172.55
21480,170.35
21540,174.76
21600,171.52
21660,175.49
21720,175.64
21780,178.87
21840,186.08
21900,195.05
21960,209.6
22020,226.07
22080,236.36
22140,239.01
22200,239.45
22260,240.33
22320,245.03
22380,251.21
22440,262.24
22500,277.38
22560,305.61
22620,336.34
22680,369.12
22740,389.12
22800,396.91
22860,396.17
22920,381.77
22980,378.68
23040,407.35
23100,472.19
23160,512.47
23220,572.16
23280,528.64
23340,495.12
23400,471.6
23460,476.01
23520,469.39
23580,445.57
23640,429.84
23700,448.07
23760,445.28
23820,469.98
23880,531.29
23940,580.25
24000,483.07
24060,461.31
24120,418.23
24180,389.41
24240,382.65
24300,400
24360,437.78
24420,543.64
24480,634.35
24540,538.79
24600,526.44
24660,581.42
24720,483.21
24780,468.36
24840,449.69
24900,427.2
24960,381.18
25020,365.59
25080,355.89
25140,335.75
25200,322.52
25260,320.75
25320,313.11
25380,285.76
25440,252.24
25500,226.95
25560,226.36
25620,238.12
25680,243.71
25740,236.36
25800,240.77
25860,248.12
25920,267.23
25980,287.97
26040,308.25
26100,360.3
26160,434.11
26220,467.63
26280,446.6
26340,454.69
26400,488.8
26460,431.9
26520,403.53
26580,385.74
26640,367.06
26700,339.13
26760,298.11
26820,265.91
26880,256.65
26940,257.53
27000,253.56
27060,251.21
27120,254.3
27180,266.79
27240,269.59
27300,259.44
27360,257.09
27420,274.14
27480,285.32
27540,305.61
27600,363.83
27660,433.67
27720,444.1
27780,452.78
27840,477.04
27900,552.17
27960,724.18
28020,741.97
28080,1082.04
28140,1396.96
28200,1087.77
28260,864.44
28320,847.83
28380,725.95
28440,619.8
28500,527.61
28560,448.81
28620,455.28
28680,506
28740,521.59
28800,583.63
28860,1018.97
28920,907.23
28980,657.73
29040,725.95
29100,1063.81
29160,754.47
29220,1050.28
29280,740.94
29340,889.88
29400,956.63
29460,937.66
29520,888.85
29580,723.3
29640,703.6
29700,1109.09
29760,865.33
29820,749.47
29880,1308.31
29940,946.34
30000,947.22
30060,569.96
30120,518.06
30180,601.57
30240,579.81
30300,634.79
30360,611.42
30420,599.95
30480,652.58
30540,685.96
30600,870.03
30660,638.47
30720,515.7
30780,504.38
30840,492.18
30900,469.98
30960,489.68
31020,504.24
31080,527.61
31140,548.05
31200,544.23
31260,577.9
31320,552.31
31380,537.17
31440,529.23
31500,531
31560,537.61
31620,565.99
31680,584.95
31740,618.92
31800,759.32
31860,878.26
31920,876.35
31980,567.46
32040,563.63
32100,594.36
32160,747.85
32220,476.3
32280,389.71
32340,313.25
32400,272.53
32460,240.77
32520,225.63
32580,212.98
32640,215.63
32700,225.77
32760,219.31
32820,191.22
32880,166.96
32940,154.91
33000,148.73
33060,145.06
33120,140.5
33180,148.73
33240,160.79
33300,173.14
33360,180.93
33420,183.58
33480,187.25
33540,197.25
33600,202.4
33660,200.34
33720,194.46
33780,185.2
33840,176.23
33900,173.73
33960,166.52
34020,158.58
34080,145.94
34140,134.62
34200,118.01
34260,113.6
34320,113.89
34380,118.01
34440,114.62
34500,108.01
34560,102.27
34620,97.86
34680,93.45
34740,86.98
34800,80.66
34860,75.22
34920,73.16
34980,72.13
35040,74.63
35100,76.1
35160,82.57
35220,89.63
35280,102.42
35340,112.13
35400,123.74
35460,132.41
35520,139.77
35580,140.35
35640,139.18
35700,135.06
35760,133.15
35820,132.27
35880,126.83
35940,121.24
36000,119.92
36060,121.68
36120,124.92
36180,133.15
36240,143.15
36300,143.74
36360,143
36420,141.68
36480,139.91
36540,134.18
36600,136.82
36660,143.74
36720,144.91
36780,145.06
36840,146.68
36900,142.12
36960,142.56
37020,141.24
37080,135.5
37140,130.36
37200,122.71
37260,109.04
37320,100.95
37380,100.36
37440,105.95
37500,110.95
37560,111.68
37620,114.77
37680,114.62
37740,113.15
37800,114.92
37860,116.98
37920,110.65
37980,106.69
38040,105.36
38100,106.1
38160,103.16
38220,102.72
38280,103.6
38340,103.89
38400,100.66
38460,94.19
38520,92.28
38580,88.75
38640,90.95
38700,94.04
38760,95.95
38820,97.28
38880,99.19
38940,103.74
39000,104.33
39060,104.92
39120,102.72
39180,98.89
39240,97.57
39300,96.69
39360,93.45
39420,90.22
39480,84.78
39540,82.87
39600,80.81
39660,78.9
39720,77.13
39780,73.75
39840,71.25
39900,67.58
39960,65.52
40020,62.14
40080,62.14
40140,59.64
40200,59.2
40260,55.96
40320,55.82
40380,50.52
40440,48.91
40500,48.32
40560,46.99
40620,43.76
40680,41.26
40740,40.08
40800,37.14
40860,36.7
40920,37.14
40980,35.82
41040,33.47
41100,32.29
41160,32.29
41220,29.64
41280,28.91
41340,25.97
41400,26.26
41460,25.38
41520,23.32
41580,22.44
41640,21.41
41700,19.79
41760,18.91
41820,18.18
41880,17.74
41940,15.53
42000,12.74
42060,14.06
42120,11.71
42180,11.71
42240,13.33
42300,10.83
42360,9.94
42420,11.71
42480,9.8
42540,9.94
42600,8.62
42660,6.71
42720,6.27
42780,4.94
42840,6.12
42900,3.47
42960,3.33
43020,3.92
43080,3.33
43140,4.5
43200,5.39
43260,5.24
43320,2
43380,1.42
43440,1.27
43500,2.15
43560,0.09
43620,2.74
43680,0.39
43740,0.53
