time,[HUME],[TEMP],[PRES],[RADI],[RAPV],[DIRV],[PREC]
2020-03-31T00:00:00-05:00,78.27,12.93,735.5,-2.55,0.35,168.45,0
2020-03-31T00:01:00-05:00,77.76,12.89,735.16,-0.35,0.46,184.01,0
2020-03-31T00:02:00-05:00,77.4,12.87,736.5,-0.49,0.24,210.22,0
2020-03-31T00:03:00-05:00,77.98,12.87,734.79,-2.55,0.55,50.91,0
2020-03-31T00:04:00-05:00,77.92,12.85,736.2,-1.97,1.24,43.98,0
2020-03-31T00:05:00-05:00,77.49,12.85,736,0.09,0.63,62.22,0
2020-03-31T00:06:00-05:00,77.74,12.84,736.33,-1.38,0.61,8.86,0
2020-03-31T00:07:00-05:00,77.23,12.85,736.2,-0.64,0.69,27.51,0
2020-03-31T00:08:00-05:00,76.61,12.87,735.36,-1.67,0.59,69.54,0
2020-03-31T00:09:00-05:00,77.05,12.87,735.4,-2.7,0.24,30.44,0
2020-03-31T00:10:00-05:00,77.27,12.88,735.5,-2.55,0.58,26.63,0
2020-03-31T00:11:00-05:00,77.23,12.88,736.43,-3.58,0.11,46.72,0
2020-03-31T00:12:00-05:00,78,12.9,735.83,-3.29,0.49,345.51,0
2020-03-31T00:13:00-05:00,79.04,12.91,736.43,-3.14,0.39,168.42,0
2020-03-31T00:14:00-05:00,79.7,12.89,736.23,-3.88,0.08,266.77,0
2020-03-31T00:15:00-05:00,79.29,12.86,736.2,-5.49,0.84,41.72,0
2020-03-31T00:16:00-05:00,79.44,12.83,735.77,-7.85,0.8,54.94,0
2020-03-31T00:17:00-05:00,79.08,12.78,736.03,-9.32,0.77,49.63,0
2020-03-31T00:18:00-05:00,80.12,12.75,735.5,-9.32,0.57,9.51,0
2020-03-31T00:19:00-05:00,81.36,12.71,735.03,-8.29,0.99,64.35,0
2020-03-31T00:20:00-05:00,82.06,12.67,734.56,-6.82,0.58,82.38,0
2020-03-31T00:21:00-05:00,83.36,12.64,734.16,-6.67,0.29,46.86,0
2020-03-31T00:22:00-05:00,84.05,12.59,733.46,-4.76,0.1,127.21,0
2020-03-31T00:23:00-05:00,83.52,12.57,734.09,-5.2,0.17,186.97,0
2020-03-31T00:24:00-05:00,82.99,12.51,733.96,-4.76,0.29,162.21,0
2020-03-31T00:25:00-05:00,83.31,12.46,733.15,-4.46,0.61,138.31,0
2020-03-31T00:26:00-05:00,83.11,12.38,733.99,-5.79,0.67,146.23,0
2020-03-31T00:27:00-05:00,83.18,12.31,733.15,-6.23,0.43,158.16,0
2020-03-31T00:28:00-05:00,84.06,12.26,733.82,-6.38,0.21,96.29,0
2020-03-31T00:29:00-05:00,85.33,12.25,733.52,-6.08,0.57,297.6,0
2020-03-31T00:30:00-05:00,82.83,12.19,733.09,-5.2,0.65,213.35,0
2020-03-31T00:31:00-05:00,82.12,12.17,733.46,-4.32,0.43,325.91,0
2020-03-31T00:32:00-05:00,81.89,12.21,732.75,-4.02,0.52,8.98,0
2020-03-31T00:33:00-05:00,82.38,12.23,733.15,-6.23,0.56,40.8,0
2020-03-31T00:34:00-05:00,81.97,12.27,733.46,-4.02,0.61,8.58,0
2020-03-31T00:35:00-05:00,83.72,12.29,733.15,-5.49,0.58,70.4,0
2020-03-31T00:36:00-05:00,84.02,12.28,732.79,-4.46,0.59,40.69,0
2020-03-31T00:37:00-05:00,83.82,12.25,733.66,-3.14,0.57,49.68,0
2020-03-31T00:38:00-05:00,84.62,12.25,732.65,-4.32,0.35,10.12,0
2020-03-31T00:39:00-05:00,84.34,12.23,732.89,-2.55,0.63,52.26,0
2020-03-31T00:40:00-05:00,83.96,12.22,733.19,-4.02,0.92,57.59,0
2020-03-31T00:41:00-05:00,83.3,12.2,733.52,-4.32,0.43,27.99,0
2020-03-31T00:42:00-05:00,83.56,12.21,733.25,-4.76,0.16,269.74,0
2020-03-31T00:43:00-05:00,84.1,12.21,732.75,-3.88,0.21,7.34,0
2020-03-31T00:44:00-05:00,83.34,12.21,732.48,-1.82,0.31,338.52,0
2020-03-31T00:45:00-05:00,82.85,12.19,733.02,-3.73,0.49,332.51,0
2020-03-31T00:46:00-05:00,83.46,12.21,733.79,-2.41,0.62,42.35,0
2020-03-31T00:47:00-05:00,83.96,12.21,732.99,-3.44,0.57,15.55,0
2020-03-31T00:48:00-05:00,83.62,12.19,733.19,-4.02,0.29,7.09,0
2020-03-31T00:49:00-05:00,82.87,12.19,732.92,-3.14,0.23,352.51,0
2020-03-31T00:50:00-05:00,82.39,12.17,732.59,-4.61,0.06,221.95,0
2020-03-31T00:51:00-05:00,82.73,12.16,732.52,-1.82,0.32,177.39,0
2020-03-31T00:52:00-05:00,83.7,12.17,733.79,-2.41,0.35,137.3,0
2020-03-31T00:53:00-05:00,83.82,12.14,733.25,-4.02,0.39,125.54,0
2020-03-31T00:54:00-05:00,83.91,12.15,733.66,-2.26,0.62,75.92,0
2020-03-31T00:55:00-05:00,84.55,12.13,732.95,-2.26,0.66,55.92,0
2020-03-31T00:56:00-05:00,84.61,12.13,733.49,-2.7,0.49,92.19,0
2020-03-31T00:57:00-05:00,84.72,12.11,732.65,-3.14,0.43,128.3,0
2020-03-31T00:58:00-05:00,84.96,12.08,733.56,-2.99,0.65,154.23,0
2020-03-31T00:59:00-05:00,85.63,12.06,733.36,-2.11,0.15,97.35,0
2020-03-31T01:00:00-05:00,84.93,12.03,733.66,-3.58,0.75,29.31,0
2020-03-31T01:01:00-05:00,84.97,12.01,733.15,-3.44,0.76,138.31,0
2020-03-31T01:02:00-05:00,83.06,11.98,733.56,-4.32,0.54,157.17,0
2020-03-31T01:03:00-05:00,82.2,12.01,733.69,-1.82,0.28,203.94,0
2020-03-31T01:04:00-05:00,82.06,12.04,733.52,-4.32,0.59,16.08,0
2020-03-31T01:05:00-05:00,81.91,12.05,732.99,-3.29,0.56,342.83,0
2020-03-31T01:06:00-05:00,81.93,12.07,732.65,-2.11,0.42,66.26,0
2020-03-31T01:07:00-05:00,82.53,12.12,732.62,-3.73,0.57,104.23,0
2020-03-31T01:08:00-05:00,82.85,12.13,733.36,-2.11,0.61,140.25,0
2020-03-31T01:09:00-05:00,82.79,12.11,733.82,-3.44,0.43,116.36,0
2020-03-31T01:10:00-05:00,84.42,12.13,733.05,-1.08,0.5,56.61,0
2020-03-31T01:11:00-05:00,84.42,12.11,733.29,-1.08,0.57,131.22,0
2020-03-31T01:12:00-05:00,83.54,12.07,732.79,-2.85,0.83,129.49,0
2020-03-31T01:13:00-05:00,82.96,12.05,732.55,-3.58,0.62,142.2,0
2020-03-31T01:14:00-05:00,83.93,12.06,733.05,-1.08,0.65,50.54,0
2020-03-31T01:15:00-05:00,83.85,12.07,733.25,-2.41,1.17,42.12,0
2020-03-31T01:16:00-05:00,83.99,12.07,733.62,-3.73,1.3,26.94,0
2020-03-31T01:17:00-05:00,82.2,12.11,733.12,-1.38,0.71,7.21,0
2020-03-31T01:18:00-05:00,82.63,12.2,732.22,-1.23,0.56,90.1,0
2020-03-31T01:19:00-05:00,82.99,12.19,732.62,-1.82,0.52,104.59,0
2020-03-31T01:20:00-05:00,82.58,12.18,733.49,-2.26,0.33,157.2,0
2020-03-31T01:21:00-05:00,82.9,12.18,733.86,-2.11,0.18,237.77,0
2020-03-31T01:22:00-05:00,83.01,12.17,733.72,-0.64,0.51,133.2,0
2020-03-31T01:23:00-05:00,82.79,12.15,733.29,-1.82,0.62,65.99,0
2020-03-31T01:24:00-05:00,83.98,12.12,734.33,-2.99,0.95,42.95,0
2020-03-31T01:25:00-05:00,84.27,12.09,732.65,-1.97,0.62,107.16,0
2020-03-31T01:26:00-05:00,83.69,12.06,732.82,-3.14,1.31,68.32,0
2020-03-31T01:27:00-05:00,84.28,12.08,733.66,-0.64,1.02,148.23,0
2020-03-31T01:28:00-05:00,83.34,12.05,732.75,-3.14,0.58,113.47,0
2020-03-31T01:29:00-05:00,82.64,12.06,732.79,-2.7,0.21,159.51,0
2020-03-31T01:30:00-05:00,82.29,12.07,733.62,-1.08,0.18,33.59,0
2020-03-31T01:31:00-05:00,83.36,12.11,733.59,-2.41,0.59,14.81,0
2020-03-31T01:32:00-05:00,83.73,12.13,732.75,-0.94,0.57,53.42,0
2020-03-31T01:33:00-05:00,83.38,12.12,732.15,-1.23,0.6,128.99,0
2020-03-31T01:34:00-05:00,82.19,12.11,733.42,-2.85,0.22,108.16,0
2020-03-31T01:35:00-05:00,82.33,12.13,733.69,-1.08,0.32,55.02,0
2020-03-31T01:36:00-05:00,82.71,12.14,733.25,-0.49,0.45,97.3,0
2020-03-31T01:37:00-05:00,82.61,12.13,733.99,-0.79,0.62,120.33,0
2020-03-31T01:38:00-05:00,82.49,12.14,733.92,-0.94,0.44,81.63,0
2020-03-31T01:39:00-05:00,81.76,12.12,733.19,-1.08,0.28,92.82,0
2020-03-31T01:40:00-05:00,81.85,12.13,733.12,-1.08,0.56,112.99,0
2020-03-31T01:41:00-05:00,81.32,12.17,733.19,-1.38,0.54,96.62,0
2020-03-31T01:42:00-05:00,81.34,12.2,732.45,-0.64,0.52,85.11,0
2020-03-31T01:43:00-05:00,81.78,12.22,733.82,-1.38,0.25,46.31,0
2020-03-31T01:44:00-05:00,81.74,12.21,732.15,-1.08,0.41,99.24,0
2020-03-31T01:45:00-05:00,82.22,12.23,732.22,-2.11,0.58,137.27,0
2020-03-31T01:46:00-05:00,82.29,12.22,733.29,-1.38,0.5,119.86,0
2020-03-31T01:47:00-05:00,82.63,12.22,732.62,-2.7,0.55,120.79,0
2020-03-31T01:48:00-05:00,82.11,12.21,732.59,-1.08,0.46,109.52,0
2020-03-31T01:49:00-05:00,81.75,12.2,732.22,-2.55,0.26,73.36,0
2020-03-31T01:50:00-05:00,82.13,12.21,733.36,-2.7,0.57,60.78,0
2020-03-31T01:51:00-05:00,82.29,12.21,733.15,-0.2,0.62,60.18,0
2020-03-31T01:52:00-05:00,83.34,12.22,732.28,-0.94,0.6,58.74,0
2020-03-31T01:53:00-05:00,84.12,12.2,732.25,-2.11,0.31,74.43,0
2020-03-31T01:54:00-05:00,83.72,12.17,733.12,-0.79,0.53,105.96,0
2020-03-31T01:55:00-05:00,83.47,12.15,731.88,-1.82,0.44,142.23,0
2020-03-31T01:56:00-05:00,84.07,12.13,733.22,-0.94,0.57,145.56,0
2020-03-31T01:57:00-05:00,83.02,12.1,732.05,-2.7,0.28,169.05,0
2020-03-31T01:58:00-05:00,83.15,12.08,733.42,-1.23,0.12,157.2,0
2020-03-31T01:59:00-05:00,84.33,12.08,733.02,-0.94,0.28,131.26,0
2020-03-31T02:00:00-05:00,83.88,12.06,733.15,-2.55,0.53,172.13,0
2020-03-31T02:01:00-05:00,83.44,12.04,733.25,-2.7,0.59,147.27,0
2020-03-31T02:02:00-05:00,82.39,12.04,733.09,-2.7,0.61,141.23,0
2020-03-31T02:03:00-05:00,83.54,12.05,732.52,-1.08,0.57,136.56,0
2020-03-31T02:04:00-05:00,83.6,12.06,732.89,-1.38,0.57,120.38,0
2020-03-31T02:05:00-05:00,83.74,12.04,732.08,-0.49,0.55,121.29,0
2020-03-31T02:06:00-05:00,83.8,12.05,732.22,-0.2,0.62,125.9,0
2020-03-31T02:07:00-05:00,83.5,12.03,732.32,-2.11,0.29,163.5,0
2020-03-31T02:08:00-05:00,83.52,12.05,732.28,-1.67,0.26,129.22,0
2020-03-31T02:09:00-05:00,83.26,12.03,732.75,-1.97,0.28,128.9,0
2020-03-31T02:10:00-05:00,83.28,12.06,732.42,-1.38,0.29,150.19,0
2020-03-31T02:11:00-05:00,82.97,12.04,733.39,-1.23,0.53,151.52,0
2020-03-31T02:12:00-05:00,82.45,12.05,733.76,-0.64,0.51,156.48,0
2020-03-31T02:13:00-05:00,82.22,12.07,733.59,-2.26,0.59,152.48,0
2020-03-31T02:14:00-05:00,82.01,12.09,733.62,-2.26,0.56,150.2,0
2020-03-31T02:15:00-05:00,82.4,12.11,733.32,-1.97,0.59,143.45,0
2020-03-31T02:16:00-05:00,82.69,12.11,732.52,-1.23,0.56,144.16,0
2020-03-31T02:17:00-05:00,83.11,12.13,733.79,-1.67,0.5,139.27,0
2020-03-31T02:18:00-05:00,83.34,12.13,733.09,-0.2,0.32,135.23,0
2020-03-31T02:19:00-05:00,83.43,12.12,732.89,-1.08,0.32,105.81,0
2020-03-31T02:20:00-05:00,83.68,12.13,734.16,-1.82,0.57,104.54,0
2020-03-31T02:21:00-05:00,83.82,12.11,733.09,0.09,0.22,153.12,0
2020-03-31T02:22:00-05:00,83.92,12.13,732.62,-1.82,0.29,160.12,0
2020-03-31T02:23:00-05:00,83.15,12.11,733.52,-1.67,0.58,153.12,0
2020-03-31T02:24:00-05:00,82.08,12.11,732.95,0.24,0.64,171.16,0
2020-03-31T02:25:00-05:00,81.8,12.12,733.42,0.98,0.59,159.17,0
2020-03-31T02:26:00-05:00,81.65,12.15,733.96,-0.79,0.63,139.62,0
2020-03-31T02:27:00-05:00,81.78,12.15,733.86,1.12,0.61,149.2,0
2020-03-31T02:28:00-05:00,81.66,12.17,733.36,-1.08,0.29,130.8,0
2020-03-31T02:29:00-05:00,82.5,12.19,733.86,0.68,0.25,162.22,0
2020-03-31T02:30:00-05:00,82.65,12.19,733.05,0.83,0.52,138.34,0
2020-03-31T02:31:00-05:00,82.78,12.19,733.36,1.42,0.27,135.18,0
2020-03-31T02:32:00-05:00,83.34,12.2,734.26,0.83,0.6,137.67,0
2020-03-31T02:33:00-05:00,83.25,12.21,734.43,0.83,0.48,124.73,0
2020-03-31T02:34:00-05:00,83.3,12.19,734.39,0.98,0.64,117.45,0
2020-03-31T02:35:00-05:00,82.84,12.19,733.59,-0.64,0.22,124.25,0
2020-03-31T02:36:00-05:00,82.51,12.21,733.79,-0.35,0.35,91.46,0
2020-03-31T02:37:00-05:00,83.06,12.23,733.49,-0.64,0.57,132.25,0
2020-03-31T02:38:00-05:00,83,12.23,733.99,-1.38,0.27,80.57,0
2020-03-31T02:39:00-05:00,83.88,12.23,734.29,-0.64,0.11,92.79,0
2020-03-31T02:40:00-05:00,84.34,12.24,733.99,-1.38,0.52,159.17,0
2020-03-31T02:41:00-05:00,83.8,12.24,733.19,-0.79,0.65,149.23,0
2020-03-31T02:42:00-05:00,83.45,12.23,734.49,-1.23,0.31,116.31,0
2020-03-31T02:43:00-05:00,83.61,12.25,733.76,-1.23,0.51,121.17,0
2020-03-31T02:44:00-05:00,83.62,12.25,733.69,0.39,0.48,132.25,0
2020-03-31T02:45:00-05:00,84.06,12.27,734.86,-1.08,0.33,140.56,0
2020-03-31T02:46:00-05:00,83.74,12.26,733.62,-1.38,0.57,145.59,0
2020-03-31T02:47:00-05:00,83.44,12.27,734.13,-1.23,0.59,97.71,0
2020-03-31T02:48:00-05:00,83.41,12.27,734.93,0.98,0.42,98.88,0
2020-03-31T02:49:00-05:00,83.11,12.28,733.66,-1.52,0.4,189.38,0
2020-03-31T02:50:00-05:00,82.52,12.31,733.79,-0.05,0.49,138.29,0
2020-03-31T02:51:00-05:00,82.97,12.33,735.1,0.98,0.52,147.54,0
2020-03-31T02:52:00-05:00,82.18,12.33,735.03,0.24,0.61,169.08,0
2020-03-31T02:53:00-05:00,81.71,12.35,733.89,1.56,0.65,148.22,0
2020-03-31T02:54:00-05:00,81.84,12.39,733.56,-0.35,0.28,139.29,0
2020-03-31T02:55:00-05:00,81.97,12.43,735.06,0.53,0.07,110.73,0
2020-03-31T02:56:00-05:00,82.29,12.46,735.33,-1.08,0.37,121.51,0
2020-03-31T02:57:00-05:00,81.45,12.45,734.46,-1.38,0.33,79.19,0
2020-03-31T02:58:00-05:00,81.7,12.45,733.99,-0.35,0.15,36.07,0
2020-03-31T02:59:00-05:00,82.18,12.46,735.43,-0.79,0.21,137.09,0
2020-03-31T03:00:00-05:00,82.21,12.47,734.09,0.83,0.58,145.09,0
2020-03-31T03:01:00-05:00,82.75,12.46,734.39,-1.82,0.56,104.67,0
2020-03-31T03:02:00-05:00,82.91,12.45,735.03,0.98,0.24,178.07,0
2020-03-31T03:03:00-05:00,83.19,12.45,732.48,1.27,0.17,152.15,0
2020-03-31T03:04:00-05:00,83.02,12.45,734.9,-1.67,0.28,145.63,0
2020-03-31T03:05:00-05:00,82.9,12.42,734.09,-0.79,0.22,58.17,0
2020-03-31T03:06:00-05:00,83.32,12.43,733.79,0.68,0.57,72.72,0
2020-03-31T03:07:00-05:00,82.85,12.4,734.86,-0.49,0.49,72.24,0
2020-03-31T03:08:00-05:00,82.41,12.4,735.13,-1.23,0.35,85.32,0
2020-03-31T03:09:00-05:00,82.43,12.39,734.02,-2.11,0.43,76.08,0
2020-03-31T03:10:00-05:00,82.67,12.4,735.33,-1.08,0.29,67.05,0
2020-03-31T03:11:00-05:00,82.89,12.39,734.02,-0.49,0.23,120.51,0
2020-03-31T03:12:00-05:00,83.3,12.43,733.99,0.24,0.22,97.51,0
2020-03-31T03:13:00-05:00,83.33,12.39,733.66,-2.41,0.19,95.58,0
2020-03-31T03:14:00-05:00,83.17,12.38,733.99,-1.67,0.13,79.53,0
2020-03-31T03:15:00-05:00,83.3,12.37,733.86,-1.52,0.24,37.43,0
2020-03-31T03:16:00-05:00,83.61,12.36,734.29,-1.97,0.14,70.18,0
2020-03-31T03:17:00-05:00,83.46,12.34,734.39,-2.11,0.11,11.79,0
2020-03-31T03:18:00-05:00,84.05,12.35,733.96,0.24,0.32,89.34,0
2020-03-31T03:19:00-05:00,84.4,12.33,733.92,-2.41,0.67,63.97,0
2020-03-31T03:20:00-05:00,84.49,12.31,734.13,-0.2,0.64,59.71,0
2020-03-31T03:21:00-05:00,84.77,12.28,733.92,-1.97,0.6,62.57,0
2020-03-31T03:22:00-05:00,84.82,12.25,733.25,-0.64,0.64,64.67,0
2020-03-31T03:23:00-05:00,84.94,12.24,734.13,0.09,0.61,57.32,0
2020-03-31T03:24:00-05:00,84.91,12.21,734.26,-2.26,0.52,48.72,0
2020-03-31T03:25:00-05:00,85.12,12.21,734.26,-2.11,0.6,55.86,0
2020-03-31T03:26:00-05:00,85.02,12.19,734.09,-1.82,0.57,53.16,0
2020-03-31T03:27:00-05:00,84.82,12.18,732.69,-2.11,0.56,41.42,0
2020-03-31T03:28:00-05:00,84.87,12.19,733.62,-0.64,0.5,38.5,0
2020-03-31T03:29:00-05:00,84.85,12.16,733.52,-0.64,0.59,38.49,0
2020-03-31T03:30:00-05:00,84.97,12.16,732.59,-1.23,0.68,72.81,0
2020-03-31T03:31:00-05:00,84.76,12.13,734.59,-1.67,0.59,56.09,0
2020-03-31T03:32:00-05:00,84.64,12.13,733.15,-1.52,0.53,104.97,0
2020-03-31T03:33:00-05:00,85.05,12.13,733.56,-0.79,0.32,83.88,0
2020-03-31T03:34:00-05:00,85.15,12.13,733.29,-1.52,0.45,64.22,0
2020-03-31T03:35:00-05:00,85,12.13,733.39,0.98,0.6,81.45,0
2020-03-31T03:36:00-05:00,85.49,12.12,734.19,0.39,0.55,114.1,0
2020-03-31T03:37:00-05:00,85.73,12.14,733.92,0.39,0.54,121.24,0
2020-03-31T03:38:00-05:00,84.89,12.11,734.29,-0.79,0.62,57.79,0
2020-03-31T03:39:00-05:00,85.06,12.13,733.09,-1.08,0.64,75.14,0
2020-03-31T03:40:00-05:00,84.69,12.11,734.16,-1.52,0.57,59.29,0
2020-03-31T03:41:00-05:00,85.23,12.12,733.22,-1.67,0.54,42.19,0
2020-03-31T03:42:00-05:00,85.15,12.09,734.23,0.39,0.77,64.89,0
2020-03-31T03:43:00-05:00,85.09,12.09,733.62,-1.82,0.6,51.05,0
2020-03-31T03:44:00-05:00,84.47,12.07,733.02,-2.26,0.64,80.56,0
2020-03-31T03:45:00-05:00,84.28,12.08,733.66,-2.55,0.68,77.96,0
2020-03-31T03:46:00-05:00,84.25,12.11,734.06,-0.2,0.35,69.29,0
2020-03-31T03:47:00-05:00,83.98,12.11,733.36,-1.67,0.32,64.57,0
2020-03-31T03:48:00-05:00,83.52,12.11,733.42,-1.52,0.15,146.6,0
2020-03-31T03:49:00-05:00,83.85,12.14,732.95,0.09,0.24,92.71,0
2020-03-31T03:50:00-05:00,84.78,12.15,733.36,-0.94,0.66,74.49,0
2020-03-31T03:51:00-05:00,83.4,12.15,733.69,-0.05,0.87,78.67,0
2020-03-31T03:52:00-05:00,83.47,12.15,733.19,0.24,0.52,82.03,0
2020-03-31T03:53:00-05:00,83.76,12.18,734.09,0.09,0.6,89.54,0
2020-03-31T03:54:00-05:00,83.62,12.15,733.19,-1.67,0.6,102.03,0
2020-03-31T03:55:00-05:00,83.01,12.17,733.36,-1.82,0.36,95,0
2020-03-31T03:56:00-05:00,83.7,12.19,733.19,-1.52,0.54,47.93,0
2020-03-31T03:57:00-05:00,82.99,12.18,733.42,-0.94,0.58,100.78,0
2020-03-31T03:58:00-05:00,82.67,12.17,733.82,0.24,0.49,126.64,0
2020-03-31T03:59:00-05:00,83.01,12.19,733.49,-0.35,0.38,70,0
2020-03-31T04:00:00-05:00,83.36,12.2,733.25,0.53,0.73,65.3,0
2020-03-31T04:01:00-05:00,82.43,12.2,734.33,0.24,0.58,74.12,0
2020-03-31T04:02:00-05:00,82.49,12.22,733.59,-1.52,0.58,107.37,0
2020-03-31T04:03:00-05:00,82.44,12.25,734.59,-0.35,0.27,65.74,0
2020-03-31T04:04:00-05:00,83.07,12.25,734.39,-0.05,0.64,25.93,0
2020-03-31T04:05:00-05:00,83.62,12.25,734.53,-0.05,0.48,55.8,0
2020-03-31T04:06:00-05:00,83.67,12.23,733.36,-1.38,0.57,54.44,0
2020-03-31T04:07:00-05:00,83.62,12.21,733.52,-1.82,0.38,45.57,0
2020-03-31T04:08:00-05:00,83.98,12.21,733.32,-1.67,0.24,78.06,0
2020-03-31T04:09:00-05:00,83.95,12.21,733.49,-2.11,0.23,134.24,0
2020-03-31T04:10:00-05:00,83.55,12.19,734.53,-0.64,0.61,169.1,0
2020-03-31T04:11:00-05:00,82.88,12.19,734.29,-1.67,0.57,184.04,0
2020-03-31T04:12:00-05:00,83.46,12.2,733.72,-1.82,0.57,212.87,0
2020-03-31T04:13:00-05:00,83.13,12.17,734.49,0.39,0.62,206.01,0
2020-03-31T04:14:00-05:00,82.98,12.19,733.66,-1.08,0.72,191.02,0
2020-03-31T04:15:00-05:00,83.34,12.17,733.42,-0.2,0.68,180.14,0
2020-03-31T04:16:00-05:00,83.41,12.17,734.09,-1.38,0.62,180.11,0
2020-03-31T04:17:00-05:00,83.25,12.18,733.32,0.53,0.59,178.01,0
2020-03-31T04:18:00-05:00,83.23,12.17,734.43,-0.05,0.63,159.16,0
2020-03-31T04:19:00-05:00,83.17,12.19,734.56,-1.67,0.6,170.1,0
2020-03-31T04:20:00-05:00,83.45,12.19,734.13,0.09,0.53,160.43,0
2020-03-31T04:21:00-05:00,83.67,12.19,733.42,0.98,0.59,145.26,0
2020-03-31T04:22:00-05:00,83.64,12.19,733.39,-0.49,0.57,140.57,0
2020-03-31T04:23:00-05:00,83.78,12.19,733.46,-0.05,0.43,173.12,0
2020-03-31T04:24:00-05:00,83.8,12.19,733.42,-1.23,0.28,180.45,0
2020-03-31T04:25:00-05:00,84.33,12.2,734.26,-1.23,0.55,159.17,0
2020-03-31T04:26:00-05:00,83.98,12.2,733.49,-0.64,0.21,156.46,0
2020-03-31T04:27:00-05:00,84.34,12.21,733.62,-1.38,0.32,139.54,0
2020-03-31T04:28:00-05:00,83.56,12.21,734.73,-0.49,0.48,165.41,0
2020-03-31T04:29:00-05:00,83.17,12.21,734.06,-0.49,0.32,167.15,0
2020-03-31T04:30:00-05:00,83.24,12.21,734.56,-0.05,0.59,146.28,0
2020-03-31T04:31:00-05:00,83.44,12.24,733.92,0.39,0.55,154.22,0
2020-03-31T04:32:00-05:00,83.58,12.25,734.29,-1.52,0.19,146.27,0
2020-03-31T04:33:00-05:00,83.88,12.26,734.76,-1.08,0.2,110.05,0
2020-03-31T04:34:00-05:00,83.4,12.25,732.95,-0.05,0.21,184.03,0
2020-03-31T04:35:00-05:00,83.88,12.27,734.56,-1.08,0.16,85.17,0
2020-03-31T04:36:00-05:00,83.42,12.28,734.93,-1.52,0.34,43.42,0
2020-03-31T04:37:00-05:00,83.1,12.28,734.46,-0.94,0.15,110.3,0
2020-03-31T04:38:00-05:00,83.03,12.29,734.69,0.53,0.52,119.92,0
2020-03-31T04:39:00-05:00,83.39,12.3,733.79,0.39,0.53,123.76,0
2020-03-31T04:40:00-05:00,83.4,12.29,733.66,-0.64,0.49,89.08,0
2020-03-31T04:41:00-05:00,83.05,12.31,734.79,1.42,0.15,80.74,0
2020-03-31T04:42:00-05:00,83.47,12.33,733.79,-1.08,0.32,167.13,0
2020-03-31T04:43:00-05:00,83.24,12.33,733.92,-1.52,0.24,73.6,0
2020-03-31T04:44:00-05:00,83.64,12.34,734.79,-1.08,0.37,121.25,0
2020-03-31T04:45:00-05:00,83.61,12.33,733.66,-1.08,0.17,109.51,0
2020-03-31T04:46:00-05:00,83.88,12.33,733.49,1.12,0.11,116.22,0
2020-03-31T04:47:00-05:00,83.94,12.35,734.56,-0.64,0.24,119.7,0
2020-03-31T04:48:00-05:00,83.66,12.35,734.63,-1.38,0.22,79.24,0
2020-03-31T04:49:00-05:00,83.48,12.33,734.79,-0.05,0.39,94.17,0
2020-03-31T04:50:00-05:00,83.35,12.33,733.76,0.39,0.44,92.03,0
2020-03-31T04:51:00-05:00,83.28,12.33,733.99,1.12,0.4,72.61,0
2020-03-31T04:52:00-05:00,83.27,12.34,733.42,0.09,0.24,101.61,0
2020-03-31T04:53:00-05:00,83.73,12.36,734.73,-1.08,0.15,91.65,0
2020-03-31T04:54:00-05:00,83.74,12.35,734.36,-1.52,0.12,98.73,0
2020-03-31T04:55:00-05:00,83.75,12.33,734.46,-1.38,0.22,48.62,0
2020-03-31T04:56:00-05:00,83.97,12.34,733.59,-1.38,0.19,82.94,0
2020-03-31T04:57:00-05:00,83.58,12.35,734.73,0.09,0.24,58.82,0
2020-03-31T04:58:00-05:00,83.72,12.35,734.39,-0.94,0.21,123.59,0
2020-03-31T04:59:00-05:00,84.08,12.34,734.86,0.68,0.12,67.76,0
2020-03-31T05:00:00-05:00,84.24,12.35,733.66,-1.67,0.2,27.28,0
2020-03-31T05:01:00-05:00,84.28,12.35,733.59,-1.23,0.32,39.65,0
2020-03-31T05:02:00-05:00,84.92,12.35,734.86,0.83,0.26,36.01,0
2020-03-31T05:03:00-05:00,85.05,12.35,735,-1.67,0.39,56.85,0
2020-03-31T05:04:00-05:00,84.66,12.34,733.66,-0.94,0.62,37.09,0
2020-03-31T05:05:00-05:00,83.93,12.32,733.92,0.68,0.43,54.06,0
2020-03-31T05:06:00-05:00,84.54,12.32,734.53,0.24,0.29,69.01,0
2020-03-31T05:07:00-05:00,85.27,12.33,734.73,-1.67,0.23,100.14,0
2020-03-31T05:08:00-05:00,84.66,12.32,734.26,-1.23,0.12,110.32,0
2020-03-31T05:09:00-05:00,84.51,12.33,734.49,-0.2,0.31,88.85,0
2020-03-31T05:10:00-05:00,84.52,12.3,734.16,-0.94,0.29,140.3,0
2020-03-31T05:11:00-05:00,84.76,12.3,733.79,0.39,0.39,132.52,0
2020-03-31T05:12:00-05:00,85.1,12.31,734.23,0.39,0.2,150.2,0
2020-03-31T05:13:00-05:00,85.21,12.29,734.76,-0.64,0.11,175.1,0
2020-03-31T05:14:00-05:00,85.22,12.31,734.66,-1.67,0.24,159.19,0
2020-03-31T05:15:00-05:00,84.71,12.28,734.09,-0.35,0.23,148.62,0
2020-03-31T05:16:00-05:00,84.25,12.29,733.96,0.39,0.43,164.16,0
2020-03-31T05:17:00-05:00,84.11,12.25,734.9,-0.79,0.64,159.49,0
2020-03-31T05:18:00-05:00,83.87,12.27,733.76,-1.08,0.56,172.12,0
2020-03-31T05:19:00-05:00,83.87,12.27,734.83,0.53,0.58,162.57,0
2020-03-31T05:20:00-05:00,83.56,12.28,734.26,-1.82,0.43,142.23,0
2020-03-31T05:21:00-05:00,84.15,12.28,734.76,-1.08,0.3,174.49,0
2020-03-31T05:22:00-05:00,83.82,12.25,734.56,-0.2,0.54,154.25,0
2020-03-31T05:23:00-05:00,84.07,12.27,734.36,0.98,0.59,162.54,0
2020-03-31T05:24:00-05:00,84.06,12.25,734.9,-1.38,0.58,164.17,0
2020-03-31T05:25:00-05:00,83.92,12.25,733.52,-1.67,0.45,161.14,0
2020-03-31T05:26:00-05:00,84.02,12.27,733.62,-1.23,0.29,170.08,0
2020-03-31T05:27:00-05:00,84.2,12.27,733.96,0.24,0.33,167.13,0
2020-03-31T05:28:00-05:00,84.13,12.27,734.53,0.24,0.34,152.2,0
2020-03-31T05:29:00-05:00,83.99,12.27,733.76,-1.97,0.3,175.13,0
2020-03-31T05:30:00-05:00,83.98,12.27,734.69,-1.38,0.19,116.48,0
2020-03-31T05:31:00-05:00,84.43,12.29,734.53,-0.49,0.57,74.75,0
2020-03-31T05:32:00-05:00,84.42,12.27,734.79,-1.52,0.56,69.92,0
2020-03-31T05:33:00-05:00,84.92,12.29,733.82,-0.94,0.5,37.3,0
2020-03-31T05:34:00-05:00,84.91,12.29,733.72,-2.26,0.34,11.15,0
2020-03-31T05:35:00-05:00,84.91,12.3,733.79,0.53,0.12,17.85,0
2020-03-31T05:36:00-05:00,84.84,12.32,734.09,-1.23,0.17,292.98,0
2020-03-31T05:37:00-05:00,84.85,12.32,734.69,-1.08,0.17,328.58,0
2020-03-31T05:38:00-05:00,84.84,12.29,734.43,-0.79,0.14,1.2,0
2020-03-31T05:39:00-05:00,84.87,12.3,734.23,-0.05,0.24,338.54,0
2020-03-31T05:40:00-05:00,84.85,12.3,734.63,0.24,0.09,340.86,0
2020-03-31T05:41:00-05:00,85.05,12.31,733.99,-1.23,0.11,27.03,0
2020-03-31T05:42:00-05:00,85.41,12.32,733.56,0.24,0.44,25.08,0
2020-03-31T05:43:00-05:00,85.37,12.32,734.06,0.53,0.17,40.99,0
2020-03-31T05:44:00-05:00,85.83,12.32,734.06,-0.94,0.12,142.25,0
2020-03-31T05:45:00-05:00,85.92,12.31,733.49,-1.52,0.07,164.17,0
2020-03-31T05:46:00-05:00,85.79,12.32,734.43,0.68,0.18,208.02,0
2020-03-31T05:47:00-05:00,85.74,12.31,734.43,-1.97,0.22,185.01,0
2020-03-31T05:48:00-05:00,85.81,12.3,734.39,0.39,0.21,174.12,0
2020-03-31T05:49:00-05:00,85.51,12.29,733.69,0.24,0.26,182.08,0
2020-03-31T05:50:00-05:00,85.22,12.27,733.99,0.39,0.35,182.07,0
2020-03-31T05:51:00-05:00,85.6,12.27,734.29,-1.67,0.39,175.13,0
2020-03-31T05:52:00-05:00,85.59,12.24,733.46,-0.35,0.29,178.05,0
2020-03-31T05:53:00-05:00,85.41,12.22,733.66,-0.94,0.2,169.37,0
2020-03-31T05:54:00-05:00,85.47,12.22,734.02,-0.64,0.18,147.27,0
2020-03-31T05:55:00-05:00,85.77,12.23,734.33,-0.35,0.51,136.15,0
2020-03-31T05:56:00-05:00,86.01,12.21,734.46,0.24,0.21,142.21,0
2020-03-31T05:57:00-05:00,86.12,12.22,733.62,-0.49,0.2,54.95,0
2020-03-31T05:58:00-05:00,86.12,12.2,733.42,1.12,0.19,71.39,0
2020-03-31T05:59:00-05:00,86.38,12.22,733.42,-0.79,0.26,59.33,0
2020-03-31T06:00:00-05:00,86.57,12.21,733.59,-0.2,0.23,61.79,0
2020-03-31T06:01:00-05:00,86.56,12.21,734.63,-0.94,0.48,71.7,0
2020-03-31T06:02:00-05:00,86.76,12.22,733.49,-1.38,0.32,24.65,0
2020-03-31T06:03:00-05:00,86.98,12.21,733.32,-0.35,0.52,44.27,0
2020-03-31T06:04:00-05:00,86.96,12.22,734.33,1.12,0.41,58.99,0
2020-03-31T06:05:00-05:00,86.62,12.17,733.46,-0.35,0.55,94.48,0
2020-03-31T06:06:00-05:00,86.82,12.17,733.72,1.71,0.58,53.69,0
2020-03-31T06:07:00-05:00,86.56,12.16,733.52,0.09,0.57,50.42,0
2020-03-31T06:08:00-05:00,86.7,12.17,733.76,-0.64,0.54,77.6,0
2020-03-31T06:09:00-05:00,86.84,12.15,733.72,-0.05,0.54,51.14,0
2020-03-31T06:10:00-05:00,87.26,12.15,734.16,2.3,0.09,111.24,0
2020-03-31T06:11:00-05:00,86.96,12.14,733.46,3.03,0.35,30.18,0
2020-03-31T06:12:00-05:00,87.1,12.14,733.29,3.33,0.06,174.38,0
2020-03-31T06:13:00-05:00,87.51,12.15,735.13,4.65,0.06,230.92,0
2020-03-31T06:14:00-05:00,87.67,12.15,734.16,8.62,0.09,150.52,0
2020-03-31T06:15:00-05:00,88.05,12.17,733.59,11.27,0.47,5.73,0
2020-03-31T06:16:00-05:00,88.13,12.15,733.36,13.91,0.31,261.08,0
2020-03-31T06:17:00-05:00,88.05,12.15,734.02,18.77,0.22,246.1,0
2020-03-31T06:18:00-05:00,88.26,12.14,734.13,21.85,0.13,25.43,0
2020-03-31T06:19:00-05:00,88.21,12.12,734.19,23.47,0.28,42.55,0
2020-03-31T06:20:00-05:00,88.78,12.11,733.86,25.97,0.6,43.03,0
2020-03-31T06:21:00-05:00,88.58,12.09,734.26,23.18,0.67,49.44,0
2020-03-31T06:22:00-05:00,88.91,12.07,734.39,21.56,0.6,55.86,0
2020-03-31T06:23:00-05:00,89.36,12.07,732.95,22.73,0.48,52.87,0
2020-03-31T06:24:00-05:00,89.5,12.07,733.72,21.71,0.63,27.21,0
2020-03-31T06:25:00-05:00,89.86,12.05,734.23,19.94,0.2,70.36,0
2020-03-31T06:26:00-05:00,90,12.03,733.72,18.77,0.18,77.45,0
2020-03-31T06:27:00-05:00,90.28,12.04,734.23,21.71,0.13,318.59,0
2020-03-31T06:28:00-05:00,90.58,12.04,734.46,24.2,0.12,223.91,0
2020-03-31T06:29:00-05:00,90.59,12.04,734.29,28.03,0.52,179.14,0
2020-03-31T06:30:00-05:00,90.28,12.03,734.16,29.2,0.56,163.2,0
2020-03-31T06:31:00-05:00,89.89,11.99,734.13,31.26,0.25,182.33,0
2020-03-31T06:32:00-05:00,89.99,11.97,733.12,34.5,0.22,143.22,0
2020-03-31T06:33:00-05:00,90.13,11.96,733.49,33.76,0.58,179.46,0
2020-03-31T06:34:00-05:00,90.04,11.96,733.42,35.97,0.59,175.1,0
2020-03-31T06:35:00-05:00,90.6,11.95,734.63,39.35,0.37,165.51,0
2020-03-31T06:36:00-05:00,91.12,11.98,734.29,40.38,0.18,135.99,0
2020-03-31T06:37:00-05:00,91.62,11.97,734.36,38.17,0.21,56.27,0
2020-03-31T06:38:00-05:00,91.96,11.99,734.36,37,0.28,169.11,0
2020-03-31T06:39:00-05:00,91.44,12,734.26,31.26,0.62,180.43,0
2020-03-31T06:40:00-05:00,91.43,11.96,733.29,29.06,0.48,143.2,0
2020-03-31T06:41:00-05:00,91.48,11.95,734.73,27.59,0.45,143.2,0
2020-03-31T06:42:00-05:00,91.42,11.96,734.13,29.2,0.55,149.21,0
2020-03-31T06:43:00-05:00,91.48,11.95,733.32,31.56,0.22,171.15,0
2020-03-31T06:44:00-05:00,91.6,11.99,733.29,32,0.16,137.86,0
2020-03-31T06:45:00-05:00,91.69,11.98,733.66,32.44,0.29,162.24,0
2020-03-31T06:46:00-05:00,91.27,11.99,734.53,33.03,0.45,150.19,0
2020-03-31T06:47:00-05:00,91.22,11.96,733.82,34.94,0.3,177.08,0
2020-03-31T06:48:00-05:00,91.29,11.97,734.09,34.06,0.31,194.94,0
2020-03-31T06:49:00-05:00,90.61,11.97,733.49,32.44,0.56,151.17,0
2020-03-31T06:50:00-05:00,90.67,11.97,734.43,31.41,0.23,128.77,0
2020-03-31T06:51:00-05:00,91.11,11.99,735.06,34.2,0.16,238.08,0
2020-03-31T06:52:00-05:00,91.34,12,734.93,36.7,0.13,56.81,0
2020-03-31T06:53:00-05:00,91.64,12.06,734.46,35.82,0.18,139.28,0
2020-03-31T06:54:00-05:00,91.62,12.07,735.16,35.08,0.24,94.74,0
2020-03-31T06:55:00-05:00,91.23,12.05,734.56,32.14,0.2,99.18,0
2020-03-31T06:56:00-05:00,90.86,12.04,734.13,30.38,0.25,97.34,0
2020-03-31T06:57:00-05:00,90.87,12.07,734.29,33.32,0.35,98.25,0
2020-03-31T06:58:00-05:00,90.74,12.1,735.4,34.64,0.29,59.16,0
2020-03-31T06:59:00-05:00,90.9,12.09,734.53,38.47,0.13,175.09,0
2020-03-31T07:00:00-05:00,90.59,12.13,735.36,38.76,0.51,164.17,0
2020-03-31T07:01:00-05:00,90.28,12.15,735.13,41.26,0.45,160.17,0
2020-03-31T07:02:00-05:00,90.27,12.15,735.43,38.76,0.08,342.55,0
2020-03-31T07:03:00-05:00,89.99,12.17,734.56,37.88,0.51,91.63,0
2020-03-31T07:04:00-05:00,90.03,12.19,735.93,40.08,0.43,133.26,0
2020-03-31T07:05:00-05:00,90.21,12.23,736,46.26,0.54,111.26,0
2020-03-31T07:06:00-05:00,90.33,12.23,735.16,53.9,0.54,33.16,0
2020-03-31T07:07:00-05:00,90.31,12.28,735.4,66.4,0.53,19.25,0
2020-03-31T07:08:00-05:00,90.55,12.31,735.5,74.78,0.65,0.85,0
2020-03-31T07:09:00-05:00,90.35,12.34,736.33,76.1,0.85,37.42,0
2020-03-31T07:10:00-05:00,89.44,12.35,736.87,73.16,0.25,75.87,0
2020-03-31T07:11:00-05:00,88.16,12.37,735.67,65.08,0.27,38.1,0
2020-03-31T07:12:00-05:00,87.57,12.36,736.43,60.52,0.17,354.47,0
2020-03-31T07:13:00-05:00,87.1,12.4,737.24,61.55,0.33,101.68,0
2020-03-31T07:14:00-05:00,86.93,12.42,737.31,61.55,0.22,81.9,0
2020-03-31T07:15:00-05:00,86.71,12.44,736.94,60.81,0.28,138.66,0
2020-03-31T07:16:00-05:00,86.79,12.48,737.54,59.78,0.14,108.78,0
2020-03-31T07:17:00-05:00,86.91,12.51,736.33,59.78,0.61,14.99,0
2020-03-31T07:18:00-05:00,87.24,12.55,737.37,59.05,0.56,67.33,0
2020-03-31T07:19:00-05:00,87.59,12.57,736.84,65.08,0.48,20.34,0
2020-03-31T07:20:00-05:00,87.53,12.61,736.57,70.96,0.5,39.79,0
2020-03-31T07:21:00-05:00,87.51,12.65,737.57,71.55,0.32,66.79,0
2020-03-31T07:22:00-05:00,87.25,12.67,738.44,74.93,0.18,66.49,0
2020-03-31T07:23:00-05:00,87,12.68,737.67,76.55,0.55,49.08,0
2020-03-31T07:24:00-05:00,87.63,12.72,738.88,82.28,0.15,342.78,0
2020-03-31T07:25:00-05:00,87.41,12.75,737.94,85.95,0.25,40.92,0
2020-03-31T07:26:00-05:00,86.91,12.75,738.28,93.89,0.41,88.97,0
2020-03-31T07:27:00-05:00,86.58,12.75,739.48,100.07,0.62,47.51,0
2020-03-31T07:28:00-05:00,86.99,12.8,738.61,105.51,0.57,22.43,0
2020-03-31T07:29:00-05:00,86.76,12.81,739.58,111.54,0.57,27.41,0
2020-03-31T07:30:00-05:00,86.21,12.83,738.95,111.98,0.56,37.22,0
2020-03-31T07:31:00-05:00,85.94,12.85,739.31,117.12,0.63,23.68,0
2020-03-31T07:32:00-05:00,85.87,12.87,739.08,121.24,0.4,61.37,0
2020-03-31T07:33:00-05:00,86.26,12.9,740.49,125.21,0.59,316.61,0
2020-03-31T07:34:00-05:00,85.98,12.95,741.05,126.24,0.62,339.87,0
2020-03-31T07:35:00-05:00,84.72,12.95,741.05,124.18,0.55,9.88,0
2020-03-31T07:36:00-05:00,83.97,13,740.38,121.83,0.6,336.79,0
2020-03-31T07:37:00-05:00,85.09,13,740.35,122.12,0.29,27.21,0
2020-03-31T07:38:00-05:00,85.3,13.07,740.18,125.21,0.54,355.48,0
2020-03-31T07:39:00-05:00,85.15,13.1,736.13,124.03,0.56,3.76,0
2020-03-31T07:40:00-05:00,85.26,13.15,736.64,122.42,0.21,346.48,0
2020-03-31T07:41:00-05:00,84.81,13.18,736.94,120.06,0.68,343.53,0
2020-03-31T07:42:00-05:00,83.43,13.2,736.13,111.68,0.25,341.57,0
2020-03-31T07:43:00-05:00,83.82,13.22,737.07,104.19,0.43,75.7,0
2020-03-31T07:44:00-05:00,84.02,13.26,736,94.34,0.67,350.56,0
2020-03-31T07:45:00-05:00,83.47,13.26,736.97,89.78,0.85,283.74,0
2020-03-31T07:46:00-05:00,83.08,13.27,736.27,84.93,0.15,205.98,0
2020-03-31T07:47:00-05:00,82.95,13.26,735.67,85.81,0.61,170.44,0
2020-03-31T07:48:00-05:00,84.06,13.27,737.04,86.4,1.1,301.67,0
2020-03-31T07:49:00-05:00,83.22,13.24,736.2,87.13,0.17,276.05,0
2020-03-31T07:50:00-05:00,83.43,13.26,736.74,86.84,0.57,244.75,0
2020-03-31T07:51:00-05:00,83.32,13.24,735.83,88.6,0.55,316.96,0
2020-03-31T07:52:00-05:00,83.53,13.23,737.14,85.66,0.14,349.42,0
2020-03-31T07:53:00-05:00,83.88,13.25,735.97,84.78,0.34,197.37,0
2020-03-31T07:54:00-05:00,84.08,13.27,736.74,83.01,0.21,169.13,0
2020-03-31T07:55:00-05:00,85.05,13.3,737.1,84.63,0.45,183.02,0
2020-03-31T07:56:00-05:00,84.76,13.3,735.9,91.25,0.52,238.82,0
2020-03-31T07:57:00-05:00,84.49,13.27,736.97,94.92,0.54,223.94,0
2020-03-31T07:58:00-05:00,84.26,13.26,737.2,97.72,0.64,190.29,0
2020-03-31T07:59:00-05:00,84.59,13.26,735.87,105.22,0.36,166.42,0
2020-03-31T08:00:00-05:00,86.04,13.28,737.47,116.83,0.29,183.04,0
2020-03-31T08:01:00-05:00,86.73,13.34,736.84,133.15,0.44,177.05,0
2020-03-31T08:02:00-05:00,86.65,13.36,736.57,149.32,0.23,203.94,0
2020-03-31T08:03:00-05:00,85.93,13.39,738.08,158,0.2,191.99,0
2020-03-31T08:04:00-05:00,86.26,13.4,738.01,173.87,0.2,165.16,0
2020-03-31T08:05:00-05:00,86.4,13.46,737.94,189.46,0.12,217.91,0
2020-03-31T08:06:00-05:00,85.91,13.52,738.41,208.13,0.18,192.3,0
2020-03-31T08:07:00-05:00,85.43,13.6,739.08,216.81,0.27,285.66,0
2020-03-31T08:08:00-05:00,85.17,13.66,736.23,224.3,0.17,269.09,0
2020-03-31T08:09:00-05:00,83.68,13.72,736.07,244.59,0.71,236.82,0
2020-03-31T08:10:00-05:00,83.09,13.78,736.3,239.74,0.35,206.37,0
2020-03-31T08:11:00-05:00,82.97,13.85,736.47,228.71,0.36,312.56,0
2020-03-31T08:12:00-05:00,83.23,13.9,737,219.45,0.23,70.85,0
2020-03-31T08:13:00-05:00,82.87,13.96,737.14,204.6,0.54,165.13,0
2020-03-31T08:14:00-05:00,82.89,14.04,736.2,199.75,0.21,221.95,0
2020-03-31T08:15:00-05:00,82.35,14.12,736.17,204.01,0.25,236.79,0
2020-03-31T08:16:00-05:00,82.37,14.18,737.31,211.37,0.11,280.65,0
2020-03-31T08:17:00-05:00,82.42,14.22,737.17,213.28,0.14,305.57,0
2020-03-31T08:18:00-05:00,82.67,14.28,737.27,201.81,0.6,247.83,0
2020-03-31T08:19:00-05:00,80.69,14.3,737.31,184.61,1.02,310.63,0
2020-03-31T08:20:00-05:00,82.11,14.3,736.1,176.37,0.27,253.76,0
2020-03-31T08:21:00-05:00,82.41,14.32,737.44,167.85,0.54,184.99,0
2020-03-31T08:22:00-05:00,81.33,14.33,737.51,159.91,0.58,241.87,0
2020-03-31T08:23:00-05:00,80.34,14.32,737.94,152.12,0.17,237.15,0
2020-03-31T08:24:00-05:00,79.91,14.33,736.1,143.15,0.52,192.96,0
2020-03-31T08:25:00-05:00,80.38,14.3,736.9,139.18,0.26,273.02,0
2020-03-31T08:26:00-05:00,80.29,14.3,736.33,138.44,0.22,95.7,0
2020-03-31T08:27:00-05:00,79.87,14.28,737.1,135.65,0.24,6.01,0
2020-03-31T08:28:00-05:00,80.88,14.26,736.8,127.27,0.61,341.58,0
2020-03-31T08:29:00-05:00,80.5,14.25,736.1,115.36,0.22,49.09,0
2020-03-31T08:30:00-05:00,80.46,14.22,736.37,110.65,0.1,5.68,0
2020-03-31T08:31:00-05:00,81.28,14.22,736.4,103.45,0.44,139.29,0
2020-03-31T08:32:00-05:00,80.64,14.21,737.2,100.66,0.51,74.22,0
2020-03-31T08:33:00-05:00,80.69,14.2,736.94,104.77,0.5,79.56,0
2020-03-31T08:34:00-05:00,80.54,14.17,736.9,115.21,0.69,2.71,0
2020-03-31T08:35:00-05:00,80.92,14.12,736.07,123.89,0.6,7.68,0
2020-03-31T08:36:00-05:00,80.9,14.09,735.7,124.77,0.31,247.82,0
2020-03-31T08:37:00-05:00,81.82,14.1,736.03,123.15,0.22,247.82,0
2020-03-31T08:38:00-05:00,82.34,14.12,736.03,122.27,0.23,172.08,0
2020-03-31T08:39:00-05:00,83.07,14.16,735.7,125.21,0.3,192.01,0
2020-03-31T08:40:00-05:00,83.29,14.21,735.06,134.91,0.57,202.92,0
2020-03-31T08:41:00-05:00,81.36,14.16,734.73,156.53,0.62,231.86,0
2020-03-31T08:42:00-05:00,81.66,14.1,735.16,188.14,0.07,67.96,0
2020-03-31T08:43:00-05:00,82.8,14.1,735.7,192.55,0.73,235.83,0
2020-03-31T08:44:00-05:00,82.11,14.1,734.43,181.81,0.61,231.24,0
2020-03-31T08:45:00-05:00,82.93,14.12,735.56,166.82,0.33,278.67,0
2020-03-31T08:46:00-05:00,83.22,14.14,734.53,161.23,0.27,253.12,0
2020-03-31T08:47:00-05:00,83.56,14.21,735.9,154.61,0.28,306.6,0
2020-03-31T08:48:00-05:00,83.74,14.25,736.07,141.24,0.18,98.53,0
2020-03-31T08:49:00-05:00,83.6,14.28,736.17,121.53,0.56,245.76,0
2020-03-31T08:50:00-05:00,83.06,14.31,736.5,106.98,0.27,313.84,0
2020-03-31T08:51:00-05:00,82.31,14.32,735.6,96.69,0.24,236.77,0
2020-03-31T08:52:00-05:00,81.63,14.35,735.43,95.51,0.39,346.51,0
2020-03-31T08:53:00-05:00,82.06,14.39,736.03,102.27,0.23,355.47,0
2020-03-31T08:54:00-05:00,81.56,14.39,735.56,115.07,0.81,40.54,0
2020-03-31T08:55:00-05:00,80.37,14.37,736.3,124.18,0.06,49.25,0
2020-03-31T08:56:00-05:00,80.44,14.37,736.27,124.47,0.53,347.49,0
2020-03-31T08:57:00-05:00,81.02,14.37,736.4,123.74,0.61,6.62,0
2020-03-31T08:58:00-05:00,80.74,14.37,735.9,130.65,0.58,14.21,0
2020-03-31T08:59:00-05:00,80.08,14.33,736.47,151.23,0.63,19.81,0
2020-03-31T09:00:00-05:00,80.07,14.3,736.54,188.87,0.12,33.46,0
2020-03-31T09:01:00-05:00,81.94,14.33,736.9,250.03,0.27,336.9,0
2020-03-31T09:02:00-05:00,82.93,14.41,736.27,291.79,0.44,237.8,0
2020-03-31T09:03:00-05:00,82.14,14.47,737.54,319.43,0.24,167.44,0
2020-03-31T09:04:00-05:00,82.23,14.54,737.17,340.16,0.57,202.93,0
2020-03-31T09:05:00-05:00,82.01,14.63,738.18,359.71,0.33,38.7,0
2020-03-31T09:06:00-05:00,83.4,14.71,739.38,385,0.52,234.15,0
2020-03-31T09:07:00-05:00,81.68,14.83,739.85,396.76,0.6,239.26,0
2020-03-31T09:08:00-05:00,81.39,14.95,736.07,355.15,0.42,243.78,0
2020-03-31T09:09:00-05:00,77.63,14.96,736.7,255.33,0.36,168.14,0
2020-03-31T09:10:00-05:00,78.2,14.94,737.37,213.28,0.61,320.55,0
2020-03-31T09:11:00-05:00,79.94,14.98,736.2,200.19,0.23,262.71,0
2020-03-31T09:12:00-05:00,79.19,15.01,736.13,190.19,0.58,226.87,0
2020-03-31T09:13:00-05:00,78.1,15.07,737.24,185.78,0.53,257.8,0
2020-03-31T09:14:00-05:00,77.43,15.05,736.43,180.64,0.33,277.66,0
2020-03-31T09:15:00-05:00,78.71,15.07,737.44,170.35,0.4,246.72,0
2020-03-31T09:16:00-05:00,78.92,15.09,737.14,169.32,0.61,189,0
2020-03-31T09:17:00-05:00,78.74,15.04,736.03,170.79,0.21,179.13,0
2020-03-31T09:18:00-05:00,77.8,15,736.94,168.58,0.58,193.97,0
2020-03-31T09:19:00-05:00,78.71,14.95,737.34,167.11,0.42,149.18,0
2020-03-31T09:20:00-05:00,79.46,14.94,735.97,161.52,0.63,210.28,0
2020-03-31T09:21:00-05:00,78.8,14.89,737.07,156.82,0.3,211.86,0
2020-03-31T09:22:00-05:00,78.85,14.86,736.3,158.29,0.63,1.29,0
2020-03-31T09:23:00-05:00,78.71,14.85,736.74,164.17,0.26,64.64,0
2020-03-31T09:24:00-05:00,78.44,14.85,736.43,176.96,0.18,24.92,0
2020-03-31T09:25:00-05:00,78.91,14.89,736.9,181.08,0.84,229.82,0
2020-03-31T09:26:00-05:00,78.83,14.83,737,184.9,1.59,251.14,0
2020-03-31T09:27:00-05:00,79.71,14.79,736.27,183.43,0.73,200.96,0
2020-03-31T09:28:00-05:00,80.79,14.78,735.26,178.58,0.49,303.63,0
2020-03-31T09:29:00-05:00,79.43,14.79,737.04,172.99,0.34,310.63,0
2020-03-31T09:30:00-05:00,78.96,14.81,736.47,162.55,0.79,233.83,0
2020-03-31T09:31:00-05:00,78.52,14.78,736.17,155.64,0.48,221.92,0
2020-03-31T09:32:00-05:00,78.17,14.77,735.87,150.06,0.07,48.13,0
2020-03-31T09:33:00-05:00,79.2,14.79,736.67,150.65,0.24,242.8,0
2020-03-31T09:34:00-05:00,78.86,14.8,736.64,154.47,0.4,308.65,0
2020-03-31T09:35:00-05:00,79.52,14.82,737.87,156.82,0.58,197.99,0
2020-03-31T09:36:00-05:00,78.61,14.79,736.84,165.05,0.55,173.12,0
2020-03-31T09:37:00-05:00,77.86,14.73,735.5,172.85,0.57,217.2,0
2020-03-31T09:38:00-05:00,77.38,14.68,736.2,178.14,0.7,250.78,0
2020-03-31T09:39:00-05:00,77.67,14.65,736.5,176.96,0.63,272.05,0
2020-03-31T09:40:00-05:00,79.77,14.67,736.33,177.55,0.63,210.19,0
2020-03-31T09:41:00-05:00,81.04,14.69,736.2,179.02,0.29,275.08,0
2020-03-31T09:42:00-05:00,80.12,14.7,735.8,184.31,0.29,164.17,0
2020-03-31T09:43:00-05:00,80.26,14.76,737.17,192.11,0.59,51.31,0
2020-03-31T09:44:00-05:00,78.82,14.79,737.47,194.9,0.58,322.53,0
2020-03-31T09:45:00-05:00,78.54,14.85,738.11,198.43,0.59,352.83,0
2020-03-31T09:46:00-05:00,78.16,14.93,737.31,205.04,0.28,207.94,0
2020-03-31T09:47:00-05:00,78.24,14.99,738.68,214.31,0.84,181.07,0
2020-03-31T09:48:00-05:00,75.87,15,738.34,209.16,0.62,141.57,0
2020-03-31T09:49:00-05:00,76.38,15.03,738.68,208.57,0.62,18.59,0
2020-03-31T09:50:00-05:00,74.09,15.04,738.01,209.45,0.87,12.74,0
2020-03-31T09:51:00-05:00,73.16,15.07,738.01,214.01,1.5,27.9,0
2020-03-31T09:52:00-05:00,73.09,15.03,739.58,216.07,0.74,6.84,0
2020-03-31T09:53:00-05:00,73.63,15.07,738.58,219.45,1.82,55.12,0
2020-03-31T09:54:00-05:00,72.41,15.05,738.81,229.6,1.93,308.64,0
2020-03-31T09:55:00-05:00,74.35,15.07,738.64,240.48,0.57,37.75,0
2020-03-31T09:56:00-05:00,73.94,15.09,739.55,249,1.14,21.94,0
2020-03-31T09:57:00-05:00,73.81,15.09,738.81,259.74,1.04,6.56,0
2020-03-31T09:58:00-05:00,73.36,15.07,740.02,270.03,0.6,332.9,0
2020-03-31T09:59:00-05:00,74.89,15.12,736.77,274.88,0.57,332.47,0
2020-03-31T10:00:00-05:00,73.95,15.18,737.27,268.56,0.61,357.84,0
2020-03-31T10:01:00-05:00,72.71,15.27,736.8,256.5,0.52,4.67,0
2020-03-31T10:02:00-05:00,72.6,15.35,736.43,253.41,0.65,341.96,0
2020-03-31T10:03:00-05:00,71.35,15.39,737.61,269,1.05,19.9,0
2020-03-31T10:04:00-05:00,71.79,15.41,736.7,297.23,0.63,17.13,0
2020-03-31T10:05:00-05:00,71.84,15.41,736.97,353.54,1.06,45.55,0
2020-03-31T10:06:00-05:00,70.04,15.39,737.77,411.17,1.08,317.6,0
2020-03-31T10:07:00-05:00,71.77,15.45,738.14,425.87,0.93,41.49,0
2020-03-31T10:08:00-05:00,69.76,15.52,738.51,420.43,1.19,183,0
2020-03-31T10:09:00-05:00,73.38,15.59,738.95,452.78,0.71,268.73,0
2020-03-31T10:10:00-05:00,71.77,15.71,737.07,463.36,0.61,70.43,0
2020-03-31T10:11:00-05:00,69.33,15.71,736.5,442.19,2.93,22.52,0
2020-03-31T10:12:00-05:00,69.63,15.69,736.17,411.76,2.14,52.41,0
2020-03-31T10:13:00-05:00,69.89,15.74,737.41,459.69,2.17,42.98,0
2020-03-31T10:14:00-05:00,69.63,15.83,736.27,598.33,3.6,54.29,0
2020-03-31T10:15:00-05:00,68.43,15.79,736.2,608.33,0.73,238.05,0
2020-03-31T10:16:00-05:00,69.41,15.86,736.23,777.99,1.19,36.94,0
2020-03-31T10:17:00-05:00,68.61,15.96,737.54,480.86,3.21,37.99,0
2020-03-31T10:18:00-05:00,67.22,15.9,735.93,493.95,2.64,30.65,0
2020-03-31T10:19:00-05:00,68.24,15.84,736.9,510.56,1.43,346.86,0
2020-03-31T10:20:00-05:00,68.61,15.91,736.67,478.65,0.58,349.42,0
2020-03-31T10:21:00-05:00,69.43,16.02,738.24,485.71,1.2,46.53,0
2020-03-31T10:22:00-05:00,68.73,16.13,738.31,468.95,2.7,0.87,0
2020-03-31T10:23:00-05:00,68.44,16.15,737.44,464.39,2.26,45.79,0
2020-03-31T10:24:00-05:00,67.86,16.09,737.44,519.23,1.88,9.21,0
2020-03-31T10:25:00-05:00,67.62,16.08,738.58,449.4,2.48,9.6,0
2020-03-31T10:26:00-05:00,68.23,16.08,737.84,409.41,0.99,23.91,0
2020-03-31T10:27:00-05:00,67.74,16.18,737.97,459.69,0.57,19.63,0
2020-03-31T10:28:00-05:00,67.56,16.26,737.74,493.95,1.01,117.09,0
2020-03-31T10:29:00-05:00,66.41,16.29,737.84,1093.36,2.34,42.11,0
2020-03-31T10:30:00-05:00,66.88,16.34,737.41,475.42,3.11,73.58,0
2020-03-31T10:31:00-05:00,65.96,16.3,738.58,394.85,2.43,11.77,0
2020-03-31T10:32:00-05:00,66.26,16.28,738.48,363.24,2.23,29.4,0
2020-03-31T10:33:00-05:00,67.58,16.38,738.31,356.48,2.57,61.48,0
2020-03-31T10:34:00-05:00,65.82,16.39,738.64,334.42,2.52,45.41,0
2020-03-31T10:35:00-05:00,65.24,16.32,739.15,344.42,1.61,16.47,0
2020-03-31T10:36:00-05:00,67.12,16.34,737.97,334.28,1.24,254.11,0
2020-03-31T10:37:00-05:00,67.72,16.38,737.44,312.81,2.97,287.61,0
2020-03-31T10:38:00-05:00,67.78,16.41,737.51,282.08,0.61,210.31,0
2020-03-31T10:39:00-05:00,66.13,16.45,737.04,259.59,1.25,47.88,0
2020-03-31T10:40:00-05:00,66.48,16.42,737.14,256.06,0.67,71.78,0
2020-03-31T10:41:00-05:00,67.67,16.46,737.71,293.85,2.23,344.5,0
2020-03-31T10:42:00-05:00,66.53,16.51,737.17,370.45,2.24,57.07,0
2020-03-31T10:43:00-05:00,65.69,16.47,737.1,460.86,2.44,57.7,0
2020-03-31T10:44:00-05:00,65.53,16.5,737.07,545.55,2.3,129.22,0
2020-03-31T10:45:00-05:00,64.16,16.48,736.77,565.4,0.15,50.98,0
2020-03-31T10:46:00-05:00,65.2,16.48,737.54,908.11,2.83,70.94,0
2020-03-31T10:47:00-05:00,64.66,16.5,737.34,528.2,3.94,77.4,0
2020-03-31T10:48:00-05:00,64.54,16.49,737,534.82,0.72,41.44,0
2020-03-31T10:49:00-05:00,64.13,16.47,738.31,640.23,2.63,74.81,0
2020-03-31T10:50:00-05:00,64.48,16.44,737.47,673.46,2.61,21.07,0
2020-03-31T10:51:00-05:00,63.74,16.46,739.28,710.8,1,339.81,0
2020-03-31T10:52:00-05:00,64.36,16.41,738.58,586.28,2.96,36.27,0
2020-03-31T10:53:00-05:00,64.73,16.45,739.92,522.47,2.91,81.27,0
2020-03-31T10:54:00-05:00,64.12,16.4,739.55,482.92,1.65,36.82,0
2020-03-31T10:55:00-05:00,65.74,16.37,738.81,447.04,1.37,338.88,0
2020-03-31T10:56:00-05:00,65.27,16.46,739.82,427.05,2.21,23,0
2020-03-31T10:57:00-05:00,64.86,16.54,738.78,429.7,4.19,40.86,0
2020-03-31T10:58:00-05:00,63.71,16.48,737.74,432.34,3.57,55.91,0
2020-03-31T10:59:00-05:00,None,None,None,None,None,None,None
2020-03-31T11:00:00-05:00,63.74,16.42,738.11,472.92,2.86,75.8,0
2020-03-31T11:01:00-05:00,63.63,16.26,736.4,498.65,0.3,310.64,0
2020-03-31T11:02:00-05:00,64.44,16.26,736,548.93,2.62,26.75,0
2020-03-31T11:03:00-05:00,65.08,16.3,735.16,531.58,3.24,23.4,0
2020-03-31T11:04:00-05:00,64.44,16.28,736.84,517.03,5.12,36.8,0
2020-03-31T11:05:00-05:00,65.1,16.22,736.54,547.02,2.48,65.51,0
2020-03-31T11:06:00-05:00,65.06,16.26,737.37,677.14,2.82,24.28,0
2020-03-31T11:07:00-05:00,65.06,16.32,736.7,715.8,1.76,4.71,0
2020-03-31T11:08:00-05:00,65.22,16.41,737.1,718.3,4.4,44.39,0
2020-03-31T11:09:00-05:00,64.37,16.44,737.51,652.58,3.27,41.31,0
2020-03-31T11:10:00-05:00,64.93,16.52,737.74,602.3,1.21,15.3,0
2020-03-31T11:11:00-05:00,64.34,16.6,738.14,685.52,0.44,80.36,0
2020-03-31T11:12:00-05:00,63.97,16.7,738.44,784.32,0.85,296.95,0
2020-03-31T11:13:00-05:00,65.27,16.8,740.08,834.16,1.1,350.54,0
2020-03-31T11:14:00-05:00,64.92,17,735.43,1007.65,0.61,198.35,0
2020-03-31T11:15:00-05:00,67.89,17.26,735.26,619.94,0.28,9.31,0
2020-03-31T11:16:00-05:00,64.41,17.53,735.77,582.16,1.21,5,0
2020-03-31T11:17:00-05:00,63.05,17.68,735.23,538.93,1.52,79.18,0
2020-03-31T11:18:00-05:00,60.65,17.67,735.56,474.39,0.81,346.76,0
2020-03-31T11:19:00-05:00,60.45,17.63,736.5,416.46,0.69,355.44,0
2020-03-31T11:20:00-05:00,61.58,17.55,736.74,386.47,2.78,34.49,0
2020-03-31T11:21:00-05:00,61.62,17.39,736.43,395.59,0.71,48.61,0
2020-03-31T11:22:00-05:00,61.5,17.26,736.07,412.49,4.61,80.84,0
2020-03-31T11:23:00-05:00,61.53,17.1,734.86,420.14,0.28,178.04,0
2020-03-31T11:24:00-05:00,63.19,17.06,735.26,432.64,0.73,8.52,0
2020-03-31T11:25:00-05:00,64.24,17.11,737.2,457.04,2.3,14.57,0
2020-03-31T11:26:00-05:00,64.29,17.16,736.43,479.83,0.95,105.09,0
2020-03-31T11:27:00-05:00,63.37,17.17,736.47,473.21,2.3,73.66,0
2020-03-31T11:28:00-05:00,63.03,17.01,735.8,413.96,2.86,99.87,0
2020-03-31T11:29:00-05:00,63.68,16.84,736.47,400,0.57,201.28,0
2020-03-31T11:30:00-05:00,64.11,16.76,736.23,391.76,1.04,5.65,0
2020-03-31T11:31:00-05:00,64.89,16.74,736.6,388.38,0.91,353.84,0
2020-03-31T11:32:00-05:00,65.04,16.66,735.73,372.94,1.92,8.98,0
2020-03-31T11:33:00-05:00,64.64,16.61,735.93,348.24,2.6,43.81,0
2020-03-31T11:34:00-05:00,64.9,16.47,735.2,315.61,2.92,25.19,0
2020-03-31T11:35:00-05:00,65.2,16.33,733.62,272.09,0.73,352.89,0
2020-03-31T11:36:00-05:00,66.53,16.28,733.49,233.86,1.19,305.6,0
2020-03-31T11:37:00-05:00,66.66,16.3,732.92,207.54,2.01,8.28,0
2020-03-31T11:38:00-05:00,66.4,16.25,733.36,189.9,1.5,20.77,0
2020-03-31T11:39:00-05:00,66.83,16.22,731.98,182.11,1.12,41.06,0
2020-03-31T11:40:00-05:00,65.86,16.16,731.88,175.2,1.72,289.59,0
2020-03-31T11:41:00-05:00,67.26,16.11,731.28,174.02,1.27,11.27,0
2020-03-31T11:42:00-05:00,66.84,16.08,736.77,166.82,0.94,327.56,0
2020-03-31T11:43:00-05:00,67.43,16.04,735.77,157.85,0.7,76.71,0
2020-03-31T11:44:00-05:00,67.8,15.99,736.67,151.09,0.68,161.12,0
2020-03-31T11:45:00-05:00,67.98,15.92,735.46,147.41,2.19,214.91,0
2020-03-31T11:46:00-05:00,69.07,15.82,735.97,140.79,2.46,61.9,0
2020-03-31T11:47:00-05:00,68.97,15.65,736.64,137.41,2.08,68.46,0
2020-03-31T11:48:00-05:00,70.64,15.54,735.5,137.71,0.55,24.2,0
2020-03-31T11:49:00-05:00,71.05,15.48,735.97,141.09,2.04,0.91,0
2020-03-31T11:50:00-05:00,70.7,15.41,736.37,149.91,0.79,13.43,0
2020-03-31T11:51:00-05:00,71.2,15.33,736.27,164.32,0.51,53.96,0
2020-03-31T11:52:00-05:00,73.25,15.34,735.5,182.11,0.69,80.44,0
2020-03-31T11:53:00-05:00,72.3,15.33,735.8,203.72,0.39,342.55,0
2020-03-31T11:54:00-05:00,71.23,15.21,736.5,231.07,3.22,26.77,0
2020-03-31T11:55:00-05:00,72.19,15.06,736.23,251.94,1.88,117.71,0
2020-03-31T11:56:00-05:00,72.92,15,734.83,271.65,3.13,52.64,0
2020-03-31T11:57:00-05:00,73.05,14.99,736.17,290.91,4.37,29.46,0
2020-03-31T11:58:00-05:00,73.97,14.91,735.53,311.78,4.06,43.79,0
2020-03-31T11:59:00-05:00,73.69,14.91,736.23,340.01,0.65,347.47,0
2020-03-31T12:00:00-05:00,73.35,14.92,736.17,381.33,1.03,82.91,0
2020-03-31T12:01:00-05:00,73.08,14.95,736.54,426.17,1.43,309.64,0
2020-03-31T12:02:00-05:00,72.8,14.96,737.17,457.92,0.77,206.02,0
2020-03-31T12:03:00-05:00,73.13,14.97,736.64,478.95,2.68,216.18,0
2020-03-31T12:04:00-05:00,72.75,14.99,736.23,464.54,0.81,216.19,0
2020-03-31T12:05:00-05:00,72.8,15.03,737.04,461.16,0.6,165.16,0
2020-03-31T12:06:00-05:00,73.89,15.15,738.14,465.28,0.64,284.7,0
2020-03-31T12:07:00-05:00,76.43,15.31,735,461.01,1.96,300.04,0
2020-03-31T12:08:00-05:00,73.96,15.51,735.33,456.31,0.68,310.63,0
2020-03-31T12:09:00-05:00,72.23,15.63,735.36,445.43,1.63,6.96,0
2020-03-31T12:10:00-05:00,72.83,15.82,736.17,439.55,1.37,34.58,0
2020-03-31T12:11:00-05:00,69.49,15.8,735.2,440.13,2.17,134.55,0
2020-03-31T12:12:00-05:00,70.24,15.8,735.36,442.49,1.01,1.76,0
2020-03-31T12:13:00-05:00,68.93,15.94,736.74,447.63,0.52,9.6,0
2020-03-31T12:14:00-05:00,69.13,16.06,735.06,448.22,1.79,37.58,0
2020-03-31T12:15:00-05:00,67.14,16.1,735.2,453.81,1.03,46.27,0
2020-03-31T12:16:00-05:00,67.44,16.18,735.13,457.78,1.1,211.9,0
2020-03-31T12:17:00-05:00,66.57,16.23,735.23,449.25,2.36,348.44,0
2020-03-31T12:18:00-05:00,67.87,16.24,734.9,476.45,1.44,293.66,0
2020-03-31T12:19:00-05:00,67.24,16.32,736.07,497.47,2.73,31.81,0
2020-03-31T12:20:00-05:00,66.7,16.34,735.06,466.75,4.25,348.44,0
2020-03-31T12:21:00-05:00,65.61,16.36,735.23,458.95,0.19,82.52,0
2020-03-31T12:22:00-05:00,66.61,16.41,736,471.6,0.54,123.2,0
2020-03-31T12:23:00-05:00,67.27,16.49,735.26,497.33,0.88,39.08,0
2020-03-31T12:24:00-05:00,66.76,16.61,737.24,520.12,0.82,348.46,0
2020-03-31T12:25:00-05:00,66.22,16.72,736.03,514.53,2.05,23.88,0
2020-03-31T12:26:00-05:00,65.79,16.78,736.64,459.25,1.02,25.45,0
2020-03-31T12:27:00-05:00,68.02,16.87,736.84,399.41,1.63,332.5,0
2020-03-31T12:28:00-05:00,65.29,16.95,738.08,350.74,2.93,17.2,0
2020-03-31T12:29:00-05:00,64.28,16.87,736.47,309.72,2.62,352.5,0
2020-03-31T12:30:00-05:00,65.08,16.83,736.97,277.09,1.01,319.94,0
2020-03-31T12:31:00-05:00,66.76,16.85,736.6,253.56,0.27,237.78,0
2020-03-31T12:32:00-05:00,67.69,16.86,736.4,233.13,0.61,206.36,0
2020-03-31T12:33:00-05:00,67.86,16.89,736.03,227.39,0.77,194.93,0
2020-03-31T12:34:00-05:00,67.01,16.93,736.33,235.77,0.14,190,0
2020-03-31T12:35:00-05:00,67.68,16.93,735.93,256.36,1.58,241.83,0
2020-03-31T12:36:00-05:00,67.38,16.84,735.23,279.14,1.35,212.89,0
2020-03-31T12:37:00-05:00,68.67,16.79,734.86,312.96,1.1,230.08,0
2020-03-31T12:38:00-05:00,68.96,16.74,736.2,333.25,0.68,284.01,0
2020-03-31T12:39:00-05:00,69.48,16.78,736.3,347.51,0.52,169.08,0
2020-03-31T12:40:00-05:00,68,16.78,736.17,357.8,0.84,5.54,0
2020-03-31T12:41:00-05:00,68,16.8,737.67,381.62,0.69,341.58,0
2020-03-31T12:42:00-05:00,65.64,16.82,737.57,380.3,2.68,34.12,0
2020-03-31T12:43:00-05:00,64.66,16.81,737.91,349.72,1.12,278,0
2020-03-31T12:44:00-05:00,66.46,16.85,737.07,318.4,0.62,36.44,0
2020-03-31T12:45:00-05:00,65.02,16.92,737.77,295.02,1.08,340.84,0
2020-03-31T12:46:00-05:00,64.68,16.98,736.84,271.5,1.22,50.26,0
2020-03-31T12:47:00-05:00,64.71,17,736.94,252.97,2.3,354.77,0
2020-03-31T12:48:00-05:00,64.54,16.98,738.24,232.83,1.25,353.49,0
2020-03-31T12:49:00-05:00,65.02,17.02,738.21,225.77,0.95,58,0
2020-03-31T12:50:00-05:00,64.2,17,737.91,223.72,0.52,137.27,0
2020-03-31T12:51:00-05:00,63.88,17,738.18,223.72,0.7,59.98,0
2020-03-31T12:52:00-05:00,65.66,17.02,737.27,224.01,0.31,280.65,0
2020-03-31T12:53:00-05:00,66.17,17.1,738.31,228.86,1.08,284.69,0
2020-03-31T12:54:00-05:00,64.92,17.14,738.71,242.83,1.2,16.38,0
2020-03-31T12:55:00-05:00,63.83,17.07,737.94,263.71,1.48,343.51,0
2020-03-31T12:56:00-05:00,63.3,16.98,738.08,297.08,0.56,256.79,0
2020-03-31T12:57:00-05:00,62.99,16.86,737.04,333.69,4.42,58.98,0
2020-03-31T12:58:00-05:00,63.66,16.68,735.87,345.45,1.28,52.94,0
2020-03-31T12:59:00-05:00,63.47,16.58,736.54,321.93,2.51,97.22,0
2020-03-31T13:00:00-05:00,64.8,16.49,736,285.32,3.93,65.37,0
2020-03-31T13:01:00-05:00,64.93,16.41,734.46,265.76,3.16,70.59,0
2020-03-31T13:02:00-05:00,65.62,16.34,735.06,259.44,0.88,100.46,0
2020-03-31T13:03:00-05:00,65.98,16.3,734.86,258.41,2.7,32.46,0
2020-03-31T13:04:00-05:00,66.49,16.28,733.39,254.15,1.27,19.51,0
2020-03-31T13:05:00-05:00,65.4,16.23,734.43,251.06,0.65,344.49,0
2020-03-31T13:06:00-05:00,66.56,16.2,734.53,240.92,2.47,67.84,0
2020-03-31T13:07:00-05:00,65.83,16.17,733.36,232.68,3.62,24.67,0
2020-03-31T13:08:00-05:00,66.39,16.12,733.52,226.95,2.92,69.34,0
2020-03-31T13:09:00-05:00,65.88,16.09,732.25,226.51,0.6,334.59,0
2020-03-31T13:10:00-05:00,66.3,16.09,732.62,232.39,0.77,162.19,0
2020-03-31T13:11:00-05:00,66.88,16.1,732.42,241.8,2.98,43.16,0
2020-03-31T13:12:00-05:00,66.23,16.08,731.18,238.86,2.36,18.36,0
2020-03-31T13:13:00-05:00,66.21,16.04,730.38,238.12,0.9,43.15,0
2020-03-31T13:14:00-05:00,66.11,16.02,731.31,248.56,2.86,64.54,0
2020-03-31T13:15:00-05:00,66.76,15.99,729.77,280.03,3.23,51.02,0
2020-03-31T13:16:00-05:00,66.55,15.94,730.71,329.43,1.87,45.59,0
2020-03-31T13:17:00-05:00,66.69,15.93,730.07,377.65,2.25,77.77,0
2020-03-31T13:18:00-05:00,67.36,15.94,731.05,442.49,2.71,54.4,0
2020-03-31T13:19:00-05:00,67.73,15.99,731.48,444.55,3.12,42.67,0
2020-03-31T13:20:00-05:00,66.97,16,730.71,467.48,2.15,49.55,0
2020-03-31T13:21:00-05:00,67.14,15.99,731.95,450.28,2.22,57.47,0
2020-03-31T13:22:00-05:00,67.32,16.06,731.92,408.82,1.45,14.29,0
2020-03-31T13:23:00-05:00,68,16.1,732.28,370.15,1.41,349.79,0
2020-03-31T13:24:00-05:00,67.29,16.13,733.15,349.27,0.73,47.43,0
2020-03-31T13:25:00-05:00,67.5,16.18,733.09,354.13,1.69,19.57,0
2020-03-31T13:26:00-05:00,66.64,16.2,732.62,379.41,3.47,52.36,0
2020-03-31T13:27:00-05:00,66.49,16.18,733.29,420.43,3.23,49.74,0
2020-03-31T13:28:00-05:00,66.6,16.14,733.39,478.07,1.24,356.45,0
2020-03-31T13:29:00-05:00,66.62,16.1,733.96,704.34,2.55,53.4,0
2020-03-31T13:30:00-05:00,67.51,16.08,734.06,695.07,2.89,44.58,0
2020-03-31T13:31:00-05:00,67.69,16.18,735.87,467.48,0.8,20.89,0
2020-03-31T13:32:00-05:00,66.35,16.22,735.36,443.37,2.17,114.76,0
2020-03-31T13:33:00-05:00,65.9,16.2,735.56,376.03,1.28,5.56,0
2020-03-31T13:34:00-05:00,68.42,16.22,735.5,389.71,0.72,280.6,0
2020-03-31T13:35:00-05:00,66.81,16.23,734.63,412.49,3.48,55.24,0
2020-03-31T13:36:00-05:00,66.71,16.12,734.23,422.64,0.71,194.92,0
2020-03-31T13:37:00-05:00,67.09,16.08,734.66,345.01,3.07,9.61,0
2020-03-31T13:38:00-05:00,68.22,16.05,733.66,301.93,3.11,31.75,0
2020-03-31T13:39:00-05:00,68.55,16.04,733.49,281.94,2.26,68.96,0
2020-03-31T13:40:00-05:00,68.85,16.08,732.92,286.05,1.91,65.82,0
2020-03-31T13:41:00-05:00,67.8,16.05,733.29,284.14,0.7,25.99,0
2020-03-31T13:42:00-05:00,68.01,16,733.59,297.52,2.66,20.89,0
2020-03-31T13:43:00-05:00,68.25,15.93,733.39,331.63,1.14,276.7,0
2020-03-31T13:44:00-05:00,69.25,15.9,733.09,326.34,2.37,63.41,0
2020-03-31T13:45:00-05:00,70.04,15.88,731.98,336.04,2.99,32.41,0
2020-03-31T13:46:00-05:00,70.11,15.9,731.95,321.05,2.2,42.7,0
2020-03-31T13:47:00-05:00,69.79,15.92,732.89,298.55,1.89,34.39,0
2020-03-31T13:48:00-05:00,69.03,15.88,732.48,266.35,2.71,16.3,0
2020-03-31T13:49:00-05:00,68.45,15.82,731.31,227.39,2.46,34.21,0
2020-03-31T13:50:00-05:00,69.5,15.79,731.35,211.66,5.09,64.88,0
2020-03-31T13:51:00-05:00,69.41,15.74,730.18,219.31,2.19,14.29,0
2020-03-31T13:52:00-05:00,69.7,15.76,730.11,228.57,1.33,45.62,0
2020-03-31T13:53:00-05:00,69.71,15.74,734.13,220.48,1.18,14.15,0
2020-03-31T13:54:00-05:00,69.9,15.69,735.13,203.43,3.61,54.41,0
2020-03-31T13:55:00-05:00,70.06,15.63,734.93,201.07,3.28,51.77,0
2020-03-31T13:56:00-05:00,70.21,15.58,734.83,214.6,4.3,56.74,0
2020-03-31T13:57:00-05:00,70.7,15.49,734.19,229.45,0.55,249.83,0
2020-03-31T13:58:00-05:00,70.39,15.45,735.43,265.76,2.3,60.77,0
2020-03-31T13:59:00-05:00,70.85,15.43,735.03,341.92,2.48,14.05,0
2020-03-31T14:00:00-05:00,71.51,15.47,734.23,231.51,3.01,48.09,0
2020-03-31T14:01:00-05:00,71.53,15.52,735.5,217.54,2.49,37.06,0
2020-03-31T14:02:00-05:00,70.87,15.57,735.36,216.66,1.93,16.4,0
2020-03-31T14:03:00-05:00,70.97,15.55,734.19,209.6,2.71,46.15,0
2020-03-31T14:04:00-05:00,71.27,15.61,733.92,223.57,3.47,37.68,0
2020-03-31T14:05:00-05:00,70.03,15.55,733.62,254.59,2.4,45.61,0
2020-03-31T14:06:00-05:00,70.36,15.53,734.23,265.91,1.6,33.3,0
2020-03-31T14:07:00-05:00,69.98,15.57,733.96,257.09,4.04,22.69,0
2020-03-31T14:08:00-05:00,70.13,15.61,734.16,241.06,2.07,7.05,0
2020-03-31T14:09:00-05:00,70.24,15.61,733.59,206.51,2.72,25.85,0
2020-03-31T14:10:00-05:00,69.71,15.61,734.56,180.49,5.95,8.36,0
2020-03-31T14:11:00-05:00,70.2,15.55,733.32,173.14,1.04,342.53,0
2020-03-31T14:12:00-05:00,70.67,15.57,733.22,173.58,1.33,348.46,0
2020-03-31T14:13:00-05:00,70.48,15.59,734.13,179.02,1.8,48.64,0
2020-03-31T14:14:00-05:00,70.19,15.54,732.72,184.75,2.25,21.11,0
2020-03-31T14:15:00-05:00,70.66,15.5,732.05,204.75,2.37,344.5,0
2020-03-31T14:16:00-05:00,70.54,15.51,732.35,233.27,2.13,8.04,0
2020-03-31T14:17:00-05:00,71.33,15.52,733.15,240.62,2.22,62.92,0
2020-03-31T14:18:00-05:00,71.01,15.53,732.59,252.68,2.51,33.45,0
2020-03-31T14:19:00-05:00,70.89,15.57,732.95,263.27,2.26,7.69,0
2020-03-31T14:20:00-05:00,70.94,15.59,733.25,276.35,1.17,351.85,0
2020-03-31T14:21:00-05:00,70.45,15.56,733.49,289.88,0.96,344.5,0
2020-03-31T14:22:00-05:00,70.49,15.61,734.43,288.55,2.55,9.54,0
2020-03-31T14:23:00-05:00,70.78,15.65,733.92,282.97,1.18,350.51,0
2020-03-31T14:24:00-05:00,71.26,15.73,734.13,290.46,2.38,35.48,0
2020-03-31T14:25:00-05:00,69.76,15.81,735.63,296.2,3.03,27.12,0
2020-03-31T14:26:00-05:00,70.35,15.77,734.43,272.82,2.53,31.08,0
2020-03-31T14:27:00-05:00,69.69,15.77,735.36,277.09,1.46,28.63,0
2020-03-31T14:28:00-05:00,69.32,15.82,735.06,249.3,2.78,30.24,0
2020-03-31T14:29:00-05:00,69.21,15.82,735.46,237.54,0.89,58.3,0
2020-03-31T14:30:00-05:00,70,15.83,735.87,224.16,1.51,40.81,0
2020-03-31T14:31:00-05:00,69.6,15.88,736.23,226.66,1.09,333.61,0
2020-03-31T14:32:00-05:00,69.9,15.96,735.53,237.83,0.74,271.68,0
2020-03-31T14:33:00-05:00,69.6,16.02,735.33,244.3,0.87,0.85,0
2020-03-31T14:34:00-05:00,68.89,16.03,736.03,271.94,0.13,310.61,0
2020-03-31T14:35:00-05:00,68.38,16.1,733.62,301.05,0.26,316.61,0
2020-03-31T14:36:00-05:00,69.43,16.2,733.76,304.28,0.21,261.73,0
2020-03-31T14:37:00-05:00,68.62,16.28,734.73,302.37,1.37,42.18,0
2020-03-31T14:38:00-05:00,68.34,16.36,734.53,289.29,0.55,49.36,0
2020-03-31T14:39:00-05:00,67.75,16.43,734.26,293.85,2.29,29.28,0
2020-03-31T14:40:00-05:00,67.46,16.47,733.49,307.37,0.66,40.69,0
2020-03-31T14:41:00-05:00,68.43,16.52,733.72,260.62,0.91,211.31,0
2020-03-31T14:42:00-05:00,68.22,16.55,734.73,224.16,0.89,215.93,0
2020-03-31T14:43:00-05:00,68.41,16.6,734.13,196.52,1.11,333.95,0
2020-03-31T14:44:00-05:00,68.19,16.66,733.92,183.58,0.58,180.11,0
2020-03-31T14:45:00-05:00,68.76,16.7,734.23,180.05,1.89,89.81,0
2020-03-31T14:46:00-05:00,66.97,16.67,734.79,179.31,1.72,336.54,0
2020-03-31T14:47:00-05:00,66.18,16.71,734.56,181.52,0.71,345.49,0
2020-03-31T14:48:00-05:00,66.58,16.67,734.49,187.55,2.37,350.55,0
2020-03-31T14:49:00-05:00,67.07,16.66,734.46,195.63,2.52,34.71,0
2020-03-31T14:50:00-05:00,66.81,16.66,733.52,212.84,1.28,43.01,0
2020-03-31T14:51:00-05:00,66.99,16.68,734.83,231.8,1.38,26,0
2020-03-31T14:52:00-05:00,66.88,16.75,733.66,247.09,1.81,1.34,0
2020-03-31T14:53:00-05:00,66.57,16.7,733.49,270.03,2.39,43.3,0
2020-03-31T14:54:00-05:00,66.33,16.64,734.36,267.38,0.74,20.97,0
2020-03-31T14:55:00-05:00,66.48,16.62,734.93,281.94,1.06,11.81,0
2020-03-31T14:56:00-05:00,66.23,16.64,734.19,270.91,2.41,41.49,0
2020-03-31T14:57:00-05:00,66.96,16.56,734.56,255.33,2.32,14.99,0
2020-03-31T14:58:00-05:00,66.94,16.62,735.06,241.21,2.6,40.17,0
2020-03-31T14:59:00-05:00,66.68,16.61,734.79,213.13,0.68,41.13,0
2020-03-31T15:00:00-05:00,65.85,16.64,734.69,212.54,0.9,54.09,0
2020-03-31T15:01:00-05:00,65.97,16.57,733.92,226.95,3.03,31.49,0
2020-03-31T15:02:00-05:00,67.14,16.47,734.46,235.62,0.76,17.56,0
2020-03-31T15:03:00-05:00,67.83,16.42,733.36,264.88,2.59,348.42,0
2020-03-31T15:04:00-05:00,68.22,16.37,734.13,308.55,3.09,49.12,0
2020-03-31T15:05:00-05:00,68.67,16.27,734.13,564.22,2.32,34.03,0
2020-03-31T15:06:00-05:00,69.01,16.23,735.26,612,2.91,64.11,0
2020-03-31T15:07:00-05:00,69.07,16.27,734.16,609.51,2.2,58.52,0
2020-03-31T15:08:00-05:00,68.17,16.28,734.96,552.02,2.68,11.38,0
2020-03-31T15:09:00-05:00,68.51,16.28,734.53,536.88,0.36,19.44,0
2020-03-31T15:10:00-05:00,68.73,16.38,734.46,424.26,2.76,35.91,0
2020-03-31T15:11:00-05:00,68.65,16.36,733.66,551.43,1.02,45.79,0
2020-03-31T15:12:00-05:00,67.9,16.38,734.06,500.41,2.65,5.57,0
2020-03-31T15:13:00-05:00,68.13,16.4,733.82,492.62,2.28,28.84,0
2020-03-31T15:14:00-05:00,67.74,16.41,735.13,460.13,3.88,56.87,0
2020-03-31T15:15:00-05:00,67.64,16.37,734.26,444.25,1.9,22.48,0
2020-03-31T15:16:00-05:00,67.92,16.42,734.36,440.87,2.07,54.92,0
2020-03-31T15:17:00-05:00,67.75,16.46,733.52,424.4,3.08,49.93,0
2020-03-31T15:18:00-05:00,67.55,16.37,734.26,390.73,1.23,41.67,0
2020-03-31T15:19:00-05:00,67.2,16.37,733.52,391.91,2.21,43.15,0
2020-03-31T15:20:00-05:00,67.26,16.33,733.46,363.39,0.25,252.77,0
2020-03-31T15:21:00-05:00,67.89,16.34,733.92,352.51,1.47,66.75,0
2020-03-31T15:22:00-05:00,67.42,16.32,733.49,303.26,2.08,311.62,0
2020-03-31T15:23:00-05:00,68.39,16.33,733.59,338.54,0.66,153.13,0
2020-03-31T15:24:00-05:00,67.86,16.39,733.49,385.29,2.36,65.71,0
2020-03-31T15:25:00-05:00,68.06,16.36,732.62,455.28,2.42,51.16,0
2020-03-31T15:26:00-05:00,67.43,16.28,733.79,526.29,3.34,59.4,0
2020-03-31T15:27:00-05:00,68.48,16.27,734.73,649.5,1.15,19.86,0
2020-03-31T15:28:00-05:00,67.85,16.38,733.82,673.76,1.73,329.55,0
2020-03-31T15:29:00-05:00,66.93,16.44,732.99,595.39,1.82,39.99,0
2020-03-31T15:30:00-05:00,67.08,16.48,733.36,716.54,1.36,20.74,0
2020-03-31T15:31:00-05:00,66.34,16.56,734.63,708.6,0.81,275.74,0
2020-03-31T15:32:00-05:00,66.98,16.74,733.36,428.08,0.75,221.27,0
2020-03-31T15:33:00-05:00,67.95,16.92,733.46,378.97,0.68,279.65,0
2020-03-31T15:34:00-05:00,65.72,17.07,734.39,610.09,0.58,308.03,0
2020-03-31T15:35:00-05:00,65.87,17.2,734.26,612.15,0.68,291.7,0
2020-03-31T15:36:00-05:00,64.47,17.35,733.56,362.21,1.21,47.22,0
2020-03-31T15:37:00-05:00,64.36,17.37,733.59,610.98,1.15,7.76,0
2020-03-31T15:38:00-05:00,66.06,17.47,733.12,393.09,2.6,40.4,0
2020-03-31T15:39:00-05:00,65.02,17.51,732.99,372.21,1,84.24,0
2020-03-31T15:40:00-05:00,64.37,17.42,733.12,326.49,2.39,54.72,0
2020-03-31T15:41:00-05:00,64.84,17.3,733.32,207.69,2.43,38.27,0
2020-03-31T15:42:00-05:00,64.89,17.19,730.68,224.16,0.93,74.3,0
2020-03-31T15:43:00-05:00,64.99,17.1,730.14,242.98,0.35,43.13,0
2020-03-31T15:44:00-05:00,65.65,17.11,730.95,628.77,2.43,51.59,0
2020-03-31T15:45:00-05:00,66.35,17.08,733.89,587.01,0.9,28.84,0
2020-03-31T15:46:00-05:00,67.05,17.2,736.43,590.39,1.41,67.83,0
2020-03-31T15:47:00-05:00,66.32,17.32,733.82,284.44,0.99,89.06,0
2020-03-31T15:48:00-05:00,66.43,17.44,733.86,215.92,1.35,337.49,0
2020-03-31T15:49:00-05:00,64.34,17.5,734.02,325.75,0.74,37.07,0
2020-03-31T15:50:00-05:00,64.09,17.5,733.19,223.13,2.07,344.49,0
2020-03-31T15:51:00-05:00,66.05,17.47,733.76,205.49,0.65,275.09,0
2020-03-31T15:52:00-05:00,65.44,17.5,733.92,206.96,0.77,203.93,0
2020-03-31T15:53:00-05:00,65.18,17.42,732.99,218.72,0.51,147.55,0
2020-03-31T15:54:00-05:00,65.43,17.37,733.12,237.68,1.73,292.68,0
2020-03-31T15:55:00-05:00,65.29,17.34,733.15,582.6,0.19,234.21,0
2020-03-31T15:56:00-05:00,65.42,17.42,733.36,633.03,0.58,307.66,0
2020-03-31T15:57:00-05:00,64.72,17.57,733.46,637.88,1.04,32.21,0
2020-03-31T15:58:00-05:00,64.41,17.59,733.59,699.19,0.52,353.48,0
2020-03-31T15:59:00-05:00,64.66,17.73,733.39,715.51,1.56,7.63,0
2020-03-31T16:00:00-05:00,63.49,17.89,733.29,413.82,0.65,332.78,0
2020-03-31T16:01:00-05:00,62.1,17.89,733.89,717.27,2.01,5.02,0
2020-03-31T16:02:00-05:00,62.96,17.89,734.39,589.22,0.61,10.07,0
2020-03-31T16:03:00-05:00,65.22,18.07,733.56,358.98,0.43,188.05,0
2020-03-31T16:04:00-05:00,62.28,18.19,733.25,647,0.19,112.21,0
2020-03-31T16:05:00-05:00,64.06,18.41,733.36,626.71,0.77,13.73,0
2020-03-31T16:06:00-05:00,60.81,18.5,734.02,479.39,1.93,22.81,0
2020-03-31T16:07:00-05:00,61.4,18.44,732.62,177.7,0.82,5.57,0
2020-03-31T16:08:00-05:00,61.75,18.45,733.82,155.94,1.46,213.21,0
2020-03-31T16:09:00-05:00,62.04,18.37,733.79,148.88,0.41,203.94,0
2020-03-31T16:10:00-05:00,61.07,18.25,733.69,141.82,2.56,102.81,0
2020-03-31T16:11:00-05:00,60.39,18.09,732.42,140.35,1.59,96.95,0
2020-03-31T16:12:00-05:00,61.35,17.91,733.05,141.82,2.89,60.8,0
2020-03-31T16:13:00-05:00,62.05,17.75,733.59,136.24,1.05,51.49,0
2020-03-31T16:14:00-05:00,62.9,17.63,733.46,134.03,1.88,16.59,0
2020-03-31T16:15:00-05:00,63,17.49,732.59,134.77,2.06,352.51,0
2020-03-31T16:16:00-05:00,63.34,17.39,732.52,139.62,0.81,38.55,0
2020-03-31T16:17:00-05:00,64.35,17.32,730.24,145.35,1.96,31.48,0
2020-03-31T16:18:00-05:00,64.52,17.25,728.97,149.76,2.28,27.33,0
2020-03-31T16:19:00-05:00,64.06,17.08,733.46,146.97,0.96,45.81,0
2020-03-31T16:20:00-05:00,64.54,16.99,732.52,149.32,2.72,35.74,0
2020-03-31T16:21:00-05:00,64.65,16.88,732.72,143.88,2.28,30.59,0
2020-03-31T16:22:00-05:00,64.98,16.8,733.46,140.94,3.01,12.63,0
2020-03-31T16:23:00-05:00,65.43,16.72,732.32,141.24,0.56,29.84,0
2020-03-31T16:24:00-05:00,65.67,16.67,732.55,150.2,0.84,54.13,0
2020-03-31T16:25:00-05:00,66.27,16.66,732.15,146.23,2.32,36.23,0
2020-03-31T16:26:00-05:00,66.19,16.64,730.91,148.73,2.64,43.48,0
2020-03-31T16:27:00-05:00,66.78,16.59,729.27,139.91,2.56,59.99,0
2020-03-31T16:28:00-05:00,66.47,16.54,729.91,135.8,3.54,60.77,0
2020-03-31T16:29:00-05:00,66.71,16.5,732.92,127.86,0.65,108.5,0
2020-03-31T16:30:00-05:00,65.85,16.49,732.79,129.47,0.14,192.96,0
2020-03-31T16:31:00-05:00,66.03,16.45,732.92,120.06,0.68,334.93,0
2020-03-31T16:32:00-05:00,66.53,16.44,733.12,115.36,2.27,289.61,0
2020-03-31T16:33:00-05:00,66.93,16.39,733.15,113.6,0.61,214.33,0
2020-03-31T16:34:00-05:00,66.87,16.37,733.76,114.48,1.25,124.21,0
2020-03-31T16:35:00-05:00,66.93,16.38,733.52,123.15,0.79,143.45,0
2020-03-31T16:36:00-05:00,67.06,16.37,733.46,136.82,2.13,63.38,0
2020-03-31T16:37:00-05:00,67.45,16.36,732.82,135.65,0.89,47.35,0
2020-03-31T16:38:00-05:00,67.17,16.37,733.36,133.74,0.88,60.62,0
2020-03-31T16:39:00-05:00,66.4,16.33,732.79,129.91,0.96,24.38,0
2020-03-31T16:40:00-05:00,67.19,16.32,732.02,128.15,0.44,45.36,0
2020-03-31T16:41:00-05:00,67.1,16.32,732.99,124.77,0.71,79.06,0
2020-03-31T16:42:00-05:00,67.82,16.36,731.01,122.27,2.37,130.77,0
2020-03-31T16:43:00-05:00,67.24,16.34,732.59,116.98,1.98,62.43,0
2020-03-31T16:44:00-05:00,67.09,16.34,731.51,116.39,1.03,255.73,0
2020-03-31T16:45:00-05:00,67.08,16.34,731.41,113.45,0.82,95.44,0
2020-03-31T16:46:00-05:00,67.78,16.34,731.65,104.63,2.85,81.78,0
2020-03-31T16:47:00-05:00,67.2,16.34,731.45,98.6,0.62,33.16,0
2020-03-31T16:48:00-05:00,67.56,16.32,731.18,89.92,0.83,21.29,0
2020-03-31T16:49:00-05:00,67.77,16.29,730.54,86.98,0.61,313.55,0
2020-03-31T16:50:00-05:00,67.54,16.28,731.38,89.63,2.34,39.14,0
2020-03-31T16:51:00-05:00,67.5,16.26,730.84,86.4,1.24,35.06,0
2020-03-31T16:52:00-05:00,67.51,16.18,729.44,88.16,1.44,63.82,0
2020-03-31T16:53:00-05:00,67.78,16.14,729.51,82.72,2.93,30.45,0
2020-03-31T16:54:00-05:00,68.35,16.12,728.94,82.87,2.12,44.21,0
2020-03-31T16:55:00-05:00,67.35,16.09,734.39,83.9,1.48,28.77,0
2020-03-31T16:56:00-05:00,67.86,16.03,733.12,88.31,0.64,49.47,0
2020-03-31T16:57:00-05:00,67.8,16,733.49,83.46,1.66,37.86,0
2020-03-31T16:58:00-05:00,67.61,15.96,734.26,85.22,1.48,333.59,0
2020-03-31T16:59:00-05:00,68.3,15.95,733.12,88.6,0.79,63.65,0
2020-03-31T17:00:00-05:00,68.99,15.94,734.29,86.25,1.03,40.12,0
2020-03-31T17:01:00-05:00,69.12,15.91,734.09,70.08,0.29,39.2,0
2020-03-31T17:02:00-05:00,69.1,15.89,733.36,50.82,1.42,337.5,0
2020-03-31T17:03:00-05:00,68.76,15.83,732.75,41.41,2.49,22.9,0
2020-03-31T17:04:00-05:00,69.08,15.78,732.62,37.44,2.84,39.3,0
2020-03-31T17:05:00-05:00,69.76,15.75,731.82,41.11,0.77,31.22,0
2020-03-31T17:06:00-05:00,69.81,15.73,732.65,49.49,0.94,19.94,0
2020-03-31T17:07:00-05:00,69.43,15.7,732.35,60.08,0.79,23.76,0
2020-03-31T17:08:00-05:00,69.41,15.65,732.52,65.08,1.92,38.21,0
2020-03-31T17:09:00-05:00,69.52,15.61,732.12,63.02,0.78,31.19,0
2020-03-31T17:10:00-05:00,70.41,15.59,731.05,61.25,0.85,42.05,0
2020-03-31T17:11:00-05:00,70.06,15.58,730.74,65.37,2.61,33.69,0
2020-03-31T17:12:00-05:00,69.7,15.53,731.85,66.84,2.59,34.98,0
2020-03-31T17:13:00-05:00,70.31,15.52,731.55,61.4,1.87,29.11,0
2020-03-31T17:14:00-05:00,70.97,15.49,730.61,56.55,1.68,38.61,0
2020-03-31T17:15:00-05:00,71.01,15.47,731.01,50.82,1.18,36.33,0
2020-03-31T17:16:00-05:00,70.67,15.44,729.57,46.55,0.76,26.1,0
2020-03-31T17:17:00-05:00,71.02,15.45,730.21,40.67,1.25,31.03,0
2020-03-31T17:18:00-05:00,71.48,15.43,730.58,36.7,0.42,270.68,0
2020-03-31T17:19:00-05:00,71.44,15.41,729.2,35.67,1.09,51.95,0
2020-03-31T17:20:00-05:00,71.49,15.42,729.3,28.47,0.27,17.37,0
2020-03-31T17:21:00-05:00,71.86,15.41,729.84,26.7,0.86,50.09,0
2020-03-31T17:22:00-05:00,71.17,15.41,728.87,27,1.54,53.33,0
2020-03-31T17:23:00-05:00,70.74,15.41,733.19,22.29,0.81,74.32,0
2020-03-31T17:24:00-05:00,71.1,15.41,734.73,18.77,0.9,4.94,0
2020-03-31T17:25:00-05:00,70.93,15.43,734.29,17.44,0.89,38.21,0
2020-03-31T17:26:00-05:00,70.82,15.38,734.23,19.35,1.69,37.26,0
2020-03-31T17:27:00-05:00,71.04,15.36,733.76,16.56,1.93,61.94,0
2020-03-31T17:28:00-05:00,71.01,15.34,734.56,15.24,0.27,120.09,0
2020-03-31T17:29:00-05:00,71.53,15.33,733.76,15.38,0.81,42.49,0
2020-03-31T17:30:00-05:00,71.47,15.29,733.36,16.56,2.19,28.16,0
2020-03-31T17:31:00-05:00,71.84,15.27,734.23,18.03,2.26,32.71,0
2020-03-31T17:32:00-05:00,72.17,15.24,734.19,16.85,1.59,45.39,0
2020-03-31T17:33:00-05:00,72.05,15.17,734.23,15.68,2.26,44.99,0
2020-03-31T17:34:00-05:00,72.48,15.13,733.12,14.65,2.91,37.43,0
2020-03-31T17:35:00-05:00,72.89,15.11,734.09,15.82,1.56,33.41,0
2020-03-31T17:36:00-05:00,72.88,15.09,733.96,14.94,2.46,10.44,0
2020-03-31T17:37:00-05:00,72.98,15.05,733.05,13.03,1.02,35.48,0
2020-03-31T17:38:00-05:00,73.26,15.03,733.79,12.74,0.86,12.66,0
2020-03-31T17:39:00-05:00,73.18,15,732.59,11.71,2.11,33.56,0
2020-03-31T17:40:00-05:00,73.3,14.99,732.55,11.56,1.54,356.45,0
2020-03-31T17:41:00-05:00,73.22,14.97,732.89,11.86,0.68,293.67,0
2020-03-31T17:42:00-05:00,73.34,14.96,732.38,9.36,1.58,59.37,0
2020-03-31T17:43:00-05:00,73.89,14.95,733.59,8.18,0.76,64.8,0
2020-03-31T17:44:00-05:00,74.33,14.93,732.45,7.3,2.19,48.89,0
2020-03-31T17:45:00-05:00,73.93,14.92,733.59,6.56,1,33.84,0
2020-03-31T17:46:00-05:00,74.37,14.91,733.56,8.47,0.61,51.86,0
2020-03-31T17:47:00-05:00,74.73,14.91,733.46,4.5,0.83,47.46,0
2020-03-31T17:48:00-05:00,74.22,14.89,733.19,5.39,1.38,36.11,0
2020-03-31T17:49:00-05:00,73.99,14.87,731.55,4.94,0.84,356.81,0
2020-03-31T17:50:00-05:00,74.25,14.85,733.09,2.89,0.4,357.78,0
2020-03-31T17:51:00-05:00,74.35,14.85,733.25,3.77,0.7,355.83,0
2020-03-31T17:52:00-05:00,73.81,14.86,732.92,2.45,0.34,339.5,0
2020-03-31T17:53:00-05:00,73.67,14.83,732.18,1.42,0.67,24.77,0
2020-03-31T17:54:00-05:00,73.81,14.81,732.05,3.03,0.63,54.64,0
2020-03-31T17:55:00-05:00,74.61,14.81,731.92,1.56,0.67,67.68,0
2020-03-31T17:56:00-05:00,74.59,14.79,731.72,0.83,1.09,61.75,0
2020-03-31T17:57:00-05:00,75.29,14.77,732.32,0.53,0.93,57.68,0
2020-03-31T17:58:00-05:00,75.44,14.72,731.72,1.27,0.93,50.26,0
2020-03-31T17:59:00-05:00,75.98,14.69,731.31,0.09,0.56,101.21,0
2020-03-31T18:00:00-05:00,75.89,14.65,732.25,-0.35,0.72,58.3,0
2020-03-31T18:01:00-05:00,76.28,14.64,731.85,0.24,0.83,51.31,0
2020-03-31T18:02:00-05:00,76.41,14.63,730.95,-0.94,0.95,74.59,0
2020-03-31T18:03:00-05:00,76.77,14.59,731.68,-2.11,0.67,35.46,0
2020-03-31T18:04:00-05:00,77.21,14.56,731.55,-1.82,0.76,40.51,0
2020-03-31T18:05:00-05:00,77.21,14.54,731.35,-1.67,1.24,68.61,0
2020-03-31T18:06:00-05:00,76.57,14.48,731.25,-2.11,1.7,44.33,0
2020-03-31T18:07:00-05:00,76.98,14.46,730.34,-2.11,1,45.81,0
2020-03-31T18:08:00-05:00,76.49,14.43,730.41,-2.55,1.29,56.04,0
2020-03-31T18:09:00-05:00,75.51,14.44,730.04,-2.85,2.26,63.17,0
2020-03-31T18:10:00-05:00,75.99,14.45,730.58,-0.64,1.5,37.56,0
2020-03-31T18:11:00-05:00,75.84,14.43,730.74,-0.64,0.91,45.45,0
2020-03-31T18:12:00-05:00,75.68,14.41,729.47,-1.08,2.1,47.58,0
2020-03-31T18:13:00-05:00,76.05,14.39,729.64,-3.14,2.36,53.23,0
2020-03-31T18:14:00-05:00,75.84,14.37,730.38,-1.23,2.44,47.76,0
2020-03-31T18:15:00-05:00,76.55,14.34,735.36,-3.88,2.89,59.25,0
2020-03-31T18:16:00-05:00,76.38,14.32,734.06,-2.55,2.67,74.21,0
2020-03-31T18:17:00-05:00,76.9,14.32,736.03,-1.67,1.29,45.49,0
2020-03-31T18:18:00-05:00,76.75,14.27,734.93,-2.41,2.46,75.46,0
2020-03-31T18:19:00-05:00,76.71,14.26,734.9,-2.26,2.56,74.38,0
2020-03-31T18:20:00-05:00,77.11,14.26,735.56,-4.46,0.68,64.02,0
2020-03-31T18:21:00-05:00,77.21,14.26,735.5,-3.73,1.04,44.21,0
2020-03-31T18:22:00-05:00,77.31,14.23,735.23,-2.7,1.98,71.63,0
2020-03-31T18:23:00-05:00,77.26,14.21,734.46,-2.55,1.33,66.05,0
2020-03-31T18:24:00-05:00,77.71,14.18,735.06,-2.55,1.38,19.76,0
2020-03-31T18:25:00-05:00,77.75,14.14,735.33,-4.32,1.93,39.34,0
2020-03-31T18:26:00-05:00,77.2,14.14,734.46,-3.29,0.94,47.59,0
2020-03-31T18:27:00-05:00,77.13,14.14,733.72,-3.29,2.36,42.06,0
2020-03-31T18:28:00-05:00,76.77,14.17,735.43,-3.44,2.45,71.51,0
2020-03-31T18:29:00-05:00,77.32,14.14,734.73,-3.58,2.49,52.53,0
2020-03-31T18:30:00-05:00,76.99,14.15,733.66,-1.97,1.95,60.14,0
2020-03-31T18:31:00-05:00,77.65,14.16,735.2,-3.58,0.58,111.23,0
2020-03-31T18:32:00-05:00,77.9,14.1,734.73,-3.58,0.81,69.11,0
2020-03-31T18:33:00-05:00,78.12,14.06,734.69,-1.82,0.67,61.75,0
2020-03-31T18:34:00-05:00,78.44,14.03,733.69,-3.29,1.98,44.44,0
2020-03-31T18:35:00-05:00,78.51,14.02,733.66,-2.41,1.05,65.48,0
2020-03-31T18:36:00-05:00,79.32,14.01,733.52,-2.55,0.87,47.67,0
2020-03-31T18:37:00-05:00,79.04,13.96,733.76,-2.55,0.64,78.24,0
2020-03-31T18:38:00-05:00,78.02,13.96,734.79,-2.11,0.24,161.08,0
2020-03-31T18:39:00-05:00,77.85,13.96,734.66,-2.99,0.43,103.17,0
2020-03-31T18:40:00-05:00,77.58,13.96,734.86,-1.52,0.58,87.49,0
2020-03-31T18:41:00-05:00,77.9,13.98,735,-2.11,0.56,93.08,0
2020-03-31T18:42:00-05:00,78.11,14,734.02,-1.82,0.61,114.53,0
2020-03-31T18:43:00-05:00,78.2,13.97,734.9,-1.52,0.5,56.74,0
2020-03-31T18:44:00-05:00,78.24,14,735.33,-2.26,0.38,89.67,0
2020-03-31T18:45:00-05:00,78.82,13.99,735.03,-0.94,0.56,154.24,0
2020-03-31T18:46:00-05:00,77.74,13.99,734.96,-2.55,0.61,167.44,0
2020-03-31T18:47:00-05:00,77.8,13.98,734.96,-0.49,0.71,167.13,0
2020-03-31T18:48:00-05:00,76.88,13.95,733.99,-0.64,0.26,264,0
2020-03-31T18:49:00-05:00,78.02,13.96,734.63,-1.38,0.63,177.09,0
2020-03-31T18:50:00-05:00,77.82,13.95,734.49,-2.85,0.73,172.18,0
2020-03-31T18:51:00-05:00,78.19,13.92,733.46,-3.58,0.65,164.17,0
2020-03-31T18:52:00-05:00,77.96,13.9,734.53,-4.02,0.64,142.91,0
2020-03-31T18:53:00-05:00,77.78,13.88,733.15,-1.52,0.79,144.16,0
2020-03-31T18:54:00-05:00,77.31,13.87,733.56,-3.29,0.54,144.16,0
2020-03-31T18:55:00-05:00,78.12,13.88,733.46,-3.73,0.55,68.07,0
2020-03-31T18:56:00-05:00,78.27,13.88,732.89,-4.61,0.57,121.25,0
2020-03-31T18:57:00-05:00,77.27,13.85,733.42,-2.26,0.68,52.27,0
2020-03-31T18:58:00-05:00,76.41,13.86,732.75,-2.11,0.58,129.67,0
2020-03-31T18:59:00-05:00,76.47,13.91,733.02,-4.46,0.12,119.19,0
2020-03-31T19:00:00-05:00,76.09,13.9,732.45,-2.26,0.49,145.28,0
2020-03-31T19:01:00-05:00,76.67,13.9,733.52,-2.26,0.35,114.52,0
2020-03-31T19:02:00-05:00,76.76,13.9,732.65,-3.88,0.57,196.99,0
2020-03-31T19:03:00-05:00,77.18,13.88,733.62,-1.82,0.62,148.6,0
2020-03-31T19:04:00-05:00,76.73,13.84,733.36,-4.02,0.6,184.01,0
2020-03-31T19:05:00-05:00,76.55,13.83,732.45,-4.17,0.6,147.57,0
2020-03-31T19:06:00-05:00,77.11,13.82,732.75,-4.17,0.37,130.27,0
2020-03-31T19:07:00-05:00,77.67,13.8,732.69,-2.7,0.71,129.61,0
2020-03-31T19:08:00-05:00,77.88,13.78,733.29,-3.29,0.59,117.15,0
2020-03-31T19:09:00-05:00,77.35,13.76,733.25,-3.58,0.67,77.2,0
2020-03-31T19:10:00-05:00,77.27,13.74,732.42,-0.05,0.63,68.54,0
2020-03-31T19:11:00-05:00,77.79,13.75,732.99,0.24,0.58,98.43,0
2020-03-31T19:12:00-05:00,78.58,13.72,733.29,-0.49,0.19,135.19,0
2020-03-31T19:13:00-05:00,78.5,13.68,733.52,-0.35,0.56,141.23,0
2020-03-31T19:14:00-05:00,78.36,13.68,732.92,-1.82,0.63,135.19,0
2020-03-31T19:15:00-05:00,78.82,13.66,732.48,-2.7,0.56,147.24,0
2020-03-31T19:16:00-05:00,78.2,13.65,733.22,-1.52,0.5,153.1,0
2020-03-31T19:17:00-05:00,77.94,13.64,733.69,-0.64,0.57,147.23,0
2020-03-31T19:18:00-05:00,78.03,13.64,732.65,-0.94,0.6,142.12,0
2020-03-31T19:19:00-05:00,78.34,13.64,733.56,-2.11,0.55,109.16,0
2020-03-31T19:20:00-05:00,78.68,13.66,733.62,-0.79,0.52,125.54,0
2020-03-31T19:21:00-05:00,78.44,13.62,733.59,-1.82,0.61,116.89,0
2020-03-31T19:22:00-05:00,78.47,13.64,732.59,-1.23,0.56,131.6,0
2020-03-31T19:23:00-05:00,78.56,13.64,733.52,-1.67,0.53,130.26,0
2020-03-31T19:24:00-05:00,78.73,13.64,732.72,-0.94,0.6,91.11,0
2020-03-31T19:25:00-05:00,78.05,13.64,732.38,-1.52,0.56,103.27,0
2020-03-31T19:26:00-05:00,78.32,13.63,732.72,-0.94,0.34,98.18,0
2020-03-31T19:27:00-05:00,78.26,13.64,732.75,-0.94,0.57,119.35,0
2020-03-31T19:28:00-05:00,78.7,13.64,732.72,-2.41,0.4,84.18,0
2020-03-31T19:29:00-05:00,78.87,13.64,731.78,-2.41,0.57,92.06,0
2020-03-31T19:30:00-05:00,78.58,13.62,732.82,-1.38,0.47,66.93,0
2020-03-31T19:31:00-05:00,78.58,13.61,731.28,-1.08,0.53,96.62,0
2020-03-31T19:32:00-05:00,78.62,13.59,731.82,-3.14,0.69,119.34,0
2020-03-31T19:33:00-05:00,78.44,13.59,732.75,-1.67,0.77,104.74,0
2020-03-31T19:34:00-05:00,77.81,13.58,731.65,-2.41,0.63,75.61,0
2020-03-31T19:35:00-05:00,77.67,13.6,732.75,-2.85,0.71,72.39,0
2020-03-31T19:36:00-05:00,78.34,13.62,732.55,-1.52,0.72,45.79,0
2020-03-31T19:37:00-05:00,79.41,13.6,732.59,-1.08,0.63,57.8,0
2020-03-31T19:38:00-05:00,78.61,13.6,732.28,-0.94,0.69,122.33,0
2020-03-31T19:39:00-05:00,78.36,13.6,731.65,-0.64,0.59,106.55,0
2020-03-31T19:40:00-05:00,78.82,13.57,731.45,-3.14,0.51,107.57,0
2020-03-31T19:41:00-05:00,78.44,13.56,730.95,-1.67,0.59,76.71,0
2020-03-31T19:42:00-05:00,78.01,13.56,731.51,-1.52,0.66,49.21,0
2020-03-31T19:43:00-05:00,80.03,13.56,731.11,-3.14,1.18,34.67,0
2020-03-31T19:44:00-05:00,79.75,13.52,731.51,-3.73,1.23,39.28,0
2020-03-31T19:45:00-05:00,78.34,13.55,731.98,-2.85,1.55,63.1,0
2020-03-31T19:46:00-05:00,78.34,13.58,731.15,-3.58,2.35,63.22,0
2020-03-31T19:47:00-05:00,77.61,13.63,731.75,-0.35,2.8,70.55,0
2020-03-31T19:48:00-05:00,77.72,13.64,732.35,-0.2,0.56,191.01,0
2020-03-31T19:49:00-05:00,78.11,13.66,732.25,-2.85,0.9,50.63,0
2020-03-31T19:50:00-05:00,77.77,13.67,732.65,-1.97,1.25,64.97,0
2020-03-31T19:51:00-05:00,77.68,13.66,732.45,-2.85,0.57,134.23,0
2020-03-31T19:52:00-05:00,77.9,13.66,732.92,-1.82,0.99,75.43,0
2020-03-31T19:53:00-05:00,77.57,13.63,731.85,-0.35,1.33,57.5,0
2020-03-31T19:54:00-05:00,77.82,13.62,732.69,-0.94,1.91,92.14,0
2020-03-31T19:55:00-05:00,77.52,13.63,732.79,-0.79,2,88.9,0
2020-03-31T19:56:00-05:00,77.65,13.63,733.22,-1.08,2.45,85.73,0
2020-03-31T19:57:00-05:00,77.25,13.61,733.49,-0.79,0.99,50.27,0
2020-03-31T19:58:00-05:00,77.05,13.63,732.45,-2.11,1.22,101.08,0
2020-03-31T19:59:00-05:00,77.36,13.66,733.39,0.24,0.6,55.02,0
2020-03-31T20:00:00-05:00,77.48,13.66,732.92,-0.49,0.54,119.62,0
2020-03-31T20:01:00-05:00,78.24,13.65,733.66,-2.26,1.99,79.85,0
2020-03-31T20:02:00-05:00,77.85,13.63,733.69,-1.23,1.05,67.84,0
2020-03-31T20:03:00-05:00,78.04,13.62,732.82,-1.67,1.89,48.49,0
2020-03-31T20:04:00-05:00,76.95,13.64,733.36,0.39,0.92,58.05,0
2020-03-31T20:05:00-05:00,77.72,13.7,732.38,-1.52,0.36,349.73,0
2020-03-31T20:06:00-05:00,77.35,13.72,732.99,-1.82,1.16,48.98,0
2020-03-31T20:07:00-05:00,77.07,13.72,733.49,-2.11,0.87,64.63,0
2020-03-31T20:08:00-05:00,76.94,13.72,733.12,-1.82,2.12,62.97,0
2020-03-31T20:09:00-05:00,77.19,13.7,733.29,-1.08,0.96,87.84,0
2020-03-31T20:10:00-05:00,78.03,13.66,733.92,-0.79,0.58,70.34,0
2020-03-31T20:11:00-05:00,78.04,13.66,734.06,-1.67,1.09,19.21,0
2020-03-31T20:12:00-05:00,78.6,13.65,733.19,0.09,1.4,27.41,0
2020-03-31T20:13:00-05:00,77.35,13.66,734.29,-0.2,1.42,41.7,0
2020-03-31T20:14:00-05:00,77.8,13.68,733.22,-1.23,0.94,35.6,0
2020-03-31T20:15:00-05:00,78.02,13.68,733.36,-2.11,1.09,12.14,0
2020-03-31T20:16:00-05:00,77.9,13.67,734.53,-1.67,0.56,84.92,0
2020-03-31T20:17:00-05:00,78.04,13.69,733.99,-0.49,0.6,58.06,0
2020-03-31T20:18:00-05:00,78.43,13.68,733.25,-1.52,0.22,185.97,0
2020-03-31T20:19:00-05:00,78.54,13.68,734.02,-0.94,0.31,263.04,0
2020-03-31T20:20:00-05:00,78.44,13.67,732.99,-2.99,0.14,257.82,0
2020-03-31T20:21:00-05:00,78.11,13.67,733.12,-3.14,0.48,207.35,0
2020-03-31T20:22:00-05:00,78.26,13.62,734.02,-3.58,0.35,173.13,0
2020-03-31T20:23:00-05:00,77.97,13.58,732.52,-3.88,0.52,151.51,0
2020-03-31T20:24:00-05:00,78.29,13.58,733.59,-3.29,0.15,134.73,0
2020-03-31T20:25:00-05:00,78.3,13.56,732.52,-1.97,0.17,89.04,0
2020-03-31T20:26:00-05:00,78.05,13.53,733.09,-3.88,0.2,334.58,0
2020-03-31T20:27:00-05:00,78.38,13.52,733.25,-4.76,0.07,80.12,0
2020-03-31T20:28:00-05:00,78.54,13.51,733.12,-1.97,0.25,139.24,0
2020-03-31T20:29:00-05:00,78.24,13.48,732.08,-2.7,0.3,156.22,0
2020-03-31T20:30:00-05:00,78.04,13.48,732.59,-2.41,0.06,59.55,0
2020-03-31T20:31:00-05:00,77.82,13.46,732.89,-4.61,0.25,315.52,0
2020-03-31T20:32:00-05:00,79,13.46,732.45,-1.97,0.53,134.24,0
2020-03-31T20:33:00-05:00,78.47,13.44,732.55,-2.11,0.48,144.21,0
2020-03-31T20:34:00-05:00,77.94,13.42,731.68,-4.02,0.63,86.95,0
2020-03-31T20:35:00-05:00,77.98,13.4,732.15,-4.61,0.58,86.33,0
2020-03-31T20:36:00-05:00,77.66,13.4,731.78,-2.99,0.66,73.36,0
2020-03-31T20:37:00-05:00,77.44,13.41,732.85,-3.58,0.74,110.7,0
2020-03-31T20:38:00-05:00,78.14,13.39,731.72,-3.58,0.59,105.18,0
2020-03-31T20:39:00-05:00,77.89,13.37,736.4,-3.88,0.53,100.44,0
2020-03-31T20:40:00-05:00,77.8,13.34,736.37,-2.55,0.22,78.75,0
2020-03-31T20:41:00-05:00,78.44,13.33,736.13,-3.14,0.35,122.06,0
2020-03-31T20:42:00-05:00,78.71,13.29,736.54,-3.58,0.6,121.87,0
2020-03-31T20:43:00-05:00,78.71,13.26,736.5,-3.58,0.72,112.08,0
2020-03-31T20:44:00-05:00,79.04,13.2,735.6,-5.35,0.59,145.3,0
2020-03-31T20:45:00-05:00,79.46,13.18,735.46,-4.17,0.57,140.51,0
2020-03-31T20:46:00-05:00,79,13.12,735.46,-5.93,0.66,134.21,0
2020-03-31T20:47:00-05:00,78.63,13.12,735.9,-5.05,0.78,100.74,0
2020-03-31T20:48:00-05:00,78.42,13.11,736.37,-5.93,0.76,42.11,0
2020-03-31T20:49:00-05:00,78.71,13.11,736.47,-5.64,0.71,50.55,0
2020-03-31T20:50:00-05:00,79.99,13.08,735.3,-5.93,1.13,35.16,0
2020-03-31T20:51:00-05:00,79.36,13,736.2,-4.61,1.02,58.24,0
2020-03-31T20:52:00-05:00,79.11,13,736.03,-5.2,1.35,48.72,0
2020-03-31T20:53:00-05:00,78.66,13.09,736.57,-4.17,1.21,50.51,0
2020-03-31T20:54:00-05:00,78.83,13.08,735.5,-5.2,2.22,48.95,0
2020-03-31T20:55:00-05:00,79.22,13,735.7,-3.88,2.82,75.21,0
2020-03-31T20:56:00-05:00,79.69,12.93,735.87,-4.76,0.69,90.46,0
2020-03-31T20:57:00-05:00,79.75,12.89,734.76,-5.49,1.37,48.77,0
2020-03-31T20:58:00-05:00,79.77,12.86,735.63,-4.02,1.38,76.06,0
2020-03-31T20:59:00-05:00,79.76,12.83,735.63,-4.76,0.99,63.04,0
2020-03-31T21:00:00-05:00,80.54,12.75,734.76,-3.73,0.3,90.59,0
2020-03-31T21:01:00-05:00,80.78,12.69,735.43,-4.61,1.33,92.7,0
2020-03-31T21:02:00-05:00,80.72,12.6,734.73,-5.05,0.99,79.48,0
2020-03-31T21:03:00-05:00,80.92,12.55,735.13,-4.61,0.89,48.82,0
2020-03-31T21:04:00-05:00,81.34,12.52,734.93,-5.05,0.61,55.42,0
2020-03-31T21:05:00-05:00,81.58,12.47,733.79,-4.91,0.62,65.72,0
2020-03-31T21:06:00-05:00,81.64,12.45,735.23,-5.93,0.71,57.74,0
2020-03-31T21:07:00-05:00,82.31,12.43,733.42,-5.2,0.67,43.39,0
2020-03-31T21:08:00-05:00,82.33,12.37,734.23,-4.76,0.56,58.95,0
2020-03-31T21:09:00-05:00,82.1,12.33,733.62,-4.91,0.93,116.52,0
2020-03-31T21:10:00-05:00,81.77,12.35,733.89,-5.35,0.63,95.16,0
2020-03-31T21:11:00-05:00,81.46,12.37,734.02,-4.91,0.17,79.16,0
2020-03-31T21:12:00-05:00,81.52,12.37,733.59,-5.2,0.99,106.28,0
2020-03-31T21:13:00-05:00,81.16,12.37,733.15,-5.79,0.68,131.43,0
2020-03-31T21:14:00-05:00,80.95,12.37,733.92,-5.2,0.46,87.68,0
2020-03-31T21:15:00-05:00,81.06,12.38,732.59,-5.35,0.61,88.68,0
2020-03-31T21:16:00-05:00,80.56,12.45,734.29,-2.99,0.63,120.28,0
2020-03-31T21:17:00-05:00,80.59,12.48,733.96,-3.29,0.57,105.63,0
2020-03-31T21:18:00-05:00,80.82,12.48,734.39,-5.49,0.72,55.39,0
2020-03-31T21:19:00-05:00,81.12,12.44,732.59,-2.85,0.56,55.59,0
2020-03-31T21:20:00-05:00,81.34,12.42,733.96,-4.32,0.65,143.5,0
2020-03-31T21:21:00-05:00,80.8,12.45,733.89,-4.46,0.6,48.25,0
2020-03-31T21:22:00-05:00,80.64,12.49,732.89,-2.85,0.73,40.24,0
2020-03-31T21:23:00-05:00,80.47,12.52,733.76,-4.02,0.83,51.51,0
2020-03-31T21:24:00-05:00,79.68,12.64,733.56,-3.44,3.07,48.06,0
2020-03-31T21:25:00-05:00,79.67,12.77,734.16,-1.97,0.58,203.94,0
2020-03-31T21:26:00-05:00,78.43,12.83,735,-4.02,0.59,188.1,0
2020-03-31T21:27:00-05:00,78,12.89,733.99,-4.32,0.83,69.31,0
2020-03-31T21:28:00-05:00,77.81,12.93,734.9,-3.58,0.77,191.02,0
2020-03-31T21:29:00-05:00,77.59,12.96,733.92,-3.29,0.61,207.98,0
2020-03-31T21:30:00-05:00,78.36,12.92,734.83,-3.88,0.78,201.99,0
2020-03-31T21:31:00-05:00,78.82,12.81,735.06,-4.46,0.74,243.84,0
2020-03-31T21:32:00-05:00,78.58,12.8,735.06,-2.11,0.57,259.78,0
2020-03-31T21:33:00-05:00,78.74,12.8,735.3,-4.32,0.92,181.42,0
2020-03-31T21:34:00-05:00,78.82,12.79,735.06,-2.99,0.92,292.68,0
2020-03-31T21:35:00-05:00,79.12,12.79,735.16,-2.7,0.69,179.43,0
2020-03-31T21:36:00-05:00,78.72,12.78,734.93,-2.26,0.62,271.68,0
2020-03-31T21:37:00-05:00,79.02,12.79,734.29,-2.99,1.15,227.2,0
2020-03-31T21:38:00-05:00,79.15,12.77,734.46,-0.05,1.26,220.85,0
2020-03-31T21:39:00-05:00,78.28,12.84,734.9,-2.11,0.68,214.33,0
2020-03-31T21:40:00-05:00,78.35,12.91,736.27,-1.38,0.57,128.28,0
2020-03-31T21:41:00-05:00,78.9,12.92,735.13,-1.67,0.82,81.85,0
2020-03-31T21:42:00-05:00,79.4,12.88,735.46,-0.64,0.82,104.36,0
2020-03-31T21:43:00-05:00,78.8,12.87,736.2,-1.23,0.57,19.22,0
2020-03-31T21:44:00-05:00,79.62,12.87,735.9,-0.2,0.79,80.69,0
2020-03-31T21:45:00-05:00,80.06,12.85,736.3,-1.97,0.75,46.81,0
2020-03-31T21:46:00-05:00,80.54,12.81,736.03,-0.05,0.7,63.47,0
2020-03-31T21:47:00-05:00,80.51,12.78,734.93,-1.08,0.59,83.65,0
2020-03-31T21:48:00-05:00,80.76,12.76,736.13,-2.26,0.74,45.42,0
2020-03-31T21:49:00-05:00,80.04,12.76,735.93,-0.79,1.51,41.31,0
2020-03-31T21:50:00-05:00,79.15,12.78,736.37,0.24,0.65,47.93,0
2020-03-31T21:51:00-05:00,78.98,12.85,735.06,-1.67,0.68,24.71,0
2020-03-31T21:52:00-05:00,78.8,12.89,736.6,-0.64,0.6,63.59,0
2020-03-31T21:53:00-05:00,79.23,12.92,736.7,-2.11,0.85,51.56,0
2020-03-31T21:54:00-05:00,77.85,12.98,735.73,-0.49,0.7,59.76,0
2020-03-31T21:55:00-05:00,77.99,13.06,735.6,-1.38,1.47,76.7,0
2020-03-31T21:56:00-05:00,77.98,13.08,736.74,-1.08,1.16,41.66,0
2020-03-31T21:57:00-05:00,77.75,13.12,736.1,-0.79,2.58,55.59,0
2020-03-31T21:58:00-05:00,76.68,13.22,737.14,-1.08,1.52,48.07,0
2020-03-31T21:59:00-05:00,76,13.31,737.24,-0.64,1.15,30.95,0
2020-03-31T22:00:00-05:00,76.1,13.35,737.81,0.39,0.7,70.14,0
2020-03-31T22:01:00-05:00,76.52,13.35,736.64,-2.11,1.2,93.84,0
2020-03-31T22:02:00-05:00,76.16,13.36,738.04,-2.55,1.73,63.86,0
2020-03-31T22:03:00-05:00,76.71,13.3,736.64,-2.55,1.17,29.42,0
2020-03-31T22:04:00-05:00,77.31,13.28,737.94,-3.14,2.07,50.26,0
2020-03-31T22:05:00-05:00,77.17,13.27,737.71,-0.94,0.85,59.42,0
2020-03-31T22:06:00-05:00,78.33,13.22,737.54,-3.14,0.99,69.03,0
2020-03-31T22:07:00-05:00,78.02,13.18,737.64,-3.14,0.74,103.28,0
2020-03-31T22:08:00-05:00,77.82,13.15,737.37,-1.97,0.56,59.7,0
2020-03-31T22:09:00-05:00,77.75,13.15,736.7,-3.58,0.67,156.22,0
2020-03-31T22:10:00-05:00,76,13.2,736.9,-2.85,1.07,147.24,0
2020-03-31T22:11:00-05:00,75.69,13.29,737.37,-2.41,0.51,170.38,0
2020-03-31T22:12:00-05:00,75.07,13.33,736.64,-2.85,0.47,258.79,0
2020-03-31T22:13:00-05:00,75.24,13.36,736.9,-1.97,0.62,121.45,0
2020-03-31T22:14:00-05:00,74.87,13.39,737,-0.49,0.77,322.53,0
2020-03-31T22:15:00-05:00,74.35,13.41,737.14,-2.99,0.72,156.54,0
2020-03-31T22:16:00-05:00,74.45,13.44,737.74,-0.35,0.8,285.67,0
2020-03-31T22:17:00-05:00,74.44,13.46,737.17,-1.52,0.96,66.81,0
2020-03-31T22:18:00-05:00,74.51,13.51,737.24,-2.11,0.62,39.04,0
2020-03-31T22:19:00-05:00,75.14,13.55,738.48,-2.85,0.98,42.66,0
2020-03-31T22:20:00-05:00,75.76,13.52,738.68,-2.7,0.67,52.54,0
2020-03-31T22:21:00-05:00,75.87,13.48,737.31,-2.41,0.62,79.26,0
2020-03-31T22:22:00-05:00,75.67,13.44,737.67,-1.08,0.84,36.79,0
2020-03-31T22:23:00-05:00,75.4,13.44,738.34,-3.58,1.1,44.04,0
2020-03-31T22:24:00-05:00,75,13.46,736.7,-1.97,0.76,43.16,0
2020-03-31T22:25:00-05:00,76.06,13.45,737.47,-0.94,0.57,93.77,0
2020-03-31T22:26:00-05:00,76.51,13.42,737.44,-2.26,0.66,61.36,0
2020-03-31T22:27:00-05:00,76.95,13.37,737.34,-3.44,0.84,25.43,0
2020-03-31T22:28:00-05:00,76.28,13.32,736.57,-3.58,1.56,57.85,0
2020-03-31T22:29:00-05:00,76.67,13.32,736.8,-2.41,1.27,41.01,0
2020-03-31T22:30:00-05:00,76.55,13.27,736.17,-0.94,2.48,55.8,0
2020-03-31T22:31:00-05:00,77.14,13.26,736.6,-1.52,0.98,54.77,0
2020-03-31T22:32:00-05:00,77.26,13.22,737.87,-3.29,1.51,38.46,0
2020-03-31T22:33:00-05:00,77.03,13.2,736.8,-3.29,3.34,60.28,0
2020-03-31T22:34:00-05:00,76.8,13.19,736.94,-3.44,3.06,69.1,0
2020-03-31T22:35:00-05:00,77.18,13.17,736.77,-2.85,2.3,71.89,0
2020-03-31T22:36:00-05:00,76.91,13.14,736.23,-2.11,2.31,55.59,0
2020-03-31T22:37:00-05:00,76.93,13.14,736.47,-4.32,2.52,41.56,0
2020-03-31T22:38:00-05:00,77.21,13.11,737.41,-3.14,2.31,57.92,0
2020-03-31T22:39:00-05:00,77.67,13.06,737.1,-5.35,1.34,74.72,0
2020-03-31T22:40:00-05:00,77.5,13.04,737.37,-3.29,3.56,54.16,0
2020-03-31T22:41:00-05:00,77.03,13.08,736.74,-4.91,1.83,69.22,0
2020-03-31T22:42:00-05:00,77.11,13.11,736.13,-2.55,2.41,63.51,0
2020-03-31T22:43:00-05:00,77.33,13.08,736.23,-3.58,1.49,79.18,0
2020-03-31T22:44:00-05:00,77.15,13.1,737.61,-4.02,0.73,59.65,0
2020-03-31T22:45:00-05:00,77.37,13.1,735.87,-5.35,1,74.66,0
2020-03-31T22:46:00-05:00,77.39,13.05,736.13,-2.99,1.94,73.96,0
2020-03-31T22:47:00-05:00,76.39,13.06,736.9,-5.05,0.63,40.7,0
2020-03-31T22:48:00-05:00,76.73,13.1,737.07,-4.91,1.04,70.34,0
2020-03-31T22:49:00-05:00,76.64,13.11,736.8,-0.2,0.72,147.54,0
2020-03-31T22:50:00-05:00,76.31,13.09,736.67,-5.05,0.68,42.84,0
2020-03-31T22:51:00-05:00,76.69,13.11,736.9,-5.64,0.39,26.94,0
2020-03-31T22:52:00-05:00,76.87,13.08,735.13,-4.46,0.58,107.2,0
2020-03-31T22:53:00-05:00,76.46,13.06,736.47,-5.05,2.14,228.19,0
2020-03-31T22:54:00-05:00,76.75,13.06,735.56,-5.35,0.32,161.12,0
2020-03-31T22:55:00-05:00,76.81,13,736.47,-3.29,0.76,160.47,0
2020-03-31T22:56:00-05:00,76.85,12.96,736.54,-5.35,0.84,225.87,0
2020-03-31T22:57:00-05:00,77.52,12.87,735.3,-3.58,0.86,183.04,0
2020-03-31T22:58:00-05:00,77.64,12.86,735.73,-3.44,2.41,192,0
2020-03-31T22:59:00-05:00,77.42,12.93,736.54,-2.11,2.42,241.84,0
2020-03-31T23:00:00-05:00,77.14,12.97,736.17,-0.2,0.61,254.73,0
2020-03-31T23:01:00-05:00,77.19,13.01,737.17,-0.2,0.26,273.77,0
2020-03-31T23:02:00-05:00,77.82,13,736.27,-0.94,0.63,125.45,0
2020-03-31T23:03:00-05:00,77.57,12.97,737.27,-2.7,0.93,33.51,0
2020-03-31T23:04:00-05:00,78.15,12.95,737.47,-1.52,1.2,37.12,0
2020-03-31T23:05:00-05:00,78.32,12.9,737.2,-2.55,0.57,41.65,0
2020-03-31T23:06:00-05:00,78.52,12.83,736.97,-2.41,0.37,99.43,0
2020-03-31T23:07:00-05:00,79.51,12.78,735.77,-1.82,0.37,78.84,0
2020-03-31T23:08:00-05:00,79.79,12.72,735.7,-0.64,0.68,90,0
2020-03-31T23:09:00-05:00,79.66,12.69,736.27,-2.85,1,65.24,0
2020-03-31T23:10:00-05:00,79.34,12.65,736.37,-1.97,0.31,79.08,0
2020-03-31T23:11:00-05:00,79.97,12.67,736.77,-1.23,0.19,83.35,0
2020-03-31T23:12:00-05:00,79.45,12.66,735.9,-0.94,0.62,105.87,0
2020-03-31T23:13:00-05:00,79.45,12.66,735.46,-1.97,0.57,150.16,0
2020-03-31T23:14:00-05:00,79.41,12.66,737.27,0.83,0.47,154.6,0
2020-03-31T23:15:00-05:00,79.32,12.66,736.2,-2.11,0.57,28.65,0
2020-03-31T23:16:00-05:00,80.16,12.68,735.83,-2.26,0.76,26.51,0
2020-03-31T23:17:00-05:00,81.09,12.66,736.6,-1.97,0.19,43.73,0
2020-03-31T23:18:00-05:00,79.89,12.63,735.83,-1.08,0.63,163.22,0
2020-03-31T23:19:00-05:00,79.25,12.64,737.07,-2.26,0.22,130.3,0
2020-03-31T23:20:00-05:00,79.64,12.65,736.9,-0.49,0.3,180.12,0
2020-03-31T23:21:00-05:00,79.26,12.64,735.8,-0.35,0.29,96.84,0
2020-03-31T23:22:00-05:00,79.87,12.64,736.8,-2.99,0.56,110.3,0
2020-03-31T23:23:00-05:00,79.65,12.6,736.84,-0.49,0.62,98.21,0
2020-03-31T23:24:00-05:00,79.19,12.61,736.47,-2.85,0.33,45.29,0
2020-03-31T23:25:00-05:00,79.47,12.62,736.8,-1.08,0.77,319.05,0
2020-03-31T23:26:00-05:00,79.76,12.67,735.9,-2.26,0.67,191.02,0
2020-03-31T23:27:00-05:00,80.22,12.63,736.57,-2.26,0.25,227.21,0
2020-03-31T23:28:00-05:00,80.52,12.57,736.4,-1.23,1.29,224.92,0
2020-03-31T23:29:00-05:00,80.12,12.58,735.9,-2.55,0.68,175.42,0
2020-03-31T23:30:00-05:00,80.48,12.63,736.84,-3.58,0.66,102.36,0
2020-03-31T23:31:00-05:00,80.23,12.63,736.47,-2.55,0.74,174.43,0
2020-03-31T23:32:00-05:00,80.29,12.59,735.93,-1.82,0.68,155.24,0
2020-03-31T23:33:00-05:00,80.09,12.6,735.6,-4.17,0.64,61.55,0
2020-03-31T23:34:00-05:00,80.5,12.59,736.43,-2.99,0.23,139.26,0
2020-03-31T23:35:00-05:00,81.03,12.57,735.13,-2.7,0.27,107.69,0
2020-03-31T23:36:00-05:00,80.64,12.53,736.4,-4.61,0.74,69.92,0
2020-03-31T23:37:00-05:00,81.65,12.51,735.3,-5.05,0.6,104.55,0
2020-03-31T23:38:00-05:00,81.46,12.46,736.3,-5.05,0.18,98.79,0
2020-03-31T23:39:00-05:00,81.68,12.43,735.56,-5.2,0.26,71.72,0
2020-03-31T23:40:00-05:00,82.13,12.37,734.46,-3.14,0.47,90.17,0
2020-03-31T23:41:00-05:00,81.87,12.35,734.43,-2.85,0.53,109.82,0
2020-03-31T23:42:00-05:00,81.99,12.31,735.16,-2.55,0.31,125.57,0
2020-03-31T23:43:00-05:00,81.96,12.27,734.83,-3.14,0.35,136.2,0
2020-03-31T23:44:00-05:00,82.27,12.24,733.86,-3.73,0.33,67.26,0
2020-03-31T23:45:00-05:00,83.08,12.22,734.93,-3.44,0.75,45.86,0
2020-03-31T23:46:00-05:00,82.73,12.19,734.59,-2.99,0.66,79.3,0
2020-03-31T23:47:00-05:00,82.16,12.2,733.76,-0.94,0.9,65.46,0
2020-03-31T23:48:00-05:00,82.53,12.21,734.23,-2.7,0.71,60.78,0
2020-03-31T23:49:00-05:00,82.78,12.21,733.82,-0.79,1.07,78.4,0
2020-03-31T23:50:00-05:00,82.61,12.21,733.96,-2.26,1.3,64.41,0
2020-03-31T23:51:00-05:00,82.7,12.21,734.73,-0.2,1.37,67.25,0
2020-03-31T23:52:00-05:00,82.8,12.19,734.02,-0.94,1.38,93.66,0
2020-03-31T23:53:00-05:00,82.95,12.22,735.46,-1.52,0.68,44.8,0
2020-03-31T23:54:00-05:00,82.64,12.25,734.56,1.27,1.43,55.89,0
2020-03-31T23:55:00-05:00,82.76,12.27,734.59,-1.38,0.68,72.14,0
2020-03-31T23:56:00-05:00,82.82,12.3,735.63,-0.94,1.81,63.88,0
2020-03-31T23:57:00-05:00,82.53,12.3,736,0.98,0.65,90.01,0
2020-03-31T23:58:00-05:00,82.49,12.33,735,0.68,0.44,55.85,0
2020-03-31T23:59:00-05:00,82.57,12.34,734.86,1.27,0.57,38.57,0
