time,[HUME],[TEMP],[PRES],[RADI],[RAPV],[DIRV],[PREC]
2020-03-11T00:00:00-05:00,92.15,11.81,733.86,-1.82,0.63,160.14,0
2020-03-11T00:01:00-05:00,92.24,11.81,735.13,-2.7,0.55,152.17,0
2020-03-11T00:02:00-05:00,92.36,11.8,735.9,-2.85,0.58,141.54,0
2020-03-11T00:03:00-05:00,92.46,11.79,735.8,-2.7,0.49,85.04,0
2020-03-11T00:04:00-05:00,92.54,11.77,734.46,-2.26,0.56,86.85,0
2020-03-11T00:05:00-05:00,92.57,11.77,735.2,-2.7,0.53,97.05,0
2020-03-11T00:06:00-05:00,92.44,11.75,735.6,-2.11,0.42,131.63,0
2020-03-11T00:07:00-05:00,92.46,11.75,734.39,-0.79,0.36,146.47,0
2020-03-11T00:08:00-05:00,92.51,11.77,734.73,-2.26,0.59,167.47,0
2020-03-11T00:09:00-05:00,92.3,11.77,735.73,-2.11,0.53,177.09,0
2020-03-11T00:10:00-05:00,92.3,11.76,735.06,-1.82,0.6,173.46,0
2020-03-11T00:11:00-05:00,92.18,11.77,734.86,-0.05,0.57,157.17,0
2020-03-11T00:12:00-05:00,91.96,11.76,735.77,-1.38,0.55,140.6,0
2020-03-11T00:13:00-05:00,92.14,11.75,735.53,-0.64,0.22,140.28,0
2020-03-11T00:14:00-05:00,92.07,11.77,734.66,0.83,0.52,94.91,0
2020-03-11T00:15:00-05:00,92.06,11.77,735.4,-0.64,0.54,49.27,0
2020-03-11T00:16:00-05:00,92.21,11.77,733.79,-0.94,0.54,53.16,0
2020-03-11T00:17:00-05:00,92.66,11.78,733.79,1.12,0.59,45.3,0
2020-03-11T00:18:00-05:00,92.6,11.76,733.56,0.68,0.62,57.31,0
2020-03-11T00:19:00-05:00,92.69,11.75,733.79,1.71,0.63,41.35,0
2020-03-11T00:20:00-05:00,92.66,11.75,734.59,0.39,0.61,40.15,0
2020-03-11T00:21:00-05:00,92.6,11.73,733.99,0.24,0.63,46.83,0
2020-03-11T00:22:00-05:00,92.22,11.72,736.03,1.71,0.16,344.55,0
2020-03-11T00:23:00-05:00,92.55,11.73,733.66,-0.2,0.52,54.66,0
2020-03-11T00:24:00-05:00,92.52,11.74,734.49,-0.79,0.48,71.88,0
2020-03-11T00:25:00-05:00,92.5,11.75,735.87,1.27,0.23,72.16,0
2020-03-11T00:26:00-05:00,92.52,11.76,735.16,1.71,0.24,99.78,0
2020-03-11T00:27:00-05:00,92.48,11.75,734.26,-0.2,0.26,75.78,0
2020-03-11T00:28:00-05:00,92.69,11.77,735.67,-0.79,0.06,328.54,0
2020-03-11T00:29:00-05:00,92.64,11.76,733.66,0.98,0.26,121.8,0
2020-03-11T00:30:00-05:00,92.34,11.75,735.83,-0.79,0.41,105.95,0
2020-03-11T00:31:00-05:00,92.27,11.76,734.29,-0.79,0.15,138.63,0
2020-03-11T00:32:00-05:00,92.24,11.75,735.23,1.12,0.27,121.12,0
2020-03-11T00:33:00-05:00,92.04,11.75,734.59,-0.35,0.83,81.93,0
2020-03-11T00:34:00-05:00,92.12,11.75,735.3,0.09,0.46,9.17,0
2020-03-11T00:35:00-05:00,92.22,11.8,735.83,0.39,0.22,77.71,0
2020-03-11T00:36:00-05:00,91.82,11.78,736.03,2.15,0.41,65.88,0
2020-03-11T00:37:00-05:00,91.29,11.77,736.17,1.12,0.25,60.73,0
2020-03-11T00:38:00-05:00,90.95,11.79,734.02,0.24,0.32,46.28,0
2020-03-11T00:39:00-05:00,90.47,11.79,735.1,0.98,0.24,99.92,0
2020-03-11T00:40:00-05:00,90.27,11.83,734.69,2,0.21,78.94,0
2020-03-11T00:41:00-05:00,90.25,11.86,734.39,1.56,0.16,120.62,0
2020-03-11T00:42:00-05:00,90.68,11.87,735.53,0.39,0.39,127.65,0
2020-03-11T00:43:00-05:00,90.86,11.89,735.67,-1.08,0.25,138.97,0
2020-03-11T00:44:00-05:00,90.72,11.89,734.39,1.42,0.34,169.48,0
2020-03-11T00:45:00-05:00,90.11,11.87,735.63,1.71,0.57,163.19,0
2020-03-11T00:46:00-05:00,90.17,11.87,735.5,-0.35,0.63,164.57,0
2020-03-11T00:47:00-05:00,90.44,11.89,735.23,-0.49,0.64,181.1,0
2020-03-11T00:48:00-05:00,90.79,11.9,735.8,-0.64,0.53,177.46,0
2020-03-11T00:49:00-05:00,90.97,11.91,733.42,-0.64,0.44,190,0
2020-03-11T00:50:00-05:00,91.05,11.93,734.26,-1.08,0.5,182.47,0
2020-03-11T00:51:00-05:00,90.79,11.89,735.4,-0.49,0.2,207.01,0
2020-03-11T00:52:00-05:00,90.54,11.89,734.13,0.98,0.24,198.32,0
2020-03-11T00:53:00-05:00,90.75,11.91,734.93,-1.08,0.22,147.23,0
2020-03-11T00:54:00-05:00,90.83,11.91,733.89,1.56,0.23,130.67,0
2020-03-11T00:55:00-05:00,91.09,11.92,734.9,0.98,0.22,115.78,0
2020-03-11T00:56:00-05:00,91.35,11.93,734.96,-0.35,0.12,110.52,0
2020-03-11T00:57:00-05:00,91.52,11.94,734.23,-0.35,0.16,160.17,0
2020-03-11T00:58:00-05:00,91.45,11.93,735.5,1.86,0.26,119.11,0
2020-03-11T00:59:00-05:00,91.49,11.94,733.66,-0.2,0.12,59.47,0
2020-03-11T01:00:00-05:00,91.64,11.95,733.46,1.56,0.2,135.26,0
2020-03-11T01:01:00-05:00,91.43,11.95,735.36,0.24,0.28,107.04,0
2020-03-11T01:02:00-05:00,91.46,11.96,735.23,-0.49,0.23,71.24,0
2020-03-11T01:03:00-05:00,91.44,11.97,734.56,-0.05,0.28,54.7,0
2020-03-11T01:04:00-05:00,91.7,11.97,734.66,-0.94,0.23,81.73,0
2020-03-11T01:05:00-05:00,91.66,11.99,735.43,-1.08,0.29,71.45,0
2020-03-11T01:06:00-05:00,91.34,11.98,735.1,0.98,0.23,96.4,0
2020-03-11T01:07:00-05:00,91.25,11.98,735.5,-0.35,0.2,65.71,0
2020-03-11T01:08:00-05:00,91.33,11.99,734.26,0.83,0.15,87.62,0
2020-03-11T01:09:00-05:00,91.5,12.01,733.82,1.12,0.21,36.8,0
2020-03-11T01:10:00-05:00,91.43,12,735.6,0.98,0.28,74.18,0
2020-03-11T01:11:00-05:00,91.37,12.01,734.73,1.27,0.32,94.15,0
2020-03-11T01:12:00-05:00,91.18,12.01,735.26,2,0.26,95.94,0
2020-03-11T01:13:00-05:00,90.97,12.03,734.39,0.53,0.47,91.93,0
2020-03-11T01:14:00-05:00,90.79,12.03,735.23,-0.35,0.46,83.52,0
2020-03-11T01:15:00-05:00,90.85,12.05,733.49,-0.49,0.5,100.46,0
2020-03-11T01:16:00-05:00,91.04,12.05,733.92,1.27,0.26,64.14,0
2020-03-11T01:17:00-05:00,91.48,12.08,734.39,0.09,0.45,58.87,0
2020-03-11T01:18:00-05:00,91.72,12.09,735.5,0.68,0.58,34.92,0
2020-03-11T01:19:00-05:00,91.85,12.09,733.89,0.83,0.56,71.96,0
2020-03-11T01:20:00-05:00,92.24,12.09,733.72,-0.35,0.65,55.9,0
2020-03-11T01:21:00-05:00,92.15,12.09,734.49,-0.2,0.63,72.55,0
2020-03-11T01:22:00-05:00,92.18,12.07,735.03,0.68,0.57,62.45,0
2020-03-11T01:23:00-05:00,91.98,12.06,735.46,2,0.46,75.61,0
2020-03-11T01:24:00-05:00,91.9,12.07,733.62,0.53,0.56,70.32,0
2020-03-11T01:25:00-05:00,92.24,12.1,733.62,0.09,0.29,68.43,0
2020-03-11T01:26:00-05:00,92.54,12.09,733.72,-0.2,0.27,10.36,0
2020-03-11T01:27:00-05:00,92.62,12.11,733.86,0.83,0.24,44.64,0
2020-03-11T01:28:00-05:00,92.62,12.12,735.67,0.98,0.61,5.09,0
2020-03-11T01:29:00-05:00,92.09,12.09,735.06,-0.64,0.6,25.32,0
2020-03-11T01:30:00-05:00,91.94,12.09,734.83,-0.05,0.62,53.7,0
2020-03-11T01:31:00-05:00,91.85,12.07,735.46,-1.38,0.81,34.58,0
2020-03-11T01:32:00-05:00,91.6,12.03,735,-0.05,0.59,71.34,0
2020-03-11T01:33:00-05:00,91.54,11.97,735.1,0.09,1.16,59.16,0
2020-03-11T01:34:00-05:00,91.77,11.97,733.66,0.98,0.58,17.89,0
2020-03-11T01:35:00-05:00,92.05,11.98,734.36,-0.49,0.55,0.73,0
2020-03-11T01:36:00-05:00,92.17,11.96,735.03,-0.05,0.16,62.92,0
2020-03-11T01:37:00-05:00,92.17,11.95,735.36,1.86,0.66,40.83,0
2020-03-11T01:38:00-05:00,92.44,11.97,734.96,0.39,0.7,56.12,0
2020-03-11T01:39:00-05:00,92.77,11.98,733.66,1.42,0.66,44.4,0
2020-03-11T01:40:00-05:00,92.91,11.98,733.72,2.3,0.93,38.01,0
2020-03-11T01:41:00-05:00,92.96,12,734.26,0.68,0.95,52.29,0
2020-03-11T01:42:00-05:00,92.9,11.98,735.43,1.12,0.57,43.51,0
2020-03-11T01:43:00-05:00,93.15,11.99,735.36,2,0.62,36.18,0
2020-03-11T01:44:00-05:00,93.05,11.99,734.56,1.56,0.59,27.42,0
2020-03-11T01:45:00-05:00,93.11,11.99,734.29,0.53,0.68,41.1,0
2020-03-11T01:46:00-05:00,93.4,11.98,735.8,1.56,0.56,62.2,0
2020-03-11T01:47:00-05:00,93.43,12.01,735,-0.49,0.67,40.6,0
2020-03-11T01:48:00-05:00,93.15,12,733.89,-0.64,0.98,91.17,0
2020-03-11T01:49:00-05:00,93,11.99,734.53,-0.49,0.73,36.39,0
2020-03-11T01:50:00-05:00,93.15,12.01,734.93,-1.08,0.57,50.92,0
2020-03-11T01:51:00-05:00,92.94,11.97,735,1.27,0.64,36.8,0
2020-03-11T01:52:00-05:00,92.72,11.97,733.29,-0.64,0.65,51.73,0
2020-03-11T01:53:00-05:00,92.55,11.95,733.82,-0.64,0.69,23.06,0
2020-03-11T01:54:00-05:00,92.31,11.95,733.99,-0.35,0.66,85.73,0
2020-03-11T01:55:00-05:00,92.24,11.93,734.39,0.83,1.07,59.18,0
2020-03-11T01:56:00-05:00,92.25,11.93,734.36,-0.79,0.98,39.17,0
2020-03-11T01:57:00-05:00,92.18,11.93,734.96,0.83,0.17,48.76,0
2020-03-11T01:58:00-05:00,91.97,11.93,735.03,-0.49,1.24,27.41,0
2020-03-11T01:59:00-05:00,92,11.96,733.72,0.83,1.53,55.36,0
2020-03-11T02:00:00-05:00,91.84,11.98,734.26,1.71,0.78,33.78,0
2020-03-11T02:01:00-05:00,91.66,11.99,733.05,1.27,0.82,56.8,0
2020-03-11T02:02:00-05:00,91.59,12.02,733.69,0.68,0.94,65.81,0
2020-03-11T02:03:00-05:00,91.31,12.05,734.59,-0.64,0.48,18.26,0
2020-03-11T02:04:00-05:00,91.58,12.08,733.32,-0.35,0.58,90.77,0
2020-03-11T02:05:00-05:00,91.62,12.08,734.13,0.98,0.27,72.42,0
2020-03-11T02:06:00-05:00,91.9,12.07,732.82,-1.08,0.43,25.45,0
2020-03-11T02:07:00-05:00,91.98,12.07,733.86,-0.35,0.28,32.21,0
2020-03-11T02:08:00-05:00,92.03,12.06,734.29,-0.05,0.24,100.15,0
2020-03-11T02:09:00-05:00,92.35,12.05,733.76,-0.2,0.08,280.68,0
2020-03-11T02:10:00-05:00,92.2,12.05,734.46,-0.79,0.21,192.01,0
2020-03-11T02:11:00-05:00,92.33,12.05,734.19,-0.49,0.26,186.03,0
2020-03-11T02:12:00-05:00,92.38,12.04,734.83,-1.67,0.17,194.94,0
2020-03-11T02:13:00-05:00,92.34,12.03,734.23,-2.41,0.18,193,0
2020-03-11T02:14:00-05:00,92.32,12.01,734.96,-0.79,0.45,181.09,0
2020-03-11T02:15:00-05:00,92.21,11.97,735,-2.7,0.63,192.96,0
2020-03-11T02:16:00-05:00,92.06,11.92,735,-0.49,0.57,191,0
2020-03-11T02:17:00-05:00,91.96,11.87,733.72,-1.23,0.63,190.3,0
2020-03-11T02:18:00-05:00,92.12,11.87,733.52,0.68,0.55,177.28,0
2020-03-11T02:19:00-05:00,92.28,11.84,735.83,-1.08,0.57,173.42,0
2020-03-11T02:20:00-05:00,92.61,11.84,733.32,0.83,0.34,166.14,0
2020-03-11T02:21:00-05:00,92.96,11.83,733.62,1.42,0.59,165.48,0
2020-03-11T02:22:00-05:00,93.04,11.81,733.46,-0.49,0.58,172.14,0
2020-03-11T02:23:00-05:00,92.94,11.8,734.66,-1.08,0.64,178.4,0
2020-03-11T02:24:00-05:00,93.06,11.8,734.79,1.71,0.57,168.12,0
2020-03-11T02:25:00-05:00,93.31,11.79,734.16,0.83,0.55,183.38,0
2020-03-11T02:26:00-05:00,93.42,11.79,734.49,-0.05,0.57,169.1,0
2020-03-11T02:27:00-05:00,93.49,11.79,734.63,-0.79,0.67,176.33,0
2020-03-11T02:28:00-05:00,93.55,11.78,732.72,-0.79,0.56,165.17,0
2020-03-11T02:29:00-05:00,93.74,11.78,734.29,-0.79,0.63,146.24,0
2020-03-11T02:30:00-05:00,93.89,11.79,734.13,0.83,0.57,147.22,0
2020-03-11T02:31:00-05:00,93.77,11.79,734.02,1.86,0.59,159.18,0
2020-03-11T02:32:00-05:00,93.8,11.8,733.76,-0.64,0.48,144.76,0
2020-03-11T02:33:00-05:00,93.98,11.79,734.02,-0.49,0.41,103.94,0
2020-03-11T02:34:00-05:00,94.08,11.81,732.99,1.12,0.13,178.05,0
2020-03-11T02:35:00-05:00,93.91,11.81,733.96,0.39,0.22,158.18,0
2020-03-11T02:36:00-05:00,94.05,11.81,734.06,1.56,0.09,166.11,0
2020-03-11T02:37:00-05:00,93.75,11.81,734.19,0.98,0.2,279.65,0
2020-03-11T02:38:00-05:00,93.7,11.82,735.3,0.09,0.34,259.1,0
2020-03-11T02:39:00-05:00,93.75,11.82,734.13,0.39,0.27,192.97,0
2020-03-11T02:40:00-05:00,93.96,11.84,733.79,-0.79,0.33,241.19,0
2020-03-11T02:41:00-05:00,93.79,11.85,733.62,0.24,0.21,239.87,0
2020-03-11T02:42:00-05:00,93.91,11.85,735.1,1.71,0.2,198.37,0
2020-03-11T02:43:00-05:00,93.74,11.84,735.16,0.83,0.06,143.21,0
2020-03-11T02:44:00-05:00,93.83,11.86,734.96,-0.79,0.26,162.56,0
2020-03-11T02:45:00-05:00,93.74,11.85,734.83,-0.2,0.23,153.12,0
2020-03-11T02:46:00-05:00,93.61,11.87,734.83,-0.64,0.43,159.43,0
2020-03-11T02:47:00-05:00,93.57,11.87,735.26,-0.35,0.23,141.26,0
2020-03-11T02:48:00-05:00,93.6,11.87,734.9,-3.14,0.23,149.21,0
2020-03-11T02:49:00-05:00,93.39,11.89,734.33,0.53,0.38,158.2,0
2020-03-11T02:50:00-05:00,93.39,11.87,733.66,0.24,0.47,157.22,0
2020-03-11T02:51:00-05:00,93.47,11.89,734.43,-0.49,0.28,163.43,0
2020-03-11T02:52:00-05:00,93.61,11.91,734.79,-0.79,0.2,133.46,0
2020-03-11T02:53:00-05:00,93.56,11.93,734.53,0.09,0.16,120.29,0
2020-03-11T02:54:00-05:00,93.8,11.94,734.13,-0.35,0.2,68.42,0
2020-03-11T02:55:00-05:00,93.78,11.95,733.56,0.53,0.11,78.46,0
2020-03-11T02:56:00-05:00,93.63,11.95,735.13,0.83,0.07,85.96,0
2020-03-11T02:57:00-05:00,93.55,11.95,734.23,1.56,0.21,334.93,0
2020-03-11T02:58:00-05:00,93.55,11.95,734.46,1.12,0.28,316.6,0
2020-03-11T02:59:00-05:00,93.49,11.97,734.56,1.56,0.32,315.87,0
2020-03-11T03:00:00-05:00,93.46,11.97,733.92,-1.08,0.18,308.69,0
2020-03-11T03:01:00-05:00,93.65,11.98,734.19,0.24,0.63,356.77,0
2020-03-11T03:02:00-05:00,93.35,11.97,733.19,-0.05,0.28,351.55,0
2020-03-11T03:03:00-05:00,93.35,11.97,733.32,0.83,0.21,286.97,0
2020-03-11T03:04:00-05:00,93.25,11.93,733.49,1.42,0.23,329.55,0
2020-03-11T03:05:00-05:00,93.3,11.95,734.09,1.42,0.18,316.87,0
2020-03-11T03:06:00-05:00,93.13,11.93,734.33,-1.23,0.14,250.78,0
2020-03-11T03:07:00-05:00,93.24,11.94,735.13,-1.67,0.19,177.09,0
2020-03-11T03:08:00-05:00,93.32,11.95,734.59,-0.05,0.17,183.04,0
2020-03-11T03:09:00-05:00,93.36,11.96,734.09,-0.94,0.23,172.13,0
2020-03-11T03:10:00-05:00,93.34,11.95,735.03,-1.52,0.21,179.13,0
2020-03-11T03:11:00-05:00,93.42,11.95,734.9,1.27,0.42,186.31,0
2020-03-11T03:12:00-05:00,93.32,11.93,734.19,-0.35,0.48,169.09,0
2020-03-11T03:13:00-05:00,93.27,11.92,734.73,1.27,0.52,168.1,0
2020-03-11T03:14:00-05:00,93.59,11.92,735.43,1.56,0.24,137.9,0
2020-03-11T03:15:00-05:00,93.7,11.92,734.33,1.12,0.14,142.23,0
2020-03-11T03:16:00-05:00,93.82,11.93,735.53,1.42,0.19,65.52,0
2020-03-11T03:17:00-05:00,93.88,11.93,733.39,-0.64,0.34,69.58,0
2020-03-11T03:18:00-05:00,93.93,11.95,734.66,-0.2,0.29,81.02,0
2020-03-11T03:19:00-05:00,93.86,11.93,733.76,0.68,0.21,3.7,0
2020-03-11T03:20:00-05:00,93.81,11.95,733.36,1.86,0.24,353.81,0
2020-03-11T03:21:00-05:00,93.81,11.93,733.96,0.83,0.21,42.37,0
2020-03-11T03:22:00-05:00,94.08,11.96,733.05,0.24,0.27,90.49,0
2020-03-11T03:23:00-05:00,94.09,11.96,733.69,0.98,0.16,328.58,0
2020-03-11T03:24:00-05:00,94.11,11.96,733.76,0.24,0.15,312.61,0
2020-03-11T03:25:00-05:00,94.22,11.98,734.33,0.39,0.13,245.08,0
2020-03-11T03:26:00-05:00,94.13,11.97,735.3,-0.35,0.27,50.05,0
2020-03-11T03:27:00-05:00,94.15,11.98,733.79,-0.05,0.11,31.66,0
2020-03-11T03:28:00-05:00,94.13,11.97,734.76,0.53,0.19,20.2,0
2020-03-11T03:29:00-05:00,94.22,11.97,733.89,2,0.22,30.23,0
2020-03-11T03:30:00-05:00,93.99,11.98,735.23,1.42,0.22,8.5,0
2020-03-11T03:31:00-05:00,94.09,11.99,733.79,0.68,0.23,354.5,0
2020-03-11T03:32:00-05:00,94.07,11.96,733.89,0.68,0.07,202.95,0
2020-03-11T03:33:00-05:00,93.87,11.97,733.49,1.71,0.14,78.22,0
2020-03-11T03:34:00-05:00,94.14,11.99,734.09,0.39,0.39,162.21,0
2020-03-11T03:35:00-05:00,94.06,12,733.62,0.09,0.47,185.34,0
2020-03-11T03:36:00-05:00,93.77,11.97,734.79,-0.35,0.51,185.97,0
2020-03-11T03:37:00-05:00,93.97,11.97,734.26,-0.49,0.57,188.38,0
2020-03-11T03:38:00-05:00,93.97,11.96,735.16,0.53,0.58,170.08,0
2020-03-11T03:39:00-05:00,93.93,11.95,734.86,-0.49,0.32,156.55,0
2020-03-11T03:40:00-05:00,94.09,11.93,734.9,-0.2,0.39,157.2,0
2020-03-11T03:41:00-05:00,94.16,11.95,733.69,-0.64,0.24,97.89,0
2020-03-11T03:42:00-05:00,94.43,11.95,734.36,-0.79,0.06,243.83,0
2020-03-11T03:43:00-05:00,94.44,11.95,735,0.83,0.19,92.82,0
2020-03-11T03:44:00-05:00,94.6,11.97,734.19,-1.82,0.23,65.7,0
2020-03-11T03:45:00-05:00,94.53,11.95,733.22,1.42,0.23,35.89,0
2020-03-11T03:46:00-05:00,94.49,11.95,734.69,0.98,0.07,42.5,0
2020-03-11T03:47:00-05:00,94.58,11.97,735,1.42,0.17,79.42,0
2020-03-11T03:48:00-05:00,94.51,11.95,734.76,0.24,0.28,90.72,0
2020-03-11T03:49:00-05:00,94.41,11.94,734.59,1.12,0.41,83.41,0
2020-03-11T03:50:00-05:00,94.36,11.93,734.69,-2.11,0.35,81.9,0
2020-03-11T03:51:00-05:00,94.68,11.97,733.29,-0.2,0.23,45.44,0
2020-03-11T03:52:00-05:00,94.6,11.98,734.06,-1.38,0.31,108.12,0
2020-03-11T03:53:00-05:00,94.85,11.99,733.19,-0.79,0.37,56.34,0
2020-03-11T03:54:00-05:00,94.94,12.01,734.23,0.98,0.22,110.79,0
2020-03-11T03:55:00-05:00,94.67,12.01,732.82,0.39,0.33,153.15,0
2020-03-11T03:56:00-05:00,94.63,11.97,733.39,-1.82,0.61,145.59,0
2020-03-11T03:57:00-05:00,94.35,11.93,733.02,0.68,0.64,169.1,0.1
2020-03-11T03:58:00-05:00,94.21,11.91,733.42,-2.11,0.76,180.43,0
2020-03-11T03:59:00-05:00,94.33,11.87,734.66,-0.05,0.73,180.37,0
2020-03-11T04:00:00-05:00,94.45,11.84,734.09,-1.67,0.6,204.24,0
2020-03-11T04:01:00-05:00,94.5,11.81,732.85,-0.79,0.27,212.89,0
2020-03-11T04:02:00-05:00,94.66,11.79,734.83,-1.97,0.34,219.15,0
2020-03-11T04:03:00-05:00,94.72,11.77,733.39,-1.82,0.23,174.1,0
2020-03-11T04:04:00-05:00,94.86,11.77,734.76,-2.26,0.11,74.53,0.1
2020-03-11T04:05:00-05:00,94.93,11.75,733.36,-0.2,0.22,29.26,0
2020-03-11T04:06:00-05:00,95.06,11.75,733.92,-0.2,0.32,40.36,0
2020-03-11T04:07:00-05:00,95.11,11.76,734.26,-0.49,0.22,44.38,0
2020-03-11T04:08:00-05:00,95.15,11.77,733.25,-1.67,0.57,29.23,0
2020-03-11T04:09:00-05:00,95.24,11.79,733.86,0.83,0.57,42.47,0
2020-03-11T04:10:00-05:00,95.28,11.77,734.49,-0.49,0.71,47.75,0.1
2020-03-11T04:11:00-05:00,95.28,11.75,733.76,0.68,0.7,51.08,0
2020-03-11T04:12:00-05:00,95.31,11.74,733.66,-0.05,0.74,45.98,0
2020-03-11T04:13:00-05:00,95.16,11.71,734.76,0.09,0.58,83.54,0.1
2020-03-11T04:14:00-05:00,95.37,11.7,734.33,-1.08,0.61,66.38,0
2020-03-11T04:15:00-05:00,95.44,11.68,733.52,0.68,0.43,189.36,0
2020-03-11T04:16:00-05:00,95.38,11.68,733.25,0.83,0.48,122.23,0.1
2020-03-11T04:17:00-05:00,95.5,11.67,734.36,-1.97,0.35,150.52,0
2020-03-11T04:18:00-05:00,95.46,11.66,733.39,-0.94,0.47,165.12,0
2020-03-11T04:19:00-05:00,95.3,11.63,733.05,-1.97,0.59,171.51,0
2020-03-11T04:20:00-05:00,95.15,11.61,732.62,-2.11,0.58,153.13,0.1
2020-03-11T04:21:00-05:00,95.22,11.57,733.79,-1.97,0.68,142.46,0
2020-03-11T04:22:00-05:00,95.36,11.56,733.59,-0.79,0.25,116.19,0
2020-03-11T04:23:00-05:00,95.69,11.56,733.36,-0.64,0.17,199.96,0
2020-03-11T04:24:00-05:00,95.72,11.56,733.05,-1.82,0.09,117.24,0
2020-03-11T04:25:00-05:00,95.87,11.57,733.59,-0.2,0.17,200.97,0
2020-03-11T04:26:00-05:00,95.83,11.58,734.19,-1.08,0.23,176.11,0.1
2020-03-11T04:27:00-05:00,95.71,11.57,734.49,0.83,0.44,167.47,0
2020-03-11T04:28:00-05:00,95.61,11.54,733.76,0.53,0.39,151.19,0
2020-03-11T04:29:00-05:00,95.64,11.52,734.43,0.53,0.26,177.08,0
2020-03-11T04:30:00-05:00,95.74,11.51,733.05,1.12,0.32,147.24,0
2020-03-11T04:31:00-05:00,95.72,11.49,733.52,-0.94,0.53,101.77,0
2020-03-11T04:32:00-05:00,95.77,11.5,734.66,-1.08,0.67,93.38,0.1
2020-03-11T04:33:00-05:00,95.85,11.52,733.15,-0.49,0.37,83,0
2020-03-11T04:34:00-05:00,96.06,11.52,733.92,-0.79,0.95,53.08,0
2020-03-11T04:35:00-05:00,95.99,11.53,732.35,0.98,1.13,47.36,0
2020-03-11T04:36:00-05:00,96.11,11.56,732.62,-0.79,0.61,37.36,0
2020-03-11T04:37:00-05:00,96.09,11.56,733.32,1.12,1.06,64.06,0
2020-03-11T04:38:00-05:00,96.21,11.54,734.53,0.53,0.62,57.26,0
2020-03-11T04:39:00-05:00,96.05,11.55,732.75,-1.23,1.16,62.55,0
2020-03-11T04:40:00-05:00,95.97,11.5,732.72,0.98,0.55,58.12,0.1
2020-03-11T04:41:00-05:00,95.98,11.5,734.39,-1.08,0.61,85.43,0
2020-03-11T04:42:00-05:00,96.04,11.5,733.66,-0.49,0.14,283.71,0
2020-03-11T04:43:00-05:00,96.12,11.53,733.66,-2.11,0.23,269.72,0
2020-03-11T04:44:00-05:00,95.95,11.49,732.62,-2.26,0.26,253.75,0
2020-03-11T04:45:00-05:00,95.81,11.48,732.45,-2.11,0.41,231.9,0
2020-03-11T04:46:00-05:00,95.88,11.46,732.32,-2.11,0.37,153.16,0
2020-03-11T04:47:00-05:00,95.87,11.46,733.92,-1.82,0.48,207.01,0
2020-03-11T04:48:00-05:00,95.67,11.44,733.82,-1.97,0.57,205.05,0
2020-03-11T04:49:00-05:00,95.71,11.42,732.65,0.24,0.54,229.82,0
2020-03-11T04:50:00-05:00,95.73,11.42,733.79,-2.85,0.57,184.03,0
2020-03-11T04:51:00-05:00,95.81,11.39,733.39,-1.67,0.72,158.5,0
2020-03-11T04:52:00-05:00,95.77,11.37,732.65,-2.55,0.49,161.17,0
2020-03-11T04:53:00-05:00,95.88,11.35,734.26,-1.52,0.78,182.41,0
2020-03-11T04:54:00-05:00,95.77,11.3,732.99,-2.7,0.77,203.95,0
2020-03-11T04:55:00-05:00,95.87,11.29,732.38,-0.2,0.71,229.2,0
2020-03-11T04:56:00-05:00,96.01,11.27,733.12,0.39,0.57,221.95,0
2020-03-11T04:57:00-05:00,96.19,11.24,734.43,-1.08,0.62,209.34,0
2020-03-11T04:58:00-05:00,96.15,11.23,732.89,-1.08,0.61,198.01,0
2020-03-11T04:59:00-05:00,96.09,11.22,732.89,-1.97,0.6,196.23,0
2020-03-11T05:00:00-05:00,96.27,11.2,732.99,-0.79,0.46,184.01,0
2020-03-11T05:01:00-05:00,96.4,11.2,732.79,0.39,0.64,139.08,0
2020-03-11T05:02:00-05:00,96.53,11.2,734.59,-1.38,0.59,147.22,0
2020-03-11T05:03:00-05:00,96.6,11.2,733.99,-2.41,0.51,138.32,0
2020-03-11T05:04:00-05:00,96.54,11.2,732.92,-1.23,0.23,176.1,0
2020-03-11T05:05:00-05:00,96.45,11.17,732.89,-1.23,0.54,140.24,0
2020-03-11T05:06:00-05:00,96.39,11.18,733.62,-0.2,0.61,146.52,0
2020-03-11T05:07:00-05:00,96.39,11.14,733.32,-0.35,0.57,150.49,0
2020-03-11T05:08:00-05:00,96.19,11.11,733.96,-1.97,0.57,151.17,0
2020-03-11T05:09:00-05:00,96.05,11.07,732.59,-2.41,0.38,132.26,0
2020-03-11T05:10:00-05:00,96.25,11.06,733.82,-0.05,0.5,97.71,0
2020-03-11T05:11:00-05:00,96.34,11.05,734.16,-2.11,0.52,110.37,0
2020-03-11T05:12:00-05:00,96.46,11.06,732.48,-2.26,0.53,60.91,0
2020-03-11T05:13:00-05:00,96.15,11.02,733.39,-0.49,0.52,89.42,0
2020-03-11T05:14:00-05:00,96.03,11,733.86,-2.55,0.73,84.84,0
2020-03-11T05:15:00-05:00,96.03,10.96,733.86,-0.49,0.42,112.25,0
2020-03-11T05:16:00-05:00,96.21,10.97,733.46,-1.67,0.6,88.86,0
2020-03-11T05:17:00-05:00,96.16,10.97,732.89,-2.41,0.2,92.71,0
2020-03-11T05:18:00-05:00,96.06,10.96,732.95,-2.99,0.49,159.53,0
2020-03-11T05:19:00-05:00,96.09,10.96,732.62,-2.7,0.19,175.09,0
2020-03-11T05:20:00-05:00,96.21,10.96,732.89,-1.97,0.26,170.1,0
2020-03-11T05:21:00-05:00,96.25,10.95,733.62,-2.55,0.22,94.29,0
2020-03-11T05:22:00-05:00,96.07,10.96,733.49,-0.49,0.58,102.24,0
2020-03-11T05:23:00-05:00,96.07,10.96,733.92,-1.97,0.57,101.46,0
2020-03-11T05:24:00-05:00,96,10.93,732.55,0.09,0.61,96.75,0
2020-03-11T05:25:00-05:00,95.99,10.92,734.69,-1.97,0.56,86.84,0
2020-03-11T05:26:00-05:00,96.02,10.89,733.46,0.39,0.4,106.36,0
2020-03-11T05:27:00-05:00,95.93,10.87,733.56,0.39,0.76,106.26,0
2020-03-11T05:28:00-05:00,95.99,10.87,733.49,0.09,0.59,93.42,0
2020-03-11T05:29:00-05:00,96.09,10.87,733.12,-2.26,0.46,99.8,0
2020-03-11T05:30:00-05:00,96.15,10.9,733.25,-1.82,0.57,131.39,0
2020-03-11T05:31:00-05:00,96.17,10.88,733.36,-0.79,0.26,124.71,0
2020-03-11T05:32:00-05:00,96.18,10.88,734.43,-1.52,0.23,117.6,0
2020-03-11T05:33:00-05:00,96.24,10.86,733.05,-0.64,0.47,111.42,0
2020-03-11T05:34:00-05:00,96.25,10.86,733.56,-0.35,0.2,120.08,0
2020-03-11T05:35:00-05:00,96.11,10.87,733.09,-1.82,0.28,91.17,0
2020-03-11T05:36:00-05:00,96.31,10.87,734.9,0.39,0.23,147.23,0
2020-03-11T05:37:00-05:00,96.21,10.86,733.29,-1.23,0.34,91.1,0
2020-03-11T05:38:00-05:00,96.21,10.88,734.33,0.39,0.42,82.76,0
2020-03-11T05:39:00-05:00,96.43,10.88,734.9,-0.64,0.09,187.02,0
2020-03-11T05:40:00-05:00,96.21,10.9,735.2,-2.41,0.36,157.22,0
2020-03-11T05:41:00-05:00,96.34,10.86,733.72,-1.97,0.26,112.22,0
2020-03-11T05:42:00-05:00,96.21,10.84,734.19,-0.94,0.25,81.09,0
2020-03-11T05:43:00-05:00,96.27,10.84,733.22,-1.08,0.28,101.92,0
2020-03-11T05:44:00-05:00,96.21,10.83,733.29,-3.14,0.09,170.05,0
2020-03-11T05:45:00-05:00,96.07,10.84,733.52,-2.7,0.23,124.2,0
2020-03-11T05:46:00-05:00,96.19,10.82,734.46,-1.23,0.43,132.5,0
2020-03-11T05:47:00-05:00,96.23,10.8,734.26,-2.7,0.59,136.24,0
2020-03-11T05:48:00-05:00,96.18,10.81,733.69,-0.79,0.61,147.65,0
2020-03-11T05:49:00-05:00,96.07,10.8,735,-0.64,0.64,139.5,0
2020-03-11T05:50:00-05:00,96.21,10.8,733.09,-2.55,0.66,140.58,0
2020-03-11T05:51:00-05:00,96.03,10.81,734.33,-1.67,0.6,137.31,0
2020-03-11T05:52:00-05:00,96.05,10.8,734.23,-1.97,0.54,95.22,0
2020-03-11T05:53:00-05:00,96.11,10.79,735,-3.14,0.4,122.25,0
2020-03-11T05:54:00-05:00,95.87,10.76,733.25,-1.67,0.57,115.53,0
2020-03-11T05:55:00-05:00,95.8,10.76,733.82,-2.11,0.29,150.19,0
2020-03-11T05:56:00-05:00,95.74,10.74,733.12,-2.26,0.66,131.55,0
2020-03-11T05:57:00-05:00,95.85,10.72,734.63,-1.82,0.57,96.57,0
2020-03-11T05:58:00-05:00,95.65,10.69,734.63,-2.26,0.6,116.43,0
2020-03-11T05:59:00-05:00,95.56,10.66,734.19,0.24,0.49,98.03,0
2020-03-11T06:00:00-05:00,95.56,10.64,734.9,1.71,0.43,78.67,0
2020-03-11T06:01:00-05:00,95.56,10.63,734.86,1.42,0.32,156.19,0
2020-03-11T06:02:00-05:00,95.54,10.62,734.39,-0.49,0.52,129.07,0
2020-03-11T06:03:00-05:00,95.42,10.59,734.73,1.27,0.57,84.76,0
2020-03-11T06:04:00-05:00,95.44,10.58,733.02,2.15,0.62,85.07,0
2020-03-11T06:05:00-05:00,95.34,10.56,735.46,0.24,0.55,121.76,0
2020-03-11T06:06:00-05:00,95.37,10.54,733.86,0.24,0.41,129.3,0
2020-03-11T06:07:00-05:00,95.31,10.54,733.86,1.12,0.66,80.72,0
2020-03-11T06:08:00-05:00,95.36,10.52,734.73,2.15,0.62,69.16,0
2020-03-11T06:09:00-05:00,95.32,10.52,734.16,1.42,0.62,62.34,0
2020-03-11T06:10:00-05:00,95.5,10.52,735.56,3.92,0.33,108.44,0
2020-03-11T06:11:00-05:00,95.3,10.5,733.39,5.24,0.63,123.91,0
2020-03-11T06:12:00-05:00,95.24,10.5,735.36,4.94,0.62,127.21,0
2020-03-11T06:13:00-05:00,95.28,10.48,736,5.09,0.74,128.57,0
2020-03-11T06:14:00-05:00,95.24,10.49,733.46,7.74,0.59,79.62,0
2020-03-11T06:15:00-05:00,95.15,10.48,733.15,7.89,0.61,214.32,0
2020-03-11T06:16:00-05:00,95.21,10.49,733.76,7.59,0.5,64.63,0
2020-03-11T06:17:00-05:00,95.14,10.5,734.83,9.8,0.76,48.64,0
2020-03-11T06:18:00-05:00,95.2,10.52,735.03,10.24,0.06,302.65,0
2020-03-11T06:19:00-05:00,94.88,10.54,734.43,13.18,0.61,281.75,0
2020-03-11T06:20:00-05:00,94.82,10.54,735.7,12.3,0.5,142.23,0
2020-03-11T06:21:00-05:00,94.58,10.55,735.6,13.77,0.72,108.18,0
2020-03-11T06:22:00-05:00,94.66,10.58,735.6,16.12,0.6,91.99,0
2020-03-11T06:23:00-05:00,94.39,10.59,735.7,15.24,0.35,149.47,0
2020-03-11T06:24:00-05:00,94.33,10.59,735.53,16.12,0.65,136.2,0
2020-03-11T06:25:00-05:00,94.43,10.59,733.09,19.65,0.57,144.2,0
2020-03-11T06:26:00-05:00,94.32,10.58,735.63,22.88,0.09,104.18,0
2020-03-11T06:27:00-05:00,94.3,10.59,733.12,24.65,0.53,109.52,0
2020-03-11T06:28:00-05:00,94.38,10.6,733.52,26.41,0.59,116.26,0
2020-03-11T06:29:00-05:00,94.26,10.6,733.12,27.59,0.58,92.39,0
2020-03-11T06:30:00-05:00,94.22,10.59,733.29,29.35,0.63,91.24,0
2020-03-11T06:31:00-05:00,94.22,10.6,733.25,33.61,0.58,93.32,0
2020-03-11T06:32:00-05:00,94.3,10.62,733.32,34.5,0.76,94.32,0
2020-03-11T06:33:00-05:00,94.04,10.66,734.59,37.88,0.63,97.28,0
2020-03-11T06:34:00-05:00,94.13,10.68,733.46,42.29,0.25,81.38,0
2020-03-11T06:35:00-05:00,93.91,10.71,735.5,42.29,0.54,103.58,0
2020-03-11T06:36:00-05:00,93.99,10.71,732.99,45.38,0.65,116.34,0
2020-03-11T06:37:00-05:00,93.86,10.78,735.3,47.58,0.24,116.69,0
2020-03-11T06:38:00-05:00,93.63,10.79,733.66,51.7,0.6,110.43,0
2020-03-11T06:39:00-05:00,93.61,10.82,734.36,53.76,0.85,63.76,0
2020-03-11T06:40:00-05:00,93.89,10.86,735.16,56.4,0.91,63.81,0
2020-03-11T06:41:00-05:00,93.79,10.87,732.95,58.17,0.59,101.8,0
2020-03-11T06:42:00-05:00,93.8,10.88,735.06,60.37,0.64,137.67,0
2020-03-11T06:43:00-05:00,93.98,10.9,733.79,63.46,0.62,92.94,0
2020-03-11T06:44:00-05:00,93.97,10.91,734.13,66.25,0.68,180.12,0
2020-03-11T06:45:00-05:00,93.62,10.89,732.89,68.31,0.68,142.49,0
2020-03-11T06:46:00-05:00,93.59,10.9,734.43,70.22,0.43,211.89,0
2020-03-11T06:47:00-05:00,93.57,10.94,735.1,68.75,0.5,121.99,0
2020-03-11T06:48:00-05:00,93.87,10.97,735.33,69.78,0.26,170.1,0
2020-03-11T06:49:00-05:00,93.65,10.99,734.09,71.69,0.32,47.67,0
2020-03-11T06:50:00-05:00,93.67,11.02,734.13,73.02,0.23,321.54,0
2020-03-11T06:51:00-05:00,93.87,11.04,733.29,75.52,0.52,155.57,0
2020-03-11T06:52:00-05:00,93.7,11.06,735.3,78.02,0.21,112.01,0
2020-03-11T06:53:00-05:00,93.82,11.08,734.33,80.96,0.27,116.53,0
2020-03-11T06:54:00-05:00,94.13,11.12,733.02,80.07,0.22,114.22,0
2020-03-11T06:55:00-05:00,94.1,11.14,732.92,81.84,0.5,107.5,0
2020-03-11T06:56:00-05:00,93.96,11.16,735.1,79.93,0.63,73.55,0
2020-03-11T06:57:00-05:00,93.77,11.16,733.56,73.9,0.62,68.31,0
2020-03-11T06:58:00-05:00,94,11.2,733.02,67.58,0.78,61.62,0
2020-03-11T06:59:00-05:00,93.73,11.21,732.45,61.4,0.64,34.18,0
2020-03-11T07:00:00-05:00,93.15,11.22,734.73,56.4,0.62,51.11,0
2020-03-11T07:01:00-05:00,92.91,11.26,732.69,50.08,0.67,63.97,0
2020-03-11T07:02:00-05:00,92.63,11.3,733.66,49.05,0.62,49.49,0
2020-03-11T07:03:00-05:00,92.74,11.35,734.66,44.94,0.45,95.03,0
2020-03-11T07:04:00-05:00,92.4,11.34,733.49,43.61,0.57,114.27,0
2020-03-11T07:05:00-05:00,92.03,11.35,734.93,43.32,0.57,124.25,0
2020-03-11T07:06:00-05:00,91.43,11.34,735.03,42.73,0.48,157.53,0
2020-03-11T07:07:00-05:00,91.68,11.34,734.13,44.05,0.57,55.01,0
2020-03-11T07:08:00-05:00,91.57,11.34,735.23,44.49,0.6,102.84,0
2020-03-11T07:09:00-05:00,91.7,11.34,734.46,45.38,0.67,83.17,0
2020-03-11T07:10:00-05:00,91.93,11.34,735.87,45.96,0.72,126.14,0
2020-03-11T07:11:00-05:00,91.77,11.3,732.25,46.85,0.7,74.95,0
2020-03-11T07:12:00-05:00,91.88,11.3,732.38,48.17,0.77,91.55,0
2020-03-11T07:13:00-05:00,91.75,11.27,735.9,48.17,0.63,111.19,0
2020-03-11T07:14:00-05:00,91.79,11.26,732.45,50.23,0.61,100.24,0
2020-03-11T07:15:00-05:00,91.96,11.24,734.36,53.9,0.59,127.15,0
2020-03-11T07:16:00-05:00,91.62,11.25,735.7,68.16,0.6,116.32,0
2020-03-11T07:17:00-05:00,91.82,11.25,732.52,154.91,0.68,118.69,0
2020-03-11T07:18:00-05:00,91.96,11.29,733.59,221.95,0.67,133.23,0
2020-03-11T07:19:00-05:00,91.66,11.33,735.03,229.89,0.76,144.2,0
2020-03-11T07:20:00-05:00,91.09,11.4,734.63,256.94,0.65,136.19,0
2020-03-11T07:21:00-05:00,90.61,11.51,731.82,274.14,0.79,136.18,0
2020-03-11T07:22:00-05:00,89.79,11.61,733.46,274.44,0.79,140.23,0
2020-03-11T07:23:00-05:00,89.27,11.75,733.56,281.94,0.49,122.14,0
2020-03-11T07:24:00-05:00,89.07,11.96,735.4,286.2,0.57,123.25,0
2020-03-11T07:25:00-05:00,87.68,12.19,735.63,295.32,0.8,116.53,0
2020-03-11T07:26:00-05:00,85.84,12.41,735.8,299.29,0.63,109.28,0
2020-03-11T07:27:00-05:00,83.95,12.62,736.43,307.23,0.88,111.74,0
2020-03-11T07:28:00-05:00,82.67,12.79,736.23,312.08,0.73,104.4,0
2020-03-11T07:29:00-05:00,81.6,12.94,737.81,319.87,0.71,87.69,0
2020-03-11T07:30:00-05:00,81.76,13.12,737.51,328.25,0.62,104.14,0
2020-03-11T07:31:00-05:00,81.42,13.23,739.21,333.54,0.68,100.78,0
2020-03-11T07:32:00-05:00,80.63,13.34,739.88,343.39,0.77,113.59,0
2020-03-11T07:33:00-05:00,80.76,13.47,736.57,343.1,0.57,138.28,0
2020-03-11T07:34:00-05:00,80.94,13.6,735.93,368.39,0.58,131.26,0
2020-03-11T07:35:00-05:00,81.6,13.76,737.67,381.62,0.57,144.2,0
2020-03-11T07:36:00-05:00,80.21,13.91,737.77,321.93,0.79,159.16,0
2020-03-11T07:37:00-05:00,79.85,13.94,737.44,396.03,1.02,136.2,0
2020-03-11T07:38:00-05:00,78.93,13.92,738.34,401.32,0.68,134.66,0
2020-03-11T07:39:00-05:00,79.77,13.94,738.31,376.62,0.89,132.8,0
2020-03-11T07:40:00-05:00,80.11,13.98,739.21,273.26,0.66,130.01,0
2020-03-11T07:41:00-05:00,79.85,14.07,738.61,306.2,0.55,100.62,0
2020-03-11T07:42:00-05:00,78.9,14.11,739.08,323.25,0.75,99.62,0
2020-03-11T07:43:00-05:00,78.95,14.16,741.05,362.8,0.62,63.78,0
2020-03-11T07:44:00-05:00,77.58,14.22,741.26,421.02,0.58,81.99,0
2020-03-11T07:45:00-05:00,77.21,14.29,741.36,413.96,0.69,119.05,0
2020-03-11T07:46:00-05:00,78.08,14.41,742.43,406.61,0.64,98.61,0
2020-03-11T07:47:00-05:00,77.11,14.56,738.34,409.11,0.63,58.91,0
2020-03-11T07:48:00-05:00,77.78,14.7,737.74,421.17,0.6,90.74,0
2020-03-11T07:49:00-05:00,76.75,14.85,738.78,361.33,0.68,124.55,0
2020-03-11T07:50:00-05:00,76.35,14.93,740.18,427.78,0.58,158.15,0
2020-03-11T07:51:00-05:00,75.52,15.05,740.32,434.25,0.66,116.85,0
2020-03-11T07:52:00-05:00,75.43,15.07,739.41,429.55,0.6,111.08,0
2020-03-11T07:53:00-05:00,75.58,15.16,740.95,454.54,0.57,140.3,0
2020-03-11T07:54:00-05:00,75.98,15.21,741.22,465.28,0.29,108.75,0
2020-03-11T07:55:00-05:00,76.51,15.31,741.79,489.09,0.63,100.72,0
2020-03-11T07:56:00-05:00,74.47,15.43,740.92,500.41,0.6,145.24,0
2020-03-11T07:57:00-05:00,72.99,15.56,742.66,503.65,0.6,103.72,0
2020-03-11T07:58:00-05:00,73.65,15.67,742.73,495.56,0.22,155.24,0
2020-03-11T07:59:00-05:00,75.34,15.78,741.96,405.44,0.51,197.35,0
2020-03-11T08:00:00-05:00,73.27,15.73,743.83,522.76,0.56,198.94,0
2020-03-11T08:01:00-05:00,73.42,15.69,737,472.48,0.58,176.44,0
2020-03-11T08:02:00-05:00,73.82,15.67,736.94,385.74,0.6,151.16,0
2020-03-11T08:03:00-05:00,74.21,15.61,736.6,532.76,0.36,185.35,0
2020-03-11T08:04:00-05:00,76.19,15.67,737.51,530.26,0.61,122.46,0
2020-03-11T08:05:00-05:00,75.24,15.82,737.51,529.82,0.57,105.97,0
2020-03-11T08:06:00-05:00,72.76,15.9,739.11,513.35,0.51,139.27,0
2020-03-11T08:07:00-05:00,72.17,16.04,738.41,535.55,0.59,212.87,0
2020-03-11T08:08:00-05:00,71.29,16.13,739.95,543.93,0.25,198.94,0
2020-03-11T08:09:00-05:00,73.45,16.24,740.69,492.92,0.22,151.19,0
2020-03-11T08:10:00-05:00,71.6,16.33,739.72,563.19,0.49,184.99,0
2020-03-11T08:11:00-05:00,72.17,16.4,739.75,425.43,0.24,161.13,0
2020-03-11T08:12:00-05:00,73.04,16.44,740.99,491,0.43,202.88,0
2020-03-11T08:13:00-05:00,71.87,16.43,740.35,539.52,0.32,206,0
2020-03-11T08:14:00-05:00,73,16.41,740.59,526.88,0.34,170.69,0
2020-03-11T08:15:00-05:00,73.48,16.39,742.43,537.76,0.67,132.53,0
2020-03-11T08:16:00-05:00,71.17,16.35,742.13,539.96,0.26,118.68,0
2020-03-11T08:17:00-05:00,71.49,16.38,742.09,546.29,0.61,150.18,0
2020-03-11T08:18:00-05:00,72.03,16.42,742.93,549.37,0.62,211.26,0
2020-03-11T08:19:00-05:00,72.83,16.42,741.79,505.71,0.51,150.18,0
2020-03-11T08:20:00-05:00,72.35,16.41,735.97,545.26,0.6,159.48,0
2020-03-11T08:21:00-05:00,71.15,16.44,737.44,543.2,0.28,129.23,0
2020-03-11T08:22:00-05:00,71.33,16.49,736.23,568.63,0.37,117.33,0
2020-03-11T08:23:00-05:00,69.45,16.69,735.67,573.19,0.24,114.68,0
2020-03-11T08:24:00-05:00,67.8,16.92,737.97,564.52,0.6,99.43,0
2020-03-11T08:25:00-05:00,66.27,17.04,737.47,566.57,0.39,82.47,0
2020-03-11T08:26:00-05:00,66.37,17.25,739.31,567.46,0.39,183.99,0
2020-03-11T08:27:00-05:00,67.92,17.39,739.11,563.05,0.51,164.14,0
2020-03-11T08:28:00-05:00,68.66,17.53,740.42,564.52,0.31,270.71,0
2020-03-11T08:29:00-05:00,67.77,17.56,740.85,564.96,0.55,139.27,0
2020-03-11T08:30:00-05:00,68.31,17.53,740.38,564.52,0.75,54.88,0
2020-03-11T08:31:00-05:00,65.85,17.44,741.32,574.96,0.23,59.88,0
2020-03-11T08:32:00-05:00,65.85,17.39,741.36,582.01,0.56,54.13,0
2020-03-11T08:33:00-05:00,66.8,17.41,735.5,588.04,0.58,134.52,0
2020-03-11T08:34:00-05:00,67.26,17.49,735.67,593.04,0.95,83.77,0
2020-03-11T08:35:00-05:00,66.63,17.47,737.04,599.95,1.95,52.92,0
2020-03-11T08:36:00-05:00,67.8,17.25,737.2,603.18,0.62,69.05,0
2020-03-11T08:37:00-05:00,68.23,17.22,737.07,610.53,1.36,63.11,0
2020-03-11T08:38:00-05:00,68.6,17.15,736.84,617.3,0.77,40.86,0
2020-03-11T08:39:00-05:00,69.21,17,736.27,626.71,1.05,40.15,0
2020-03-11T08:40:00-05:00,70.6,16.92,737.07,624.8,0.29,85.99,0
2020-03-11T08:41:00-05:00,70.54,16.94,737.24,587.16,1.61,61.91,0
2020-03-11T08:42:00-05:00,68.38,16.81,737.81,572.75,0.98,38.84,0
2020-03-11T08:43:00-05:00,67.37,16.64,737.17,657.88,0.7,52.32,0
2020-03-11T08:44:00-05:00,73.23,16.68,737.61,680.37,0.83,48.25,0
2020-03-11T08:45:00-05:00,72.6,16.86,738.51,709.48,0.83,43.55,0
2020-03-11T08:46:00-05:00,71.39,16.98,738.61,558.49,0.65,49.55,0
2020-03-11T08:47:00-05:00,71.76,17.01,738.34,614.5,0.12,144.17,0
2020-03-11T08:48:00-05:00,73.1,17.17,739.38,493.65,0.63,76.45,0
2020-03-11T08:49:00-05:00,70.82,17.35,740.28,436.46,1,17.45,0
2020-03-11T08:50:00-05:00,69.43,17.49,739.08,579.95,1.02,49.78,0
2020-03-11T08:51:00-05:00,68.59,17.45,738.64,353.24,0.59,40.72,0
2020-03-11T08:52:00-05:00,67.62,17.47,738.24,244.89,1.05,11.06,0
2020-03-11T08:53:00-05:00,67.58,17.33,737.74,462.04,1.14,49.95,0
2020-03-11T08:54:00-05:00,69.03,17.22,738.58,379.71,1.97,67.36,0
2020-03-11T08:55:00-05:00,69.5,16.95,737.1,471.3,0.95,62.46,0
2020-03-11T08:56:00-05:00,71.54,16.84,737.41,559.08,0.88,54.06,0
2020-03-11T08:57:00-05:00,71.39,16.68,738.24,598.18,1.08,45.74,0
2020-03-11T08:58:00-05:00,73.25,16.63,736.7,545.26,0.81,57.89,0
2020-03-11T08:59:00-05:00,70.87,16.55,737.94,591.13,1.23,60.36,0
2020-03-11T09:00:00-05:00,71.96,16.45,736.6,607.3,2.5,68.13,0
2020-03-11T09:01:00-05:00,73.58,16.45,736.7,640.38,0.74,30.59,0
2020-03-11T09:02:00-05:00,72.11,16.49,737.2,668.76,1,27.42,0
2020-03-11T09:03:00-05:00,72.36,16.54,736.67,695.66,1.01,42.47,0
2020-03-11T09:04:00-05:00,72.5,16.56,737.84,726.68,1.52,37.68,0
2020-03-11T09:05:00-05:00,72.11,16.65,737.1,754.18,0.74,83.57,0
2020-03-11T09:06:00-05:00,69.48,16.62,738.61,786.23,1.79,35.4,0
2020-03-11T09:07:00-05:00,72.51,16.73,738.74,825.63,0.98,336.88,0
2020-03-11T09:08:00-05:00,70.99,16.88,740.38,857.98,1.8,73.14,0
2020-03-11T09:09:00-05:00,68.29,16.91,740.72,870.18,2.22,82.08,0
2020-03-11T09:10:00-05:00,67.65,16.9,741.29,886.5,1.02,16.12,0
2020-03-11T09:11:00-05:00,68.37,16.96,742.16,749.03,1.25,26.27,0
2020-03-11T09:12:00-05:00,69.09,17.01,741.32,548.2,0.94,19.1,0
2020-03-11T09:13:00-05:00,66.95,17.04,742.56,457.19,2.05,63.13,0
2020-03-11T09:14:00-05:00,68.72,16.96,740.82,421.02,0.64,129.49,0
2020-03-11T09:15:00-05:00,67.91,16.95,740.42,459.54,1.18,60.42,0
2020-03-11T09:16:00-05:00,68.83,16.96,741.52,412.94,0.98,30.06,0
2020-03-11T09:17:00-05:00,68.98,16.99,741.36,405,0.21,35.84,0
2020-03-11T09:18:00-05:00,70.46,17.08,740.15,393.23,0.36,254.72,0
2020-03-11T09:19:00-05:00,70.61,17.19,740.05,392.79,1.01,136.17,0
2020-03-11T09:20:00-05:00,69.54,17.23,739.75,356.48,0.65,63.94,0
2020-03-11T09:21:00-05:00,68.37,17.24,740.55,341.63,0.74,120.26,0
2020-03-11T09:22:00-05:00,70,17.23,739.72,339.72,0.96,55.49,0
2020-03-11T09:23:00-05:00,68.83,17.25,739.01,356.48,0.71,23.43,0
2020-03-11T09:24:00-05:00,70.91,17.31,738.54,356.18,0.56,110.93,0
2020-03-11T09:25:00-05:00,70.04,17.37,738.28,357.07,1.22,45.92,0
2020-03-11T09:26:00-05:00,66.78,17.33,738.38,333.1,0.97,45.16,0
2020-03-11T09:27:00-05:00,67.18,17.21,737.64,332.07,0.57,57.52,0
2020-03-11T09:28:00-05:00,67.68,17.21,737.34,343.83,0.73,95.68,0
2020-03-11T09:29:00-05:00,70.28,17.26,737.51,363.24,0.3,205.03,0
2020-03-11T09:30:00-05:00,71.51,17.31,738.01,402.79,0.25,207.33,0
2020-03-11T09:31:00-05:00,73.86,17.29,737.64,459.54,0.58,215.93,0
2020-03-11T09:32:00-05:00,74.27,17.33,736.37,548.49,0.61,202.17,0
2020-03-11T09:33:00-05:00,71.13,17.32,737.31,535.85,0.6,195.89,0
2020-03-11T09:34:00-05:00,69.46,17.28,736.67,522.76,0.78,116.14,0
2020-03-11T09:35:00-05:00,71.59,17.3,737.47,608.62,1.54,248.8,0
2020-03-11T09:36:00-05:00,69.23,17.35,737.41,608.18,0.64,295.61,0
2020-03-11T09:37:00-05:00,66.52,17.43,737.81,628.91,0.87,308.64,0
2020-03-11T09:38:00-05:00,66.81,17.49,738.78,625.68,0.19,348.43,0
2020-03-11T09:39:00-05:00,67.19,17.61,739.31,926.49,0.27,302.62,0
2020-03-11T09:40:00-05:00,68.21,17.79,740.42,943.98,0.78,298.67,0
2020-03-11T09:41:00-05:00,65.99,17.97,742.8,487.48,0.56,277.15,0
2020-03-11T09:42:00-05:00,67.04,18.13,735.87,613.77,0.06,20.27,0
2020-03-11T09:43:00-05:00,66.26,18.25,736.33,424.4,0.98,205.32,0
2020-03-11T09:44:00-05:00,61.85,18.18,736.17,429.7,1.79,237.77,0
2020-03-11T09:45:00-05:00,65.26,18.09,736.1,415.88,0.81,220.22,0
2020-03-11T09:46:00-05:00,62.75,18.04,736.67,446.16,0.75,248.12,0
2020-03-11T09:47:00-05:00,61.26,17.94,736.03,432.05,0.21,191.38,0
2020-03-11T09:48:00-05:00,64.27,17.99,736.97,460.86,0.56,240.83,0
2020-03-11T09:49:00-05:00,62.93,18.01,736.54,474.39,0.61,275.01,0
2020-03-11T09:50:00-05:00,64.5,18.07,737.61,603.33,0.61,248.78,0
2020-03-11T09:51:00-05:00,63.4,18.07,736.97,540.85,0.06,216.89,0
2020-03-11T09:52:00-05:00,65.4,18.13,738.34,782.26,0.7,229.79,0
2020-03-11T09:53:00-05:00,63.13,18.21,738.04,661.7,0.58,226.85,0
2020-03-11T09:54:00-05:00,66.4,18.28,739.78,413.67,0.82,197,0
2020-03-11T09:55:00-05:00,63.47,18.23,737.51,385.29,0.71,207.96,0
2020-03-11T09:56:00-05:00,62.52,18.2,738.64,375,0.1,131.26,0
2020-03-11T09:57:00-05:00,62.93,18.31,738.21,366.18,0.51,272.66,0
2020-03-11T09:58:00-05:00,61.75,18.32,739.21,360.45,0.23,20.14,0
2020-03-11T09:59:00-05:00,61.03,18.37,739.21,361.18,0.21,310.61,0
2020-03-11T10:00:00-05:00,61.66,18.44,738.14,368.98,0.6,212.2,0
2020-03-11T10:01:00-05:00,60.75,18.38,737.31,380.59,0.53,133.75,0
2020-03-11T10:02:00-05:00,62.03,18.33,736.2,404.11,0.46,152.48,0
2020-03-11T10:03:00-05:00,63.57,18.29,737.31,432.34,0.53,207.98,0
2020-03-11T10:04:00-05:00,63.13,18.27,736.87,476.45,0.62,179.46,0
2020-03-11T10:05:00-05:00,66.35,18.25,736.6,513.06,0.79,222.93,0
2020-03-11T10:06:00-05:00,69.29,18.31,738.21,578.48,0.56,207.33,0
2020-03-11T10:07:00-05:00,66.72,18.38,737.91,464.83,0.45,215.88,0
2020-03-11T10:08:00-05:00,66.13,18.41,738.21,469.39,0.77,245.75,0
2020-03-11T10:09:00-05:00,64.83,18.42,738.21,488.06,0.55,238.85,0
2020-03-11T10:10:00-05:00,66.42,18.5,739.38,758.15,0.35,189.04,0
2020-03-11T10:11:00-05:00,68.93,18.59,740.52,558.93,0.6,286.61,0
2020-03-11T10:12:00-05:00,67.56,18.66,738.81,984.86,0.6,218.9,0
2020-03-11T10:13:00-05:00,68.68,18.73,740.18,958.98,1.01,190.01,0
2020-03-11T10:14:00-05:00,67.94,18.76,741.46,909.29,0.72,257.78,0
2020-03-11T10:15:00-05:00,65.85,18.79,740.99,971.33,0.79,223.9,0
2020-03-11T10:16:00-05:00,66.53,18.81,736.74,1003.97,1,175.09,0
2020-03-11T10:17:00-05:00,64.54,18.82,736.13,595.83,0.94,218.2,0
2020-03-11T10:18:00-05:00,63.54,18.76,736,777.11,1.05,314.51,0
2020-03-11T10:19:00-05:00,65.92,18.72,737,570.1,1.7,220.21,0
2020-03-11T10:20:00-05:00,64.22,18.58,736,570.25,0.64,222.21,0
2020-03-11T10:21:00-05:00,62,18.46,735,689.19,0.68,203.28,0
2020-03-11T10:22:00-05:00,62.52,18.42,734.59,547.9,0.11,42.55,0
2020-03-11T10:23:00-05:00,62.4,18.48,736.1,461.01,0.61,218.27,0
2020-03-11T10:24:00-05:00,66.96,18.6,735.97,413.08,0.61,223.88,0
2020-03-11T10:25:00-05:00,63.16,18.52,734.73,414.7,0.93,334.57,0
2020-03-11T10:26:00-05:00,61.28,18.45,735.77,467.77,0.7,334.54,0
2020-03-11T10:27:00-05:00,61.72,18.39,734.33,494.09,0.8,332.49,0
2020-03-11T10:28:00-05:00,61.98,18.36,735.23,747.41,0.61,7.15,0
2020-03-11T10:29:00-05:00,62.71,18.39,735.87,867.24,1.35,313.57,0
2020-03-11T10:30:00-05:00,64.44,18.45,735.2,669.34,0.61,277.65,0
2020-03-11T10:31:00-05:00,64.02,18.55,735.9,960.74,0.55,283.7,0
2020-03-11T10:32:00-05:00,63.59,18.67,736.57,877.82,0.72,323.5,0
2020-03-11T10:33:00-05:00,60.79,18.8,736.13,1026.76,0.32,227.82,0
2020-03-11T10:34:00-05:00,59.58,18.86,738.01,1225.98,0.27,91.48,0
2020-03-11T10:35:00-05:00,60.06,18.88,738.51,746.38,0.62,120.49,0
2020-03-11T10:36:00-05:00,60.56,18.87,739.75,1221.42,0.42,116.85,0
2020-03-11T10:37:00-05:00,61.96,18.98,738.58,1013.09,0.23,115.47,0
2020-03-11T10:38:00-05:00,63.55,19.14,739.78,1012.06,0.6,208.28,0
2020-03-11T10:39:00-05:00,64.16,19.33,741.56,960.3,0.64,197.99,0
2020-03-11T10:40:00-05:00,59.84,19.24,738.68,922.67,1.02,230.13,0
2020-03-11T10:41:00-05:00,61.2,19.15,738.34,1242.74,0.5,241.82,0
2020-03-11T10:42:00-05:00,62.87,19.27,739.15,900.47,0.57,198.98,0
2020-03-11T10:43:00-05:00,61.19,19.4,739.72,1120.27,0.37,301.59,0
2020-03-11T10:44:00-05:00,63.57,19.56,740.95,1204.22,0.64,224.91,0
2020-03-11T10:45:00-05:00,61.31,19.73,736.8,1114.68,0.62,353.46,0
2020-03-11T10:46:00-05:00,59.46,19.81,736.54,924.28,0.77,53.05,0
2020-03-11T10:47:00-05:00,57.33,19.7,736.2,958.25,1.13,99.84,0
2020-03-11T10:48:00-05:00,57.13,19.55,736.33,1107.92,1.06,108.54,0
2020-03-11T10:49:00-05:00,59.04,19.44,735.5,936.63,0.94,123.4,0
2020-03-11T10:50:00-05:00,61.09,19.46,736.6,928.25,0.79,262.68,0
2020-03-11T10:51:00-05:00,60.62,19.55,736.74,925.46,0.52,253.11,0
2020-03-11T10:52:00-05:00,66.32,19.76,736.03,941.34,0.61,227.8,0
2020-03-11T10:53:00-05:00,62.73,19.96,735.87,1197.16,0.81,258.14,0
2020-03-11T10:54:00-05:00,59.8,20.13,736.43,1171.28,0.26,162.48,0
2020-03-11T10:55:00-05:00,61.94,20.29,736.2,1164.67,0.5,245.11,0
2020-03-11T10:56:00-05:00,58.95,20.45,737.64,997.5,0.7,255.71,0
2020-03-11T10:57:00-05:00,60.14,20.58,738.18,629.65,0.25,242.19,0
2020-03-11T10:58:00-05:00,57.89,20.65,737.57,656.85,0.91,343.55,0
2020-03-11T10:59:00-05:00,58.62,20.65,735.53,895.17,1.14,277.66,0
2020-03-11T11:00:00-05:00,60.52,20.71,737.14,1139.53,0.27,255.68,0
2020-03-11T11:01:00-05:00,56.24,20.75,736.33,1106.45,0.99,4.6,0
2020-03-11T11:02:00-05:00,55.32,20.63,736.4,1105.27,1.52,28.37,0
2020-03-11T11:03:00-05:00,58.43,20.37,734.9,1085.57,0.56,122.07,0
2020-03-11T11:04:00-05:00,59.37,20.33,734.46,1082.48,0.62,163.16,0
2020-03-11T11:05:00-05:00,58.01,20.26,733.22,1051.31,1.03,180.12,0
2020-03-11T11:06:00-05:00,59.99,20.21,734.33,1057.78,0.33,293.67,0
2020-03-11T11:07:00-05:00,56.36,20.22,733.42,1077.33,0.91,66.11,0
2020-03-11T11:08:00-05:00,57.04,20.17,734.59,1077.33,0.58,72.42,0
2020-03-11T11:09:00-05:00,59.79,20.29,735.67,1065.72,0.62,8.63,0
2020-03-11T11:10:00-05:00,56.87,20.41,734.66,1063.96,1.04,356.79,0
2020-03-11T11:11:00-05:00,62.47,20.45,735.6,1057.49,0.67,253.73,0
2020-03-11T11:12:00-05:00,59.28,20.53,736.2,1057.05,0.97,192.29,0
2020-03-11T11:13:00-05:00,60.03,20.56,734.19,1052.34,0.54,17.32,0
2020-03-11T11:14:00-05:00,59.99,20.67,734.66,1061.46,0.57,260.01,0
2020-03-11T11:15:00-05:00,None,None,None,None,None,None,None
2020-03-11T11:16:00-05:00,None,None,None,None,None,None,None
2020-03-11T11:17:00-05:00,None,None,None,None,None,None,None
2020-03-11T11:18:00-05:00,None,None,None,None,None,None,None
2020-03-11T11:19:00-05:00,None,None,None,None,None,None,None
2020-03-11T11:20:00-05:00,None,None,None,None,None,None,None
2020-03-11T11:21:00-05:00,None,None,None,None,None,None,None
2020-03-11T11:22:00-05:00,None,None,None,None,None,None,None
2020-03-11T11:23:00-05:00,None,None,None,None,None,None,None
2020-03-11T11:24:00-05:00,None,None,None,None,None,None,None
2020-03-11T11:25:00-05:00,None,None,None,None,None,None,None
2020-03-11T11:26:00-05:00,57.38,20.03,733.72,1187.31,0.56,51.46,0
2020-03-11T11:27:00-05:00,61.45,20.13,735.06,1196.57,0.72,350.87,0
2020-03-11T11:28:00-05:00,58.81,20.31,735.67,1003.38,1.38,242.78,0
2020-03-11T11:29:00-05:00,56.91,20.3,735.03,802.84,0.29,342.89,0
2020-03-11T11:30:00-05:00,57,20.36,735.63,553.2,0.58,25.34,0
2020-03-11T11:31:00-05:00,55.25,20.29,737,533.79,0.55,347.46,0
2020-03-11T11:32:00-05:00,55.66,20.17,734.96,415.29,2.71,314.5,0
2020-03-11T11:33:00-05:00,57.29,20.07,735.26,375,0.6,342.52,0
2020-03-11T11:34:00-05:00,57.89,20.05,734.02,371.77,0.72,256.79,0
2020-03-11T11:35:00-05:00,57.65,19.99,732.79,349.13,1.29,304.6,0
2020-03-11T11:36:00-05:00,58.01,19.89,731.01,321.19,0.72,260.01,0
2020-03-11T11:37:00-05:00,58.15,19.77,731.05,311.19,0.58,179.42,0
2020-03-11T11:38:00-05:00,57.29,19.66,729.84,324.57,1.69,2.74,0
2020-03-11T11:39:00-05:00,59.82,19.58,734.69,327.37,0.67,235.82,0
2020-03-11T11:40:00-05:00,58.79,19.52,735.3,384.27,0.71,353.82,0
2020-03-11T11:41:00-05:00,59.64,19.46,735.77,1138.64,0.66,170.05,0
2020-03-11T11:42:00-05:00,57.85,19.46,735.36,1139.97,0.72,355.78,0
2020-03-11T11:43:00-05:00,58.68,19.46,735.23,1134.82,0.35,154.22,0
2020-03-11T11:44:00-05:00,62.58,19.64,736.27,900.91,0.89,196.26,0
2020-03-11T11:45:00-05:00,58.15,19.73,734.96,710.22,1.77,231.89,0
2020-03-11T11:46:00-05:00,58.38,19.71,735.73,466.6,0.68,170.43,0
2020-03-11T11:47:00-05:00,58.21,19.67,735.73,420.29,0.58,185.01,0
2020-03-11T11:48:00-05:00,61.63,19.7,734.93,487.04,0.72,238.86,0
2020-03-11T11:49:00-05:00,63.87,19.77,735.13,427.2,1.82,228.83,0
2020-03-11T11:50:00-05:00,60.39,19.79,735.2,435.43,0.67,208.98,0
2020-03-11T11:51:00-05:00,60.19,19.84,735.33,439.25,0.59,199.95,0
2020-03-11T11:52:00-05:00,61.32,19.87,735.6,484.39,0.55,249.79,0
2020-03-11T11:53:00-05:00,59.4,19.87,735.3,559.08,0.67,214.91,0
2020-03-11T11:54:00-05:00,59.13,19.87,734.86,838.72,0.77,259.75,0
2020-03-11T11:55:00-05:00,58.39,19.91,736.67,1024.99,0.91,215.93,0
2020-03-11T11:56:00-05:00,56.35,19.84,735.83,522.03,1,127.17,0
2020-03-11T11:57:00-05:00,55.88,19.75,735.4,386.47,0.8,206.36,0
2020-03-11T11:58:00-05:00,57.78,19.74,733.99,362.51,0.07,247.81,0
2020-03-11T11:59:00-05:00,58.52,19.78,734.33,352.21,0.64,204.28,0
2020-03-11T12:00:00-05:00,58.97,19.78,733.89,362.21,0.86,227.82,0
2020-03-11T12:01:00-05:00,57.23,19.79,734.16,376.33,0.58,114.44,0
2020-03-11T12:02:00-05:00,58.73,19.82,734.36,393.09,0.46,291.67,0
2020-03-11T12:03:00-05:00,61.67,19.88,735.36,419.55,0.67,213.26,0
2020-03-11T12:04:00-05:00,61.17,19.87,736.2,454.98,2.18,186.96,0
2020-03-11T12:05:00-05:00,56.86,19.78,734.46,521.59,2.25,185.99,0
2020-03-11T12:06:00-05:00,55.23,19.58,734.39,1080.57,1.9,220.86,0
2020-03-11T12:07:00-05:00,55.74,19.48,734.09,1241.41,0.57,227.81,0
2020-03-11T12:08:00-05:00,55.61,19.55,735.56,1197.89,0.1,199.95,0
2020-03-11T12:09:00-05:00,56.42,19.69,737.77,1219.21,0.51,294.62,0
2020-03-11T12:10:00-05:00,55.87,19.91,739.35,1208.63,0.49,208.26,0
2020-03-11T12:11:00-05:00,58.63,20.17,734.96,1124.68,1.8,222.22,0
2020-03-11T12:12:00-05:00,61.08,20.43,735.2,674.93,0.97,228.82,0
2020-03-11T12:13:00-05:00,57.19,20.59,735.23,639.2,1.38,237.77,0
2020-03-11T12:14:00-05:00,55.63,20.6,734.26,488.21,2.37,218.24,0
2020-03-11T12:15:00-05:00,55.43,20.59,735.26,475.57,2.27,235.81,0
2020-03-11T12:16:00-05:00,53.5,20.53,734.66,481.6,1.31,229.17,0
2020-03-11T12:17:00-05:00,55.02,20.43,735.13,492.18,2.29,228.79,0
2020-03-11T12:18:00-05:00,56.44,20.35,735,497.33,1.36,197.35,0
2020-03-11T12:19:00-05:00,54.37,20.28,735.43,550.4,1.32,218.87,0
2020-03-11T12:20:00-05:00,55.86,20.22,735.33,869.44,1.3,246.11,0
2020-03-11T12:21:00-05:00,56.51,20.23,734.39,833.28,2.1,183.03,0
2020-03-11T12:22:00-05:00,54.04,20.18,733.82,519.23,0.82,118.49,0
2020-03-11T12:23:00-05:00,58.37,20.2,735.53,495.71,0.68,225.85,0
2020-03-11T12:24:00-05:00,54.58,20.24,735.13,530.26,0.56,189.98,0
2020-03-11T12:25:00-05:00,55.13,20.27,735.26,947.95,0.56,167.08,0
2020-03-11T12:26:00-05:00,53.37,20.3,735.9,750.5,0.78,122.2,0
2020-03-11T12:27:00-05:00,53.36,20.25,736.2,1082.48,0.63,138.4,0
2020-03-11T12:28:00-05:00,54.9,20.3,736.3,1026.61,0.67,309.62,0
2020-03-11T12:29:00-05:00,55.45,20.41,736.77,561.87,0.56,247.82,0
2020-03-11T12:30:00-05:00,56.34,20.53,736.8,547.17,2.12,226.85,0
2020-03-11T12:31:00-05:00,56.28,20.54,736.64,583.78,1.19,212.24,0
2020-03-11T12:32:00-05:00,56.58,20.54,736,568.04,0.84,201.94,0
2020-03-11T12:33:00-05:00,54.28,20.51,736.27,946.19,2.46,297.95,0
2020-03-11T12:34:00-05:00,55.79,20.47,736.27,1132.47,0.58,206.98,0
2020-03-11T12:35:00-05:00,57.21,20.58,738.11,849.3,1.15,295.98,0
2020-03-11T12:36:00-05:00,57.77,20.75,734.53,662.14,0.29,268.74,0
2020-03-11T12:37:00-05:00,55.07,20.87,734.96,573.19,1.12,100.55,0
2020-03-11T12:38:00-05:00,56.99,20.91,733.79,455.72,0.75,198.95,0
2020-03-11T12:39:00-05:00,56.5,20.88,734.66,414.55,0.2,19.51,0
2020-03-11T12:40:00-05:00,58.29,20.91,734.59,396.03,0.78,167.09,0
2020-03-11T12:41:00-05:00,56.61,20.91,734.43,379.56,0.56,188.04,0
2020-03-11T12:42:00-05:00,60.33,20.91,734.26,400.88,1.56,209.94,0
2020-03-11T12:43:00-05:00,55.54,20.76,735.13,463.95,1.07,191.04,0
2020-03-11T12:44:00-05:00,57.16,20.66,734.93,465.72,0.77,165.15,0
2020-03-11T12:45:00-05:00,58.96,20.58,735.06,486.45,1.11,198.98,0
2020-03-11T12:46:00-05:00,56.21,20.44,735.03,496,0.48,248.84,0
2020-03-11T12:47:00-05:00,56.59,20.33,735.16,506.3,0.71,202.9,0
2020-03-11T12:48:00-05:00,55.28,20.21,733.96,621.12,0.6,180.41,0
2020-03-11T12:49:00-05:00,56.93,20.17,735,738.74,2.43,202.92,0
2020-03-11T12:50:00-05:00,56.89,20.18,735.16,499.09,0.7,229.17,0
2020-03-11T12:51:00-05:00,55.95,20.21,735.2,464.25,0.47,215.88,0
2020-03-11T12:52:00-05:00,55.03,20.28,735.87,441.6,1.05,181.39,0
2020-03-11T12:53:00-05:00,53.34,20.24,734.19,373.97,0.58,159.48,0
2020-03-11T12:54:00-05:00,55.36,20.21,734.53,334.87,1.44,233.2,0
2020-03-11T12:55:00-05:00,53.76,20.16,733.62,316.78,0.56,165.15,0
2020-03-11T12:56:00-05:00,54.31,20.11,732.89,315.75,0.76,185.96,0
2020-03-11T12:57:00-05:00,56.82,20.06,732.48,500.41,0.46,264.77,0
2020-03-11T12:58:00-05:00,59.52,20.08,732.35,440.28,0.57,264.81,0
2020-03-11T12:59:00-05:00,56.48,20.14,733.79,447.63,0.63,297.63,0
2020-03-11T13:00:00-05:00,56.54,20.22,734.66,480.27,0.7,137.13,0
2020-03-11T13:01:00-05:00,58.88,20.28,734.36,792.11,0.42,181.08,0
2020-03-11T13:02:00-05:00,56.48,20.31,735.53,675.67,0.61,230.9,0
2020-03-11T13:03:00-05:00,57.42,20.37,735.06,1192.16,0.82,186.96,0
2020-03-11T13:04:00-05:00,57.11,20.42,736.27,1210.1,0.94,247.83,0
2020-03-11T13:05:00-05:00,57.48,20.59,737,1206.57,0.58,294.02,0
2020-03-11T13:06:00-05:00,59.58,20.83,735.97,1227.15,0.95,259.72,0
2020-03-11T13:07:00-05:00,61.32,21.21,734.66,1207.74,1.31,37.02,0
2020-03-11T13:08:00-05:00,55.76,21.36,733.49,1196.57,0.5,80.77,0
2020-03-11T13:09:00-05:00,53.64,21.47,734.93,1214.21,1.2,328.93,0
2020-03-11T13:10:00-05:00,56.81,21.64,733.22,1210.54,0.65,191.99,0
2020-03-11T13:11:00-05:00,56.27,21.92,733.42,1227.89,0.35,259.12,0
2020-03-11T13:12:00-05:00,53.83,22.09,734.16,1065.87,2.51,222.88,0
2020-03-11T13:13:00-05:00,55.66,22.06,732.99,733.01,0.94,198.98,0
2020-03-11T13:14:00-05:00,56.09,22.09,733.79,1134.09,0.61,210.95,0
2020-03-11T13:15:00-05:00,54.49,22.15,734.76,1211.27,0.6,217.89,0
2020-03-11T13:16:00-05:00,58.42,22.34,736.03,963.98,0.26,247.83,0
2020-03-11T13:17:00-05:00,54.64,22.56,737.04,663.76,0.83,264.8,0
2020-03-11T13:18:00-05:00,53.08,22.63,735.36,353.39,2.86,191,0
2020-03-11T13:19:00-05:00,51.89,22.3,733.62,255.03,0.73,173.12,0
2020-03-11T13:20:00-05:00,53.78,22.08,730.64,212.25,2.09,217.9,0
2020-03-11T13:21:00-05:00,56.54,21.83,728.97,190.64,0.83,190.98,0
2020-03-11T13:22:00-05:00,57.45,21.6,733.22,197.84,0.82,151.51,0
2020-03-11T13:23:00-05:00,57.09,21.4,734.79,165.94,0.78,284.66,0
2020-03-11T13:24:00-05:00,55.43,21.21,734.56,154.47,0.71,207.29,0
2020-03-11T13:25:00-05:00,55.63,20.96,734.46,147.26,1.13,208.97,0
2020-03-11T13:26:00-05:00,56.84,20.73,733.79,144.91,0.76,218.26,0
2020-03-11T13:27:00-05:00,58.07,20.59,733.82,144.18,1.32,196.23,0
2020-03-11T13:28:00-05:00,59.96,20.45,734.19,142.12,0.53,101.85,0
2020-03-11T13:29:00-05:00,61.68,20.31,734.83,139.32,0.75,193.93,0
2020-03-11T13:30:00-05:00,61.66,20.22,733.82,135.5,0.61,219.86,0
2020-03-11T13:31:00-05:00,61.66,20.11,734.19,135.5,0.58,230.88,0
2020-03-11T13:32:00-05:00,60.31,20.01,734.29,133.15,1.13,210.95,0
2020-03-11T13:33:00-05:00,59.74,19.9,734.83,133.3,0.48,190.03,0
2020-03-11T13:34:00-05:00,61.56,19.85,733.46,137.12,0.52,190.03,0
2020-03-11T13:35:00-05:00,62.06,19.78,732.95,139.03,0.2,182.07,0
2020-03-11T13:36:00-05:00,63.77,19.74,731.45,147.85,0.98,168.1,0
2020-03-11T13:37:00-05:00,61.47,19.6,730.51,158.29,0.8,200.94,0
2020-03-11T13:38:00-05:00,61.81,19.49,729.77,160.2,0.54,203.95,0
2020-03-11T13:39:00-05:00,62.82,19.4,730.81,166.96,0.69,214.27,0
2020-03-11T13:40:00-05:00,61.69,19.34,728.57,154.17,0.56,208.94,0
2020-03-11T13:41:00-05:00,60.93,19.28,728.47,155.94,0.76,178.4,0
2020-03-11T13:42:00-05:00,62.73,19.22,733.82,141.38,0.61,263.7,0
2020-03-11T13:43:00-05:00,61.59,19.22,733.92,138.88,1.15,181.42,0
2020-03-11T13:44:00-05:00,60.96,19.12,734.43,140.5,2.63,178.04,0
2020-03-11T13:45:00-05:00,62.79,19.04,734.09,136.97,1.05,206.38,0
2020-03-11T13:46:00-05:00,61.9,18.98,733.39,130.94,0.21,272.66,0
2020-03-11T13:47:00-05:00,63.06,18.98,733.36,126.83,1.02,183.3,0
2020-03-11T13:48:00-05:00,63.67,18.92,734.53,119.77,0.74,176.08,0
2020-03-11T13:49:00-05:00,61.91,18.88,733.99,111.98,0.14,295.63,0
2020-03-11T13:50:00-05:00,62.34,18.83,734.96,100.22,0.85,181.06,0
2020-03-11T13:51:00-05:00,64.72,18.78,733.92,91.25,0.8,188.03,0
2020-03-11T13:52:00-05:00,65.65,18.69,734.56,83.9,0.82,143.22,0
2020-03-11T13:53:00-05:00,65.95,18.67,734.49,78.6,0.99,215.93,0
2020-03-11T13:54:00-05:00,64.39,18.6,733.32,76.4,0.83,205,0
2020-03-11T13:55:00-05:00,66.77,18.56,733.36,74.78,0.79,199.95,0
2020-03-11T13:56:00-05:00,64.46,18.5,732.45,75.08,0.59,206.01,0
2020-03-11T13:57:00-05:00,66.69,18.46,732.85,76.99,0.62,172.13,0
2020-03-11T13:58:00-05:00,67.8,18.39,731.28,75.66,0.6,184.33,0
2020-03-11T13:59:00-05:00,67.13,18.33,732.05,77.28,0.23,167.12,0
2020-03-11T14:00:00-05:00,67.5,18.33,732.35,73.31,0.73,184.39,0
2020-03-11T14:01:00-05:00,68.29,18.31,731.75,67.72,1.56,155.5,0
2020-03-11T14:02:00-05:00,66.82,18.21,730.88,65.52,1.38,180.47,0
2020-03-11T14:03:00-05:00,66.89,18.15,730.58,61.84,1.34,208.95,0
2020-03-11T14:04:00-05:00,69.36,18.1,730.95,59.93,0.62,175.43,0
2020-03-11T14:05:00-05:00,68.83,18.08,730.21,60.08,0.8,199.97,0
2020-03-11T14:06:00-05:00,70,18.04,730.14,63.17,0.71,210.93,0
2020-03-11T14:07:00-05:00,69.7,18.01,729.97,69.05,0.64,199.02,0
2020-03-11T14:08:00-05:00,69.69,17.97,729.2,75.37,0.68,172.13,0
2020-03-11T14:09:00-05:00,69.75,17.91,729.27,79.78,0.59,190.99,0
2020-03-11T14:10:00-05:00,70.19,17.89,729.1,88.75,0.63,205.05,0
2020-03-11T14:11:00-05:00,70.3,17.86,728.9,97.72,0.62,256.79,0
2020-03-11T14:12:00-05:00,68.66,17.83,729.74,107.71,0.66,197.01,0
2020-03-11T14:13:00-05:00,68.26,17.79,730.24,118.59,1.77,202.92,0
2020-03-11T14:14:00-05:00,68.33,17.78,729.47,133.74,0.59,173.12,0
2020-03-11T14:15:00-05:00,70.31,17.77,729.54,146.82,0.65,198.31,0
2020-03-11T14:16:00-05:00,71.68,17.78,730.24,167.85,0.69,207.98,0
2020-03-11T14:17:00-05:00,68.47,17.77,731.08,190.93,0.63,209.29,0
2020-03-11T14:18:00-05:00,69.07,17.79,731.35,235.92,0.77,207.98,0
2020-03-11T14:19:00-05:00,69.59,17.8,731.58,324.13,1.17,219.21,0
2020-03-11T14:20:00-05:00,67.63,17.83,732.25,598.33,0.26,51.14,0
2020-03-11T14:21:00-05:00,69.63,17.93,736.23,983.39,0.59,202.29,0
2020-03-11T14:22:00-05:00,69.54,18.16,734.29,1074.39,0.69,248.8,0
2020-03-11T14:23:00-05:00,67.76,18.43,733.69,983.39,1.32,266.1,0
2020-03-11T14:24:00-05:00,68.63,18.73,735.2,539.08,0.78,229.78,0
2020-03-11T14:25:00-05:00,65.3,18.96,733.96,454.54,0.68,183.05,0
2020-03-11T14:26:00-05:00,67.38,19.08,734.16,407.79,1.15,278.66,0
2020-03-11T14:27:00-05:00,66.8,19.19,733.25,383.82,0.56,289.63,0
2020-03-11T14:28:00-05:00,67.26,19.29,734.19,364.42,2.15,209.93,0
2020-03-11T14:29:00-05:00,66.07,19.33,733.52,333.4,0.58,220.85,0
2020-03-11T14:30:00-05:00,67.54,19.38,734.46,311.05,0.76,184.98,0
2020-03-11T14:31:00-05:00,65.16,19.45,733.76,290.76,0.68,254.71,0
2020-03-11T14:32:00-05:00,64.94,19.45,733.32,268.85,2.17,232.86,0
2020-03-11T14:33:00-05:00,64.88,19.36,734.02,259,1.38,259.75,0
2020-03-11T14:34:00-05:00,66.45,19.3,732.99,258.71,0.85,198.32,0
2020-03-11T14:35:00-05:00,66.11,19.25,733.99,251.21,0.64,192.25,0
2020-03-11T14:36:00-05:00,66.54,19.28,734.76,242.68,0.69,191.32,0
2020-03-11T14:37:00-05:00,68.08,19.29,733.22,232.98,0.7,219.87,0
2020-03-11T14:38:00-05:00,67.38,19.32,733.89,219.89,1.26,194.31,0
2020-03-11T14:39:00-05:00,66.59,19.29,733.59,213.87,0.73,202.92,0
2020-03-11T14:40:00-05:00,65.97,19.21,732.18,218.28,0.61,268.12,0
2020-03-11T14:41:00-05:00,66.17,19.19,732.59,221.8,0.65,197.05,0
2020-03-11T14:42:00-05:00,67.9,19.17,732.38,218.86,1.14,183.33,0
2020-03-11T14:43:00-05:00,67.3,19.12,731.35,196.66,0.68,236.79,0
2020-03-11T14:44:00-05:00,67.92,19.04,730.41,172.99,0.68,220.86,0
2020-03-11T14:45:00-05:00,67.83,18.94,731.68,150.06,0.74,192,0
2020-03-11T14:46:00-05:00,67.56,18.84,729.1,129.03,0.56,185.99,0
2020-03-11T14:47:00-05:00,69.36,18.78,729.3,124.03,0.59,197,0
2020-03-11T14:48:00-05:00,69.14,18.66,733.29,134.62,0.82,183.04,0
2020-03-11T14:49:00-05:00,68.36,18.55,733.39,158.88,0.21,268.74,0
2020-03-11T14:50:00-05:00,70.09,18.56,733.46,187.11,0.39,206.01,0
2020-03-11T14:51:00-05:00,69.14,18.52,733.59,238.12,0.59,168.54,0
2020-03-11T14:52:00-05:00,69.05,18.47,733.96,262.09,0.56,248.8,0
2020-03-11T14:53:00-05:00,71.19,18.48,733.56,349.86,0.64,216.25,0
2020-03-11T14:54:00-05:00,71.05,18.5,733.69,249.45,0.23,157.19,0
2020-03-11T14:55:00-05:00,71.25,18.53,733.29,238.42,0.25,268.08,0
2020-03-11T14:56:00-05:00,67.04,18.53,733.22,288.99,2.7,223.92,0
2020-03-11T14:57:00-05:00,68.53,18.47,733.72,272.23,1.04,203.27,0
2020-03-11T14:58:00-05:00,67.07,18.4,733.09,234.89,0.99,208.97,0
2020-03-11T14:59:00-05:00,67.38,18.31,733.66,239.15,1.08,158.48,0
2020-03-11T15:00:00-05:00,69.29,18.28,732.82,292.08,1.45,217.9,0
2020-03-11T15:01:00-05:00,68.43,18.21,733.42,306.78,0.86,194.96,0
2020-03-11T15:02:00-05:00,68.87,18.19,732.38,313.25,1.57,207.01,0
2020-03-11T15:03:00-05:00,67.8,18.17,732.05,314.28,1.19,220.85,0
2020-03-11T15:04:00-05:00,68,18.14,732.25,298.26,0.71,211.9,0
2020-03-11T15:05:00-05:00,69.17,18.13,731.68,272.97,1.05,201.94,0
2020-03-11T15:06:00-05:00,69.27,18.17,731.48,250.77,0.74,205.02,0
2020-03-11T15:07:00-05:00,70.76,18.2,731.75,240.18,0.37,244.78,0
2020-03-11T15:08:00-05:00,71.33,18.25,732.22,247.83,0.58,218.21,0
2020-03-11T15:09:00-05:00,70.25,18.29,732.38,269.59,0.63,225.15,0
2020-03-11T15:10:00-05:00,68.43,18.29,732.85,276.2,0.88,221.22,0
2020-03-11T15:11:00-05:00,67.19,18.26,732.79,270.32,0.59,202.9,0
2020-03-11T15:12:00-05:00,68.42,18.28,732.79,248.71,0.59,196.3,0
2020-03-11T15:13:00-05:00,69.51,18.34,734.13,237.54,0.22,246.72,0
2020-03-11T15:14:00-05:00,69.54,18.4,733.19,240.92,0.75,208.32,0
2020-03-11T15:15:00-05:00,68.97,18.41,733.82,256.5,0.55,246.71,0
2020-03-11T15:16:00-05:00,69.68,18.45,735.16,277.38,1.37,248.18,0
2020-03-11T15:17:00-05:00,69.5,18.51,735.3,295.9,0.61,206.03,0
2020-03-11T15:18:00-05:00,68.93,18.52,735.1,307.81,0.59,224.18,0
2020-03-11T15:19:00-05:00,69.94,18.58,735.4,318.99,1.49,242.82,0
2020-03-11T15:20:00-05:00,67.42,18.57,735.6,320.16,0.63,217.91,0
2020-03-11T15:21:00-05:00,68.85,18.59,736.4,287.38,0.56,206.99,0
2020-03-11T15:22:00-05:00,68.78,18.65,736.07,258.27,0.7,212.86,0
2020-03-11T15:23:00-05:00,67.46,18.66,736.13,240.92,0.95,235.83,0
2020-03-11T15:24:00-05:00,68.2,18.66,736.23,233.13,0.29,294.67,0
2020-03-11T15:25:00-05:00,68.75,18.7,736.13,230.92,0.65,198.97,0
2020-03-11T15:26:00-05:00,68.08,18.74,735.9,233.27,1.85,252.75,0
2020-03-11T15:27:00-05:00,67.1,18.74,737.1,246.06,0.9,214.97,0
2020-03-11T15:28:00-05:00,67.32,18.75,737.91,318.25,0.47,342.53,0
2020-03-11T15:29:00-05:00,66.67,18.82,733.22,612.15,0.75,37.61,0
2020-03-11T15:30:00-05:00,68.25,18.91,732.89,644.79,0.88,203.92,0
2020-03-11T15:31:00-05:00,65.68,19.02,734.29,665.23,0.68,155.56,0
2020-03-11T15:32:00-05:00,67.15,19.16,734.09,654.35,1.22,294.66,0
2020-03-11T15:33:00-05:00,65.2,19.3,733.82,358.68,0.72,331.86,0
2020-03-11T15:34:00-05:00,63.61,19.41,732.69,324.87,0.23,103.27,0
2020-03-11T15:35:00-05:00,63.69,19.51,732.62,300.61,0.9,168.43,0
2020-03-11T15:36:00-05:00,63.25,19.53,733.22,281.05,0.65,243.79,0
2020-03-11T15:37:00-05:00,64.75,19.52,733.59,256.5,0.61,14.98,0
2020-03-11T15:38:00-05:00,65.37,19.57,732.59,229.74,0.35,8.4,0
2020-03-11T15:39:00-05:00,64.41,19.64,733.29,218.57,0.17,40.71,0
2020-03-11T15:40:00-05:00,63.95,19.71,732.15,217.25,0.26,169.08,0
2020-03-11T15:41:00-05:00,63.1,19.67,732.59,218.86,0.25,261.71,0
2020-03-11T15:42:00-05:00,63.39,19.56,732.95,204.01,1.9,217.19,0
2020-03-11T15:43:00-05:00,62.28,19.4,732.52,189.31,0.76,75.38,0
2020-03-11T15:44:00-05:00,63.25,19.28,733.25,172.26,2.1,300.7,0
2020-03-11T15:45:00-05:00,62.55,19.16,732.89,148.88,0.66,216.9,0
2020-03-11T15:46:00-05:00,63.63,19.06,732.55,133.74,0.57,240.19,0
2020-03-11T15:47:00-05:00,63.55,18.97,733.42,125.36,0.32,214.91,0
2020-03-11T15:48:00-05:00,64.43,18.91,733.49,114.18,0.15,118.43,0
2020-03-11T15:49:00-05:00,65.89,18.9,732.35,102.42,0.43,181.03,0
2020-03-11T15:50:00-05:00,66.19,18.87,731.15,98.89,0.33,294.01,0
2020-03-11T15:51:00-05:00,66.94,18.86,732.45,93.31,0.42,197.02,0
2020-03-11T15:52:00-05:00,69.56,18.82,730.34,92.28,0.38,22.22,0
2020-03-11T15:53:00-05:00,67.09,18.76,730.31,93.89,0.17,215.9,0
2020-03-11T15:54:00-05:00,67.26,18.66,728.1,97.28,0.54,201.22,0
2020-03-11T15:55:00-05:00,68.53,18.55,727.53,97.13,0.53,137.28,0
2020-03-11T15:56:00-05:00,67.09,18.54,728.47,100.36,0.33,185.01,0
2020-03-11T15:57:00-05:00,65.93,18.48,728.57,105.8,0.12,239.82,0
2020-03-11T15:58:00-05:00,66.9,18.43,727.76,110.95,0.68,191.02,0
2020-03-11T15:59:00-05:00,67.2,18.33,733.22,110.51,0.56,226.86,0
2020-03-11T16:00:00-05:00,67.92,18.27,733.92,102.27,0.51,260.75,0
2020-03-11T16:01:00-05:00,68.88,18.25,733.15,95.36,0.65,218.87,0
2020-03-11T16:02:00-05:00,67.62,18.19,733.49,87.13,0.78,197.97,0
2020-03-11T16:03:00-05:00,65.11,18.07,732.79,82.28,0.39,297.61,0
2020-03-11T16:04:00-05:00,67.34,18.03,733.25,78.16,0.6,205.02,0
2020-03-11T16:05:00-05:00,67.74,17.95,734.09,77.13,0.59,219.19,0
2020-03-11T16:06:00-05:00,66.66,17.89,733.62,76.55,0.6,199.93,0
2020-03-11T16:07:00-05:00,66.69,17.77,733.89,76.25,0.48,208.3,0
2020-03-11T16:08:00-05:00,70.65,17.75,732.72,77.87,0.61,230.92,0
2020-03-11T16:09:00-05:00,68.23,17.67,733.99,83.75,0.99,353.86,0
2020-03-11T16:10:00-05:00,68.27,17.63,733.05,89.92,0.59,241.82,0
2020-03-11T16:11:00-05:00,68.69,17.63,732.99,90.51,2.33,230.12,0
2020-03-11T16:12:00-05:00,69.13,17.61,733.05,90.95,0.5,155.2,0
2020-03-11T16:13:00-05:00,70.15,17.6,732.99,100.51,0.36,264.8,0
2020-03-11T16:14:00-05:00,70.85,17.61,733.46,96.83,0.49,205.01,0
2020-03-11T16:15:00-05:00,70.56,17.63,733.76,87.13,0.65,192.94,0
2020-03-11T16:16:00-05:00,69.86,17.59,733.02,73.46,1.38,222.18,0
2020-03-11T16:17:00-05:00,68.71,17.53,732.65,61.84,0.45,202.24,0
2020-03-11T16:18:00-05:00,71.67,17.51,731.51,53.76,0.6,215.9,0
2020-03-11T16:19:00-05:00,70.13,17.47,731.92,49.64,0.74,185.01,0
2020-03-11T16:20:00-05:00,68.61,17.45,731.45,48.02,0.7,234.84,0
2020-03-11T16:21:00-05:00,69.74,17.41,730.58,46.99,0.63,137.61,0
2020-03-11T16:22:00-05:00,71.57,17.39,730.14,47.29,1.1,195.94,0
2020-03-11T16:23:00-05:00,69.55,17.31,730.48,43.76,1.66,233.86,0
2020-03-11T16:24:00-05:00,69.62,17.27,731.05,42.73,0.53,151.5,0
2020-03-11T16:25:00-05:00,70.73,17.31,729.81,41.11,0.62,202.2,0
2020-03-11T16:26:00-05:00,69.59,17.27,730.34,38.76,0.61,306.9,0
2020-03-11T16:27:00-05:00,69.9,17.29,729.67,38.32,0.17,345.51,0
2020-03-11T16:28:00-05:00,70.62,17.3,730.18,37.14,0.7,197.36,0
2020-03-11T16:29:00-05:00,69.52,17.23,728.2,34.5,0.61,216.91,0
2020-03-11T16:30:00-05:00,70.73,17.19,729.2,35.97,0.58,137.65,0
2020-03-11T16:31:00-05:00,72.38,17.17,733.49,33.32,0.57,209.95,0
2020-03-11T16:32:00-05:00,70.44,17.11,733.89,32.73,0.25,123.76,0
2020-03-11T16:33:00-05:00,72.49,17.11,734.02,28.17,0.12,239.82,0
2020-03-11T16:34:00-05:00,72.33,17.1,733.99,25.68,0.22,67.48,0
2020-03-11T16:35:00-05:00,73.06,17.13,733.42,23.47,0.15,278.67,0
2020-03-11T16:36:00-05:00,73.1,17.11,733.56,21.71,0.41,285.66,0
2020-03-11T16:37:00-05:00,70.62,17.08,733.52,18.62,0.59,202.93,0
2020-03-11T16:38:00-05:00,71.59,17.06,734.46,17.15,0.33,153.16,0
2020-03-11T16:39:00-05:00,71.62,17.02,733.39,16.27,0.3,230.91,0
2020-03-11T16:40:00-05:00,70.36,17,733.89,13.33,0.97,338.51,0
2020-03-11T16:41:00-05:00,71.49,16.96,733.82,12.15,1.57,257.84,0
2020-03-11T16:42:00-05:00,70.84,16.91,733.42,13.47,2.36,1.76,0
2020-03-11T16:43:00-05:00,70.77,16.86,733.32,11.27,0.72,269.05,0
2020-03-11T16:44:00-05:00,71.44,16.81,733.72,11.56,0.58,221.94,0
2020-03-11T16:45:00-05:00,71.35,16.78,734.13,8.77,0.84,125.56,0
2020-03-11T16:46:00-05:00,71.73,16.73,733.72,8.91,0.2,221.95,0
2020-03-11T16:47:00-05:00,72.56,16.72,733.22,7.74,0.22,100.79,0
2020-03-11T16:48:00-05:00,73.25,16.7,733.22,8.18,1.55,94.97,0
2020-03-11T16:49:00-05:00,73.89,16.65,732.79,7.74,0.64,81.99,0
2020-03-11T16:50:00-05:00,71.91,16.59,733.05,9.21,2.29,76.56,0
2020-03-11T16:51:00-05:00,71.84,16.52,732.18,10.09,0.79,103.05,0
2020-03-11T16:52:00-05:00,72.09,16.48,732.89,8.03,0.67,100.22,0
2020-03-11T16:53:00-05:00,72.36,16.44,732.08,8.03,0.64,162.25,0
2020-03-11T16:54:00-05:00,73.45,16.39,731.98,9.21,2.05,92.47,0
2020-03-11T16:55:00-05:00,74.47,16.38,731.72,10.97,0.54,167.11,0
2020-03-11T16:56:00-05:00,74.06,16.38,731.35,13.47,0.18,300.66,0
2020-03-11T16:57:00-05:00,72.87,16.34,732.45,14.65,0.36,246.74,0
2020-03-11T16:58:00-05:00,72.62,16.31,731.61,16.27,2.15,112.43,0
2020-03-11T16:59:00-05:00,72.63,16.25,731.38,20.82,0.27,149.5,0
2020-03-11T17:00:00-05:00,73.86,16.22,730.71,24.35,0.41,229.83,0
2020-03-11T17:01:00-05:00,74.07,16.19,730.18,25.09,0.66,218.9,0
2020-03-11T17:02:00-05:00,74.47,16.15,730.58,29.2,0.42,211.25,0
2020-03-11T17:03:00-05:00,74.85,16.12,731.05,30.38,0.06,18.89,0
2020-03-11T17:04:00-05:00,75.01,16.11,730.61,29.79,0.18,227.15,0
2020-03-11T17:05:00-05:00,75.19,16.09,730.34,32.29,0.56,210.94,0
2020-03-11T17:06:00-05:00,75.19,16.09,730.21,33.47,0.77,164.53,0
2020-03-11T17:07:00-05:00,75.47,16.1,730.28,34.64,0.89,192.01,0
2020-03-11T17:08:00-05:00,75.13,16.08,729.51,32.73,0.27,289.95,0
2020-03-11T17:09:00-05:00,76.27,16.08,730.81,32,0.14,67.03,0
2020-03-11T17:10:00-05:00,77.38,16.11,731.55,32.73,0.56,223.96,0
2020-03-11T17:11:00-05:00,75.77,16.06,730.84,29.35,1.24,207.01,0
2020-03-11T17:12:00-05:00,76,16.04,730.21,27.29,0.28,214.94,0
2020-03-11T17:13:00-05:00,77.07,16.03,730.64,28.47,0.59,130.39,0
2020-03-11T17:14:00-05:00,77.39,16.01,730.21,26.26,0.54,149.24,0
2020-03-11T17:15:00-05:00,77.44,15.99,729.57,26.7,0.13,199.98,0
2020-03-11T17:16:00-05:00,77.91,16,729.14,24.2,0.53,201.92,0
2020-03-11T17:17:00-05:00,76.79,15.97,729.67,22,0.49,176.07,0
2020-03-11T17:18:00-05:00,76.25,15.96,730.64,18.47,0.22,16.36,0
2020-03-11T17:19:00-05:00,76.77,15.96,729.27,18.77,0.39,251.77,0
2020-03-11T17:20:00-05:00,76.65,15.95,730.28,19.94,0.41,30.65,0
2020-03-11T17:21:00-05:00,76.67,15.96,730.58,23.91,0.6,165.46,0
2020-03-11T17:22:00-05:00,76.14,15.97,728.84,22.59,0.43,273.78,0
2020-03-11T17:23:00-05:00,76.8,15.99,729.51,22.88,0.77,225.25,0
2020-03-11T17:24:00-05:00,77.33,15.98,729.51,22.73,0.54,154.26,0
2020-03-11T17:25:00-05:00,74.6,15.94,728.84,23.47,1.07,259.1,0
2020-03-11T17:26:00-05:00,75.47,15.91,730.07,25.23,0.58,186,0
2020-03-11T17:27:00-05:00,75.09,15.9,729.07,25.53,0.33,163.55,0
2020-03-11T17:28:00-05:00,75.42,15.88,728.77,22.88,0.63,185.97,0
2020-03-11T17:29:00-05:00,76.06,15.84,728.3,23.62,0.66,223.19,0
2020-03-11T17:30:00-05:00,77.49,15.79,729.64,25.68,0.12,184.01,0
2020-03-11T17:31:00-05:00,77.37,15.77,729.3,26.26,0.24,198.97,0
2020-03-11T17:32:00-05:00,75.64,15.74,728.94,30.67,0.64,238.07,0
2020-03-11T17:33:00-05:00,76.35,15.73,728.4,31.85,0.25,170.4,0
2020-03-11T17:34:00-05:00,75.31,15.72,729.2,35.23,0.37,206.02,0
2020-03-11T17:35:00-05:00,76.51,15.72,728.47,35.53,0.13,191.97,0
2020-03-11T17:36:00-05:00,75.25,15.71,729.04,30.23,0.52,197.97,0
2020-03-11T17:37:00-05:00,75.28,15.7,728.7,27.44,0.21,6.98,0
2020-03-11T17:38:00-05:00,74.81,15.7,729.04,27.44,0.89,40.55,0
2020-03-11T17:39:00-05:00,74.43,15.73,729.04,24.2,0.27,117.12,0
2020-03-11T17:40:00-05:00,74.18,15.73,728.53,23.76,0.86,171.47,0
2020-03-11T17:41:00-05:00,75.37,15.76,729.34,20.53,0.33,290.68,0
2020-03-11T17:42:00-05:00,75.18,15.76,729.57,20.09,0.15,188.45,0
2020-03-11T17:43:00-05:00,74.37,15.75,727.9,16.12,0.6,64.17,0
2020-03-11T17:44:00-05:00,75.12,15.76,728.97,14.94,0.42,124.55,0
2020-03-11T17:45:00-05:00,75.76,15.77,729.74,13.03,0.61,292.67,0
2020-03-11T17:46:00-05:00,74.65,15.77,728.97,13.18,0.6,346.84,0
2020-03-11T17:47:00-05:00,74.74,15.76,734.36,9.94,1.01,311.64,0
2020-03-11T17:48:00-05:00,75.88,15.76,734.59,10.68,0.19,265.05,0
2020-03-11T17:49:00-05:00,74.76,15.75,734.09,9.5,0.11,151.19,0
2020-03-11T17:50:00-05:00,74.95,15.75,734.19,9.5,0.06,45.21,0
2020-03-11T17:51:00-05:00,74.78,15.71,734.02,5.68,1.37,322.52,0
2020-03-11T17:52:00-05:00,75.09,15.71,735.06,5.24,0.82,64.09,0
2020-03-11T17:53:00-05:00,75.92,15.69,733.52,5.97,2.24,42.7,0
2020-03-11T17:54:00-05:00,75.47,15.69,734.66,2.89,0.5,0.85,0
2020-03-11T17:55:00-05:00,75.31,15.69,733.36,3.33,0.23,355.44,0
2020-03-11T17:56:00-05:00,75.86,15.69,733.92,0.24,0.32,278.66,0
2020-03-11T17:57:00-05:00,75.12,15.69,733.89,1.27,0.59,19.19,0
2020-03-11T17:58:00-05:00,75.09,15.68,733.29,1.12,0.57,268.73,0
2020-03-11T17:59:00-05:00,74.71,15.66,734.23,-0.35,0.29,171.51,0
2020-03-11T18:00:00-05:00,75.59,15.67,733.42,-0.05,0.63,55.92,0
2020-03-11T18:01:00-05:00,74.15,15.63,733.86,-0.94,0.9,126.81,0
2020-03-11T18:02:00-05:00,73.45,15.62,732.79,-0.94,0.24,150.2,0
2020-03-11T18:03:00-05:00,74.57,15.61,733.32,-0.79,0.21,81.46,0
2020-03-11T18:04:00-05:00,74.79,15.62,732.99,1.71,0.24,262.72,0
2020-03-11T18:05:00-05:00,74.47,15.61,733.02,1.71,0.25,349.75,0
2020-03-11T18:06:00-05:00,74.92,15.61,733.52,-1.23,0.62,120.49,0
2020-03-11T18:07:00-05:00,74.21,15.58,732.75,-0.79,0.66,189.32,0
2020-03-11T18:08:00-05:00,73.85,15.55,733.36,0.83,0.6,188.1,0
2020-03-11T18:09:00-05:00,73.91,15.54,732.99,0.68,0.55,191.04,0
2020-03-11T18:10:00-05:00,75.14,15.51,733.32,0.39,0.67,136.2,0
2020-03-11T18:11:00-05:00,76.07,15.47,732.02,-1.23,0.35,138.92,0.1
2020-03-11T18:12:00-05:00,76.59,15.47,732.25,0.98,0.22,62.03,0
2020-03-11T18:13:00-05:00,76.5,15.45,731.72,-0.49,0.53,57.57,0
2020-03-11T18:14:00-05:00,76.95,15.41,731.98,-0.2,0.33,116.19,0
2020-03-11T18:15:00-05:00,77.03,15.42,732.48,-0.35,0.54,71.27,0
2020-03-11T18:16:00-05:00,76.63,15.41,731.88,-1.52,0.3,261.73,0
2020-03-11T18:17:00-05:00,76.3,15.41,732.15,-1.82,0.55,209.94,0
2020-03-11T18:18:00-05:00,75.28,15.37,732.52,-2.41,0.51,128.65,0
2020-03-11T18:19:00-05:00,74.5,15.35,732.35,-1.97,0.66,97.43,0
2020-03-11T18:20:00-05:00,76.36,15.37,732.89,-1.52,0.59,114.52,0
2020-03-11T18:21:00-05:00,76.58,15.35,731.65,-0.35,0.69,95.99,0
2020-03-11T18:22:00-05:00,74.23,15.33,732.35,-1.23,0.72,88.17,0
2020-03-11T18:23:00-05:00,75.02,15.33,732.18,-0.64,0.06,54.36,0
2020-03-11T18:24:00-05:00,75.66,15.31,731.85,-1.82,0.31,215.27,0
2020-03-11T18:25:00-05:00,76.33,15.31,731.21,-2.85,0.34,135.96,0
2020-03-11T18:26:00-05:00,76.35,15.29,731.88,-1.52,0.56,116.26,0
2020-03-11T18:27:00-05:00,77.01,15.27,731.05,0.09,0.92,69.39,0
2020-03-11T18:28:00-05:00,76.91,15.26,731.98,-0.05,1.49,57.03,0
2020-03-11T18:29:00-05:00,76.32,15.25,731.68,-1.67,0.61,164.18,0
2020-03-11T18:30:00-05:00,76.59,15.22,730.98,-0.79,1.14,229.78,0
2020-03-11T18:31:00-05:00,76.19,15.19,731.82,-2.41,0.59,228.83,0
2020-03-11T18:32:00-05:00,76.66,15.17,730.74,0.09,0.51,222.9,0
2020-03-11T18:33:00-05:00,76.8,15.15,730.61,-0.64,0.55,192.94,0
2020-03-11T18:34:00-05:00,78.35,15.13,731.15,-0.94,0.49,178.05,0
2020-03-11T18:35:00-05:00,78.01,15.09,731.21,-2.41,0.57,168.12,0
2020-03-11T18:36:00-05:00,78.05,15.06,730.84,-2.55,0.59,180.11,0
2020-03-11T18:37:00-05:00,78.95,15.03,730.74,-1.82,0.38,105.43,0
2020-03-11T18:38:00-05:00,78.82,15.01,730.14,-1.97,0.56,162.21,0
2020-03-11T18:39:00-05:00,77.9,14.99,730.14,-0.49,0.78,135.94,0
2020-03-11T18:40:00-05:00,78.8,14.99,730.51,-1.97,1.13,58.46,0
2020-03-11T18:41:00-05:00,77.94,14.98,730.71,-2.11,2.27,25.05,0
2020-03-11T18:42:00-05:00,78.18,15.02,730.98,0.39,0.07,253.72,0
2020-03-11T18:43:00-05:00,78.28,15.01,729.64,-2.85,0.65,145.63,0
2020-03-11T18:44:00-05:00,77.88,15.01,730.95,-1.82,1.03,130.98,0
2020-03-11T18:45:00-05:00,78.8,15,730.58,-2.26,0.16,49.97,0
2020-03-11T18:46:00-05:00,79,14.97,729.81,-1.38,0.24,214.94,0
2020-03-11T18:47:00-05:00,79.37,15,730.11,-2.85,0.58,165.13,0
2020-03-11T18:48:00-05:00,78.99,14.96,730.28,-0.64,0.62,121.23,0
2020-03-11T18:49:00-05:00,79.48,14.96,730.04,-1.38,0.56,158.21,0
2020-03-11T18:50:00-05:00,79.81,14.96,729.34,-2.7,0.22,70.64,0
2020-03-11T18:51:00-05:00,79.94,14.97,729.34,-1.82,0.72,45.83,0
2020-03-11T18:52:00-05:00,80.37,14.95,729.84,-0.2,0.63,72.46,0
2020-03-11T18:53:00-05:00,80.89,14.97,730.18,-2.41,0.51,50.85,0
2020-03-11T18:54:00-05:00,80.79,14.96,730.61,-1.23,0.39,116.22,0
2020-03-11T18:55:00-05:00,80.58,14.97,730.61,-0.35,0.41,176.09,0
2020-03-11T18:56:00-05:00,80.28,14.97,730.54,-3.29,0.14,212.25,0
2020-03-11T18:57:00-05:00,80.06,14.92,729.61,-2.11,0.55,191.01,0
2020-03-11T18:58:00-05:00,80.44,14.92,729.41,-1.08,0.55,226.25,0
2020-03-11T18:59:00-05:00,80.34,14.88,730.18,-3.29,0.57,149.17,0
2020-03-11T19:00:00-05:00,80.76,14.85,729.74,-3.44,0.51,172.49,0
2020-03-11T19:01:00-05:00,80.9,14.81,728.94,-2.26,0.58,143.22,0
2020-03-11T19:02:00-05:00,81.95,14.81,729.74,-3.29,0.75,79.61,0
2020-03-11T19:03:00-05:00,82.07,14.79,728.67,-1.23,0.6,211.91,0
2020-03-11T19:04:00-05:00,80.88,14.75,729.41,-3.58,0.27,181.34,0
2020-03-11T19:05:00-05:00,80.9,14.73,730.48,-1.52,0.62,135.22,0
2020-03-11T19:06:00-05:00,81.36,14.71,728.74,-1.23,0.26,124.9,0
2020-03-11T19:07:00-05:00,81.55,14.7,728.67,-2.85,0.37,82.38,0
2020-03-11T19:08:00-05:00,81.57,14.71,729.24,-1.52,0.56,79.91,0
2020-03-11T19:09:00-05:00,82.49,14.71,729.94,-1.97,0.47,147.23,0
2020-03-11T19:10:00-05:00,82.02,14.69,728.67,-2.41,0.57,164.17,0
2020-03-11T19:11:00-05:00,82.74,14.66,729.94,-1.67,0.64,129.14,0
2020-03-11T19:12:00-05:00,83.35,14.64,729.67,-2.7,0.57,240.84,0
2020-03-11T19:13:00-05:00,83.4,14.59,729.14,-1.08,0.47,183.62,0
2020-03-11T19:14:00-05:00,83.71,14.58,735.73,-1.82,0.37,197.25,0
2020-03-11T19:15:00-05:00,82.96,14.56,734.56,-2.11,0.71,173.41,0
2020-03-11T19:16:00-05:00,82.55,14.53,734.33,-2.11,0.39,143.12,0
2020-03-11T19:17:00-05:00,82.3,14.53,734.86,-1.97,0.56,210.28,0
2020-03-11T19:18:00-05:00,82.48,14.53,734.93,-1.67,0.68,148.23,0
2020-03-11T19:19:00-05:00,83.13,14.56,734.73,0.39,0.91,105.36,0
2020-03-11T19:20:00-05:00,82.2,14.54,735.36,-0.64,0.63,91.65,0
2020-03-11T19:21:00-05:00,82.3,14.57,734.43,-0.79,0.54,83.94,0
2020-03-11T19:22:00-05:00,82.75,14.59,734.53,-1.97,0.56,145.26,0
2020-03-11T19:23:00-05:00,82.41,14.58,736.13,-2.11,0.7,114.34,0
2020-03-11T19:24:00-05:00,82.66,14.61,734.96,0.24,0.23,192,0
2020-03-11T19:25:00-05:00,82.25,14.59,734.63,0.24,0.66,146.27,0
2020-03-11T19:26:00-05:00,82.05,14.59,735.06,-1.38,0.58,145.4,0
2020-03-11T19:27:00-05:00,83.06,14.59,734.56,-0.2,0.46,190.99,0
2020-03-11T19:28:00-05:00,83.39,14.6,734.33,-1.82,0.24,131.25,0
2020-03-11T19:29:00-05:00,83.89,14.61,735.6,-0.2,0.3,203.94,0
2020-03-11T19:30:00-05:00,83.61,14.58,735.36,0.09,0.65,141.23,0
2020-03-11T19:31:00-05:00,83.76,14.56,734.96,-0.2,0.69,138.26,0
2020-03-11T19:32:00-05:00,83.42,14.54,735.1,-0.79,0.63,160.13,0
2020-03-11T19:33:00-05:00,83.32,14.54,734.76,-1.67,0.51,167.11,0
2020-03-11T19:34:00-05:00,82.53,14.53,734.19,-1.67,0.41,159.45,0
2020-03-11T19:35:00-05:00,82.57,14.53,735.5,-1.97,0.25,147.23,0
2020-03-11T19:36:00-05:00,83.34,14.55,735.13,0.68,0.45,176.41,0
2020-03-11T19:37:00-05:00,83.11,14.55,735.23,-1.38,0.57,93.75,0
2020-03-11T19:38:00-05:00,83.62,14.58,734.36,-0.94,0.31,149.53,0
2020-03-11T19:39:00-05:00,83.3,14.57,734.93,-0.79,0.67,144.19,0
2020-03-11T19:40:00-05:00,83.92,14.55,734.96,-0.35,0.46,171.5,0
2020-03-11T19:41:00-05:00,83.82,14.55,734.36,0.09,0.55,195.93,0
2020-03-11T19:42:00-05:00,84.23,14.53,735.1,0.68,0.6,212.19,0
2020-03-11T19:43:00-05:00,84.78,14.53,734.63,-1.23,0.48,209.95,0
2020-03-11T19:44:00-05:00,84.95,14.54,735.1,-1.08,0.29,199.97,0
2020-03-11T19:45:00-05:00,84.85,14.53,734.56,-2.26,0.42,111.45,0
2020-03-11T19:46:00-05:00,84.46,14.5,734.96,-0.35,0.21,114.18,0
2020-03-11T19:47:00-05:00,84.54,14.51,734.02,0.53,0.14,197.24,0
2020-03-11T19:48:00-05:00,84.46,14.51,734.9,-1.08,0.36,145.55,0
2020-03-11T19:49:00-05:00,84.29,14.51,735.16,0.98,0.59,132.26,0
2020-03-11T19:50:00-05:00,84.3,14.53,735.23,1.12,0.31,94.1,0
2020-03-11T19:51:00-05:00,84.6,14.55,735.3,-0.64,0.26,179.13,0
2020-03-11T19:52:00-05:00,84.1,14.55,734.56,0.24,0.46,150.16,0
2020-03-11T19:53:00-05:00,84.35,14.54,735.26,0.53,0.27,109.89,0
2020-03-11T19:54:00-05:00,85.08,14.56,734.73,-1.67,0.39,162.22,0
2020-03-11T19:55:00-05:00,84.69,14.56,735.46,-0.64,0.42,203.27,0
2020-03-11T19:56:00-05:00,84.87,14.55,734.9,0.53,0.35,221.95,0
2020-03-11T19:57:00-05:00,85.39,14.54,733.92,-1.52,0.49,199.35,0
2020-03-11T19:58:00-05:00,85.33,14.53,734.96,0.68,0.54,210.95,0
2020-03-11T19:59:00-05:00,85.67,14.52,734.96,-2.41,0.59,143.54,0
2020-03-11T20:00:00-05:00,85.66,14.51,735.43,-1.38,0.53,235.82,0
2020-03-11T20:01:00-05:00,85.74,14.5,735.23,0.98,0.42,130.59,0
2020-03-11T20:02:00-05:00,85.69,14.5,735.93,0.39,0.06,57.28,0
2020-03-11T20:03:00-05:00,85.63,14.5,734.13,-1.23,0.07,127.51,0
2020-03-11T20:04:00-05:00,85.63,14.49,734.26,-1.52,0.37,150.19,0
2020-03-11T20:05:00-05:00,85.2,14.49,735,-1.67,0.66,161.13,0
2020-03-11T20:06:00-05:00,85.37,14.5,735.13,-1.82,0.13,175.09,0
2020-03-11T20:07:00-05:00,85.31,14.49,734.56,-0.2,0.53,132.38,0
2020-03-11T20:08:00-05:00,85.62,14.49,734.79,-0.64,0.25,219.87,0
2020-03-11T20:09:00-05:00,85.45,14.49,735.53,0.53,0.58,115.7,0
2020-03-11T20:10:00-05:00,85.57,14.47,734.46,-1.08,0.26,279.67,0
2020-03-11T20:11:00-05:00,85.31,14.47,735.7,-0.35,0.58,189.05,0
2020-03-11T20:12:00-05:00,85.49,14.45,734.56,-1.82,0.11,221.17,0
2020-03-11T20:13:00-05:00,85.81,14.47,734.59,-1.82,0.16,268.75,0
2020-03-11T20:14:00-05:00,85.97,14.45,734.59,0.24,0.22,173.47,0
2020-03-11T20:15:00-05:00,85.93,14.45,734.36,-0.94,0.29,155.23,0
2020-03-11T20:16:00-05:00,84.58,14.44,734.43,-1.52,0.83,261.08,0
2020-03-11T20:17:00-05:00,84.5,14.43,734.33,0.24,0.63,155.23,0
2020-03-11T20:18:00-05:00,84.79,14.43,734.76,-0.05,0.12,336.88,0
2020-03-11T20:19:00-05:00,84.75,14.43,735.43,-1.52,0.24,345.49,0
2020-03-11T20:20:00-05:00,84.4,14.44,734.93,-0.49,0.35,195.89,0
2020-03-11T20:21:00-05:00,84.02,14.41,734.36,-1.38,0.88,137.39,0
2020-03-11T20:22:00-05:00,84.46,14.42,734.09,-1.23,0.82,71.41,0
2020-03-11T20:23:00-05:00,84.72,14.42,735.1,-1.08,0.81,73.6,0
2020-03-11T20:24:00-05:00,84.14,14.43,733.96,-1.23,0.6,316.6,0
2020-03-11T20:25:00-05:00,84.27,14.43,734.66,-0.05,0.79,194.93,0
2020-03-11T20:26:00-05:00,84.42,14.42,734.39,-1.38,0.68,197.97,0
2020-03-11T20:27:00-05:00,84.17,14.38,734.96,-2.11,0.68,143.19,0
2020-03-11T20:28:00-05:00,84.43,14.37,734.13,-2.41,0.73,161.13,0
2020-03-11T20:29:00-05:00,84.3,14.34,733.92,-2.99,0.18,183.06,0
2020-03-11T20:30:00-05:00,84.84,14.34,733.92,-1.08,0.21,136.35,0
2020-03-11T20:31:00-05:00,84.11,14.34,733.36,-1.82,0.54,164.52,0
2020-03-11T20:32:00-05:00,84.44,14.34,734.83,-0.79,0.11,126.2,0
2020-03-11T20:33:00-05:00,84.22,14.32,734.56,-1.08,0.62,205.36,0
2020-03-11T20:34:00-05:00,84.12,14.31,733.86,-1.38,0.49,111.26,0
2020-03-11T20:35:00-05:00,84.86,14.32,734.59,-2.26,0.6,206.34,0
2020-03-11T20:36:00-05:00,85.15,14.33,734.02,-1.82,0.57,182.05,0
2020-03-11T20:37:00-05:00,85.57,14.31,733.69,-2.85,0.65,230.15,0
2020-03-11T20:38:00-05:00,85.33,14.27,735.2,-1.82,0.34,172.16,0
2020-03-11T20:39:00-05:00,85.33,14.25,733.49,-1.67,0.88,169.36,0
2020-03-11T20:40:00-05:00,84.83,14.22,733.62,-1.52,0.62,146.23,0
2020-03-11T20:41:00-05:00,84.64,14.19,733.59,-1.67,0.57,167.13,0
2020-03-11T20:42:00-05:00,84.91,14.2,733.52,-2.26,0.64,177.08,0
2020-03-11T20:43:00-05:00,85.09,14.18,733.59,0.24,0.55,227.84,0
2020-03-11T20:44:00-05:00,84.8,14.16,733.36,-2.55,0.3,145.27,0
2020-03-11T20:45:00-05:00,85.1,14.16,733.59,-2.26,0.32,225.85,0
2020-03-11T20:46:00-05:00,85.23,14.15,734.19,-2.41,0.54,179.13,0
2020-03-11T20:47:00-05:00,85.25,14.14,734.36,-2.55,0.59,216.9,0
2020-03-11T20:48:00-05:00,85.74,14.13,733.82,-1.82,0.6,190.05,0
2020-03-11T20:49:00-05:00,85.93,14.1,734.16,-2.55,0.52,216.91,0
2020-03-11T20:50:00-05:00,86.29,14.08,733.42,-0.49,0.54,239.2,0
2020-03-11T20:51:00-05:00,86.52,14.07,734.19,-0.79,0.63,193.96,0
2020-03-11T20:52:00-05:00,86.74,14.05,733.29,-1.23,0.58,183.39,0
2020-03-11T20:53:00-05:00,86.7,14.05,733.12,-0.64,0.6,190.04,0
2020-03-11T20:54:00-05:00,87.13,14.02,733.02,0.09,0.33,135.25,0
2020-03-11T20:55:00-05:00,86.92,14.02,733.86,0.24,0.74,234.1,0
2020-03-11T20:56:00-05:00,87.08,14,733.02,-1.23,0.68,221.18,0
2020-03-11T20:57:00-05:00,85.13,13.95,732.45,-2.26,0.57,211.9,0
2020-03-11T20:58:00-05:00,83.32,13.92,733.62,-1.97,0.93,165.39,0
2020-03-11T20:59:00-05:00,83.78,13.93,734.23,-2.26,0.57,200.97,0
2020-03-11T21:00:00-05:00,84.02,13.94,734.06,-0.64,0.25,250.8,0
2020-03-11T21:01:00-05:00,83.88,13.94,734.09,-0.79,0.52,158.18,0
2020-03-11T21:02:00-05:00,82.34,13.92,733.12,-0.64,0.21,212.87,0
2020-03-11T21:03:00-05:00,82.8,13.92,732.99,-0.94,0.3,74.86,0
2020-03-11T21:04:00-05:00,82.19,13.94,732.69,-1.23,0.58,185.01,0
2020-03-11T21:05:00-05:00,81.94,13.94,732.82,-1.52,0.32,174.09,0
2020-03-11T21:06:00-05:00,82.7,13.94,733.09,-1.82,0.57,106.68,0
2020-03-11T21:07:00-05:00,81.83,13.94,733.49,-1.08,0.55,112.25,0
2020-03-11T21:08:00-05:00,83.05,13.98,734.23,-1.52,0.32,148.25,0
2020-03-11T21:09:00-05:00,83.48,13.99,734.06,0.39,0.48,135.43,0
2020-03-11T21:10:00-05:00,83.15,14,733.02,-1.23,0.55,167.12,0
2020-03-11T21:11:00-05:00,82.43,14.01,733.19,1.12,0.6,183.38,0
2020-03-11T21:12:00-05:00,82.17,13.99,734.33,0.68,0.16,136.98,0
2020-03-11T21:13:00-05:00,82.51,14.02,733.36,0.68,0.61,72.19,0
2020-03-11T21:14:00-05:00,83.49,14.02,733.25,0.53,0.41,170.08,0
2020-03-11T21:15:00-05:00,83.3,14.04,734.26,0.39,0.27,87.1,0
2020-03-11T21:16:00-05:00,83.22,14.04,733.29,-1.52,0.39,133.21,0
2020-03-11T21:17:00-05:00,83.39,14.06,732.52,-0.2,0.27,131.54,0
2020-03-11T21:18:00-05:00,83.28,14.06,733.66,0.68,0.64,80.86,0
2020-03-11T21:19:00-05:00,82.53,14.04,732.95,0.68,0.59,71.06,0
2020-03-11T21:20:00-05:00,83.54,14.05,732.92,-0.49,0.6,32.63,0
2020-03-11T21:21:00-05:00,84.26,14.06,733.09,0.98,0.61,77.23,0
2020-03-11T21:22:00-05:00,83.34,14.08,734.06,-0.49,0.57,71.35,0
2020-03-11T21:23:00-05:00,83.24,14.08,733.49,0.98,0.6,113.26,0
2020-03-11T21:24:00-05:00,83.01,14.04,733.59,0.98,0.24,91.08,0
2020-03-11T21:25:00-05:00,83.05,14.07,733.66,0.68,0.64,72.18,0
2020-03-11T21:26:00-05:00,83.21,14.09,734.26,-1.38,0.69,38.56,0
2020-03-11T21:27:00-05:00,83.92,14.09,733.39,0.39,0.79,47.05,0
2020-03-11T21:28:00-05:00,81.14,14.07,733.36,0.39,1.03,41.07,0
2020-03-11T21:29:00-05:00,82.45,14.09,733.59,-1.52,0.64,23.03,0
2020-03-11T21:30:00-05:00,81.19,14.1,733.12,-0.94,1.27,47.71,0
2020-03-11T21:31:00-05:00,80.23,14.12,733.09,-0.79,1.88,42.39,0
2020-03-11T21:32:00-05:00,80.76,14.12,732.72,0.24,1.35,27.74,0
2020-03-11T21:33:00-05:00,80.11,14.11,733.15,-1.23,1.71,60.94,0
2020-03-11T21:34:00-05:00,79.35,14.12,733.72,0.09,1.6,56.3,0
2020-03-11T21:35:00-05:00,79.32,14.11,733.82,-0.64,0.84,357.44,0
2020-03-11T21:36:00-05:00,79.78,14.13,733.36,-0.05,0.73,87.21,0
2020-03-11T21:37:00-05:00,80.6,14.14,733.19,-0.05,0.49,181.09,0
2020-03-11T21:38:00-05:00,80.9,14.14,733.79,-1.23,0.59,190.01,0
2020-03-11T21:39:00-05:00,80.98,14.12,733.25,-1.52,0.18,128.51,0
2020-03-11T21:40:00-05:00,80.82,14.1,733.76,-0.05,0.62,116.78,0
2020-03-11T21:41:00-05:00,80.83,14.06,734.19,-1.52,0.19,143.18,0
2020-03-11T21:42:00-05:00,81.5,14.07,733.96,-0.64,0.63,53.83,0
2020-03-11T21:43:00-05:00,82.14,14.08,733.12,-1.52,0.21,57.96,0
2020-03-11T21:44:00-05:00,81.18,14.05,733.09,-1.67,0.58,77.14,0
2020-03-11T21:45:00-05:00,81.36,14.04,733.72,-2.11,1.32,26.18,0
2020-03-11T21:46:00-05:00,80.37,14.01,734.16,-1.52,0.83,78.6,0
2020-03-11T21:47:00-05:00,79.71,14,733.09,0.09,0.85,83.84,0
2020-03-11T21:48:00-05:00,80.39,14,733.02,-0.94,1.53,30.71,0
2020-03-11T21:49:00-05:00,80.21,13.97,734.02,-1.97,0.68,71.25,0
2020-03-11T21:50:00-05:00,79.97,13.97,734.13,-1.23,0.93,52.01,0
2020-03-11T21:51:00-05:00,80.07,13.96,732.69,0.98,0.45,74.85,0
2020-03-11T21:52:00-05:00,80.18,13.94,733.49,-1.38,1.84,68.36,0
2020-03-11T21:53:00-05:00,79.93,13.92,733.05,-0.79,0.8,82.68,0
2020-03-11T21:54:00-05:00,80.44,13.92,733.32,-2.26,0.65,34.66,0
2020-03-11T21:55:00-05:00,79.55,13.91,733.15,0.83,2.14,43.33,0
2020-03-11T21:56:00-05:00,78.38,13.9,734.16,0.68,2.85,79.66,0
2020-03-11T21:57:00-05:00,78.69,13.9,733.82,-1.97,0.59,180.13,0
2020-03-11T21:58:00-05:00,78.47,13.88,731.92,-1.23,2.45,48.71,0
2020-03-11T21:59:00-05:00,78.9,13.86,732.92,0.53,0.6,124.2,0
2020-03-11T22:00:00-05:00,78.98,13.84,732.75,-0.94,2.19,38.84,0
2020-03-11T22:01:00-05:00,79.46,13.84,732.35,0.68,0.95,201.97,0
2020-03-11T22:02:00-05:00,79.31,13.82,733.52,-0.79,1.32,67.08,0
2020-03-11T22:03:00-05:00,79.49,13.83,732.62,-0.2,0.62,120.85,0
2020-03-11T22:04:00-05:00,80.57,13.84,733.66,-1.82,0.54,99.16,0
2020-03-11T22:05:00-05:00,80.25,13.84,732.95,-0.05,2.05,43.26,0
2020-03-11T22:06:00-05:00,80.48,13.81,732.12,-0.49,2.21,92.8,0
2020-03-11T22:07:00-05:00,79.89,13.78,733.02,0.09,2.24,99.37,0
2020-03-11T22:08:00-05:00,79.11,13.79,732.62,-2.41,1.28,50.97,0
2020-03-11T22:09:00-05:00,79.56,13.8,732.59,-1.38,1.34,41.41,0
2020-03-11T22:10:00-05:00,79.63,13.8,732.82,-1.52,1.54,41.11,0
2020-03-11T22:11:00-05:00,79.53,13.8,731.95,-0.05,0.87,71.5,0
2020-03-11T22:12:00-05:00,79.99,13.81,732.65,-0.05,1.4,57.46,0
2020-03-11T22:13:00-05:00,79.96,13.8,732.45,-1.52,2.18,61.51,0
2020-03-11T22:14:00-05:00,79.29,13.8,733.29,0.39,1.78,27.68,0
2020-03-11T22:15:00-05:00,78.85,13.82,732.55,-0.64,1.32,44.43,0
2020-03-11T22:16:00-05:00,79.22,13.82,732.69,0.83,0.71,34.92,0
2020-03-11T22:17:00-05:00,80.03,13.84,732.65,-1.82,0.6,57.4,0
2020-03-11T22:18:00-05:00,80.49,13.84,732.12,-0.64,0.66,54.98,0
2020-03-11T22:19:00-05:00,80.91,13.82,732.32,-0.2,0.72,102.33,0
2020-03-11T22:20:00-05:00,80.97,13.8,732.35,-1.67,0.86,52.48,0
2020-03-11T22:21:00-05:00,80.7,13.75,732.75,-0.35,1.75,57.05,0
2020-03-11T22:22:00-05:00,81.6,13.71,732.89,-1.67,0.77,36.45,0
2020-03-11T22:23:00-05:00,81.5,13.68,732.55,-0.2,1.82,54.77,0
2020-03-11T22:24:00-05:00,80.9,13.64,731.88,-1.52,1.49,57.83,0
2020-03-11T22:25:00-05:00,82,13.65,732.65,-1.52,0.31,47.45,0
2020-03-11T22:26:00-05:00,82.21,13.64,732.12,0.39,1.01,31.15,0
2020-03-11T22:27:00-05:00,82.51,13.6,732.62,-1.08,2.16,64.09,0
2020-03-11T22:28:00-05:00,82.87,13.58,731.65,-0.64,0.74,55.19,0
2020-03-11T22:29:00-05:00,81.7,13.58,733.19,0.24,1.04,84.19,0
2020-03-11T22:30:00-05:00,80.77,13.6,731.92,-1.82,1,64.42,0
2020-03-11T22:31:00-05:00,80.24,13.64,732.99,-0.94,2.21,56.28,0
2020-03-11T22:32:00-05:00,79.23,13.66,732.45,-0.49,2.75,68.34,0
2020-03-11T22:33:00-05:00,79.7,13.67,733.09,0.68,1.48,84.96,0
2020-03-11T22:34:00-05:00,79.79,13.67,732.89,0.24,0.8,20.36,0
2020-03-11T22:35:00-05:00,79.79,13.66,732.45,-1.82,2,50.13,0
2020-03-11T22:36:00-05:00,79.32,13.66,732.22,-1.08,0.71,68.48,0
2020-03-11T22:37:00-05:00,79.53,13.65,732.79,-1.23,0.6,37.62,0
2020-03-11T22:38:00-05:00,80.05,13.65,732.08,0.39,1.15,57.31,0
2020-03-11T22:39:00-05:00,80.35,13.66,732.02,-0.2,0.65,29.73,0
2020-03-11T22:40:00-05:00,80.78,13.64,731.61,0.68,0.58,76.2,0
2020-03-11T22:41:00-05:00,80.48,13.63,731.21,-1.38,2.1,60.13,0
2020-03-11T22:42:00-05:00,81.34,13.64,731.08,-1.67,1.22,76.67,0
2020-03-11T22:43:00-05:00,79.61,13.64,733.09,1.12,1.68,56.8,0
2020-03-11T22:44:00-05:00,79.78,13.66,732.05,-0.35,0.9,159.48,0
2020-03-11T22:45:00-05:00,78.86,13.69,732.38,0.39,1.36,104.7,0
2020-03-11T22:46:00-05:00,78.64,13.67,732.12,-0.49,3.31,71.12,0
2020-03-11T22:47:00-05:00,78.28,13.7,731.72,-0.35,2.84,54.18,0
2020-03-11T22:48:00-05:00,78.12,13.68,732.08,-1.67,2.65,49.35,0
2020-03-11T22:49:00-05:00,78.25,13.68,731.45,-1.38,2.65,57.59,0
2020-03-11T22:50:00-05:00,78.02,13.67,732.92,0.53,1.78,56.3,0
2020-03-11T22:51:00-05:00,77.75,13.69,732.05,0.98,2.07,58.63,0
2020-03-11T22:52:00-05:00,78.09,13.7,732.89,0.68,1.05,331.8,0
2020-03-11T22:53:00-05:00,77.86,13.7,732.82,0.98,1.71,66.31,0
2020-03-11T22:54:00-05:00,78.31,13.67,732.82,0.68,1.47,26,0
2020-03-11T22:55:00-05:00,79.04,13.7,732.99,0.68,0.65,104.8,0
2020-03-11T22:56:00-05:00,78.92,13.7,733.25,0.53,3.81,57.76,0
2020-03-11T22:57:00-05:00,78.15,13.68,731.82,0.09,0.64,102.51,0
2020-03-11T22:58:00-05:00,79,13.69,732.69,0.39,0.87,94.46,0
2020-03-11T22:59:00-05:00,79.4,13.7,733.12,-1.67,1,83.44,0
2020-03-11T23:00:00-05:00,79.57,13.66,732.75,-0.79,2.68,52.48,0
2020-03-11T23:01:00-05:00,80.03,13.62,731.55,-0.35,0.57,98.41,0
2020-03-11T23:02:00-05:00,79.83,13.58,732.75,-1.08,2.44,63.23,0
2020-03-11T23:03:00-05:00,78.83,13.6,731.85,0.53,0.86,80.32,0
2020-03-11T23:04:00-05:00,79.06,13.6,731.78,-1.08,3.6,63.01,0
2020-03-11T23:05:00-05:00,78.08,13.6,732.22,-0.2,0.22,27.77,0
2020-03-11T23:06:00-05:00,77.59,13.64,732.12,-0.94,1.9,33.63,0
2020-03-11T23:07:00-05:00,78,13.66,732.18,0.24,2.87,35.54,0
2020-03-11T23:08:00-05:00,77.68,13.68,733.09,-1.23,2.09,36.21,0
2020-03-11T23:09:00-05:00,77.96,13.68,731.85,-0.2,0.14,199.32,0
2020-03-11T23:10:00-05:00,77.81,13.68,731.95,-1.38,0.23,270.71,0
2020-03-11T23:11:00-05:00,78.01,13.68,731.92,-1.08,0.32,181.33,0
2020-03-11T23:12:00-05:00,78.55,13.68,732.42,-1.82,0.21,120.49,0
2020-03-11T23:13:00-05:00,79.53,13.69,732.08,-0.64,0.33,159.17,0
2020-03-11T23:14:00-05:00,78.99,13.66,732.69,-1.67,0.71,57.8,0
2020-03-11T23:15:00-05:00,79.61,13.64,732.72,-2.11,0.57,336.56,0
2020-03-11T23:16:00-05:00,80.28,13.61,731.45,0.39,0.61,51.27,0
2020-03-11T23:17:00-05:00,80.92,13.6,731.85,-2.11,1.27,51.8,0
2020-03-11T23:18:00-05:00,80.32,13.62,732.08,-0.35,2.04,44.88,0
2020-03-11T23:19:00-05:00,78.32,13.63,732.92,-0.94,2.27,59.03,0
2020-03-11T23:20:00-05:00,77.51,13.66,732.59,-0.49,1.49,66.17,0
2020-03-11T23:21:00-05:00,78.87,13.67,733.49,0.39,0.63,131.07,0
2020-03-11T23:22:00-05:00,79.26,13.67,732.12,-1.23,1.13,66.16,0
2020-03-11T23:23:00-05:00,78.85,13.61,731.38,-0.94,0.57,132.23,0
2020-03-11T23:24:00-05:00,81.1,13.62,731.98,-1.52,0.76,66.76,0
2020-03-11T23:25:00-05:00,80.98,13.57,732.85,-0.2,0.61,58.04,0
2020-03-11T23:26:00-05:00,81.47,13.56,732.22,-1.52,0.63,100.04,0
2020-03-11T23:27:00-05:00,80.76,13.54,732.75,-0.64,1.62,67.06,0
2020-03-11T23:28:00-05:00,80.17,13.54,732.18,-1.38,1.03,32.43,0
2020-03-11T23:29:00-05:00,81.66,13.55,732.28,0.53,0.56,128.61,0
2020-03-11T23:30:00-05:00,80.03,13.52,731.58,0.53,0.82,54.22,0
2020-03-11T23:31:00-05:00,79.14,13.56,732.15,-1.82,1.27,40.04,0
2020-03-11T23:32:00-05:00,78.48,13.53,732.55,-1.23,2.07,58.69,0
2020-03-11T23:33:00-05:00,78.21,13.48,731.48,-1.52,2.12,56.88,0
2020-03-11T23:34:00-05:00,78.74,13.44,731.65,-2.11,2.29,53.02,0
2020-03-11T23:35:00-05:00,78.93,13.4,731.35,0.53,0.97,60.32,0
2020-03-11T23:36:00-05:00,79.35,13.38,730.91,-0.64,0.86,21.39,0
2020-03-11T23:37:00-05:00,79.25,13.39,731.31,-0.2,3.13,21.68,0
2020-03-11T23:38:00-05:00,77.77,13.4,731.82,-0.79,3.07,67.39,0
2020-03-11T23:39:00-05:00,77.39,13.4,731.18,-0.2,1.21,45.05,0
2020-03-11T23:40:00-05:00,77.49,13.38,731.82,-0.79,2.97,39.52,0
2020-03-11T23:41:00-05:00,77.27,13.37,731.85,-1.23,2.02,30.06,0
2020-03-11T23:42:00-05:00,77.61,13.36,731.05,-1.38,0.86,351.53,0
2020-03-11T23:43:00-05:00,78.42,13.36,731.72,-1.67,0.6,165.47,0
2020-03-11T23:44:00-05:00,78.87,13.33,730.58,-0.94,0.66,132.23,0
2020-03-11T23:45:00-05:00,78.84,13.31,731.58,-0.79,0.69,95.93,0
2020-03-11T23:46:00-05:00,79.16,13.29,730.71,-2.7,0.24,149.21,0
2020-03-11T23:47:00-05:00,79.83,13.27,731.21,-1.52,0.53,93.6,0
2020-03-11T23:48:00-05:00,80.4,13.28,731.58,-2.99,0.45,5.72,0
2020-03-11T23:49:00-05:00,79.99,13.26,730.44,-2.85,0.87,80.02,0
2020-03-11T23:50:00-05:00,80.21,13.24,730.58,-1.52,1.05,69.74,0
2020-03-11T23:51:00-05:00,80.63,13.22,731.85,-2.11,0.52,82.88,0
2020-03-11T23:52:00-05:00,80.09,13.2,730.64,-2.55,0.55,319.84,0
2020-03-11T23:53:00-05:00,80.53,13.2,730.78,-2.26,0.45,116.88,0
2020-03-11T23:54:00-05:00,80.73,13.19,730.51,-0.64,0.57,153.15,0
2020-03-11T23:55:00-05:00,80.7,13.16,731.21,-0.49,0.64,101.83,0
2020-03-11T23:56:00-05:00,80.8,13.14,731.65,-2.7,0.58,107.59,0
2020-03-11T23:57:00-05:00,80.92,13.12,731.41,-0.35,0.47,143.08,0
2020-03-11T23:58:00-05:00,80.85,13.12,736.74,-1.52,0.43,147.24,0
2020-03-11T23:59:00-05:00,81.2,13.1,736.6,-1.52,0.57,63.38,0
