time,[HUME],[TEMP],[PRES],[RADI],[RAPV],[DIRV],[PREC]
2020-03-08T00:00:00-05:00,79,12.87,736.3,-1.82,3.71,27.96,0
2020-03-08T00:01:00-05:00,78.73,12.87,737.27,-1.08,2.44,21.27,0
2020-03-08T00:02:00-05:00,78.6,12.89,736.6,-1.52,1.45,59.36,0
2020-03-08T00:03:00-05:00,78.64,12.88,737.94,-0.79,1.48,15.4,0
2020-03-08T00:04:00-05:00,78.41,12.9,737.64,-2.11,0.66,52,0
2020-03-08T00:05:00-05:00,78.3,12.91,736.94,-1.52,2.73,96.7,0
2020-03-08T00:06:00-05:00,77.76,12.95,737.31,-2.11,1.86,292.7,0
2020-03-08T00:07:00-05:00,77.78,12.96,737.77,-2.55,0.37,244.79,0
2020-03-08T00:08:00-05:00,77.59,12.97,737.94,-0.64,3.62,59.84,0
2020-03-08T00:09:00-05:00,77.47,12.97,736.43,-2.55,2.31,100.08,0
2020-03-08T00:10:00-05:00,77.38,12.99,736.8,-0.79,1.88,0.73,0
2020-03-08T00:11:00-05:00,77.36,13,736.37,-1.08,3.28,57.34,0
2020-03-08T00:12:00-05:00,77.37,12.98,737.77,-1.82,3.61,46.72,0
2020-03-08T00:13:00-05:00,77.43,12.97,737,-1.97,1.21,58.24,0
2020-03-08T00:14:00-05:00,77.5,12.97,736.67,-3.88,5.39,38.47,0
2020-03-08T00:15:00-05:00,77.76,12.95,737.14,-1.82,1.82,21.84,0
2020-03-08T00:16:00-05:00,78.05,12.94,737,-2.99,0.24,239.16,0
2020-03-08T00:17:00-05:00,78.14,12.9,736.64,-3.58,0.25,357.79,0
2020-03-08T00:18:00-05:00,78.24,12.89,736.23,-3.73,2.63,72.55,0
2020-03-08T00:19:00-05:00,78.33,12.85,736.74,-2.7,3.37,225.24,0
2020-03-08T00:20:00-05:00,78.42,12.83,737.04,-2.55,1.69,294.64,0
2020-03-08T00:21:00-05:00,78.29,12.82,737.37,-4.02,0.66,333.92,0
2020-03-08T00:22:00-05:00,78.59,12.81,736.23,-1.97,1.03,9.99,0
2020-03-08T00:23:00-05:00,78.36,12.81,736.57,-3.88,0.9,9.19,0
2020-03-08T00:24:00-05:00,78.14,12.82,736.4,-3.29,0.53,281.74,0
2020-03-08T00:25:00-05:00,78.46,12.83,737.34,-2.7,0.45,277.7,0
2020-03-08T00:26:00-05:00,78.27,12.82,737,-1.08,2.85,22.81,0
2020-03-08T00:27:00-05:00,78.42,12.81,737.87,-0.94,0.06,49.36,0
2020-03-08T00:28:00-05:00,78.44,12.8,737.27,-1.67,0.67,276.69,0
2020-03-08T00:29:00-05:00,78.59,12.78,736.2,-4.17,0.76,285.66,0
2020-03-08T00:30:00-05:00,79.01,12.73,737.04,-2.11,1.83,318.57,0
2020-03-08T00:31:00-05:00,79.15,12.69,737.77,-4.17,0.65,346.5,0
2020-03-08T00:32:00-05:00,79.11,12.68,737.81,-3.14,0.18,113.04,0
2020-03-08T00:33:00-05:00,79.11,12.68,737.64,-2.85,2.22,320.52,0
2020-03-08T00:34:00-05:00,79.13,12.66,737.04,-3.88,0.59,348.78,0
2020-03-08T00:35:00-05:00,79.27,12.64,737.27,-2.55,0.77,268.75,0
2020-03-08T00:36:00-05:00,79.49,12.61,737.24,-2.7,0.8,12.16,0
2020-03-08T00:37:00-05:00,79.49,12.6,737.14,-2.11,0.8,251.79,0
2020-03-08T00:38:00-05:00,79.45,12.6,737.2,-1.52,1.28,288.93,0
2020-03-08T00:39:00-05:00,79.61,12.59,737.1,-2.85,0.15,48.52,0
2020-03-08T00:40:00-05:00,79.83,12.59,736.13,-1.08,2.39,309,0
2020-03-08T00:41:00-05:00,80.14,12.6,737.64,-2.85,0.58,87.73,0
2020-03-08T00:42:00-05:00,80.37,12.57,736.4,-2.41,0.54,220.25,0
2020-03-08T00:43:00-05:00,80.61,12.57,737,-2.26,0.77,263.7,0
2020-03-08T00:44:00-05:00,80.71,12.54,736.74,-2.11,0.72,258.79,0
2020-03-08T00:45:00-05:00,80.77,12.55,737.57,-1.67,0.62,60.41,0
2020-03-08T00:46:00-05:00,80.92,12.54,737.14,0.83,0.8,188.08,0
2020-03-08T00:47:00-05:00,80.8,12.54,736.4,0.09,0.58,308.65,0
2020-03-08T00:48:00-05:00,81.19,12.53,737.2,-1.82,0.73,282.73,0
2020-03-08T00:49:00-05:00,80.98,12.49,736.27,-1.67,1.13,226.17,0
2020-03-08T00:50:00-05:00,80.72,12.51,736.07,0.24,0.24,15.94,0
2020-03-08T00:51:00-05:00,81,12.51,737.47,0.09,0.64,318.6,0
2020-03-08T00:52:00-05:00,81.3,12.51,737.41,-1.82,2.26,310.64,0
2020-03-08T00:53:00-05:00,81.38,12.5,737.81,-0.79,0.63,211.38,0
2020-03-08T00:54:00-05:00,81.3,12.5,736.4,0.98,0.58,213.97,0
2020-03-08T00:55:00-05:00,81.42,12.48,736.07,-0.79,0.49,275.06,0
2020-03-08T00:56:00-05:00,81.67,12.47,736.47,-0.79,0.9,351.52,0
2020-03-08T00:57:00-05:00,81.5,12.47,736.4,0.39,0.96,10.19,0
2020-03-08T00:58:00-05:00,81.63,12.51,736.3,-0.49,0.3,301.65,0
2020-03-08T00:59:00-05:00,81.68,12.51,737.44,-0.35,0.47,227.2,0
2020-03-08T01:00:00-05:00,81.62,12.51,736.43,-1.23,0.39,254.74,0
2020-03-08T01:01:00-05:00,81.87,12.52,737.31,-0.94,0.26,203.28,0
2020-03-08T01:02:00-05:00,81.82,12.51,737.17,0.39,0.77,333.61,0
2020-03-08T01:03:00-05:00,81.52,12.51,735.97,0.24,0.82,331.54,0
2020-03-08T01:04:00-05:00,81.13,12.54,736.67,-1.38,1.53,316.63,0
2020-03-08T01:05:00-05:00,81.18,12.55,736,1.27,1.99,35.55,0
2020-03-08T01:06:00-05:00,80.8,12.57,736.74,1.12,1.07,62.54,0
2020-03-08T01:07:00-05:00,80.55,12.59,736.67,-0.49,0.58,328.58,0
2020-03-08T01:08:00-05:00,80.62,12.59,736.97,-0.94,0.58,235.81,0
2020-03-08T01:09:00-05:00,80.82,12.6,737.37,0.53,0.53,321.57,0
2020-03-08T01:10:00-05:00,81.26,12.58,737.1,-1.38,0.56,165.17,0
2020-03-08T01:11:00-05:00,81.62,12.58,736.13,-2.11,0.51,173.18,0
2020-03-08T01:12:00-05:00,81.6,12.56,736.7,0.09,0.11,144.5,0
2020-03-08T01:13:00-05:00,81.02,12.55,736.57,0.24,0.56,84.95,0
2020-03-08T01:14:00-05:00,80.86,12.56,735.77,-0.64,0.58,97.61,0
2020-03-08T01:15:00-05:00,80.87,12.55,736.03,-1.97,0.51,116.02,0
2020-03-08T01:16:00-05:00,81.16,12.55,737.47,0.39,0.53,208.3,0
2020-03-08T01:17:00-05:00,81.26,12.55,737.1,-0.94,0.34,193.95,0
2020-03-08T01:18:00-05:00,81.11,12.53,735.87,0.24,0.77,266.14,0
2020-03-08T01:19:00-05:00,81.14,12.53,736.47,-0.2,0.56,174.12,0
2020-03-08T01:20:00-05:00,81.52,12.49,737.14,-1.08,0.66,161.49,0
2020-03-08T01:21:00-05:00,81.65,12.48,736.07,-2.11,0.96,199.98,0
2020-03-08T01:22:00-05:00,81.68,12.46,736.07,-2.7,0.3,288.62,0
2020-03-08T01:23:00-05:00,81.87,12.44,736,-1.23,0.45,138.23,0
2020-03-08T01:24:00-05:00,82.26,12.45,736.97,-3.14,0.23,351.85,0
2020-03-08T01:25:00-05:00,81.89,12.43,736.64,-1.52,1.18,62.63,0
2020-03-08T01:26:00-05:00,81.39,12.44,735.8,-2.41,1.15,86.12,0
2020-03-08T01:27:00-05:00,80.42,12.45,736.74,-1.08,0.3,346.47,0
2020-03-08T01:28:00-05:00,80.92,12.47,736.23,-1.08,0.28,122.97,0
2020-03-08T01:29:00-05:00,81.22,12.47,735.9,-2.11,0.23,282.7,0
2020-03-08T01:30:00-05:00,81.13,12.45,736.9,-3.58,0.21,348.47,0
2020-03-08T01:31:00-05:00,80.76,12.41,737.04,-2.26,0.24,233.29,0
2020-03-08T01:32:00-05:00,80.45,12.39,736.64,-3.73,0.11,197,0
2020-03-08T01:33:00-05:00,80.58,12.39,736.9,-2.7,0.62,117.74,0
2020-03-08T01:34:00-05:00,80.6,12.39,735.8,-4.32,0.7,180.11,0
2020-03-08T01:35:00-05:00,80.41,12.37,736.2,-2.99,0.33,176.43,0
2020-03-08T01:36:00-05:00,80.48,12.37,736.67,-4.91,0.41,218.87,0
2020-03-08T01:37:00-05:00,81.03,12.34,735.87,-2.26,0.24,176.43,0
2020-03-08T01:38:00-05:00,81,12.33,735.77,-4.61,0.64,7.25,0
2020-03-08T01:39:00-05:00,81.04,12.32,735.6,-4.61,0.9,276.07,0
2020-03-08T01:40:00-05:00,81.3,12.27,737.27,-4.46,0.09,257.82,0
2020-03-08T01:41:00-05:00,81.76,12.25,736.4,-5.05,0.63,190.05,0
2020-03-08T01:42:00-05:00,81.97,12.21,736.17,-4.32,0.43,275.74,0
2020-03-08T01:43:00-05:00,81.92,12.17,736.57,-4.46,0.23,198.03,0
2020-03-08T01:44:00-05:00,82.14,12.14,735.87,-4.91,0.57,119.15,0
2020-03-08T01:45:00-05:00,82.17,12.11,736.5,-5.49,0.5,316.63,0
2020-03-08T01:46:00-05:00,81.76,12.08,736.1,-4.76,0.91,174.13,0
2020-03-08T01:47:00-05:00,81.87,12.06,735.93,-4.32,0.1,130.38,0
2020-03-08T01:48:00-05:00,81.43,12.05,736.43,-4.02,0.69,91.44,0
2020-03-08T01:49:00-05:00,81.48,12.07,736.94,-2.26,0.71,145.29,0
2020-03-08T01:50:00-05:00,81.36,12.07,737.1,-3.58,0.73,201.98,0
2020-03-08T01:51:00-05:00,80.74,12.09,736.67,-3.14,0.43,230.9,0
2020-03-08T01:52:00-05:00,81.04,12.09,736.43,-3.73,0.69,317.96,0
2020-03-08T01:53:00-05:00,80.66,12.08,735.06,-1.67,0.66,64.44,0
2020-03-08T01:54:00-05:00,80.51,12.09,735.87,-3.58,0.71,273.01,0
2020-03-08T01:55:00-05:00,80.53,12.09,736.97,-1.38,0.6,174.12,0
2020-03-08T01:56:00-05:00,81.08,12.09,736.9,-2.55,0.59,266.14,0
2020-03-08T01:57:00-05:00,80.52,12.09,736.54,-3.14,0.33,9.09,0
2020-03-08T01:58:00-05:00,80.74,12.07,736.33,-2.41,0.63,184.35,0
2020-03-08T01:59:00-05:00,80.98,12.05,736.3,-4.46,0.51,131.06,0
2020-03-08T02:00:00-05:00,80.33,12.06,736.87,-3.14,0.28,247.83,0
2020-03-08T02:01:00-05:00,80.38,12.07,735.6,-2.55,0.98,193.98,0
2020-03-08T02:02:00-05:00,80.63,12.03,736.64,-3.58,1.19,192.98,0
2020-03-08T02:03:00-05:00,80.5,12,735.53,-3.88,1.1,191,0
2020-03-08T02:04:00-05:00,80.56,12.01,736.8,-2.85,2.3,290.68,0
2020-03-08T02:05:00-05:00,80.43,12,736.47,-2.7,0.73,246.74,0
2020-03-08T02:06:00-05:00,80.66,12,736.43,-2.85,0.6,216.93,0
2020-03-08T02:07:00-05:00,80.76,11.98,735.4,-4.02,0.6,197,0
2020-03-08T02:08:00-05:00,80.59,11.94,735.53,-3.14,0.88,244.78,0
2020-03-08T02:09:00-05:00,80.6,11.93,735.36,-3.58,0.99,39.69,0
2020-03-08T02:10:00-05:00,80.65,11.94,735.33,-3.14,0.8,16.1,0
2020-03-08T02:11:00-05:00,80.12,11.96,735.63,-2.99,0.95,255.05,0
2020-03-08T02:12:00-05:00,80.02,12,736.77,-3.58,0.66,80.69,0
2020-03-08T02:13:00-05:00,79.35,12.03,736.7,-3.14,0.68,188.4,0
2020-03-08T02:14:00-05:00,79.04,12.07,734.93,-2.55,2.41,344.51,0
2020-03-08T02:15:00-05:00,78.58,12.14,735.83,-1.23,0.72,55.55,0
2020-03-08T02:16:00-05:00,78.24,12.16,735.53,-2.99,0.61,198,0
2020-03-08T02:17:00-05:00,78.09,12.19,735.33,-3.29,0.89,217.25,0
2020-03-08T02:18:00-05:00,78.38,12.18,736.54,-3.44,0.75,337.51,0
2020-03-08T02:19:00-05:00,78.68,12.16,736,-3.29,0.53,220.88,0
2020-03-08T02:20:00-05:00,78.84,12.13,735.8,-3.73,0.6,210.95,0
2020-03-08T02:21:00-05:00,78.6,12.09,736.1,-2.85,2.27,252.82,0
2020-03-08T02:22:00-05:00,77.81,12.13,736.4,-1.67,0.92,327.6,0
2020-03-08T02:23:00-05:00,78.37,12.16,735.33,-1.97,1.01,152.18,0
2020-03-08T02:24:00-05:00,79.18,12.13,735.33,-3.73,0.49,90.64,0
2020-03-08T02:25:00-05:00,79.17,12.09,735.6,-4.76,0.23,233.85,0
2020-03-08T02:26:00-05:00,79.76,12.05,735,-5.64,0.58,1.76,0
2020-03-08T02:27:00-05:00,79.67,12.01,734.96,-3.58,0.57,283.7,0
2020-03-08T02:28:00-05:00,79.91,11.97,735.73,-5.05,0.41,318.6,0
2020-03-08T02:29:00-05:00,80.25,11.92,736.37,-2.7,0.19,127.21,0
2020-03-08T02:30:00-05:00,80.78,11.89,735.26,-4.17,0.27,72.77,0
2020-03-08T02:31:00-05:00,81,11.83,736.1,-5.93,0.65,126.67,0
2020-03-08T02:32:00-05:00,80.71,11.8,736.33,-5.05,0.27,53.3,0
2020-03-08T02:33:00-05:00,80.87,11.79,735.36,-4.17,0.81,356.48,0
2020-03-08T02:34:00-05:00,80.69,11.77,736.4,-3.58,0.71,346.83,0
2020-03-08T02:35:00-05:00,80.46,11.76,735.63,-4.91,0.86,337.53,0
2020-03-08T02:36:00-05:00,80.32,11.79,736.03,-5.05,0.81,343.84,0
2020-03-08T02:37:00-05:00,80.23,11.79,735.63,-3.73,1.2,295.64,0
2020-03-08T02:38:00-05:00,79.6,11.84,735.7,-1.82,1.76,9.17,0
2020-03-08T02:39:00-05:00,79.19,11.94,735.36,-1.97,1.01,94.64,0
2020-03-08T02:40:00-05:00,78.98,11.99,735.46,-1.08,1,12.04,0
2020-03-08T02:41:00-05:00,78.64,12.06,735.97,-1.23,0.75,39.26,0
2020-03-08T02:42:00-05:00,78.61,12.09,736.1,-1.97,0.69,298.73,0
2020-03-08T02:43:00-05:00,78.58,12.08,734.86,-3.44,0.91,318.62,0
2020-03-08T02:44:00-05:00,78.26,12.11,734.9,-3.73,0.32,65.61,0
2020-03-08T02:45:00-05:00,78.4,12.13,735.56,-2.41,1.06,18.51,0
2020-03-08T02:46:00-05:00,78.2,12.13,736.07,-3.88,0.73,30.6,0
2020-03-08T02:47:00-05:00,77.98,12.17,734.36,-3.88,0.32,293.65,0
2020-03-08T02:48:00-05:00,78.4,12.15,735.5,-4.02,1.18,347.51,0
2020-03-08T02:49:00-05:00,78.56,12.13,734.76,-2.99,0.67,214.27,0
2020-03-08T02:50:00-05:00,78.82,12.09,735.33,-3.88,0.59,234.82,0
2020-03-08T02:51:00-05:00,79.26,12.04,734.73,-2.55,0.65,253.11,0
2020-03-08T02:52:00-05:00,79.53,12.01,734.83,-3.44,2.19,280.63,0
2020-03-08T02:53:00-05:00,79.49,11.99,735.06,-2.85,2.32,1.2,0
2020-03-08T02:54:00-05:00,79.53,12.03,734.13,-1.08,0.73,322.54,0
2020-03-08T02:55:00-05:00,79.71,12.05,736.07,-1.08,0.72,242.15,0
2020-03-08T02:56:00-05:00,79.48,12.04,735.97,-2.11,0.61,198.98,0
2020-03-08T02:57:00-05:00,79.39,12.02,735.2,-2.41,2.16,306.62,0
2020-03-08T02:58:00-05:00,79.38,12.03,735.73,-0.64,0.81,292.71,0
2020-03-08T02:59:00-05:00,79.59,12.03,735.36,-2.11,1.09,267.77,0
2020-03-08T03:00:00-05:00,79.51,12.01,736,-2.11,0.56,191.99,0
2020-03-08T03:01:00-05:00,79.67,12.03,734.86,-2.7,0.11,98.29,0
2020-03-08T03:02:00-05:00,80.06,12.02,735.1,-0.35,0.12,316.64,0
2020-03-08T03:03:00-05:00,79.84,12.01,735.8,-2.99,0.23,170.06,0
2020-03-08T03:04:00-05:00,80.15,12.01,736.57,-2.26,0.26,162.5,0
2020-03-08T03:05:00-05:00,80.4,12.01,736.6,-1.82,0.56,127.12,0
2020-03-08T03:06:00-05:00,80.65,11.96,736.54,-1.38,1.45,59.36,0
2020-03-08T03:07:00-05:00,80.41,11.97,735.33,-0.35,1.24,50.79,0
2020-03-08T03:08:00-05:00,81.2,11.97,735.6,-2.26,0.27,134.89,0
2020-03-08T03:09:00-05:00,80.56,11.93,735.4,-0.2,0.56,314.55,0
2020-03-08T03:10:00-05:00,79.93,11.95,735,0.39,0.71,328.9,0
2020-03-08T03:11:00-05:00,80.09,11.98,736.43,0.68,0.6,74.45,0
2020-03-08T03:12:00-05:00,80.38,11.99,735.03,-0.2,0.27,349.8,0
2020-03-08T03:13:00-05:00,80.45,12.01,736.13,-0.05,0.6,208.95,0
2020-03-08T03:14:00-05:00,80.24,11.99,735.87,-0.49,0.35,138.61,0
2020-03-08T03:15:00-05:00,80,12.02,735.16,0.39,2.36,140.25,0
2020-03-08T03:16:00-05:00,79.83,12.05,736.64,1.27,0.65,210.94,0
2020-03-08T03:17:00-05:00,79.87,12.06,735.26,0.09,0.22,31.34,0
2020-03-08T03:18:00-05:00,80.23,12.08,735.23,0.39,0.73,176.11,0
2020-03-08T03:19:00-05:00,79.48,12.08,735.26,1.27,0.48,32.08,0
2020-03-08T03:20:00-05:00,79.21,12.11,735.1,0.53,0.49,197.04,0
2020-03-08T03:21:00-05:00,79.38,12.15,736.47,-1.08,0.56,26.81,0
2020-03-08T03:22:00-05:00,79.55,12.15,736.43,0.09,0.56,4.74,0
2020-03-08T03:23:00-05:00,79.77,12.19,736.54,-1.38,0.46,182.08,0
2020-03-08T03:24:00-05:00,79.53,12.19,736.67,-1.08,0.62,27.45,0
2020-03-08T03:25:00-05:00,79.48,12.22,735.06,0.83,0.3,283.73,0
2020-03-08T03:26:00-05:00,79.7,12.21,736.13,-0.35,0.06,298.73,0
2020-03-08T03:27:00-05:00,79.73,12.23,736.13,1.27,0.09,236.13,0
2020-03-08T03:28:00-05:00,79.73,12.23,735.2,0.68,0.54,175.1,0
2020-03-08T03:29:00-05:00,79.57,12.22,736.4,0.83,0.53,124.55,0
2020-03-08T03:30:00-05:00,80.12,12.22,736.5,-0.35,0.75,113.15,0
2020-03-08T03:31:00-05:00,79.62,12.17,736.27,0.53,0.63,45.56,0
2020-03-08T03:32:00-05:00,80.23,12.19,736.64,-0.2,0.21,0.85,0
2020-03-08T03:33:00-05:00,80.59,12.19,736.17,-1.08,0.7,108.93,0
2020-03-08T03:34:00-05:00,80.35,12.19,736.97,-1.23,0.17,173.12,0
2020-03-08T03:35:00-05:00,80.62,12.18,735.26,0.68,0.08,146.3,0
2020-03-08T03:36:00-05:00,80.87,12.18,736.7,-0.49,0.18,235.82,0
2020-03-08T03:37:00-05:00,80.41,12.17,736.74,-0.49,0.56,128.35,0
2020-03-08T03:38:00-05:00,80.55,12.18,735.4,-1.38,0.37,136.29,0
2020-03-08T03:39:00-05:00,80.9,12.17,736.64,1.12,0.8,35.99,0
2020-03-08T03:40:00-05:00,80.97,12.17,736.87,-0.79,0.59,166.13,0
2020-03-08T03:41:00-05:00,81.3,12.15,735.53,-0.79,0.58,103.24,0
2020-03-08T03:42:00-05:00,80.33,12.15,735.36,-0.79,0.74,29.52,0
2020-03-08T03:43:00-05:00,80.71,12.18,735.53,-0.35,0.64,68.49,0
2020-03-08T03:44:00-05:00,80.77,12.2,735,-0.79,0.74,34.33,0
2020-03-08T03:45:00-05:00,80.57,12.23,735.8,-0.05,0.3,81.74,0
2020-03-08T03:46:00-05:00,80.45,12.23,735.5,-0.64,0.5,32.73,0
2020-03-08T03:47:00-05:00,80.5,12.25,735.63,-1.23,0.4,174.12,0
2020-03-08T03:48:00-05:00,79.92,12.25,736.84,-0.64,0.35,187.36,0
2020-03-08T03:49:00-05:00,79.75,12.27,735.26,-0.2,0.52,169.09,0
2020-03-08T03:50:00-05:00,79.87,12.25,735.33,-1.38,0.52,143.55,0
2020-03-08T03:51:00-05:00,80.17,12.26,736.77,0.24,0.26,123.34,0
2020-03-08T03:52:00-05:00,80.9,12.27,736.67,0.39,0.49,121.63,0
2020-03-08T03:53:00-05:00,80.64,12.27,735.67,0.68,0.43,94.51,0
2020-03-08T03:54:00-05:00,80.05,12.25,736.7,0.68,0.59,112.85,0
2020-03-08T03:55:00-05:00,79.99,12.25,736.7,-1.08,0.68,100.94,0
2020-03-08T03:56:00-05:00,80.07,12.25,736.54,-0.05,0.59,107.22,0
2020-03-08T03:57:00-05:00,80.55,12.25,734.79,-1.23,0.28,55.2,0
2020-03-08T03:58:00-05:00,80.16,12.26,736.2,-1.52,0.28,17.59,0
2020-03-08T03:59:00-05:00,80.74,12.27,735.4,-0.49,0.6,176.08,0
2020-03-08T04:00:00-05:00,80.27,12.25,736.9,-1.67,0.48,221.95,0
2020-03-08T04:01:00-05:00,80.56,12.23,737,-1.08,0.46,207.99,0
2020-03-08T04:02:00-05:00,80.87,12.21,735.7,-1.38,0.72,162.2,0
2020-03-08T04:03:00-05:00,80.8,12.17,735.2,-2.26,0.21,335.9,0
2020-03-08T04:04:00-05:00,80.72,12.15,735.4,0.24,0.37,209.95,0
2020-03-08T04:05:00-05:00,80.35,12.15,735.1,-0.79,0.43,219.23,0
2020-03-08T04:06:00-05:00,80.38,12.15,736.97,-0.2,0.41,218.9,0
2020-03-08T04:07:00-05:00,80.27,12.15,736.13,0.24,0.55,211.29,0
2020-03-08T04:08:00-05:00,80.46,12.15,735.36,-1.67,0.21,220.87,0
2020-03-08T04:09:00-05:00,80.52,12.17,735.97,-2.26,0.09,12.27,0
2020-03-08T04:10:00-05:00,80.76,12.17,735.6,-1.23,0.23,62.55,0
2020-03-08T04:11:00-05:00,80.97,12.15,736.3,-0.94,0.22,265.06,0
2020-03-08T04:12:00-05:00,81.18,12.15,736.43,-2.41,0.58,164.42,0
2020-03-08T04:13:00-05:00,81.84,12.12,735.4,-0.35,0.4,169.38,0
2020-03-08T04:14:00-05:00,81.66,12.11,736.43,-1.82,0.39,123.23,0
2020-03-08T04:15:00-05:00,81.94,12.08,736.54,-0.94,0.55,131.55,0
2020-03-08T04:16:00-05:00,81.99,12.08,735.53,-0.05,0.58,328.55,0
2020-03-08T04:17:00-05:00,81.56,12.07,736.67,-0.05,1.02,180.12,0
2020-03-08T04:18:00-05:00,81.2,12.08,735.97,-1.52,0.77,354.5,0
2020-03-08T04:19:00-05:00,81.31,12.11,736.4,-1.08,0.65,226.83,0
2020-03-08T04:20:00-05:00,81.01,12.1,735.67,0.53,0.56,249.81,0
2020-03-08T04:21:00-05:00,81.1,12.14,736.4,-0.79,2.34,314.53,0
2020-03-08T04:22:00-05:00,80.84,12.13,736.2,-0.94,0.59,347.81,0
2020-03-08T04:23:00-05:00,81.3,12.15,735.36,0.39,0.32,256.81,0
2020-03-08T04:24:00-05:00,81.58,12.16,736.67,-2.11,0.7,183.38,0
2020-03-08T04:25:00-05:00,81.52,12.15,736.47,-1.67,0.54,198.98,0
2020-03-08T04:26:00-05:00,81.77,12.15,736.64,-0.2,1.06,197.4,0
2020-03-08T04:27:00-05:00,81.83,12.13,736.77,-0.35,0.63,264.81,0
2020-03-08T04:28:00-05:00,81.93,12.11,736.74,-2.26,0.51,230.15,0
2020-03-08T04:29:00-05:00,82.25,12.12,735.5,-1.08,0.54,197.05,0
2020-03-08T04:30:00-05:00,82.03,12.1,736.8,-0.2,0.59,221.21,0
2020-03-08T04:31:00-05:00,82.23,12.12,736.64,0.09,0.49,328.54,0
2020-03-08T04:32:00-05:00,82.33,12.1,735.5,-1.97,0.65,228.85,0
2020-03-08T04:33:00-05:00,82.53,12.09,736.54,-1.38,0.31,325.62,0
2020-03-08T04:34:00-05:00,81.89,12.1,735.5,-1.67,0.35,158.18,0
2020-03-08T04:35:00-05:00,82.21,12.09,735.3,-1.82,0.96,197.02,0
2020-03-08T04:36:00-05:00,82.23,12.11,735.7,0.24,0.72,203.92,0
2020-03-08T04:37:00-05:00,82.27,12.07,736.17,-0.49,0.49,239.85,0
2020-03-08T04:38:00-05:00,82.41,12.07,736.8,-1.38,0.56,202.95,0
2020-03-08T04:39:00-05:00,82.39,12.07,735.4,-2.41,0.69,260.72,0
2020-03-08T04:40:00-05:00,82.67,12.05,736.43,-1.82,1.38,275.74,0
2020-03-08T04:41:00-05:00,82.61,12.04,736.74,-1.97,0.54,198.35,0
2020-03-08T04:42:00-05:00,82.61,12.03,736.37,0.09,0.54,281.74,0
2020-03-08T04:43:00-05:00,82.56,12.04,735.83,-1.97,0.41,195.27,0
2020-03-08T04:44:00-05:00,82.63,12.04,736.7,-1.38,0.83,241.85,0
2020-03-08T04:45:00-05:00,82.37,12.04,736.33,-0.2,0.82,212.26,0
2020-03-08T04:46:00-05:00,82.7,12.03,736.27,-0.49,1.02,226.19,0
2020-03-08T04:47:00-05:00,82.95,12.01,736.03,-1.38,0.82,285.04,0
2020-03-08T04:48:00-05:00,83.04,12.03,736.97,0.09,0.34,182.07,0
2020-03-08T04:49:00-05:00,82.89,12.03,736.3,0.53,0.45,134.66,0
2020-03-08T04:50:00-05:00,81.78,12.03,735.3,0.68,0.67,176.09,0
2020-03-08T04:51:00-05:00,81.91,12.05,735.6,-0.35,0.18,4.71,0
2020-03-08T04:52:00-05:00,81.61,12.07,736.5,-0.79,0.64,57.01,0
2020-03-08T04:53:00-05:00,81.26,12.1,735.43,-0.49,0.66,20.34,0
2020-03-08T04:54:00-05:00,80.82,12.13,736.6,-0.05,1.13,69.2,0
2020-03-08T04:55:00-05:00,80.74,12.17,736.57,0.98,1.46,107.25,0
2020-03-08T04:56:00-05:00,80.3,12.19,735.56,0.83,0.59,86.41,0
2020-03-08T04:57:00-05:00,80.43,12.23,736.64,-0.79,0.61,181.1,0
2020-03-08T04:58:00-05:00,80.94,12.23,736.77,0.24,0.25,124.2,0
2020-03-08T04:59:00-05:00,80.46,12.23,736.77,0.68,0.56,129.54,0
2020-03-08T05:00:00-05:00,80.86,12.24,736,-1.67,1.02,203.27,0
2020-03-08T05:01:00-05:00,81.32,12.23,736.9,0.39,0.57,180.12,0
2020-03-08T05:02:00-05:00,81.17,12.22,736.74,-1.08,0.68,46.96,0
2020-03-08T05:03:00-05:00,81.39,12.23,736.33,-0.05,0.7,58.16,0
2020-03-08T05:04:00-05:00,81.55,12.21,736.87,0.53,2.12,50.7,0
2020-03-08T05:05:00-05:00,81.68,12.22,736.37,-1.67,0.38,351.53,0
2020-03-08T05:06:00-05:00,81.56,12.2,735.6,-2.41,0.65,30,0
2020-03-08T05:07:00-05:00,80.92,12.21,735.1,-1.38,2.7,0.75,0
2020-03-08T05:08:00-05:00,80.58,12.22,736.67,-2.26,0.94,3.05,0
2020-03-08T05:09:00-05:00,80.68,12.22,736.17,-2.11,0.55,16.81,0
2020-03-08T05:10:00-05:00,80.6,12.23,735.67,-0.05,0.56,4.78,0
2020-03-08T05:11:00-05:00,80.73,12.25,736.37,-1.67,0.99,357.46,0
2020-03-08T05:12:00-05:00,81.15,12.25,736.3,0.24,0.62,27.63,0
2020-03-08T05:13:00-05:00,80.92,12.25,735.7,-2.26,0.59,322.54,0
2020-03-08T05:14:00-05:00,80.58,12.25,736.54,-2.99,0.96,0.82,0
2020-03-08T05:15:00-05:00,80.31,12.25,736.77,-2.41,1.39,274.77,0
2020-03-08T05:16:00-05:00,80.1,12.26,734.76,-2.99,1.84,324.61,0
2020-03-08T05:17:00-05:00,79.5,12.28,736.57,0.24,0.56,123.2,0
2020-03-08T05:18:00-05:00,79.44,12.3,736.07,-0.49,1.23,83.23,0
2020-03-08T05:19:00-05:00,79.81,12.32,735.43,-1.23,0.69,212.25,0
2020-03-08T05:20:00-05:00,79.95,12.31,736.3,-1.52,0.42,177.36,0
2020-03-08T05:21:00-05:00,80.02,12.28,736.4,-3.14,0.59,90.07,0
2020-03-08T05:22:00-05:00,79.65,12.29,736.67,-3.73,4.04,52.52,0
2020-03-08T05:23:00-05:00,79.26,12.33,736.8,-2.41,2.76,40.69,0
2020-03-08T05:24:00-05:00,79.11,12.35,735.5,-3.14,2.42,0.86,0
2020-03-08T05:25:00-05:00,78.97,12.35,735.36,-2.41,0.75,120.33,0
2020-03-08T05:26:00-05:00,79.26,12.36,735.43,-2.55,0.56,1.79,0
2020-03-08T05:27:00-05:00,78.88,12.37,736.47,-3.29,0.68,7.62,0
2020-03-08T05:28:00-05:00,79.27,12.35,735.33,-4.17,0.66,28.53,0
2020-03-08T05:29:00-05:00,79.09,12.35,735.36,-3.29,0.58,165.13,0
2020-03-08T05:30:00-05:00,79.18,12.32,735.6,-5.49,0.68,62.8,0
2020-03-08T05:31:00-05:00,79.1,12.33,737,-5.35,0.8,305.57,0
2020-03-08T05:32:00-05:00,79.41,12.31,737.1,-5.05,0.52,156.16,0
2020-03-08T05:33:00-05:00,79.45,12.31,736.54,-3.58,0.28,254.77,0
2020-03-08T05:34:00-05:00,79.44,12.29,735.26,-3.73,2.54,64.08,0
2020-03-08T05:35:00-05:00,79.17,12.31,736.1,-4.46,1.35,26.75,0
2020-03-08T05:36:00-05:00,79.32,12.29,735.33,-3.44,0.09,202.95,0
2020-03-08T05:37:00-05:00,79.44,12.27,736.64,-3.58,0.56,182.1,0
2020-03-08T05:38:00-05:00,79.44,12.25,735.36,-5.79,0.16,269.07,0
2020-03-08T05:39:00-05:00,79.51,12.21,735.7,-5.35,0.56,258.79,0
2020-03-08T05:40:00-05:00,79.54,12.19,735.26,-5.93,0.6,256.03,0
2020-03-08T05:41:00-05:00,79.36,12.15,736.8,-4.76,0.53,11.95,0
2020-03-08T05:42:00-05:00,79.66,12.15,735.53,-4.02,0.75,3.99,0
2020-03-08T05:43:00-05:00,79.74,12.16,735.87,-4.91,0.58,160.14,0
2020-03-08T05:44:00-05:00,79.97,12.12,735.6,-4.76,0.8,133.56,0
2020-03-08T05:45:00-05:00,80.7,12.06,736.27,-2.55,1.1,81.67,0
2020-03-08T05:46:00-05:00,80.84,11.99,736.97,-4.02,0.59,114.57,0
2020-03-08T05:47:00-05:00,81.31,11.93,735.56,-2.55,0.57,117.17,0
2020-03-08T05:48:00-05:00,81.73,11.89,736.13,-2.26,0.44,113.82,0
2020-03-08T05:49:00-05:00,81.76,11.84,736.9,-2.41,0.62,67.12,0
2020-03-08T05:50:00-05:00,82.28,11.79,736.77,-1.52,0.57,41.2,0
2020-03-08T05:51:00-05:00,82.45,11.75,736.9,-1.52,0.58,70.94,0
2020-03-08T05:52:00-05:00,81.99,11.75,735.73,-1.82,0.55,100.67,0
2020-03-08T05:53:00-05:00,82.18,11.77,736.5,-4.02,0.6,72.99,0
2020-03-08T05:54:00-05:00,82.21,11.75,735.7,-3.44,0.57,63.61,0
2020-03-08T05:55:00-05:00,82.45,11.74,737.31,-1.97,0.19,41.32,0
2020-03-08T05:56:00-05:00,82.53,11.74,736.03,-4.32,0.65,144.19,0
2020-03-08T05:57:00-05:00,82.03,11.71,736.57,-3.29,0.63,142.55,0
2020-03-08T05:58:00-05:00,82.26,11.71,737.14,-1.67,0.32,132.22,0
2020-03-08T05:59:00-05:00,82.09,11.69,737.27,-1.52,0.53,71.18,0
2020-03-08T06:00:00-05:00,82.37,11.65,735.26,-3.88,0.57,131.25,0
2020-03-08T06:01:00-05:00,82.2,11.63,736.64,-1.67,0.71,85.89,0
2020-03-08T06:02:00-05:00,82.27,11.6,736.87,-1.82,0.67,39.59,0
2020-03-08T06:03:00-05:00,82.64,11.61,735.56,-0.35,0.63,83.32,0
2020-03-08T06:04:00-05:00,82.6,11.58,737.04,-1.08,0.58,108.65,0
2020-03-08T06:05:00-05:00,82.77,11.54,735.97,-2.7,0.64,73.89,0
2020-03-08T06:06:00-05:00,82.71,11.5,735.77,-1.08,0.6,55.02,0
2020-03-08T06:07:00-05:00,82.8,11.47,735.63,-0.05,0.65,108.4,0
2020-03-08T06:08:00-05:00,82.6,11.46,735.7,1.42,0.68,76.03,0
2020-03-08T06:09:00-05:00,82.85,11.48,736.94,0.68,0.63,71.57,0
2020-03-08T06:10:00-05:00,82.53,11.49,736.97,0.39,0.56,68.55,0
2020-03-08T06:11:00-05:00,82.39,11.51,736.07,0.83,0.48,68.77,0
2020-03-08T06:12:00-05:00,82.3,11.49,735.73,2,0.57,137.66,0
2020-03-08T06:13:00-05:00,82.16,11.48,736.7,1.27,0.58,144.15,0
2020-03-08T06:14:00-05:00,82.42,11.46,735.93,1.86,0.6,126.06,0
2020-03-08T06:15:00-05:00,82.42,11.46,737.2,4.21,0.64,138.61,0
2020-03-08T06:16:00-05:00,82.45,11.43,737.2,2.74,0.56,122.54,0
2020-03-08T06:17:00-05:00,82.54,11.41,735.83,2.74,0.56,119.15,0
2020-03-08T06:18:00-05:00,82.55,11.39,737.07,6.27,0.7,141.52,0
2020-03-08T06:19:00-05:00,82.8,11.36,736.13,6.86,0.74,139.11,0
2020-03-08T06:20:00-05:00,82.74,11.34,736.64,7.89,0.95,110.66,0
2020-03-08T06:21:00-05:00,82.69,11.33,737.31,9.94,0.67,128.71,0
2020-03-08T06:22:00-05:00,82.77,11.32,736.1,13.47,0.56,132.61,0
2020-03-08T06:23:00-05:00,83,11.32,737.2,17.15,0.63,116.35,0
2020-03-08T06:24:00-05:00,83.15,11.3,737.71,18.18,0.65,158.53,0
2020-03-08T06:25:00-05:00,82.98,11.34,736.1,21.12,0.39,157.2,0
2020-03-08T06:26:00-05:00,82.93,11.35,736,23.91,0.67,128.15,0
2020-03-08T06:27:00-05:00,82.79,11.35,737.67,27.15,0.5,141.43,0
2020-03-08T06:28:00-05:00,82.87,11.37,736.23,29.35,0.61,124.67,0
2020-03-08T06:29:00-05:00,82.94,11.38,737.47,31.56,0.62,75.07,0
2020-03-08T06:30:00-05:00,82.97,11.4,736.07,32.14,0.59,91.43,0
2020-03-08T06:31:00-05:00,83.03,11.4,736.97,34.79,0.61,129.37,0
2020-03-08T06:32:00-05:00,83.21,11.44,736,40.08,0.62,122.29,0
2020-03-08T06:33:00-05:00,83.06,11.43,737.47,43.32,0.73,116.76,0
2020-03-08T06:34:00-05:00,82.8,11.49,736.64,42.58,0.7,102.32,0
2020-03-08T06:35:00-05:00,82.27,11.5,736.5,42.29,0.73,102.48,0
2020-03-08T06:36:00-05:00,82.36,11.53,737.41,39.35,0.63,140.28,0
2020-03-08T06:37:00-05:00,82.48,11.52,736.47,41.41,0.58,126.25,0
2020-03-08T06:38:00-05:00,82.45,11.56,736.6,44.05,0.97,93.36,0
2020-03-08T06:39:00-05:00,82.89,11.58,736.23,44.64,0.55,129.52,0
2020-03-08T06:40:00-05:00,82.43,11.6,737.27,48.02,0.64,138.28,0
2020-03-08T06:41:00-05:00,82.77,11.63,737.47,46.7,0.6,150.54,0
2020-03-08T06:42:00-05:00,82.55,11.66,737.47,53.76,0.57,151.17,0
2020-03-08T06:43:00-05:00,82.82,11.66,736.67,59.34,0.6,127.6,0
2020-03-08T06:44:00-05:00,82.9,11.67,737.57,66.25,0.27,115.17,0
2020-03-08T06:45:00-05:00,83.07,11.68,737.54,72.87,0.59,147.27,0
2020-03-08T06:46:00-05:00,83.22,11.69,737.84,79.63,0.31,133.38,0
2020-03-08T06:47:00-05:00,83.32,11.71,737.37,83.16,0.61,160.12,0
2020-03-08T06:48:00-05:00,83.44,11.73,736.87,88.31,0.58,135.28,0
2020-03-08T06:49:00-05:00,83.62,11.75,737.67,93.6,0.22,131.31,0
2020-03-08T06:50:00-05:00,83.64,11.77,737.54,88.6,0.55,170.05,0
2020-03-08T06:51:00-05:00,83.79,11.82,736.23,82.72,0.63,163.17,0
2020-03-08T06:52:00-05:00,83.88,11.85,736.47,84.63,0.39,125.21,0
2020-03-08T06:53:00-05:00,84.07,11.89,737.41,84.34,0.43,142.25,0
2020-03-08T06:54:00-05:00,83.89,11.93,736.33,80.66,0.23,147.71,0
2020-03-08T06:55:00-05:00,83.84,11.99,736.7,74.93,0.28,140.29,0
2020-03-08T06:56:00-05:00,83.76,12.03,737.34,78.6,0.09,182.41,0
2020-03-08T06:57:00-05:00,83.56,12.07,736.9,87.28,0.12,121.44,0
2020-03-08T06:58:00-05:00,83.58,12.13,737.14,93.16,0.24,125.55,0
2020-03-08T06:59:00-05:00,82.93,12.18,736.8,89.04,0.56,32.39,0
2020-03-08T07:00:00-05:00,82.44,12.24,737,80.96,0.26,338.86,0
2020-03-08T07:01:00-05:00,83.02,12.31,737.41,75.81,0.43,180.11,0
2020-03-08T07:02:00-05:00,83.2,12.35,737.17,72.13,0.59,175.43,0
2020-03-08T07:03:00-05:00,82.82,12.37,736.57,73.9,0.59,149.2,0
2020-03-08T07:04:00-05:00,82.44,12.39,735.97,79.63,0.3,158.16,0
2020-03-08T07:05:00-05:00,82.46,12.44,737.84,89.48,0.21,157.19,0
2020-03-08T07:06:00-05:00,82.54,12.47,737.61,98.01,0.17,168.12,0
2020-03-08T07:07:00-05:00,82.56,12.52,736.37,107.13,0.23,133.16,0
2020-03-08T07:08:00-05:00,82.04,12.57,737.54,115.51,0.23,139.27,0
2020-03-08T07:09:00-05:00,81.97,12.61,737.84,122.86,0.23,109.48,0
2020-03-08T07:10:00-05:00,81.87,12.68,736.6,135.35,0.31,196.13,0
2020-03-08T07:11:00-05:00,82.53,12.75,736.67,149.03,0.28,202.94,0
2020-03-08T07:12:00-05:00,82.13,12.8,737.64,159.91,0.52,205.03,0
2020-03-08T07:13:00-05:00,81.87,12.84,736.7,154.32,0.54,200.33,0
2020-03-08T07:14:00-05:00,82.28,12.89,737.81,141.09,0.46,213.96,0
2020-03-08T07:15:00-05:00,83.6,12.93,737.87,122.71,0.35,219.27,0
2020-03-08T07:16:00-05:00,82.71,12.98,736.57,110.21,0.56,203.93,0
2020-03-08T07:17:00-05:00,81.29,13,737.34,102.27,0.59,221.2,0
2020-03-08T07:18:00-05:00,82.03,13.01,737.41,98.3,0.41,200.96,0
2020-03-08T07:19:00-05:00,82.14,13.04,736.54,103.3,0.44,209.3,0
2020-03-08T07:20:00-05:00,81.78,13.03,738.08,108.89,0.55,221.93,0
2020-03-08T07:21:00-05:00,80.88,13.02,736.97,180.49,0.85,234.11,0
2020-03-08T07:22:00-05:00,80.6,13.06,736.57,258.71,0.23,224.91,0
2020-03-08T07:23:00-05:00,80.11,13.12,737.54,248.42,0.47,242.82,0
2020-03-08T07:24:00-05:00,79.97,13.18,737.71,228.42,0.49,216.91,0
2020-03-08T07:25:00-05:00,80.28,13.23,736.33,237.68,0.19,209.96,0
2020-03-08T07:26:00-05:00,80.62,13.36,737.71,258.71,0.11,172.13,0
2020-03-08T07:27:00-05:00,78.65,13.51,737.44,262.97,0.06,117.14,0
2020-03-08T07:28:00-05:00,77.65,13.69,736.57,274.29,0.44,109.03,0
2020-03-08T07:29:00-05:00,76.85,13.92,737.37,280.03,0.34,142.21,0
2020-03-08T07:30:00-05:00,76.11,14.1,737.41,282.82,0.32,146.27,0
2020-03-08T07:31:00-05:00,76.3,14.22,736.27,282.97,0.58,109.53,0
2020-03-08T07:32:00-05:00,76.1,14.39,737.44,288.26,0.49,170.43,0
2020-03-08T07:33:00-05:00,75.44,14.53,737.61,292.82,0.66,112.54,0
2020-03-08T07:34:00-05:00,75.43,14.69,737.77,298.26,0.3,175.46,0
2020-03-08T07:35:00-05:00,73.33,14.71,736.2,299.87,0.62,225.85,0
2020-03-08T07:36:00-05:00,73.78,14.61,736.77,306.34,0.8,218.28,0
2020-03-08T07:37:00-05:00,75.96,14.51,737.31,315.16,0.5,212.87,0
2020-03-08T07:38:00-05:00,76,14.49,736.4,319.43,0.57,170.32,0
2020-03-08T07:39:00-05:00,75.71,14.45,737.34,329.57,0.37,151.19,0
2020-03-08T07:40:00-05:00,75.56,14.49,736.54,335.16,0.61,174.09,0
2020-03-08T07:41:00-05:00,74.92,14.49,737.67,347.95,0.6,156.2,0
2020-03-08T07:42:00-05:00,75.4,14.57,736.43,357.07,0.6,136.19,0
2020-03-08T07:43:00-05:00,75.58,14.69,737.57,358.24,0.24,64.92,0
2020-03-08T07:44:00-05:00,74.49,14.79,736.37,362.65,0.57,196.15,0
2020-03-08T07:45:00-05:00,74.86,14.84,737,355.15,0.48,127.47,0
2020-03-08T07:46:00-05:00,74.19,14.96,737,363.98,0.56,120.22,0
2020-03-08T07:47:00-05:00,74.23,15.15,736.67,367.36,0.24,199.97,0
2020-03-08T07:48:00-05:00,72.8,15.2,736.5,362.21,0.23,81.56,0
2020-03-08T07:49:00-05:00,72.45,15.27,737.44,328.25,0.25,163.53,0
2020-03-08T07:50:00-05:00,72.26,15.34,737.77,356.63,0.39,218.87,0
2020-03-08T07:51:00-05:00,71.43,15.41,737.44,355.89,0.56,135.75,0
2020-03-08T07:52:00-05:00,71.94,15.47,737.14,336.19,0.72,226.82,0
2020-03-08T07:53:00-05:00,71.67,15.49,737.1,353.54,0.46,165.5,0
2020-03-08T07:54:00-05:00,70.93,15.47,737.2,358.68,1.12,60.96,0
2020-03-08T07:55:00-05:00,71.37,15.37,737.24,336.19,1.22,59.96,0
2020-03-08T07:56:00-05:00,71.35,15.38,736.27,157.85,0.2,126.19,0
2020-03-08T07:57:00-05:00,71.49,15.46,736.8,151.67,0.13,211.88,0
2020-03-08T07:58:00-05:00,71.42,15.51,736.74,150.2,0.06,110.1,0
2020-03-08T07:59:00-05:00,71.63,15.53,737.77,165.94,0.18,263.68,0
2020-03-08T08:00:00-05:00,72.03,15.55,736.54,234.89,0.2,51.23,0
2020-03-08T08:01:00-05:00,71.13,15.52,737.64,164.17,0.59,68.38,0
2020-03-08T08:02:00-05:00,70.41,15.44,736.64,142.71,0.32,356.44,0
2020-03-08T08:03:00-05:00,71.57,15.45,737.54,143.88,0.69,43.44,0
2020-03-08T08:04:00-05:00,71.65,15.43,736.67,157.26,0.39,47.35,0
2020-03-08T08:05:00-05:00,70.98,15.37,737.17,185.05,0.64,59.77,0
2020-03-08T08:06:00-05:00,71.28,15.23,737.81,183.73,0.58,20.76,0
2020-03-08T08:07:00-05:00,72.13,15.16,736.7,202.54,0.73,46.35,0
2020-03-08T08:08:00-05:00,71.57,15.11,738.08,206.81,0.25,24.39,0
2020-03-08T08:09:00-05:00,71.04,15.06,737.2,157.41,0.52,98.41,0
2020-03-08T08:10:00-05:00,71.6,15.07,736.3,161.52,0.83,46.36,0
2020-03-08T08:11:00-05:00,70.42,14.96,736.77,158.58,0.33,41.7,0
2020-03-08T08:12:00-05:00,71.52,14.87,737.04,161.97,0.47,22.89,0
2020-03-08T08:13:00-05:00,72.23,14.86,737.74,161.08,0.47,25.1,0
2020-03-08T08:14:00-05:00,72.22,14.87,736.67,161.97,0.28,12.85,0
2020-03-08T08:15:00-05:00,71.81,14.87,737.04,162.11,0.14,53.48,0
2020-03-08T08:16:00-05:00,72.26,14.88,736.77,164.02,0.21,321.57,0
2020-03-08T08:17:00-05:00,72.86,14.93,737.87,175.49,0.18,318.89,0
2020-03-08T08:18:00-05:00,72.7,14.94,738.48,192.99,0.6,32.67,0
2020-03-08T08:19:00-05:00,71.97,14.91,737.64,218.57,0.52,40.64,0
2020-03-08T08:20:00-05:00,71.87,14.91,737.97,231.36,0.59,16.84,0
2020-03-08T08:21:00-05:00,72.2,14.93,737.1,263.12,1.98,79.73,0
2020-03-08T08:22:00-05:00,71.6,14.84,737.81,383.09,0.84,52.46,0
2020-03-08T08:23:00-05:00,71.93,14.72,737.81,242.98,0.88,67.33,0
2020-03-08T08:24:00-05:00,72.49,14.63,736.8,210.34,0.55,69.33,0
2020-03-08T08:25:00-05:00,72.68,14.63,737.87,207.25,0.25,132.91,0
2020-03-08T08:26:00-05:00,72.44,14.65,737.51,223.27,0.33,225.87,0
2020-03-08T08:27:00-05:00,72.17,14.67,736.47,495.12,0.44,193.33,0
2020-03-08T08:28:00-05:00,73.34,14.72,736.77,502.62,0.54,169.07,0
2020-03-08T08:29:00-05:00,71.93,14.79,736.67,428.08,0.59,127.53,0
2020-03-08T08:30:00-05:00,71.97,14.87,737.07,580.4,0.7,52.15,0
2020-03-08T08:31:00-05:00,71.57,14.91,737.64,304.14,0.68,87.81,0
2020-03-08T08:32:00-05:00,71.3,14.93,738.28,636.12,0.66,63.84,0
2020-03-08T08:33:00-05:00,72.41,15.01,737.07,646.26,0.5,1.77,0
2020-03-08T08:34:00-05:00,71.86,15.13,736.47,260.77,0.72,13.75,0
2020-03-08T08:35:00-05:00,71.41,15.26,736.8,332.95,0.56,37.14,0
2020-03-08T08:36:00-05:00,72.26,15.39,737.91,580.54,0.61,78.07,0
2020-03-08T08:37:00-05:00,72.07,15.55,737.91,236.95,0.16,286.65,0
2020-03-08T08:38:00-05:00,71.71,15.65,736.9,222.83,0.52,238.84,0
2020-03-08T08:39:00-05:00,70.87,15.69,738.51,222.83,0.54,247.82,0
2020-03-08T08:40:00-05:00,71.12,15.73,738.01,207.54,0.27,238.85,0
2020-03-08T08:41:00-05:00,70.15,15.77,736.9,207.84,0.29,319.57,0
2020-03-08T08:42:00-05:00,70.72,15.8,736.57,252.09,0.69,180.39,0
2020-03-08T08:43:00-05:00,70.46,15.8,738.11,168.29,0.54,202.89,0
2020-03-08T08:44:00-05:00,69.08,15.78,737.81,155.94,0.37,223.29,0
2020-03-08T08:45:00-05:00,69.47,15.74,736.77,163.44,0.96,215.89,0
2020-03-08T08:46:00-05:00,68.72,15.65,737,181.96,0.73,215.31,0
2020-03-08T08:47:00-05:00,69.46,15.52,737.67,168.29,0.52,206,0
2020-03-08T08:48:00-05:00,70.93,15.44,736.37,153.73,0.6,255.12,0
2020-03-08T08:49:00-05:00,70.4,15.37,738.21,158,0.06,312.56,0
2020-03-08T08:50:00-05:00,70.16,15.37,736.77,170.49,0.29,199.27,0
2020-03-08T08:51:00-05:00,69.45,15.37,736.74,184.46,0.58,84.41,0
2020-03-08T08:52:00-05:00,69.53,15.37,738.21,200.78,0.28,39.11,0
2020-03-08T08:53:00-05:00,69.07,15.37,736.7,216.66,0.55,108.16,0
2020-03-08T08:54:00-05:00,68.92,15.39,737.84,230.18,0.56,26.97,0
2020-03-08T08:55:00-05:00,71.66,15.41,736.97,243.86,0.57,279.62,0
2020-03-08T08:56:00-05:00,69.6,15.43,737.2,251.8,0.88,239.82,0
2020-03-08T08:57:00-05:00,69.12,15.44,738.01,246.36,0.58,304.59,0
2020-03-08T08:58:00-05:00,70.55,15.43,738.01,242.68,0.15,295.62,0
2020-03-08T08:59:00-05:00,71.14,15.49,737.94,244.74,0.13,184.98,0
2020-03-08T09:00:00-05:00,70.21,15.55,736.7,239.45,0.53,223.9,0
2020-03-08T09:01:00-05:00,70.75,15.61,737.07,234.01,0.71,36.12,0
2020-03-08T09:02:00-05:00,68.53,15.57,736.74,222.83,0.75,87.19,0
2020-03-08T09:03:00-05:00,69,15.54,737.91,214.75,0.57,354.78,0
2020-03-08T09:04:00-05:00,70.58,15.57,737.14,226.95,0.95,352.51,0
2020-03-08T09:05:00-05:00,68.95,15.59,738.21,260.03,0.23,49.81,0
2020-03-08T09:06:00-05:00,69.57,15.63,736.9,290.32,0.2,16.85,0
2020-03-08T09:07:00-05:00,69.84,15.67,738.08,284.88,0.24,195.29,0
2020-03-08T09:08:00-05:00,67.8,15.7,736.9,264.59,0.36,348.42,0
2020-03-08T09:09:00-05:00,67.57,15.7,738.24,231.51,0.21,107.41,0
2020-03-08T09:10:00-05:00,68.06,15.75,736.9,190.19,0.63,266.77,0
2020-03-08T09:11:00-05:00,66.9,15.74,738.21,157.7,0.31,339.49,0
2020-03-08T09:12:00-05:00,68.56,15.69,737.94,140.79,0.34,247.82,0
2020-03-08T09:13:00-05:00,69.56,15.67,737.1,128.89,0.23,322.55,0
2020-03-08T09:14:00-05:00,67.75,15.61,738.14,134.91,0.56,260.72,0
2020-03-08T09:15:00-05:00,68.29,15.55,738.41,139.77,0.07,211.89,0
2020-03-08T09:16:00-05:00,67.56,15.53,737.14,148.59,0.06,267.73,0
2020-03-08T09:17:00-05:00,67.68,15.49,738.68,155.2,0.22,7.38,0
2020-03-08T09:18:00-05:00,68.35,15.51,737.77,164.17,0.56,80.69,0
2020-03-08T09:19:00-05:00,68.53,15.51,738.38,189.46,0.95,60.47,0
2020-03-08T09:20:00-05:00,69.06,15.53,737.41,233.13,0.59,25.67,0
2020-03-08T09:21:00-05:00,69.05,15.53,738.44,267.82,1.14,36.62,0
2020-03-08T09:22:00-05:00,68.07,15.41,738.31,325.16,0.72,52.42,0
2020-03-08T09:23:00-05:00,68.18,15.35,736.94,321.63,0.6,165.13,0
2020-03-08T09:24:00-05:00,69.23,15.36,737.31,900.17,0.97,193.3,0
2020-03-08T09:25:00-05:00,70.29,15.39,737.84,886.64,0.55,82.29,0
2020-03-08T09:26:00-05:00,68.66,15.59,737.44,884.15,0.54,304.02,0
2020-03-08T09:27:00-05:00,68.3,15.75,738.08,861.8,0.63,57.63,0
2020-03-08T09:28:00-05:00,67.98,15.93,738.24,877.53,0.64,28.9,0
2020-03-08T09:29:00-05:00,67.22,16.14,738.44,267.53,0.63,76.7,0
2020-03-08T09:30:00-05:00,65.95,16.2,737.17,773.44,0.66,44.86,0
2020-03-08T09:31:00-05:00,65.91,16.22,737.24,887.09,0.75,44.57,0
2020-03-08T09:32:00-05:00,65.12,16.3,738.01,304.43,0.93,312.57,0
2020-03-08T09:33:00-05:00,64.95,16.24,737.97,259.59,0.62,244.78,0
2020-03-08T09:34:00-05:00,65.82,16.24,738.24,229.74,0.37,223.88,0
2020-03-08T09:35:00-05:00,66.31,16.28,737.84,226.22,1,323.5,0
2020-03-08T09:36:00-05:00,66.07,16.32,737.84,226.8,2.24,54.71,0
2020-03-08T09:37:00-05:00,66.03,16.25,738.01,228.13,1.07,64.59,0
2020-03-08T09:38:00-05:00,66.44,16.21,736.87,258.56,0.24,225.86,0
2020-03-08T09:39:00-05:00,67.9,16.27,737.77,305.17,0.76,356.84,0
2020-03-08T09:40:00-05:00,66.34,16.32,738.54,923.69,0.54,75.86,0
2020-03-08T09:41:00-05:00,65.28,16.37,738.21,1013.53,0.29,176.41,0
2020-03-08T09:42:00-05:00,69.49,16.6,737.37,989.86,0.64,215.9,0
2020-03-08T09:43:00-05:00,67.69,16.82,737.67,960.74,0.59,306.92,0
2020-03-08T09:44:00-05:00,67.07,17.02,737.51,434.4,1.97,229.77,0
2020-03-08T09:45:00-05:00,65.48,17.12,736.9,662.58,0.68,209.33,0
2020-03-08T09:46:00-05:00,65.83,17.17,737.41,968.39,0.59,238.86,0
2020-03-08T09:47:00-05:00,66.01,17.21,737.04,736.97,1.06,206.97,0
2020-03-08T09:48:00-05:00,64.58,17.21,736.5,900.76,0.96,222.9,0
2020-03-08T09:49:00-05:00,64.18,17.18,737.57,280.03,1.08,225.86,0
2020-03-08T09:50:00-05:00,65.32,17.11,736.47,263.27,0.9,217.9,0
2020-03-08T09:51:00-05:00,64.36,17.02,737.84,268.71,0.96,244.78,0
2020-03-08T09:52:00-05:00,64.15,16.93,736.84,276.64,0.47,268.73,0
2020-03-08T09:53:00-05:00,65.08,16.91,737.87,334.28,0.73,225.91,0
2020-03-08T09:54:00-05:00,63.9,16.9,737.94,301.49,0.52,183.03,0
2020-03-08T09:55:00-05:00,66.01,16.88,736.57,336.48,0.54,222.9,0
2020-03-08T09:56:00-05:00,66.01,16.86,737.67,253.71,0.83,200.3,0
2020-03-08T09:57:00-05:00,64.77,16.78,737.77,217.25,0.56,222.91,0
2020-03-08T09:58:00-05:00,66.13,16.76,736.64,215.34,0.58,225.24,0
2020-03-08T09:59:00-05:00,66.17,16.74,737.1,286.2,1.1,213.16,0
2020-03-08T10:00:00-05:00,66.17,16.67,736.84,910.46,0.94,205.41,0
2020-03-08T10:01:00-05:00,67.25,16.69,737.84,852.98,0.76,233.83,0
2020-03-08T10:02:00-05:00,64.38,16.76,737.1,1053.66,0.65,184.36,0
2020-03-08T10:03:00-05:00,65.37,16.81,738.24,374.56,0.63,203.95,0
2020-03-08T10:04:00-05:00,65.96,16.87,736.8,511.59,0.61,256.86,0
2020-03-08T10:05:00-05:00,66,16.94,736.6,820.93,0.64,244.75,0
2020-03-08T10:06:00-05:00,66.73,17.1,737.81,1011.03,0.61,275.7,0
2020-03-08T10:07:00-05:00,65.39,17.27,737.87,982.36,0.66,238.84,0
2020-03-08T10:08:00-05:00,63.65,17.41,737.31,976.77,1.3,272.67,0
2020-03-08T10:09:00-05:00,63.22,17.47,736.3,996.32,0.97,248.84,0
2020-03-08T10:10:00-05:00,65.46,17.58,736.8,1020,1.24,226.82,0
2020-03-08T10:11:00-05:00,62.31,17.65,737.57,817.69,1.07,290.7,0
2020-03-08T10:12:00-05:00,63.62,17.72,736.77,1042.78,2.12,231.85,0
2020-03-08T10:13:00-05:00,63.54,17.81,737.2,1017.94,1.76,245.29,0
2020-03-08T10:14:00-05:00,66.47,17.96,736.03,1031.9,0.57,270.71,0
2020-03-08T10:15:00-05:00,62.3,18.13,736.3,1009.56,1.87,236.18,0
2020-03-08T10:16:00-05:00,61.74,18.26,737.17,1001.91,0.6,217.86,0
2020-03-08T10:17:00-05:00,61.62,18.33,736.54,1001.62,0.78,274.08,0
2020-03-08T10:18:00-05:00,60.23,18.47,736.47,1016.91,0.58,175.08,0
2020-03-08T10:19:00-05:00,58.8,18.58,737.34,252.53,0.65,282.07,0
2020-03-08T10:20:00-05:00,56.86,18.65,737.31,758.88,0.62,291.67,0
2020-03-08T10:21:00-05:00,59.06,18.72,737.54,1012.35,0.56,283.97,0
2020-03-08T10:22:00-05:00,61.29,18.83,736.94,1040.43,0.7,205.97,0
2020-03-08T10:23:00-05:00,59.29,18.95,737.31,1021.76,1.25,238.85,0
2020-03-08T10:24:00-05:00,57.23,18.97,737.27,1010.29,1.91,211.88,0
2020-03-08T10:25:00-05:00,56.62,18.92,737.17,1013.82,1.61,252.76,0
2020-03-08T10:26:00-05:00,55.33,18.89,735.97,1017.5,3.14,236.77,0
2020-03-08T10:27:00-05:00,53.77,18.84,736.2,1015.14,3.03,207.96,0
2020-03-08T10:28:00-05:00,54.74,18.64,735.63,1019.55,1.9,209.93,0
2020-03-08T10:29:00-05:00,57.29,18.69,736.23,1035.87,0.92,200.98,0
2020-03-08T10:30:00-05:00,60.65,18.83,736.84,1026.61,0.65,213.97,0
2020-03-08T10:31:00-05:00,55.92,19.02,735.6,1091.3,2.07,191.95,0
2020-03-08T10:32:00-05:00,55.01,19.04,736.77,557.75,0.8,196.26,0
2020-03-08T10:33:00-05:00,57.3,19.1,737.14,309.87,0.62,184.34,0
2020-03-08T10:34:00-05:00,56.61,19.15,737,752.27,1.63,222.29,0
2020-03-08T10:35:00-05:00,56.53,19.09,737,300.9,2.47,227.86,0
2020-03-08T10:36:00-05:00,57.21,18.93,737.14,771.97,3.41,299.06,0
2020-03-08T10:37:00-05:00,55.2,18.85,737.2,1191.28,1.31,313.57,0
2020-03-08T10:38:00-05:00,55.04,18.92,735.46,1181.13,0.59,356.71,0
2020-03-08T10:39:00-05:00,57.81,19.15,735.83,1202.75,0.77,280.6,0
2020-03-08T10:40:00-05:00,53.75,19.32,737.24,1107.92,1.64,323.5,0
2020-03-08T10:41:00-05:00,55.89,19.4,736.54,308.55,0.51,207.97,0
2020-03-08T10:42:00-05:00,57.11,19.47,737.31,282.23,0.59,259.75,0
2020-03-08T10:43:00-05:00,56.3,19.48,735.6,267.68,0.56,189.03,0
2020-03-08T10:44:00-05:00,52.38,19.4,737.1,269.44,1.96,229.79,0
2020-03-08T10:45:00-05:00,51.82,19.17,736.1,251.06,0.44,111.72,0
2020-03-08T10:46:00-05:00,54,19.07,735.93,240.92,0.52,248.8,0
2020-03-08T10:47:00-05:00,54.53,19.04,737.27,251.36,0.72,98.92,0
2020-03-08T10:48:00-05:00,52.53,19.07,737.51,251.5,0.56,27.09,0
2020-03-08T10:49:00-05:00,53.37,19.08,737.27,262.53,0.73,288.94,0
2020-03-08T10:50:00-05:00,54.24,19.08,736.43,258.12,0.6,227.82,0
2020-03-08T10:51:00-05:00,52.03,19.07,736.33,374.56,0.09,318.92,0
2020-03-08T10:52:00-05:00,53.49,19.02,737.41,214.75,0.84,263.69,0
2020-03-08T10:53:00-05:00,56.67,18.99,736.77,205.34,0.65,202.3,0
2020-03-08T10:54:00-05:00,56.66,18.92,736.37,210.34,0.55,241.78,0
2020-03-08T10:55:00-05:00,57.49,18.87,736.03,203.43,1.04,291.97,0
2020-03-08T10:56:00-05:00,57.61,18.83,736.77,203.72,0.32,242.82,0
2020-03-08T10:57:00-05:00,57.46,18.75,737.07,210.78,0.67,220.83,0
2020-03-08T10:58:00-05:00,55.54,18.62,736.64,214.01,0.52,270.73,0
2020-03-08T10:59:00-05:00,55.3,18.51,737.51,221.51,0.26,228.82,0
2020-03-08T11:00:00-05:00,55.82,18.49,736.77,242.83,0.59,237.79,0
2020-03-08T11:01:00-05:00,56.5,18.48,737.37,265.47,0.55,241.84,0
2020-03-08T11:02:00-05:00,57.99,18.46,736.13,275.76,0.8,267.73,0
2020-03-08T11:03:00-05:00,55.82,18.41,735.77,273.85,0.58,226.81,0
2020-03-08T11:04:00-05:00,55.67,18.36,737.07,273.41,1.69,235.84,0
2020-03-08T11:05:00-05:00,55.9,18.29,735.93,272.38,0.58,220.86,0
2020-03-08T11:06:00-05:00,56.14,18.29,735.7,268.85,0.46,252.17,0
2020-03-08T11:07:00-05:00,56.32,18.29,737.1,272.53,0.57,277.04,0
2020-03-08T11:08:00-05:00,55.89,18.29,735.56,279,0.5,286.96,0
2020-03-08T11:09:00-05:00,56.27,18.31,735.73,291.05,0.53,333.59,0
2020-03-08T11:10:00-05:00,57.85,18.35,736.13,291.64,0.69,353.83,0
2020-03-08T11:11:00-05:00,57.5,18.41,736.8,284.73,1,21.72,0
2020-03-08T11:12:00-05:00,58.04,18.48,736.84,269.29,0.1,215.3,0
2020-03-08T11:13:00-05:00,60.4,18.5,736.7,264.44,0.55,280.62,0
2020-03-08T11:14:00-05:00,59.58,18.53,735.7,266.35,0.6,200.96,0
2020-03-08T11:15:00-05:00,59.19,18.53,736.67,281.35,0.61,232.86,0
2020-03-08T11:16:00-05:00,58.84,18.56,736.54,301.34,0.55,193.95,0
2020-03-08T11:17:00-05:00,57.22,18.59,736.33,324.43,0.72,207.97,0
2020-03-08T11:18:00-05:00,56.29,18.56,735.67,358.68,0.32,256.78,0
2020-03-08T11:19:00-05:00,57.18,18.6,736.1,406.61,0.59,243.77,0
2020-03-08T11:20:00-05:00,56.34,18.6,736.07,442.05,0.43,254.72,0
2020-03-08T11:21:00-05:00,57.45,18.68,736.33,1075.57,0.55,299.68,0
2020-03-08T11:22:00-05:00,56.73,18.82,736.43,1308.75,0.57,270.67,0
2020-03-08T11:23:00-05:00,59.09,19.03,736.7,1347.86,0.63,269.09,0
2020-03-08T11:24:00-05:00,54.91,19.26,735.4,1346.24,1.53,288.62,0
2020-03-08T11:25:00-05:00,57.81,19.5,736.03,1338.15,0.61,240.21,0
2020-03-08T11:26:00-05:00,54.94,19.76,735.46,1331.98,0.77,339.5,0
2020-03-08T11:27:00-05:00,52.79,20.04,735.63,1326.98,1.25,312.95,0
2020-03-08T11:28:00-05:00,57.19,20.36,736.6,1346.39,1,0.76,0
2020-03-08T11:29:00-05:00,51.04,20.63,735.97,1375.2,3.11,349.79,0
2020-03-08T11:30:00-05:00,48.95,20.55,736.74,440.28,0.54,19.23,0
2020-03-08T11:31:00-05:00,51.65,20.58,736.43,495.71,0.73,228.78,0
2020-03-08T11:32:00-05:00,52,20.62,735.9,505.27,1.9,210.9,0
2020-03-08T11:33:00-05:00,50.68,20.64,736.27,396.76,0.66,250.76,0
2020-03-08T11:34:00-05:00,49.87,20.53,736.5,339.42,1.04,200.91,0
2020-03-08T11:35:00-05:00,50.56,20.33,735.1,298.99,0.78,247.82,0
2020-03-08T11:36:00-05:00,52.57,20.22,736.64,269.73,1.13,280.62,0
2020-03-08T11:37:00-05:00,52.27,20.15,734.96,241.95,0.55,214.92,0
2020-03-08T11:38:00-05:00,51.42,20.09,736.47,219.16,1.15,193.92,0
2020-03-08T11:39:00-05:00,51.72,19.95,736.7,205.34,0.57,265.8,0
2020-03-08T11:40:00-05:00,50.74,19.85,736.13,187.69,0.79,308.98,0
2020-03-08T11:41:00-05:00,51.46,19.72,735.46,174.17,0.61,207.26,0
2020-03-08T11:42:00-05:00,52.38,19.64,736.13,161.82,0.57,173.47,0
2020-03-08T11:43:00-05:00,53.28,19.55,736.07,150.79,1.6,286.64,0
2020-03-08T11:44:00-05:00,52.69,19.48,735.3,146.97,0.7,271.05,0
2020-03-08T11:45:00-05:00,53.71,19.43,736.5,146.23,0.07,111.78,0
2020-03-08T11:46:00-05:00,54.49,19.45,736.23,151.67,0.5,157.55,0
2020-03-08T11:47:00-05:00,53.11,19.42,736.67,156.09,0.61,33.8,0
2020-03-08T11:48:00-05:00,55.98,19.38,736.64,158.14,0.44,283,0
2020-03-08T11:49:00-05:00,58.49,19.36,736.17,165.79,0.55,182.05,0
2020-03-08T11:50:00-05:00,57.81,19.27,735.26,174.17,0.57,208.97,0
2020-03-08T11:51:00-05:00,54.38,19.16,735.73,183.14,0.65,343.53,0
2020-03-08T11:52:00-05:00,54.34,19.07,735.7,195.34,0.32,207.97,0
2020-03-08T11:53:00-05:00,54.37,19.04,734.9,210.34,1.03,170.06,0
2020-03-08T11:54:00-05:00,53.7,18.98,736.5,232.39,1.81,36.36,0
2020-03-08T11:55:00-05:00,55.69,18.96,736.6,247.68,0.77,177.04,0
2020-03-08T11:56:00-05:00,54.75,18.9,736.4,245.62,0.56,136.37,0
2020-03-08T11:57:00-05:00,54.32,18.88,735.36,236.95,0.95,108.53,0
2020-03-08T11:58:00-05:00,53.33,18.86,735.33,221.66,0.2,124.16,0
2020-03-08T11:59:00-05:00,53.78,18.82,735.26,211.22,0.85,96.3,0
2020-03-08T12:00:00-05:00,54.66,18.72,735.8,199.6,0.62,58.15,0
2020-03-08T12:01:00-05:00,54.95,18.68,735.23,194.61,1.06,115.36,0
2020-03-08T12:02:00-05:00,55.37,18.67,736.17,184.17,0.57,18.33,0
2020-03-08T12:03:00-05:00,54.11,18.68,736.64,166.96,1.49,51.68,0
2020-03-08T12:04:00-05:00,54.99,18.61,736.23,148.44,0.33,352.51,0
2020-03-08T12:05:00-05:00,56.08,18.6,735.06,137.12,0.84,244.09,0
2020-03-08T12:06:00-05:00,57.27,18.58,736.7,124.77,0.62,220.83,0
2020-03-08T12:07:00-05:00,59.4,18.52,736.07,115.95,2.23,242.83,0
2020-03-08T12:08:00-05:00,57.17,18.44,735.73,110.21,0.68,206.99,0
2020-03-08T12:09:00-05:00,57.2,18.35,736.43,111.1,0.58,186.96,0
2020-03-08T12:10:00-05:00,57.74,18.29,736.23,113.6,0.94,177.09,0
2020-03-08T12:11:00-05:00,58.53,18.23,735.23,117.86,0.78,234.86,0
2020-03-08T12:12:00-05:00,58.08,18.17,736.7,127.12,0.1,209.92,0
2020-03-08T12:13:00-05:00,59.52,18.14,735.06,138,0.2,206.02,0
2020-03-08T12:14:00-05:00,61.63,18.14,735.06,146.53,0.3,138.27,0
2020-03-08T12:15:00-05:00,62.38,18.12,735.5,158,0.55,6.57,0
2020-03-08T12:16:00-05:00,62.85,18.15,734.96,171.23,0.55,86.27,0
2020-03-08T12:17:00-05:00,62.69,18.14,735.06,171.67,0.52,73.53,0
2020-03-08T12:18:00-05:00,63.87,18.13,735.6,170.93,0.58,158.52,0
2020-03-08T12:19:00-05:00,64.78,18.14,734.86,173.43,0.26,262.72,0
2020-03-08T12:20:00-05:00,66.23,18.19,736.57,177.84,0.33,341.94,0
2020-03-08T12:21:00-05:00,66.32,18.24,735.83,170.05,0.43,184.03,0
2020-03-08T12:22:00-05:00,66.63,18.31,735.1,170.64,0.56,289,0
2020-03-08T12:23:00-05:00,63.57,18.33,736.47,180.34,0.99,33.28,0
2020-03-08T12:24:00-05:00,62.79,18.29,735.67,192.99,0.61,39.04,0
2020-03-08T12:25:00-05:00,62.61,18.29,736.47,214.31,0.63,269.69,0
2020-03-08T12:26:00-05:00,63.41,18.33,735.26,231.51,0.21,199.98,0
2020-03-08T12:27:00-05:00,64.09,18.37,736.1,258.27,0.46,182.07,0
2020-03-08T12:28:00-05:00,64.97,18.43,736.5,277.97,0.28,209.94,0
2020-03-08T12:29:00-05:00,65.45,18.47,736.43,265.91,0.21,293.66,0
2020-03-08T12:30:00-05:00,62.99,18.5,736.1,250.18,0.6,274.73,0
2020-03-08T12:31:00-05:00,62.99,18.47,735.93,237.39,0.69,354.46,0
2020-03-08T12:32:00-05:00,64.86,18.42,735.9,224.74,1.49,186.97,0
2020-03-08T12:33:00-05:00,64.86,18.36,736.07,204.31,0.74,271.71,0
2020-03-08T12:34:00-05:00,65.75,18.36,734.96,189.61,0.26,24.06,0
2020-03-08T12:35:00-05:00,66.6,18.33,735,174.9,0.46,220.22,0
2020-03-08T12:36:00-05:00,65.44,18.33,735.3,163.58,0.21,307.66,0
2020-03-08T12:37:00-05:00,66.2,18.34,735.93,156.38,0.57,257.17,0
2020-03-08T12:38:00-05:00,65.24,18.31,735.3,147.85,2.07,307.68,0
2020-03-08T12:39:00-05:00,65.19,18.18,736.27,135.21,0.62,75.76,0
2020-03-08T12:40:00-05:00,65.35,18.08,736.1,124.03,0.55,157.17,0
2020-03-08T12:41:00-05:00,66.02,18.02,734.63,117.71,0.34,128.64,0
2020-03-08T12:42:00-05:00,66.59,18,735.97,109.92,0.61,35.24,0
2020-03-08T12:43:00-05:00,66.12,17.96,734.73,107.57,0.23,255.71,0
2020-03-08T12:44:00-05:00,65.96,17.99,734.83,99.63,0.43,36.37,0
2020-03-08T12:45:00-05:00,66.27,18.02,736.23,93.6,0.77,74.74,0
2020-03-08T12:46:00-05:00,65.68,18,735.36,85.37,0.81,85.55,0
2020-03-08T12:47:00-05:00,65.58,17.96,735.93,78.6,0.61,41.6,0
2020-03-08T12:48:00-05:00,66.08,17.95,734.9,71.55,0.42,49.62,0
2020-03-08T12:49:00-05:00,65.59,17.92,734.79,68.75,0.55,41.25,0
2020-03-08T12:50:00-05:00,65.6,17.89,734.96,63.61,0.11,304.61,0
2020-03-08T12:51:00-05:00,67.25,17.87,736.1,58.17,0.58,282.74,0
2020-03-08T12:52:00-05:00,66.12,17.86,735.16,53.46,0.74,357.75,0
2020-03-08T12:53:00-05:00,65.71,17.81,735.1,51.7,0.67,34.21,0
2020-03-08T12:54:00-05:00,66.51,17.77,735.13,52.43,0.76,70.94,0
2020-03-08T12:55:00-05:00,66.03,17.73,735.6,53.32,0.12,276.73,0
2020-03-08T12:56:00-05:00,65.69,17.69,735.33,53.02,0.67,44.68,0
2020-03-08T12:57:00-05:00,66.41,17.67,736.47,53.9,0.87,94.38,0
2020-03-08T12:58:00-05:00,66.82,17.63,735.56,57.14,1.01,49.77,0
2020-03-08T12:59:00-05:00,65.62,17.58,734.79,60.08,1.2,49.12,0
2020-03-08T13:00:00-05:00,66.69,17.53,736.03,64.49,0.69,64.04,0
2020-03-08T13:01:00-05:00,66.81,17.51,735.16,68.9,0.7,24.95,0
2020-03-08T13:02:00-05:00,67.54,17.51,735.9,67.87,0.61,167.11,0
2020-03-08T13:03:00-05:00,68.48,17.51,735,73.16,0.41,98.31,0
2020-03-08T13:04:00-05:00,70.34,17.53,736.13,76.4,0.3,354.48,0
2020-03-08T13:05:00-05:00,69.64,17.55,734.86,76.25,0.21,285.66,0
2020-03-08T13:06:00-05:00,70.95,17.58,735.6,77.28,0.18,124.9,0
2020-03-08T13:07:00-05:00,69.58,17.59,735.6,75.66,0.15,116.69,0
2020-03-08T13:08:00-05:00,69.38,17.59,734.63,76.25,0.43,51.29,0
2020-03-08T13:09:00-05:00,69.45,17.61,735.6,75.37,0.19,198.96,0
2020-03-08T13:10:00-05:00,68.87,17.62,736,76.55,0.09,262.73,0
2020-03-08T13:11:00-05:00,68.08,17.63,735.3,76.25,0.53,149.53,0
2020-03-08T13:12:00-05:00,67.18,17.59,735.06,78.02,0.26,207.97,0
2020-03-08T13:13:00-05:00,67.95,17.6,734.06,73.16,0.21,185.35,0
2020-03-08T13:14:00-05:00,68.49,17.57,735.6,73.31,0.27,147.22,0
2020-03-08T13:15:00-05:00,69.25,17.55,736.33,69.05,0.17,234.23,0
2020-03-08T13:16:00-05:00,69.35,17.55,734.9,65.08,0.19,290.7,0
2020-03-08T13:17:00-05:00,69.52,17.54,735.46,60.08,0.37,231.22,0
2020-03-08T13:18:00-05:00,69.68,17.49,735.33,57.14,0.41,215.93,0
2020-03-08T13:19:00-05:00,70.58,17.46,735.77,55.96,0.22,220.12,0
2020-03-08T13:20:00-05:00,70.24,17.46,734.63,54.64,0.14,139.99,0
2020-03-08T13:21:00-05:00,70.38,17.47,735.3,54.79,0.17,220.85,0
2020-03-08T13:22:00-05:00,71.19,17.46,734.56,54.93,0.22,191.97,0
2020-03-08T13:23:00-05:00,70.42,17.47,735.53,56.26,0.19,141.85,0
2020-03-08T13:24:00-05:00,69.17,17.47,735.67,59.2,0.18,219.87,0
2020-03-08T13:25:00-05:00,67.5,17.46,734.73,59.78,0.53,255.68,0
2020-03-08T13:26:00-05:00,66.03,17.46,734.36,57.87,0.59,298.68,0
2020-03-08T13:27:00-05:00,66.55,17.47,734.79,60.08,0.57,99.47,0
2020-03-08T13:28:00-05:00,66.51,17.45,734.39,57.87,0.35,76.53,0
2020-03-08T13:29:00-05:00,66.78,17.45,734.69,55.37,0.6,56.42,0
2020-03-08T13:30:00-05:00,67.1,17.46,734.66,54.2,1.88,36.89,0
2020-03-08T13:31:00-05:00,66.54,17.37,733.96,54.34,2.17,54.08,0
2020-03-08T13:32:00-05:00,67.12,17.34,734.79,57.87,0.63,195.27,0
2020-03-08T13:33:00-05:00,68.27,17.31,734.53,58.31,0.85,355.47,0
2020-03-08T13:34:00-05:00,68.01,17.31,735.4,59.78,0.13,241.22,0
2020-03-08T13:35:00-05:00,68.25,17.29,735.23,63.61,0.64,8.06,0
2020-03-08T13:36:00-05:00,68.17,17.28,734.49,62.58,2.26,59.34,0
2020-03-08T13:37:00-05:00,68.66,17.23,734.36,63.75,1.06,44.88,0
2020-03-08T13:38:00-05:00,69.01,17.2,734.73,63.61,0.61,46.7,0
2020-03-08T13:39:00-05:00,70.1,17.19,734.46,64.34,0.25,173.15,0
2020-03-08T13:40:00-05:00,70.62,17.21,735.3,65.67,0.19,117.15,0
2020-03-08T13:41:00-05:00,71.29,17.19,734.46,66.25,0.24,207.94,0
2020-03-08T13:42:00-05:00,70.99,17.17,734.63,64.64,0.73,216.9,0
2020-03-08T13:43:00-05:00,70.89,17.13,734.19,65.67,0.93,212.87,0
2020-03-08T13:44:00-05:00,70.26,17,734.26,64.78,0.57,215.94,0
2020-03-08T13:45:00-05:00,69.85,17,735.7,63.9,0.82,89.57,0
2020-03-08T13:46:00-05:00,70.64,16.99,735.67,65.22,0.3,335.57,0
2020-03-08T13:47:00-05:00,70.56,17.02,734.46,66.55,0.55,154.29,0
2020-03-08T13:48:00-05:00,69.86,17,735.8,68.61,0.93,52.84,0
2020-03-08T13:49:00-05:00,69.56,17.02,734.23,71.55,0.79,54.09,0
2020-03-08T13:50:00-05:00,70.24,17.06,735.46,75.37,0.39,17.42,0
2020-03-08T13:51:00-05:00,70.58,17.1,735.33,81.99,0.42,345.85,0
2020-03-08T13:52:00-05:00,70.91,17.13,734.53,84.78,0.65,339.5,0
2020-03-08T13:53:00-05:00,70.63,17.17,734.66,87.13,0.32,258.14,0
2020-03-08T13:54:00-05:00,70.91,17.17,735.46,90.07,0.54,327.54,0
2020-03-08T13:55:00-05:00,69.37,17.2,735.36,94.19,0.48,37.18,0
2020-03-08T13:56:00-05:00,70.6,17.25,735.77,91.98,0.54,23.5,0
2020-03-08T13:57:00-05:00,70.3,17.29,735.4,88.01,0.68,27.03,0
2020-03-08T13:58:00-05:00,71.11,17.31,735.93,81.1,0.26,110.67,0
2020-03-08T13:59:00-05:00,70.93,17.35,735.56,72.72,0.29,148.23,0
2020-03-08T14:00:00-05:00,69.51,17.34,735.63,62.58,0.65,44.75,0
2020-03-08T14:01:00-05:00,69.03,17.34,735.56,55.08,0.69,59.94,0
2020-03-08T14:02:00-05:00,71.05,17.35,734.43,49.64,0.13,296.59,0
2020-03-08T14:03:00-05:00,70.42,17.35,734.83,43.32,0.56,156.21,0
2020-03-08T14:04:00-05:00,70.72,17.29,734.02,40.82,0.57,208.23,0
2020-03-08T14:05:00-05:00,69.39,17.26,735.2,34.64,0.69,204.18,0
2020-03-08T14:06:00-05:00,68.84,17.22,735.73,33.32,0.49,34.98,0
2020-03-08T14:07:00-05:00,69.37,17.19,734.53,30.97,1.3,50.02,0
2020-03-08T14:08:00-05:00,70.16,17.19,734.9,30.67,0.49,279.97,0
2020-03-08T14:09:00-05:00,70.38,17.16,734.56,29.35,0.56,181.08,0
2020-03-08T14:10:00-05:00,71.41,17.13,734.56,24.79,0.66,23.64,0
2020-03-08T14:11:00-05:00,70.39,17.11,734.46,23.62,0.69,57.57,0
2020-03-08T14:12:00-05:00,71.6,17.11,734.26,20.68,0.33,163.51,0
2020-03-08T14:13:00-05:00,70.54,17.06,733.76,16.56,0.62,148.22,0
2020-03-08T14:14:00-05:00,72.46,17.02,734.29,13.18,1.17,146.57,0
2020-03-08T14:15:00-05:00,74.37,16.93,734.23,12.44,0.6,177.09,0
2020-03-08T14:16:00-05:00,75.6,16.8,735.13,8.91,0.7,217.21,0
2020-03-08T14:17:00-05:00,76.14,16.66,735,6.56,1.04,100.93,0
2020-03-08T14:18:00-05:00,78.65,16.48,734.43,3.62,0.69,209.94,0.1
2020-03-08T14:19:00-05:00,80.13,16.3,734.06,4.36,0.56,206,0.1
2020-03-08T14:20:00-05:00,81.2,16.14,734.09,6.42,0.67,183.02,0.1
2020-03-08T14:21:00-05:00,82.54,15.95,734.39,5.83,1.33,213.96,0.3
2020-03-08T14:22:00-05:00,83.67,15.78,734.59,7.44,0.94,192.96,0.4
2020-03-08T14:23:00-05:00,85.33,15.55,734.49,9.65,0.63,254.74,0.6
2020-03-08T14:24:00-05:00,None,None,None,None,None,None,None
2020-03-08T14:25:00-05:00,87,15.14,735.03,15.53,1.14,198.03,1.9
2020-03-08T14:26:00-05:00,None,None,None,None,None,None,None
2020-03-08T14:27:00-05:00,87.55,14.52,735.43,28.17,2.67,213.22,1.9
2020-03-08T14:28:00-05:00,87.2,14.15,734.9,33.32,1.27,184.04,0.6
2020-03-08T14:29:00-05:00,88.38,13.86,735.16,37.44,1.05,215.29,0.4
2020-03-08T14:30:00-05:00,89.32,13.64,734.93,38.17,1.02,212.86,0.4
2020-03-08T14:31:00-05:00,90.28,13.46,735.03,39.35,1.56,202.27,0.3
2020-03-08T14:32:00-05:00,91.36,13.31,734.02,39.94,0.92,210.95,0.1
2020-03-08T14:33:00-05:00,92.16,13.2,734.9,39.2,0.69,208.35,0.1
2020-03-08T14:34:00-05:00,92.83,13.12,733.99,36.85,0.82,183.05,0.1
2020-03-08T14:35:00-05:00,93.25,13.07,733.96,30.97,0.3,1.02,0.1
2020-03-08T14:36:00-05:00,93.86,13.04,734.66,28.91,0.58,19.98,0
2020-03-08T14:37:00-05:00,94.4,13.04,735.56,24.5,1.06,357.44,0.1
2020-03-08T14:38:00-05:00,94.35,13.01,734.02,19.79,0.78,35.91,0.1
2020-03-08T14:39:00-05:00,94.56,13.02,735.97,17.74,0.21,202,0.2
2020-03-08T14:40:00-05:00,94.85,13.04,735.33,15.82,0.38,194.92,0
2020-03-08T14:41:00-05:00,94.88,13.04,734.49,15.09,0.18,70.73,0.1
2020-03-08T14:42:00-05:00,95.33,13.08,734.53,16.85,0.47,38.09,0.1
2020-03-08T14:43:00-05:00,95.05,13.09,734.96,15.38,0.33,51.77,0.1
2020-03-08T14:44:00-05:00,95.19,13.09,735.23,13.47,0.52,70.15,0.1
2020-03-08T14:45:00-05:00,95.2,13.1,735.03,16.85,0.51,57.87,0.2
2020-03-08T14:46:00-05:00,95.36,13.14,734.09,17.74,0.59,153.51,0.3
2020-03-08T14:47:00-05:00,95.36,13.12,735.3,25.09,0.43,125.42,0.6
2020-03-08T14:48:00-05:00,95.57,13.14,734.59,35.97,0.99,111.23,0.3
2020-03-08T14:49:00-05:00,95.78,13.16,735.36,50.08,0.57,130.79,0.4
2020-03-08T14:50:00-05:00,95.83,13.2,735.87,54.79,0.6,133.54,0.2
2020-03-08T14:51:00-05:00,96,13.24,735.33,57.14,0.63,103.46,0.3
2020-03-08T14:52:00-05:00,96.21,13.26,734.49,57.58,0.66,189.39,0.2
2020-03-08T14:53:00-05:00,95.98,13.28,734.06,56.7,0.19,198,0.2
2020-03-08T14:54:00-05:00,95.99,13.3,734.49,58.02,0.38,193.27,0.6
2020-03-08T14:55:00-05:00,96.26,13.33,734.53,62.14,0.54,18.91,0.3
2020-03-08T14:56:00-05:00,96.17,13.36,735.46,61.25,1.1,13.45,0.4
2020-03-08T14:57:00-05:00,96.33,13.41,736.03,54.34,0.26,145.15,0.2
2020-03-08T14:58:00-05:00,96.33,13.43,734.93,45.52,0.57,35.26,0.2
2020-03-08T14:59:00-05:00,96.24,13.44,735.1,36.11,0.57,40.42,0.2
2020-03-08T15:00:00-05:00,96.25,13.46,735.4,34.5,0.56,309.62,0.1
2020-03-08T15:01:00-05:00,96.42,13.48,734.76,34.5,0.48,2.72,0.1
2020-03-08T15:02:00-05:00,96.51,13.5,734.49,30.97,0.56,34.18,0
2020-03-08T15:03:00-05:00,96.47,13.5,735.87,29.35,0.38,39.77,0.1
2020-03-08T15:04:00-05:00,96.27,13.52,735.56,29.2,0.32,65.78,0
2020-03-08T15:05:00-05:00,96.35,13.52,735.8,25.23,0.53,70.36,0
2020-03-08T15:06:00-05:00,95.96,13.49,736.27,22.44,0.73,40.1,0
2020-03-08T15:07:00-05:00,96.18,13.47,736.23,21.85,0.99,44.4,0
2020-03-08T15:08:00-05:00,96.01,13.47,734.66,18.47,0.57,314.55,0.1
2020-03-08T15:09:00-05:00,96.11,13.48,734.53,17.74,0.56,284.04,0.1
2020-03-08T15:10:00-05:00,96.19,13.5,735.8,14.5,0.36,276.69,0.1
2020-03-08T15:11:00-05:00,96.19,13.5,734.79,15.38,0.29,267.08,0
2020-03-08T15:12:00-05:00,96.23,13.5,735.06,14.5,0.24,285.91,0.1
2020-03-08T15:13:00-05:00,96.17,13.49,734.49,14.06,0.69,313.92,0
2020-03-08T15:14:00-05:00,95.84,13.46,734.53,17.74,0.06,329.53,0
2020-03-08T15:15:00-05:00,95.68,13.42,736.07,20.68,0.6,186.98,0.1
2020-03-08T15:16:00-05:00,95.81,13.41,734.53,27.73,0.62,198,0.1
2020-03-08T15:17:00-05:00,95.98,13.39,735.83,35.08,0.17,115.43,0
2020-03-08T15:18:00-05:00,96.09,13.38,736.1,49.79,0.62,54.28,0
2020-03-08T15:19:00-05:00,95.81,13.38,735.97,59.49,0.62,31.08,0
2020-03-08T15:20:00-05:00,96.03,13.36,736,62.28,0.4,62.19,0
2020-03-08T15:21:00-05:00,96.42,13.39,734.93,60.52,0.66,72.83,0
2020-03-08T15:22:00-05:00,96.23,13.38,734.93,57.14,0.27,133.22,0
2020-03-08T15:23:00-05:00,96.09,13.37,734.49,54.93,0.36,10.16,0
2020-03-08T15:24:00-05:00,96.08,13.36,735.93,55.52,0.54,23.25,0
2020-03-08T15:25:00-05:00,96.21,13.38,735.46,55.67,0.59,5.81,0
2020-03-08T15:26:00-05:00,95.99,13.38,735.03,51.26,0.9,21.96,0
2020-03-08T15:27:00-05:00,95.91,13.33,734.83,48.17,1.01,30.17,0
2020-03-08T15:28:00-05:00,95.8,13.34,734.79,49.35,0.59,16.67,0
2020-03-08T15:29:00-05:00,96.05,13.34,735.87,51.4,0.66,28.47,0
2020-03-08T15:30:00-05:00,95.93,13.33,736.03,58.17,1.11,47.83,0
2020-03-08T15:31:00-05:00,95.85,13.32,735.16,63.75,0.25,30.63,0
2020-03-08T15:32:00-05:00,95.93,13.32,734.69,65.08,0.96,39.46,0
2020-03-08T15:33:00-05:00,95.75,13.3,734.53,65.37,0.62,19.52,0
2020-03-08T15:34:00-05:00,95.92,13.31,735.63,64.34,0.43,117.19,0
2020-03-08T15:35:00-05:00,96.27,13.38,734.73,63.17,0.64,154.24,0
2020-03-08T15:36:00-05:00,96.29,13.42,734.36,59.05,0.58,149.19,0
2020-03-08T15:37:00-05:00,96.34,13.45,735.73,56.26,0.2,42.15,0
2020-03-08T15:38:00-05:00,96.35,13.46,735.23,53.32,0.19,292.68,0
2020-03-08T15:39:00-05:00,96.21,13.48,735.7,54.2,0.61,41.06,0
2020-03-08T15:40:00-05:00,96.21,13.47,734.36,53.32,0.86,66.19,0
2020-03-08T15:41:00-05:00,96.18,13.49,735.46,55.08,0.57,37.3,0
2020-03-08T15:42:00-05:00,96.26,13.55,735.56,58.9,0.71,53.43,0
2020-03-08T15:43:00-05:00,96.17,13.56,735.67,59.49,0.56,94.66,0
2020-03-08T15:44:00-05:00,96.19,13.58,736.13,58.61,0.51,139.94,0
2020-03-08T15:45:00-05:00,96.38,13.61,736,57.43,0.74,107.73,0
2020-03-08T15:46:00-05:00,96.37,13.64,734.66,55.96,0.27,176.4,0
2020-03-08T15:47:00-05:00,96.48,13.69,734.83,58.02,0.48,195.29,0
2020-03-08T15:48:00-05:00,96.33,13.72,736,56.84,0.26,123.03,0
2020-03-08T15:49:00-05:00,96.25,13.74,735.77,54.2,0.66,48.08,0
2020-03-08T15:50:00-05:00,96.33,13.73,736,55.67,0.68,29.19,0
2020-03-08T15:51:00-05:00,96.21,13.76,734.39,57.14,0.64,99.14,0
2020-03-08T15:52:00-05:00,96.09,13.73,735.83,61.11,0.59,100.48,0.1
2020-03-08T15:53:00-05:00,96.12,13.74,735,63.17,0.38,96.71,0
2020-03-08T15:54:00-05:00,96.08,13.76,735.36,63.46,0.55,156.21,0
2020-03-08T15:55:00-05:00,95.87,13.76,736.3,63.46,0.55,163.17,0
2020-03-08T15:56:00-05:00,95.77,13.74,734.9,60.81,0.53,131.25,0
2020-03-08T15:57:00-05:00,95.83,13.73,735.06,55.08,0.28,98.53,0
2020-03-08T15:58:00-05:00,95.89,13.75,736.03,50.38,0.52,116.44,0
2020-03-08T15:59:00-05:00,95.84,13.76,734.19,50.38,0.76,143.19,0
2020-03-08T16:00:00-05:00,95.45,13.71,735.46,45.52,0.4,147.24,0
2020-03-08T16:01:00-05:00,95.37,13.68,735.67,43.76,0.5,72.3,0
2020-03-08T16:02:00-05:00,95.5,13.7,733.99,44.64,0.08,78.78,0
2020-03-08T16:03:00-05:00,95.66,13.7,735.93,42.44,0.93,96.99,0
2020-03-08T16:04:00-05:00,95.4,13.67,734.16,42.73,0.64,73.74,0
2020-03-08T16:05:00-05:00,95.26,13.64,735.93,45.52,0.52,123.19,0
2020-03-08T16:06:00-05:00,95.59,13.68,735.7,45.52,0.44,115.52,0.1
2020-03-08T16:07:00-05:00,95.65,13.68,735.23,46.85,0.35,37.18,0
2020-03-08T16:08:00-05:00,95.73,13.7,735.6,45.96,0.31,130.45,0
2020-03-08T16:09:00-05:00,95.87,13.74,735.8,47.43,0.4,129.25,0.1
2020-03-08T16:10:00-05:00,95.59,13.73,736.1,48.61,0.45,182.4,0
2020-03-08T16:11:00-05:00,95.19,13.72,735.77,48.46,0.62,165.16,0
2020-03-08T16:12:00-05:00,95.25,13.68,735.1,52.29,0.64,177.06,0
2020-03-08T16:13:00-05:00,95.12,13.65,734.93,51.11,0.62,175.08,0
2020-03-08T16:14:00-05:00,95.34,13.65,735.6,52.58,0.39,116.05,0
2020-03-08T16:15:00-05:00,95.5,13.65,735.6,52.29,0.34,159.13,0
2020-03-08T16:16:00-05:00,95.5,13.67,735.9,49.2,0.6,197,0
2020-03-08T16:17:00-05:00,95.46,13.67,734.66,51.26,0.35,130.98,0
2020-03-08T16:18:00-05:00,95.51,13.68,735.7,49.49,0.27,149.21,0
2020-03-08T16:19:00-05:00,95.66,13.68,735.67,50.38,0.24,22.37,0
2020-03-08T16:20:00-05:00,95.73,13.68,736.17,47.14,0.14,191.31,0
2020-03-08T16:21:00-05:00,95.81,13.72,736,48.61,0.35,110.52,0
2020-03-08T16:22:00-05:00,95.82,13.73,735.97,50.82,0.5,112.9,0
2020-03-08T16:23:00-05:00,95.91,13.74,734.83,65.08,0.21,121.6,0
2020-03-08T16:24:00-05:00,96.05,13.77,736.23,80.81,0.6,157.17,0
2020-03-08T16:25:00-05:00,96.05,13.82,735.87,108.45,0.31,68.24,0.1
2020-03-08T16:26:00-05:00,96.28,13.82,736.17,110.21,0.56,152.17,0.1
2020-03-08T16:27:00-05:00,96.04,13.84,734.86,151.67,0.27,163.51,0
2020-03-08T16:28:00-05:00,95.85,13.86,735,202.84,0.47,188.09,0.1
2020-03-08T16:29:00-05:00,95.99,13.86,735,114.62,0.57,146.59,0.1
2020-03-08T16:30:00-05:00,95.72,13.85,736.47,109.18,0.37,130.24,0.1
2020-03-08T16:31:00-05:00,95.8,13.88,735.1,172.85,0.52,117.18,0
2020-03-08T16:32:00-05:00,95.84,13.92,736.43,112.71,0.61,56.78,0
2020-03-08T16:33:00-05:00,96.11,13.98,734.83,127.56,0.06,337.53,0.1
2020-03-08T16:34:00-05:00,96.07,14.04,736.07,111.1,0.57,193.97,0
2020-03-08T16:35:00-05:00,95.66,14.04,736.4,106.83,0.44,191.97,0
2020-03-08T16:36:00-05:00,95.63,14.04,734.49,103.74,0.07,193.95,0.1
2020-03-08T16:37:00-05:00,95.62,14.09,734.83,105.22,0.56,209.93,0
2020-03-08T16:38:00-05:00,95.33,14.07,734.66,106.54,0.58,189.03,0.1
2020-03-08T16:39:00-05:00,95.25,14.05,735.3,132.56,0.58,189.03,0
2020-03-08T16:40:00-05:00,95.1,14.04,734.76,113.74,0.41,191.35,0
2020-03-08T16:41:00-05:00,95.2,14.04,734.33,114.77,0.33,215.89,0.1
2020-03-08T16:42:00-05:00,95.32,14.05,736.27,118.15,0.26,196.28,0
2020-03-08T16:43:00-05:00,95.44,14.09,734.96,121.39,0.31,282.7,0
2020-03-08T16:44:00-05:00,95.77,14.14,735.7,127.56,0.31,260.11,0
2020-03-08T16:45:00-05:00,95.82,14.18,735.97,134.47,0.19,177.06,0
2020-03-08T16:46:00-05:00,95.75,14.22,735.53,150.2,0.28,263.07,0
2020-03-08T16:47:00-05:00,95.69,14.24,736.54,160.94,0.15,206.03,0
2020-03-08T16:48:00-05:00,95.55,14.26,734.79,172.7,0.61,269.01,0
2020-03-08T16:49:00-05:00,95.08,14.23,735.26,170.35,0.56,191.01,0
2020-03-08T16:50:00-05:00,95.06,14.23,735.93,163.58,0.46,215.92,0
2020-03-08T16:51:00-05:00,95.18,14.24,735.93,156.38,0.26,218.9,0.1
2020-03-08T16:52:00-05:00,94.79,14.25,736.07,149.91,0.59,228.84,0
2020-03-08T16:53:00-05:00,94.39,14.21,735.4,141.68,0.38,230.11,0
2020-03-08T16:54:00-05:00,94.34,14.21,736.2,131.53,0.09,254.07,0
2020-03-08T16:55:00-05:00,94.52,14.2,734.59,124.47,0.09,287.62,0
2020-03-08T16:56:00-05:00,94.29,14.18,734.96,116.24,0.06,227.83,0.1
2020-03-08T16:57:00-05:00,94.14,14.15,736.37,108.16,0.11,192.01,0
2020-03-08T16:58:00-05:00,93.99,14.18,734.69,106.54,0.06,219.87,0
2020-03-08T16:59:00-05:00,94.03,14.18,736.27,105.66,0.18,154.6,0
2020-03-08T17:00:00-05:00,94.25,14.22,735,104.04,0.2,110.46,0
2020-03-08T17:01:00-05:00,94.03,14.25,735.93,105.8,0.14,191.35,0
2020-03-08T17:02:00-05:00,93.89,14.26,735.06,105.36,0.22,110.9,0.1
2020-03-08T17:03:00-05:00,93.89,14.26,736.54,104.48,0.59,98.38,0
2020-03-08T17:04:00-05:00,93.25,14.22,736.47,97.42,0.23,98.08,0
2020-03-08T17:05:00-05:00,92.78,14.18,735,89.34,0.6,57.25,0
2020-03-08T17:06:00-05:00,92.96,14.18,735,80.96,0.32,167.12,0
2020-03-08T17:07:00-05:00,92.76,14.2,736.17,73.16,0.6,155.47,0
2020-03-08T17:08:00-05:00,92.71,14.17,736.17,67.87,0.49,177.08,0
2020-03-08T17:09:00-05:00,92.55,14.15,735.93,66.55,0.66,189.05,0
2020-03-08T17:10:00-05:00,92.78,14.13,736.2,69.64,0.57,185.99,0
2020-03-08T17:11:00-05:00,92.57,14.08,735.6,65.96,0.58,164.16,0
2020-03-08T17:12:00-05:00,92.61,14.04,736.33,67.58,0.52,181.1,0
2020-03-08T17:13:00-05:00,92.83,14,736.17,72.72,0.49,165.16,0
2020-03-08T17:14:00-05:00,93.16,14,736.03,74.78,0.59,137.25,0
2020-03-08T17:15:00-05:00,93.52,14.02,735.87,71.55,0.29,115.47,0
2020-03-08T17:16:00-05:00,93.84,14.02,734.39,68.61,0.23,172.17,0
2020-03-08T17:17:00-05:00,94.26,14.07,735.13,66.4,0.55,121.62,0
2020-03-08T17:18:00-05:00,94.45,14.1,734.43,61.84,0.68,50.54,0
2020-03-08T17:19:00-05:00,94.64,14.1,736.37,58.02,0.43,255.73,0
2020-03-08T17:20:00-05:00,94.6,14.12,734.93,54.2,0.33,78.99,0
2020-03-08T17:21:00-05:00,94.68,14.13,736.37,51.4,0.31,185,0
2020-03-08T17:22:00-05:00,94.56,14.12,735.93,47.73,0.26,41.13,0
2020-03-08T17:23:00-05:00,94.54,14.13,736.33,45.23,0.2,109.37,0
2020-03-08T17:24:00-05:00,94.59,14.12,735.13,42.44,0.44,51.49,0
2020-03-08T17:25:00-05:00,94.53,14.12,736.2,40.67,0.06,6.55,0
2020-03-08T17:26:00-05:00,94.34,14.11,736.03,38.17,0.27,189.33,0
2020-03-08T17:27:00-05:00,93.91,14.06,735.97,35.23,0.37,167.13,0
2020-03-08T17:28:00-05:00,93.8,13.98,735.43,33.91,0.6,179.12,0
2020-03-08T17:29:00-05:00,93.55,13.93,734.69,31.56,0.54,197.02,0
2020-03-08T17:30:00-05:00,94.06,13.89,736.37,28.17,0.59,188.05,0
2020-03-08T17:31:00-05:00,93.89,13.87,735.3,26.26,0.21,161.11,0
2020-03-08T17:32:00-05:00,94.09,13.87,736.2,26.56,0.67,182.03,0
2020-03-08T17:33:00-05:00,94.2,13.84,734.79,26.85,0.67,167.14,0
2020-03-08T17:34:00-05:00,94.34,13.8,735.16,24.35,0.49,197,0
2020-03-08T17:35:00-05:00,94.36,13.78,735.13,24.79,0.57,155.56,0
2020-03-08T17:36:00-05:00,94.69,13.78,736.27,24.79,0.25,148.55,0
2020-03-08T17:37:00-05:00,95.06,13.8,734.93,25.38,0.1,60.06,0
2020-03-08T17:38:00-05:00,95.18,13.82,734.73,22.88,0.52,112.24,0
2020-03-08T17:39:00-05:00,95.28,13.84,734.76,22.44,0.38,128.63,0
2020-03-08T17:40:00-05:00,95.3,13.84,736.2,22.15,0.12,130.69,0
2020-03-08T17:41:00-05:00,95.21,13.84,735.97,20.97,0.15,84.67,0
2020-03-08T17:42:00-05:00,95.24,13.84,734.39,20.82,0.15,167.12,0
2020-03-08T17:43:00-05:00,95.26,13.84,736.03,17.15,0.33,106.73,0
2020-03-08T17:44:00-05:00,95.17,13.81,735.43,17.74,0.22,131.75,0
2020-03-08T17:45:00-05:00,95.18,13.78,734.9,14.8,0.27,109.4,0
2020-03-08T17:46:00-05:00,95.1,13.79,734.83,14.8,0.43,93.39,0
2020-03-08T17:47:00-05:00,95,13.75,734.73,12,0.29,116.22,0
2020-03-08T17:48:00-05:00,94.94,13.73,735.8,10.53,0.29,43.5,0
2020-03-08T17:49:00-05:00,94.9,13.71,735.97,11.71,0.42,105.3,0
2020-03-08T17:50:00-05:00,94.82,13.66,735.83,9.06,0.56,70.52,0
2020-03-08T17:51:00-05:00,94.84,13.63,735.67,9.21,0.29,122.42,0
2020-03-08T17:52:00-05:00,94.97,13.62,733.92,7.89,0.37,57.86,0
2020-03-08T17:53:00-05:00,94.75,13.58,735.23,7.44,0.54,84.06,0
2020-03-08T17:54:00-05:00,94.88,13.54,734.39,6.42,0.57,52.63,0
2020-03-08T17:55:00-05:00,94.8,13.54,733.62,7,0.65,63.92,0
2020-03-08T17:56:00-05:00,94.98,13.51,733.96,7.44,0.46,84.17,0
2020-03-08T17:57:00-05:00,95,13.5,734.19,4.5,0.23,134.21,0
2020-03-08T17:58:00-05:00,94.97,13.47,734.13,3.18,0.3,85.79,0
2020-03-08T17:59:00-05:00,94.96,13.46,733.66,4.94,0.26,117.82,0
2020-03-08T18:00:00-05:00,94.86,13.42,734.33,2.89,0.25,133.94,0
2020-03-08T18:01:00-05:00,94.97,13.4,734.09,3.03,0.52,80.32,0
2020-03-08T18:02:00-05:00,95.03,13.39,734.76,2.3,0.54,77.66,0
2020-03-08T18:03:00-05:00,94.88,13.38,733.86,2,0.69,55.69,0
2020-03-08T18:04:00-05:00,94.94,13.35,733.69,3.18,0.18,53.91,0
2020-03-08T18:05:00-05:00,95,13.35,734.76,1.71,0.55,55.09,0
2020-03-08T18:06:00-05:00,95.02,13.33,734.93,0.98,0.11,167.11,0
2020-03-08T18:07:00-05:00,95.18,13.33,734.53,1.56,0.52,65.52,0
2020-03-08T18:08:00-05:00,95.29,13.34,734.36,-0.35,0.53,121.24,0
2020-03-08T18:09:00-05:00,95.2,13.34,734.86,-0.2,0.56,64.52,0
2020-03-08T18:10:00-05:00,95.24,13.29,734.59,1.56,0.54,60.97,0
2020-03-08T18:11:00-05:00,95.02,13.27,734.86,1.56,0.7,81.88,0
2020-03-08T18:12:00-05:00,94.75,13.22,734.69,-1.23,0.84,48.7,0
2020-03-08T18:13:00-05:00,94.83,13.2,734.06,0.98,0.57,68.83,0
2020-03-08T18:14:00-05:00,94.65,13.16,733.62,-0.35,0.44,83.23,0
2020-03-08T18:15:00-05:00,94.46,13.14,734.53,-1.38,0.57,94.49,0
2020-03-08T18:16:00-05:00,94.13,13.08,733.62,-0.79,0.35,58.41,0
2020-03-08T18:17:00-05:00,94.27,13.08,733.59,-0.05,0.56,156.56,0
2020-03-08T18:18:00-05:00,94.02,13.07,734.39,-1.82,0.54,162.21,0
2020-03-08T18:19:00-05:00,93.99,13.06,733.15,-1.38,0.56,176.43,0
2020-03-08T18:20:00-05:00,93.87,13.02,733.62,-0.94,0.88,155.21,0
2020-03-08T18:21:00-05:00,93.6,12.93,734.69,-0.79,0.93,146.6,0
2020-03-08T18:22:00-05:00,93.49,12.88,734.46,-1.52,0.64,137.67,0
2020-03-08T18:23:00-05:00,93.71,12.87,734.39,-0.2,0.33,147.52,0
2020-03-08T18:24:00-05:00,94.04,12.87,734.26,-0.2,0.57,161.15,0
2020-03-08T18:25:00-05:00,94.01,12.85,734.39,-0.2,0.82,144.2,0
2020-03-08T18:26:00-05:00,93.97,12.82,733.42,-2.11,0.74,150.16,0
2020-03-08T18:27:00-05:00,94.04,12.81,733.62,0.09,0.36,140.47,0
2020-03-08T18:28:00-05:00,94.26,12.83,734.33,-0.35,0.57,113.76,0
2020-03-08T18:29:00-05:00,94.48,12.83,734.29,-0.94,0.54,115.23,0
2020-03-08T18:30:00-05:00,94.44,12.8,734.66,-2.26,0.58,60.7,0
2020-03-08T18:31:00-05:00,94.54,12.82,733.69,-1.82,0.83,74.51,0
2020-03-08T18:32:00-05:00,94.39,12.79,733.66,-2.11,0.95,116.37,0
2020-03-08T18:33:00-05:00,94.36,12.79,733.32,0.39,0.61,92.21,0
2020-03-08T18:34:00-05:00,94.26,12.79,733.39,-0.35,0.56,110.31,0
2020-03-08T18:35:00-05:00,94.4,12.77,735.1,-0.94,0.91,116.14,0
2020-03-08T18:36:00-05:00,94.26,12.77,735,-1.67,0.92,98.29,0
2020-03-08T18:37:00-05:00,94.42,12.79,734.13,0.09,1.05,97.82,0
2020-03-08T18:38:00-05:00,94.41,12.79,734.06,-1.38,0.61,140.53,0
2020-03-08T18:39:00-05:00,94.29,12.81,733.66,-2.41,0.63,106.19,0
2020-03-08T18:40:00-05:00,94.34,12.81,733.72,-0.94,0.68,96.75,0
2020-03-08T18:41:00-05:00,94.36,12.82,734.16,-0.94,0.7,118.74,0
2020-03-08T18:42:00-05:00,94.26,12.8,734.13,-1.52,0.48,93.77,0
2020-03-08T18:43:00-05:00,94.3,12.79,733.52,-0.05,0.64,143.45,0
2020-03-08T18:44:00-05:00,94.39,12.8,735.26,-2.26,0.86,115.6,0
2020-03-08T18:45:00-05:00,94.31,12.79,733.92,-0.05,0.56,115.04,0
2020-03-08T18:46:00-05:00,94.4,12.82,734.19,-0.2,0.69,27.26,0
2020-03-08T18:47:00-05:00,94.34,12.84,735.26,-1.67,0.26,60.71,0
2020-03-08T18:48:00-05:00,94.37,12.85,734.76,-0.2,0.73,81.44,0
2020-03-08T18:49:00-05:00,94.01,12.83,734.83,-0.94,0.3,76.57,0
2020-03-08T18:50:00-05:00,93.98,12.82,734.86,-0.64,0.56,115.22,0
2020-03-08T18:51:00-05:00,93.53,12.82,733.86,-1.38,0.53,46.37,0
2020-03-08T18:52:00-05:00,93.54,12.82,735.1,0.53,0.48,78.81,0
2020-03-08T18:53:00-05:00,93.33,12.82,735.3,-0.05,0.65,76.61,0
2020-03-08T18:54:00-05:00,93.64,12.84,735,1.12,0.63,43.75,0
2020-03-08T18:55:00-05:00,93.27,12.84,735.03,-0.35,2.4,68.63,0
2020-03-08T18:56:00-05:00,91.64,12.9,734.06,-0.94,0.95,45.58,0
2020-03-08T18:57:00-05:00,91.68,13,734.39,-1.52,0.7,75.11,0
2020-03-08T18:58:00-05:00,91.67,13.04,734.9,-1.38,0.83,35.94,0
2020-03-08T18:59:00-05:00,91.35,13.01,735.2,-1.08,1.41,50.48,0
2020-03-08T19:00:00-05:00,91.41,13.03,734.02,-1.23,1.2,59.67,0
2020-03-08T19:01:00-05:00,90.23,13.02,734.56,-0.49,2.13,53.54,0
2020-03-08T19:02:00-05:00,88.4,13.11,735.1,-1.52,1.13,46.47,0
2020-03-08T19:03:00-05:00,88.92,13.16,734.73,-0.05,0.97,98.58,0
2020-03-08T19:04:00-05:00,89.38,13.14,735.6,0.68,0.7,99.21,0
2020-03-08T19:05:00-05:00,89.25,13.11,735.56,0.83,2.47,40.66,0
2020-03-08T19:06:00-05:00,88.21,13.16,734.73,0.53,0.32,12.58,0
2020-03-08T19:07:00-05:00,88.58,13.19,734.43,-0.05,0.71,143.2,0
2020-03-08T19:08:00-05:00,88.38,13.15,734.63,0.68,0.68,148.2,0
2020-03-08T19:09:00-05:00,85.65,13.1,734.33,-1.82,0.95,30.27,0
2020-03-08T19:10:00-05:00,86.78,13.16,734.56,-1.08,0.79,123.32,0
2020-03-08T19:11:00-05:00,86.46,13.16,735.9,-1.82,0.57,170.1,0
2020-03-08T19:12:00-05:00,87.23,13.15,735.36,-1.97,0.13,251.1,0
2020-03-08T19:13:00-05:00,88.4,13.12,735.8,-1.67,0.21,57.8,0
2020-03-08T19:14:00-05:00,88.88,13.08,735.56,-0.64,0.72,103.64,0
2020-03-08T19:15:00-05:00,87.88,13.01,734.66,0.09,0.79,240.86,0
2020-03-08T19:16:00-05:00,88.13,13.01,735.97,-1.38,0.55,96.09,0
2020-03-08T19:17:00-05:00,87.29,13.03,735.4,-0.94,0.64,126.09,0
2020-03-08T19:18:00-05:00,86.25,13.05,734.39,0.39,0.78,70.93,0
2020-03-08T19:19:00-05:00,85.01,13.11,735.03,-0.35,0.48,342.56,0
2020-03-08T19:20:00-05:00,87.08,13.15,734.46,-1.82,0.48,144.73,0
2020-03-08T19:21:00-05:00,88.01,13.13,735.83,-0.05,0.95,137.58,0
2020-03-08T19:22:00-05:00,88.59,13.08,733.86,-1.38,0.52,140.15,0
2020-03-08T19:23:00-05:00,88.54,13.04,734.59,-1.52,0.63,112.56,0
2020-03-08T19:24:00-05:00,88,13.02,734.06,-0.49,0.77,156.2,0
2020-03-08T19:25:00-05:00,87.81,12.98,734.76,0.39,0.56,183.02,0
2020-03-08T19:26:00-05:00,88.69,12.94,734.46,0.24,0.71,150.21,0
2020-03-08T19:27:00-05:00,89.04,12.91,734.06,-0.49,0.58,178.07,0
2020-03-08T19:28:00-05:00,89.16,12.85,734.13,0.68,0.26,85.08,0
2020-03-08T19:29:00-05:00,90.04,12.84,734.36,-0.2,1.02,143.15,0
2020-03-08T19:30:00-05:00,90.59,12.82,734.16,-0.49,0.24,41.1,0
2020-03-08T19:31:00-05:00,90.73,12.79,734.29,-0.94,0.89,137.62,0
2020-03-08T19:32:00-05:00,90.35,12.75,735.4,-0.35,0.91,356.48,0
2020-03-08T19:33:00-05:00,90.71,12.77,734.46,0.83,0.9,144.82,0
2020-03-08T19:34:00-05:00,90.62,12.73,735.7,-0.94,0.21,164.2,0
2020-03-08T19:35:00-05:00,90.83,12.71,734.76,-0.2,0.62,148.58,0
2020-03-08T19:36:00-05:00,90.82,12.72,735.6,-0.2,0.6,135.18,0
2020-03-08T19:37:00-05:00,91.11,12.71,735,0.98,0.69,100.51,0
2020-03-08T19:38:00-05:00,90.71,12.69,734.53,1.12,0.15,88.15,0
2020-03-08T19:39:00-05:00,90.67,12.72,736.07,1.27,0.47,157.44,0
2020-03-08T19:40:00-05:00,90.35,12.73,735.7,-0.49,0.81,100.22,0
2020-03-08T19:41:00-05:00,89.6,12.74,733.96,-0.94,1.1,113.27,0
2020-03-08T19:42:00-05:00,90.34,12.76,734.63,-1.08,0.9,163.2,0
2020-03-08T19:43:00-05:00,89.79,12.76,735.67,0.83,0.38,81.4,0
2020-03-08T19:44:00-05:00,89.14,12.78,735,-0.79,0.37,78.97,0
2020-03-08T19:45:00-05:00,88.84,12.79,734.59,-1.08,0.73,32.71,0
2020-03-08T19:46:00-05:00,89.15,12.87,735.53,-0.49,0.62,80.45,0
2020-03-08T19:47:00-05:00,89.51,12.87,734.43,-1.23,0.79,149.21,0
2020-03-08T19:48:00-05:00,89.85,12.87,735.77,-0.94,0.33,136.24,0
2020-03-08T19:49:00-05:00,89.58,12.81,734.66,-0.79,0.77,47.35,0
2020-03-08T19:50:00-05:00,89.69,12.85,734.63,1.27,0.67,65.53,0
2020-03-08T19:51:00-05:00,88.9,12.87,735.3,0.83,0.49,151.49,0
2020-03-08T19:52:00-05:00,88.99,12.89,734.93,0.39,0.25,119.62,0
2020-03-08T19:53:00-05:00,89.65,12.91,735.23,-1.08,0.3,67.01,0
2020-03-08T19:54:00-05:00,89.52,12.92,735.6,-0.79,0.65,93.01,0
2020-03-08T19:55:00-05:00,88.88,12.91,735.63,0.53,0.64,132.91,0
2020-03-08T19:56:00-05:00,88.63,12.92,734.46,-0.2,0.25,182.4,0
2020-03-08T19:57:00-05:00,88.23,12.92,734.36,-1.08,0.76,145.26,0
2020-03-08T19:58:00-05:00,87.91,12.93,735.33,0.39,0.54,123.71,0
2020-03-08T19:59:00-05:00,88.66,12.93,734.59,-0.64,0.83,114.11,0
2020-03-08T20:00:00-05:00,88.19,12.93,735.87,-0.49,0.59,91.58,0
2020-03-08T20:01:00-05:00,88.15,12.95,734.59,-0.64,0.77,61.71,0
2020-03-08T20:02:00-05:00,86.4,12.98,735.16,-0.05,0.13,74.29,0
2020-03-08T20:03:00-05:00,86.67,13.02,735.3,-0.79,0.59,103.22,0
2020-03-08T20:04:00-05:00,85.86,13.08,736.2,-0.79,0.56,128.64,0
2020-03-08T20:05:00-05:00,86.06,13.14,736.07,-0.49,0.66,156.21,0
2020-03-08T20:06:00-05:00,86.24,13.15,736.07,-1.08,0.62,140.25,0
2020-03-08T20:07:00-05:00,85.89,13.14,734.9,-0.64,0.64,132.37,0
2020-03-08T20:08:00-05:00,86.23,13.16,736.33,0.83,0.79,137.28,0
2020-03-08T20:09:00-05:00,87.1,13.14,735.6,-0.79,0.72,66.93,0
2020-03-08T20:10:00-05:00,87.69,13.14,735.77,0.39,0.75,58.33,0
2020-03-08T20:11:00-05:00,87.87,13.11,735.33,1.56,0.58,99.91,0
2020-03-08T20:12:00-05:00,88.36,13.08,736.27,0.39,0.67,127.22,0
2020-03-08T20:13:00-05:00,88.45,13.04,736.27,-0.49,0.7,137.62,0
2020-03-08T20:14:00-05:00,88.55,12.99,735.06,-0.64,0.7,132.25,0
2020-03-08T20:15:00-05:00,88.76,12.97,734.66,-0.64,0.63,136.5,0
2020-03-08T20:16:00-05:00,88.67,12.95,734.93,-1.97,0.85,139.26,0
2020-03-08T20:17:00-05:00,89.16,12.93,735.53,1.56,0.62,108.16,0
2020-03-08T20:18:00-05:00,89.34,12.91,735.87,0.24,0.88,142.19,0
2020-03-08T20:19:00-05:00,89.25,12.89,734.36,-0.49,0.67,131.8,0
2020-03-08T20:20:00-05:00,90.04,12.87,734.43,1.12,0.56,143.2,0
2020-03-08T20:21:00-05:00,90.16,12.84,733.82,0.98,0.79,126.21,0
2020-03-08T20:22:00-05:00,90.14,12.81,735.7,-0.05,0.69,105.86,0
2020-03-08T20:23:00-05:00,90.49,12.8,734.36,-0.64,0.6,115.22,0
2020-03-08T20:24:00-05:00,90.79,12.79,734.46,-0.79,0.43,143.48,0
2020-03-08T20:25:00-05:00,90.43,12.76,733.99,-1.82,0.75,158.48,0
2020-03-08T20:26:00-05:00,89.67,12.73,734.36,-0.94,0.59,134.25,0
2020-03-08T20:27:00-05:00,89.84,12.73,734.16,-0.79,0.59,113.69,0
2020-03-08T20:28:00-05:00,89.5,12.71,735.33,-0.94,0.97,108.53,0
2020-03-08T20:29:00-05:00,88.81,12.75,735.46,-1.67,0.58,109.17,0
2020-03-08T20:30:00-05:00,89.25,12.77,735.67,-0.2,0.54,45.12,0
2020-03-08T20:31:00-05:00,89.22,12.78,735.16,0.83,0.59,56.2,0
2020-03-08T20:32:00-05:00,89.88,12.78,734.13,0.98,0.56,91,0
2020-03-08T20:33:00-05:00,90,12.78,735.1,-0.64,0.72,47.78,0
2020-03-08T20:34:00-05:00,90.17,12.82,734.53,-1.52,0.59,53.36,0
2020-03-08T20:35:00-05:00,90.57,12.83,734.53,-1.38,0.59,50.69,0
2020-03-08T20:36:00-05:00,90.33,12.81,735.83,-0.49,0.27,347.49,0
2020-03-08T20:37:00-05:00,90.5,12.82,734.49,-0.64,0.56,156.18,0
2020-03-08T20:38:00-05:00,90.77,12.79,735.5,0.24,0.57,38.57,0
2020-03-08T20:39:00-05:00,90.47,12.75,734.16,0.24,0.44,105.25,0
2020-03-08T20:40:00-05:00,90.8,12.75,733.86,-2.26,0.21,295.62,0
2020-03-08T20:41:00-05:00,90.99,12.73,734.9,0.68,0.59,78.3,0
2020-03-08T20:42:00-05:00,90.64,12.68,733.79,-1.08,0.12,114.22,0
2020-03-08T20:43:00-05:00,89.47,12.65,735.16,-1.67,1.08,203.92,0
2020-03-08T20:44:00-05:00,87.77,12.68,734.06,0.24,0.15,191.97,0
2020-03-08T20:45:00-05:00,88.08,12.71,733.96,-0.2,0.25,144.21,0
2020-03-08T20:46:00-05:00,88.07,12.75,734.06,-0.35,0.64,355.44,0
2020-03-08T20:47:00-05:00,87.77,12.75,734.63,-1.08,0.74,173.47,0
2020-03-08T20:48:00-05:00,87.79,12.73,734.26,-1.67,0.54,185.99,0
2020-03-08T20:49:00-05:00,87.65,12.74,734.13,-2.11,0.24,118.97,0
2020-03-08T20:50:00-05:00,87.49,12.72,735.2,0.39,0.81,190.04,0
2020-03-08T20:51:00-05:00,84.85,12.75,735.03,-0.2,0.4,233.22,0
2020-03-08T20:52:00-05:00,82.79,12.83,735.77,-1.38,2.29,51.31,0
2020-03-08T20:53:00-05:00,81.73,13.08,734.43,1.42,0.76,92.21,0
2020-03-08T20:54:00-05:00,83.55,13.17,735.97,0.39,0.67,115.9,0
2020-03-08T20:55:00-05:00,84.69,13.16,735.67,-0.94,0.82,94.09,0
2020-03-08T20:56:00-05:00,85.87,13.13,735.97,-0.94,1,105.96,0
2020-03-08T20:57:00-05:00,85.57,13.08,734.53,-0.35,0.89,118.1,0
2020-03-08T20:58:00-05:00,84.52,13.01,734.49,-0.79,0.33,123.84,0
2020-03-08T20:59:00-05:00,83.91,13.02,734.49,0.39,0.93,24.59,0
2020-03-08T21:00:00-05:00,84.65,13.03,736.27,-0.49,0.59,24.78,0
2020-03-08T21:01:00-05:00,86.25,13.03,734.93,-1.08,0.86,75.46,0
2020-03-08T21:02:00-05:00,86.4,12.99,734.46,-1.52,1.01,59.9,0
2020-03-08T21:03:00-05:00,86.92,12.96,736.07,-0.35,1.22,50.73,0
2020-03-08T21:04:00-05:00,87.92,12.92,734.83,-0.94,0.61,167.12,0
2020-03-08T21:05:00-05:00,87.45,12.85,735.26,-0.94,1.01,138.27,0
2020-03-08T21:06:00-05:00,88.59,12.79,733.72,-0.49,0.64,89.06,0
2020-03-08T21:07:00-05:00,89.14,12.73,734.76,-0.2,0.56,103.35,0
2020-03-08T21:08:00-05:00,89.53,12.71,733.96,-0.35,0.68,76.85,0
2020-03-08T21:09:00-05:00,89,12.64,735.06,-1.67,0.76,121.24,0
2020-03-08T21:10:00-05:00,88.88,12.63,735.83,-0.64,0.69,68.08,0
2020-03-08T21:11:00-05:00,88.63,12.61,734.76,-0.94,0.86,75.7,0
2020-03-08T21:12:00-05:00,88.43,12.63,735.43,-1.38,0.31,137.67,0
2020-03-08T21:13:00-05:00,89.03,12.63,733.79,0.83,0.29,135.2,0
2020-03-08T21:14:00-05:00,89.07,12.59,734.93,-0.49,0.68,79.71,0
2020-03-08T21:15:00-05:00,88.41,12.55,735.13,0.39,1.43,56.19,0
2020-03-08T21:16:00-05:00,88.78,12.6,734.06,0.83,0.99,150.2,0
2020-03-08T21:17:00-05:00,88.72,12.56,733.69,-1.23,0.93,67.71,0
2020-03-08T21:18:00-05:00,87.08,12.51,733.15,1.86,2.16,27.29,0
2020-03-08T21:19:00-05:00,85.38,12.64,735,1.12,2.58,36.89,0
2020-03-08T21:20:00-05:00,84.47,12.75,733.89,1.71,2.7,47.32,0
2020-03-08T21:21:00-05:00,82.71,12.85,735.53,1.27,2.45,28.6,0
2020-03-08T21:22:00-05:00,82.09,13,734.53,1.12,0.25,28.99,0
2020-03-08T21:23:00-05:00,80.73,13.04,734.56,2.45,1.17,85.34,0
2020-03-08T21:24:00-05:00,81.49,13.13,735.73,1.71,2.37,55.27,0
2020-03-08T21:25:00-05:00,80.86,13.15,736.33,0.24,1.16,89.18,0
2020-03-08T21:26:00-05:00,81.1,13.21,735.3,0.39,1.43,55.91,0
2020-03-08T21:27:00-05:00,81.49,13.22,734.93,2,0.75,154.56,0
2020-03-08T21:28:00-05:00,83.52,13.16,736.03,-0.79,0.59,148.22,0
2020-03-08T21:29:00-05:00,84.14,13.08,736.07,1.27,1.36,56.3,0
2020-03-08T21:30:00-05:00,83.42,13.06,736.5,0.09,1.98,50.68,0
2020-03-08T21:31:00-05:00,82.92,13.08,735,0.98,1.08,61.38,0
2020-03-08T21:32:00-05:00,82.75,13.06,736.37,1.86,4.34,57.34,0
2020-03-08T21:33:00-05:00,80.25,13.22,736.57,1.12,2.95,39.16,0
2020-03-08T21:34:00-05:00,79.25,13.36,736.23,2.15,2.51,81.63,0
2020-03-08T21:35:00-05:00,78.83,13.44,736.8,1.86,2.57,6.45,0
2020-03-08T21:36:00-05:00,79.31,13.5,736.97,3.47,0.17,341.59,0
2020-03-08T21:37:00-05:00,78.52,13.52,736.27,2.15,2.47,58.04,0
2020-03-08T21:38:00-05:00,77.82,13.6,737.74,2.89,1.23,43.65,0
2020-03-08T21:39:00-05:00,77.74,13.64,736.97,2.3,1.58,131.27,0
2020-03-08T21:40:00-05:00,77.05,13.67,738.48,1.12,1.32,23.37,0
2020-03-08T21:41:00-05:00,77.01,13.73,737.84,3.33,1.14,183.04,0
2020-03-08T21:42:00-05:00,76.92,13.71,737.97,1.56,0.73,192.26,0
2020-03-08T21:43:00-05:00,77.55,13.74,736.43,0.83,1.24,173.13,0
2020-03-08T21:44:00-05:00,78.17,13.69,737.71,2.59,0.95,191.38,0
2020-03-08T21:45:00-05:00,79.69,13.63,738.28,0.24,1.95,233.87,0
2020-03-08T21:46:00-05:00,80.19,13.53,737.04,0.53,1.18,272.01,0
2020-03-08T21:47:00-05:00,80.9,13.48,737.74,-0.94,0.92,326.57,0
2020-03-08T21:48:00-05:00,82.22,13.4,736.67,-0.35,0.21,357.81,0
2020-03-08T21:49:00-05:00,82.97,13.33,736.27,0.39,0.51,280.65,0
2020-03-08T21:50:00-05:00,82.85,13.28,737.37,0.68,1.23,35.93,0
2020-03-08T21:51:00-05:00,82.73,13.23,736.33,2.3,0.54,22.61,0
2020-03-08T21:52:00-05:00,82.97,13.22,736.43,0.83,1.43,30.07,0
2020-03-08T21:53:00-05:00,80.94,13.24,737.07,1.42,0.56,349.47,0
2020-03-08T21:54:00-05:00,82.08,13.28,737.14,2.59,0.66,74.79,0
2020-03-08T21:55:00-05:00,81.68,13.26,736.23,2,2.39,68.02,0
2020-03-08T21:56:00-05:00,81.61,13.25,736.4,2.59,0.63,69.27,0
2020-03-08T21:57:00-05:00,80.62,13.26,736.4,1.27,0.68,150.2,0
2020-03-08T21:58:00-05:00,80.07,13.27,737.81,1.56,0.64,40.36,0
2020-03-08T21:59:00-05:00,81.07,13.29,736.8,0.83,2.12,67.31,0
2020-03-08T22:00:00-05:00,81.7,13.24,736.03,2.15,3.56,356.48,0
2020-03-08T22:01:00-05:00,81.05,13.28,737.64,3.47,2.42,70.14,0
2020-03-08T22:02:00-05:00,80.78,13.27,737.14,0.68,2.73,42.56,0
2020-03-08T22:03:00-05:00,80.56,13.26,736.17,0.83,6.93,35.13,0
2020-03-08T22:04:00-05:00,80.35,13.28,736.64,0.98,3.44,39.8,0
2020-03-08T22:05:00-05:00,80.37,13.26,738.04,3.47,1.95,46.46,0
2020-03-08T22:06:00-05:00,80.66,13.25,737.97,1.27,2.74,65.66,0
2020-03-08T22:07:00-05:00,80.81,13.22,736.4,3.03,2.18,118.66,0
2020-03-08T22:08:00-05:00,80.75,13.2,736.54,1.42,3.29,36.95,0
2020-03-08T22:09:00-05:00,80.89,13.19,737.14,3.62,5.52,28.07,0
2020-03-08T22:10:00-05:00,80.43,13.18,736.64,3.03,2.27,20.56,0
2020-03-08T22:11:00-05:00,80.62,13.18,737.04,1.42,1.42,356.48,0
2020-03-08T22:12:00-05:00,80.55,13.16,737.57,1.27,1.59,38.04,0
2020-03-08T22:13:00-05:00,81.45,13.14,737.87,0.09,0.59,208.98,0
2020-03-08T22:14:00-05:00,81.95,13.12,736.7,2.3,0.28,181.06,0
2020-03-08T22:15:00-05:00,82.37,13.08,737.34,2.45,0.59,258.77,0
2020-03-08T22:16:00-05:00,81.99,13.02,736.27,-0.49,0.47,197.01,0
2020-03-08T22:17:00-05:00,81.66,13,736.23,0.53,2.08,38.85,0
2020-03-08T22:18:00-05:00,81.85,12.97,736.1,0.83,3,351.52,0
2020-03-08T22:19:00-05:00,81.1,12.96,737.04,0.39,0.68,295.64,0
2020-03-08T22:20:00-05:00,80.89,12.97,736.67,2.59,1.41,53.9,0
2020-03-08T22:21:00-05:00,79.65,12.97,737.37,2.89,1.25,23.48,0
2020-03-08T22:22:00-05:00,79.37,13.01,737.77,0.98,1.1,61.5,0
2020-03-08T22:23:00-05:00,78.88,13.02,736.84,4.06,0.77,36.86,0
2020-03-08T22:24:00-05:00,78.85,13.07,736.67,2.3,0.59,349.78,0
2020-03-08T22:25:00-05:00,79.52,13.06,735.93,2.15,0.29,57.41,0
2020-03-08T22:26:00-05:00,79.85,13.08,736.5,0.68,1.03,304.97,0
2020-03-08T22:27:00-05:00,78.87,13.04,735.97,0.53,0.13,258.79,0
2020-03-08T22:28:00-05:00,80.13,13.04,737.37,2.3,0.59,195.29,0
2020-03-08T22:29:00-05:00,80.29,13,735.83,1.71,0.75,66.58,0
2020-03-08T22:30:00-05:00,79.91,12.97,735.67,0.53,1.53,9.03,0
2020-03-08T22:31:00-05:00,79.85,12.95,736.74,1.42,1.32,40.23,0
2020-03-08T22:32:00-05:00,78.95,12.95,735.73,2.74,5.21,38.14,0
2020-03-08T22:33:00-05:00,78.58,12.92,735.83,0.98,2.4,78.63,0
2020-03-08T22:34:00-05:00,79.07,12.91,736.94,2.15,3.22,74.13,0
2020-03-08T22:35:00-05:00,78.9,12.88,735.73,1.71,4.11,34.69,0
2020-03-08T22:36:00-05:00,79.13,12.87,736.1,1.42,0.59,318.63,0
2020-03-08T22:37:00-05:00,78.7,12.84,735.63,1.12,1.27,207.99,0
2020-03-08T22:38:00-05:00,77.97,12.81,736.74,2.45,1.07,19.29,0
2020-03-08T22:39:00-05:00,77.03,12.82,736,1.12,3.86,338.84,0
2020-03-08T22:40:00-05:00,77.49,12.81,736.6,1.86,3.32,70.93,0
2020-03-08T22:41:00-05:00,75.4,12.78,735.46,1.27,1.63,29.9,0
2020-03-08T22:42:00-05:00,73.46,12.79,736.94,0.98,8.82,38.33,0
2020-03-08T22:43:00-05:00,71.95,12.85,736.67,3.18,3.71,53.61,0
2020-03-08T22:44:00-05:00,70.82,12.89,736.77,4.21,3.24,33.48,0
2020-03-08T22:45:00-05:00,70.47,12.91,736.4,3.18,1.82,20.67,0
2020-03-08T22:46:00-05:00,69.56,12.89,736.1,2.59,4.35,2.71,0
2020-03-08T22:47:00-05:00,69.45,12.94,736.74,3.92,0.24,329.9,0
2020-03-08T22:48:00-05:00,69.72,12.93,736.3,1.56,0.2,307.67,0
2020-03-08T22:49:00-05:00,68.18,12.91,735.93,1.56,2.44,148.23,0
2020-03-08T22:50:00-05:00,69.05,12.92,736,3.03,1.78,238.88,0
2020-03-08T22:51:00-05:00,70.5,12.87,736.84,0.83,0.64,130.31,0
2020-03-08T22:52:00-05:00,68.14,12.86,735.8,1.27,2.16,36.53,0
2020-03-08T22:53:00-05:00,67.94,12.91,735.6,3.33,3.31,337.53,0
2020-03-08T22:54:00-05:00,67.79,12.92,736.97,0.98,0.21,145.3,0
2020-03-08T22:55:00-05:00,68.64,12.91,736.97,1.27,2.62,57.29,0
2020-03-08T22:56:00-05:00,69.58,12.89,736.8,2.3,0.2,198.03,0
2020-03-08T22:57:00-05:00,70.54,12.89,735.83,0.98,1.61,181.09,0
2020-03-08T22:58:00-05:00,70.68,12.88,736.33,2.74,1.27,354.83,0
2020-03-08T22:59:00-05:00,72.68,12.87,735.73,0.98,0.69,104.36,0
2020-03-08T23:00:00-05:00,73.1,12.83,735.43,2,0.91,59.45,0
2020-03-08T23:01:00-05:00,71.93,12.81,735.73,2.59,2.69,66.52,0
2020-03-08T23:02:00-05:00,71.05,12.91,736.57,1.86,3.57,33.28,0
2020-03-08T23:03:00-05:00,70.5,12.99,736.03,0.98,1.06,16.35,0
2020-03-08T23:04:00-05:00,70.52,13.01,737.14,1.12,1.62,28.16,0
2020-03-08T23:05:00-05:00,71.29,12.99,736.74,0.98,2.47,52.7,0
2020-03-08T23:06:00-05:00,72.12,12.95,735.46,3.03,3.2,98.01,0
2020-03-08T23:07:00-05:00,70.18,12.96,736.9,1.27,2.53,9.6,0
2020-03-08T23:08:00-05:00,70.31,13.02,736.97,1.12,4.66,35.64,0
2020-03-08T23:09:00-05:00,70.33,13.05,736.77,3.18,1.51,51.89,0
2020-03-08T23:10:00-05:00,70.32,13.08,736.94,1.12,2.72,45.4,0
2020-03-08T23:11:00-05:00,69.8,13.1,736.9,1.42,3.75,347.47,0
2020-03-08T23:12:00-05:00,69.78,13.2,737.14,3.18,0.63,18.33,0
2020-03-08T23:13:00-05:00,70.36,13.21,737.17,0.83,0.96,333.88,0
2020-03-08T23:14:00-05:00,70.62,13.2,736.43,0.83,5.7,47.19,0
2020-03-08T23:15:00-05:00,68.75,13.3,736.54,4.36,5.34,45.06,0
2020-03-08T23:16:00-05:00,67.71,13.44,737.14,2.74,1.91,60.83,0
2020-03-08T23:17:00-05:00,67.69,13.53,737.87,0.83,1.25,350.89,0
2020-03-08T23:18:00-05:00,68.39,13.56,737.57,1.71,0.61,308.64,0
2020-03-08T23:19:00-05:00,68.43,13.52,738.01,0.24,2.51,128.84,0
2020-03-08T23:20:00-05:00,69.12,13.54,738.44,2,0.58,55.17,0
2020-03-08T23:21:00-05:00,68.61,13.54,737.24,-0.35,2.6,49.14,0
2020-03-08T23:22:00-05:00,69.12,13.53,737.34,1.71,3.37,51.92,0
2020-03-08T23:23:00-05:00,69.17,13.5,737.74,1.56,2.52,27.21,0
2020-03-08T23:24:00-05:00,68.49,13.54,738.74,1.86,1.91,3.7,0
2020-03-08T23:25:00-05:00,68.06,13.54,737.27,0.39,2.5,80.55,0
2020-03-08T23:26:00-05:00,68.49,13.5,738.78,1.86,4.4,17.68,0
2020-03-08T23:27:00-05:00,68.48,13.52,738.48,0.39,2.17,185.02,0
2020-03-08T23:28:00-05:00,67.5,13.56,737.41,-0.2,3.95,28.97,0
2020-03-08T23:29:00-05:00,69.08,13.53,737.71,1.71,1.06,186.02,0
2020-03-08T23:30:00-05:00,70.2,13.43,738.11,-0.49,0.98,99.09,0
2020-03-08T23:31:00-05:00,69.72,13.36,737.74,-0.49,3.29,47.83,0
2020-03-08T23:32:00-05:00,69.05,13.32,737.74,-1.08,3.17,33.21,0
2020-03-08T23:33:00-05:00,69.17,13.34,737.87,0.24,3.62,36.85,0
2020-03-08T23:34:00-05:00,68.85,13.34,738.48,0.83,0.56,254.72,0
2020-03-08T23:35:00-05:00,69.34,13.33,737.1,0.39,3.04,342.56,0
2020-03-08T23:36:00-05:00,70.09,13.3,738.54,0.24,0.7,177.35,0
2020-03-08T23:37:00-05:00,69.76,13.25,738.21,-0.94,2.16,55.81,0
2020-03-08T23:38:00-05:00,70.14,13.23,737.04,0.98,0.7,72.25,0
2020-03-08T23:39:00-05:00,69.12,13.24,737.24,0.53,2.92,12.73,0
2020-03-08T23:40:00-05:00,68.76,13.3,736.94,0.68,2.32,6.05,0
2020-03-08T23:41:00-05:00,69.11,13.3,738.38,-0.35,3.98,58.23,0
2020-03-08T23:42:00-05:00,69.04,13.29,737.41,0.09,2.56,42.57,0
2020-03-08T23:43:00-05:00,69.25,13.26,737.41,-0.35,3.08,41.17,0
2020-03-08T23:44:00-05:00,69.18,13.24,738.11,0.09,3.46,52.75,0
2020-03-08T23:45:00-05:00,69.4,13.25,736.77,1.12,0.54,219.87,0
2020-03-08T23:46:00-05:00,69.57,13.25,737.94,0.24,0.61,135.49,0
2020-03-08T23:47:00-05:00,69.22,13.2,737.54,-0.94,0.66,193.99,0
2020-03-08T23:48:00-05:00,69.64,13.2,737.24,0.09,2.17,40.42,0
2020-03-08T23:49:00-05:00,69.37,13.16,736.67,-1.67,2.35,17.48,0
2020-03-08T23:50:00-05:00,69.29,13.18,736.8,-1.82,0.92,317.64,0
2020-03-08T23:51:00-05:00,69.45,13.17,737.07,0.09,0.18,160.17,0
2020-03-08T23:52:00-05:00,69.38,13.14,736.37,-0.35,2.87,52.01,0
2020-03-08T23:53:00-05:00,69.67,13.11,737,-0.35,1.45,18.95,0
2020-03-08T23:54:00-05:00,69.85,13.1,737,-1.52,0.8,117.65,0
2020-03-08T23:55:00-05:00,68.77,13.07,736.6,0.24,0.11,51.56,0
2020-03-08T23:56:00-05:00,68.5,13.1,736.97,-0.35,1.57,24.47,0
2020-03-08T23:57:00-05:00,68.86,13.12,736.77,-0.94,0.82,256.06,0
2020-03-08T23:58:00-05:00,69.11,13.1,736.54,-2.26,2.14,166.12,0
2020-03-08T23:59:00-05:00,68.57,13.1,737.24,-1.67,1.01,52.81,0
