time,[HUME],[TEMP],[PRES],[RADI],[RAPV],[DIRV],[PREC]
2020-03-13T00:00:00-05:00,87.04,12.79,736.1,-0.79,0.32,63.11,0
2020-03-13T00:01:00-05:00,86.69,12.79,737,-0.64,0.25,70.33,0
2020-03-13T00:02:00-05:00,86.72,12.79,736.47,0.83,0.52,4.73,0
2020-03-13T00:03:00-05:00,86.57,12.79,736.47,-0.64,0.71,25.84,0
2020-03-13T00:04:00-05:00,86.84,12.78,736.3,0.09,0.17,286.66,0
2020-03-13T00:05:00-05:00,87.04,12.79,735.73,-0.79,0.21,115.21,0
2020-03-13T00:06:00-05:00,86.52,12.8,736.8,-0.05,0.95,13.73,0
2020-03-13T00:07:00-05:00,86.13,12.82,735.5,1.27,1.49,50.49,0
2020-03-13T00:08:00-05:00,85.44,12.85,736.87,1.12,1.75,83.16,0
2020-03-13T00:09:00-05:00,85.49,12.9,736.2,0.53,0.64,16.59,0
2020-03-13T00:10:00-05:00,84.06,12.94,735.9,2,1.11,344.84,0
2020-03-13T00:11:00-05:00,82.55,13.02,736.37,1.56,0.53,304.64,0
2020-03-13T00:12:00-05:00,81.46,13.08,736.64,0.98,0.6,32.33,0
2020-03-13T00:13:00-05:00,82.19,13.15,737.57,0.68,0.94,130.36,0
2020-03-13T00:14:00-05:00,83.05,13.16,736.84,0.53,0.64,76.65,0
2020-03-13T00:15:00-05:00,82.65,13.15,737.57,-0.2,0.57,90.34,0
2020-03-13T00:16:00-05:00,83.11,13.15,736.5,1.27,0.61,64.11,0
2020-03-13T00:17:00-05:00,83.5,13.14,736.8,-0.64,1.08,58.11,0
2020-03-13T00:18:00-05:00,83.72,13.12,737.27,-0.79,0.75,46.48,0
2020-03-13T00:19:00-05:00,82.79,13.12,737.04,-1.23,1.36,38.58,0
2020-03-13T00:20:00-05:00,81.61,13.16,736.3,0.68,0.6,28.78,0
2020-03-13T00:21:00-05:00,82.03,13.2,736.97,-0.49,0.76,22.93,0
2020-03-13T00:22:00-05:00,82.57,13.21,736.57,0.83,0.54,52.94,0
2020-03-13T00:23:00-05:00,83.21,13.22,736.54,-0.79,1.23,90.47,0
2020-03-13T00:24:00-05:00,83.2,13.17,736.5,-0.64,0.3,109.16,0
2020-03-13T00:25:00-05:00,83.82,13.14,737.04,-1.82,0.25,112.98,0
2020-03-13T00:26:00-05:00,83.96,13.1,736.67,-1.52,0.22,55.8,0
2020-03-13T00:27:00-05:00,84.39,13.07,736.8,-2.55,0.24,139.29,0
2020-03-13T00:28:00-05:00,83.99,13.04,735.33,-1.82,0.58,122.61,0
2020-03-13T00:29:00-05:00,84.39,12.98,737.24,-1.97,0.91,98.66,0
2020-03-13T00:30:00-05:00,84.25,12.91,735.87,-1.97,0.78,68.46,0
2020-03-13T00:31:00-05:00,84.36,12.87,736.47,-1.82,0.75,118.51,0
2020-03-13T00:32:00-05:00,84.36,12.82,735.87,-1.82,0.89,101.91,0
2020-03-13T00:33:00-05:00,84.61,12.79,735.97,-2.55,0.63,89.4,0
2020-03-13T00:34:00-05:00,84.89,12.75,735.23,-3.73,0.65,85.11,0
2020-03-13T00:35:00-05:00,84.82,12.72,735.36,-1.38,0.61,126.79,0
2020-03-13T00:36:00-05:00,84.87,12.68,735.67,-1.82,0.26,120.67,0
2020-03-13T00:37:00-05:00,85.19,12.66,734.13,-3.88,0.3,127.63,0
2020-03-13T00:38:00-05:00,85.17,12.62,734.26,-2.41,0.88,143.18,0
2020-03-13T00:39:00-05:00,84.97,12.58,733.86,-3.29,0.76,109.89,0
2020-03-13T00:40:00-05:00,83.71,12.59,736.07,-1.67,0.65,97.3,0
2020-03-13T00:41:00-05:00,83.27,12.61,735.83,-1.67,1.26,114.53,0
2020-03-13T00:42:00-05:00,84.02,12.62,734.09,-2.55,0.78,115.09,0
2020-03-13T00:43:00-05:00,82.77,12.61,734.06,-3.29,0.86,116.91,0
2020-03-13T00:44:00-05:00,82.49,12.69,734.43,-1.82,0.57,140.27,0
2020-03-13T00:45:00-05:00,82.75,12.7,734.59,-3.58,1.3,93.89,0
2020-03-13T00:46:00-05:00,83.49,12.69,735.3,-3.88,0.22,88.08,0
2020-03-13T00:47:00-05:00,82.69,12.68,734.56,-3.29,0.59,56.58,0
2020-03-13T00:48:00-05:00,83.45,12.66,734.46,-4.32,1.32,141.55,0
2020-03-13T00:49:00-05:00,83.03,12.64,734.63,-3.88,0.67,27.76,0
2020-03-13T00:50:00-05:00,83.7,12.61,733.56,-2.26,0.69,49.72,0
2020-03-13T00:51:00-05:00,83.6,12.58,734.36,-2.41,0.75,99.35,0
2020-03-13T00:52:00-05:00,83.65,12.58,734.16,-2.85,0.83,104.97,0
2020-03-13T00:53:00-05:00,84.14,12.57,733.46,-4.32,0.21,12.33,0
2020-03-13T00:54:00-05:00,84.4,12.56,733.09,-1.97,0.16,56.08,0
2020-03-13T00:55:00-05:00,84.62,12.51,734.06,-3.88,0.29,138.07,0
2020-03-13T00:56:00-05:00,84.94,12.45,734.13,-4.32,0.26,38.49,0
2020-03-13T00:57:00-05:00,84.92,12.38,733.52,-3.58,0.77,53.25,0
2020-03-13T00:58:00-05:00,85.16,12.35,732.65,-2.41,2.06,77.09,0
2020-03-13T00:59:00-05:00,85.31,12.35,733.29,-1.38,0.59,109.7,0
2020-03-13T01:00:00-05:00,85.52,12.3,732.69,-0.79,0.23,126.21,0
2020-03-13T01:01:00-05:00,84.83,12.27,733.05,-1.08,0.56,126.89,0
2020-03-13T01:02:00-05:00,84.87,12.3,734.02,-1.67,0.58,92.52,0
2020-03-13T01:03:00-05:00,84.2,12.31,732.99,-0.05,0.63,130.25,0
2020-03-13T01:04:00-05:00,84.24,12.35,733.46,-1.38,0.51,51.57,0
2020-03-13T01:05:00-05:00,84.62,12.36,734.13,-0.49,0.65,118.83,0
2020-03-13T01:06:00-05:00,85.38,12.34,734.13,-0.35,0.55,95,0
2020-03-13T01:07:00-05:00,85.01,12.33,734.29,-1.23,0.63,89.14,0
2020-03-13T01:08:00-05:00,84.94,12.36,734.39,-2.26,0.97,39.74,0
2020-03-13T01:09:00-05:00,84.62,12.42,733.25,-0.64,3.34,56.98,0
2020-03-13T01:10:00-05:00,82.87,12.57,733.76,-1.23,1.31,79.01,0
2020-03-13T01:11:00-05:00,83.16,12.65,733.62,-0.94,0.63,114.56,0
2020-03-13T01:12:00-05:00,83.46,12.63,734.73,-2.55,0.79,58.08,0
2020-03-13T01:13:00-05:00,83.52,12.61,733.76,-1.67,1.24,101.22,0
2020-03-13T01:14:00-05:00,84.02,12.55,734.66,-2.7,0.3,90.18,0
2020-03-13T01:15:00-05:00,84.39,12.52,732.79,-1.82,0.73,77,0
2020-03-13T01:16:00-05:00,82.97,12.55,734.29,-3.44,2.28,31.91,0
2020-03-13T01:17:00-05:00,82.19,12.63,733.76,-2.7,1.19,24.1,0
2020-03-13T01:18:00-05:00,81.53,12.73,733.49,-0.49,0.94,35.13,0
2020-03-13T01:19:00-05:00,80.74,12.81,734.29,-0.64,0.72,109.99,0
2020-03-13T01:20:00-05:00,81.56,12.86,734.69,-0.49,1.64,100.93,0
2020-03-13T01:21:00-05:00,80.67,12.84,734.29,-0.94,1,17.95,0
2020-03-13T01:22:00-05:00,80.18,12.89,734.06,-0.79,2.45,35.11,0
2020-03-13T01:23:00-05:00,79.31,12.99,734.09,0.09,0.53,307.69,0
2020-03-13T01:24:00-05:00,79.55,13.03,734.83,-3.14,0.9,137.34,0
2020-03-13T01:25:00-05:00,79.27,13.06,734.39,-0.64,0.6,55.57,0
2020-03-13T01:26:00-05:00,79.04,13.04,735.5,-0.64,0.66,94.98,0
2020-03-13T01:27:00-05:00,78.85,13.07,735.26,-1.08,2.81,38.99,0
2020-03-13T01:28:00-05:00,77.96,13.1,735.3,0.09,2.18,9.61,0
2020-03-13T01:29:00-05:00,77.61,13.16,736.37,-1.23,1.01,169.09,0
2020-03-13T01:30:00-05:00,77.28,13.19,736.37,-1.08,2.6,76.81,0
2020-03-13T01:31:00-05:00,77.66,13.25,735.97,0.68,0.87,225.88,0
2020-03-13T01:32:00-05:00,77.91,13.21,736.8,-2.55,0.81,84.35,0
2020-03-13T01:33:00-05:00,77.39,13.2,735.87,-0.35,0.64,317.58,0
2020-03-13T01:34:00-05:00,78.02,13.2,736.13,-2.26,0.6,19.34,0
2020-03-13T01:35:00-05:00,77.84,13.19,736.33,-2.11,0.86,32.56,0
2020-03-13T01:36:00-05:00,77.93,13.18,735.97,-2.11,0.88,13.96,0
2020-03-13T01:37:00-05:00,77.72,13.19,737,-0.05,0.96,163.19,0
2020-03-13T01:38:00-05:00,78.83,13.16,736.13,-2.11,0.77,61.35,0
2020-03-13T01:39:00-05:00,79.39,13.11,735.67,-3.58,1.81,68.14,0
2020-03-13T01:40:00-05:00,79.49,13.06,735.43,-2.11,1.17,67.32,0
2020-03-13T01:41:00-05:00,79.12,13,736.23,-1.97,3.94,57.01,0
2020-03-13T01:42:00-05:00,78.31,13.07,736.3,-0.94,3.52,42.77,0
2020-03-13T01:43:00-05:00,78.02,13.13,736.1,-2.11,2.4,2.8,0
2020-03-13T01:44:00-05:00,77.81,13.16,735.87,-2.11,0.69,197.01,0
2020-03-13T01:45:00-05:00,78.01,13.16,735.83,-2.99,1.6,199.29,0
2020-03-13T01:46:00-05:00,79.09,13.13,736.37,-1.08,0.37,261.72,0
2020-03-13T01:47:00-05:00,78.46,13.06,736.67,-1.23,0.98,338.86,0
2020-03-13T01:48:00-05:00,78.75,13.06,735.8,-2.55,0.52,232.91,0
2020-03-13T01:49:00-05:00,78.08,13.08,736.5,-3.44,0.73,127.54,0
2020-03-13T01:50:00-05:00,78.06,13.1,736.77,-1.23,3.17,353.51,0
2020-03-13T01:51:00-05:00,78.36,13.12,736.67,-1.97,1.24,201.32,0
2020-03-13T01:52:00-05:00,79.19,13.08,736.43,-1.23,0.98,139.22,0
2020-03-13T01:53:00-05:00,78.87,13,736.84,-1.97,2.86,96.87,0
2020-03-13T01:54:00-05:00,78.23,13.11,735.6,-2.11,1.02,208.97,0
2020-03-13T01:55:00-05:00,78.05,13.14,736.23,-0.64,3.96,57.7,0
2020-03-13T01:56:00-05:00,77.57,13.18,737.14,-0.49,3.95,60.96,0
2020-03-13T01:57:00-05:00,77.77,13.24,736.9,-1.67,1.49,157.55,0
2020-03-13T01:58:00-05:00,77.47,13.24,736.3,-2.26,2.31,23.9,0
2020-03-13T01:59:00-05:00,76.59,13.31,736.74,-1.52,0.55,147.24,0
2020-03-13T02:00:00-05:00,76.75,13.32,737,-2.7,1.64,254.73,0
2020-03-13T02:01:00-05:00,77.02,13.32,737.74,-0.2,1.64,244.8,0
2020-03-13T02:02:00-05:00,77.31,13.28,736.94,-3.44,2.96,218.2,0
2020-03-13T02:03:00-05:00,77.04,13.27,737.31,-2.55,2.59,241.84,0
2020-03-13T02:04:00-05:00,76.88,13.29,737.41,-3.73,1.02,209.27,0
2020-03-13T02:05:00-05:00,77.3,13.3,737.37,-3.44,0.49,218.93,0
2020-03-13T02:06:00-05:00,77.4,13.26,736.47,-2.55,1.34,265.12,0
2020-03-13T02:07:00-05:00,77.57,13.24,736.5,-2.99,0.91,291.72,0
2020-03-13T02:08:00-05:00,78.1,13.22,736.2,-1.82,0.46,1.11,0
2020-03-13T02:09:00-05:00,78.47,13.19,736.23,-3.88,0.72,241.84,0
2020-03-13T02:10:00-05:00,79.15,13.12,736.03,-3.58,0.61,268.1,0
2020-03-13T02:11:00-05:00,79.04,13.09,736.27,-3.73,0.6,187,0
2020-03-13T02:12:00-05:00,79.73,13.04,736.17,-2.7,0.61,205.03,0
2020-03-13T02:13:00-05:00,79.99,13,736.03,-3.73,0.24,311.61,0
2020-03-13T02:14:00-05:00,80.66,12.97,735.6,-3.29,0.63,181.12,0
2020-03-13T02:15:00-05:00,80.94,12.89,735.46,-3.44,0.43,231.87,0
2020-03-13T02:16:00-05:00,81.76,12.8,735.8,-2.26,0.69,190.03,0
2020-03-13T02:17:00-05:00,82.81,12.68,734.79,-3.44,0.46,80.9,0
2020-03-13T02:18:00-05:00,83.44,12.59,734.79,-2.26,0.2,167.12,0
2020-03-13T02:19:00-05:00,83.46,12.53,735.2,-3.58,0.72,179.16,0
2020-03-13T02:20:00-05:00,83.14,12.44,734.33,-1.23,0.63,280.63,0
2020-03-13T02:21:00-05:00,84.04,12.41,735.26,-3.14,0.56,265.06,0
2020-03-13T02:22:00-05:00,83.66,12.37,734.93,-1.82,0.74,168.08,0
2020-03-13T02:23:00-05:00,82.74,12.39,733.79,-3.73,0.6,299.07,0
2020-03-13T02:24:00-05:00,82.81,12.37,734.46,-3.14,0.31,208.97,0
2020-03-13T02:25:00-05:00,82.91,12.37,734.46,-3.73,0.27,110.72,0
2020-03-13T02:26:00-05:00,83.03,12.37,734.49,-4.91,0.62,259.72,0
2020-03-13T02:27:00-05:00,82.8,12.35,734.93,-5.05,0.56,306.93,0
2020-03-13T02:28:00-05:00,83.09,12.33,734.63,-4.46,0.61,195.92,0
2020-03-13T02:29:00-05:00,83.72,12.3,734.43,-4.02,0.17,59.78,0
2020-03-13T02:30:00-05:00,84.16,12.26,733.19,-2.55,0.2,340.76,0
2020-03-13T02:31:00-05:00,84.08,12.24,732.99,-5.2,0.25,320.88,0
2020-03-13T02:32:00-05:00,84.09,12.21,733.72,-4.91,0.65,118.21,0
2020-03-13T02:33:00-05:00,84.25,12.18,733.12,-3.29,0.52,68.78,0
2020-03-13T02:34:00-05:00,83.94,12.17,733.99,-3.44,0.54,115.21,0
2020-03-13T02:35:00-05:00,84.07,12.17,733.69,-2.99,0.57,39.24,0
2020-03-13T02:36:00-05:00,84.25,12.17,733.46,-2.41,1.3,38.78,0
2020-03-13T02:37:00-05:00,83.66,12.23,733.32,-2.99,0.82,45.36,0
2020-03-13T02:38:00-05:00,83.77,12.27,734.09,0.68,0.7,59.95,0
2020-03-13T02:39:00-05:00,83.74,12.29,734.56,-2.11,0.57,131.27,0
2020-03-13T02:40:00-05:00,84.1,12.28,733.42,-0.05,0.75,101.44,0
2020-03-13T02:41:00-05:00,84.71,12.23,734.46,-1.08,0.86,54.78,0
2020-03-13T02:42:00-05:00,84.45,12.23,733.56,-1.97,2.27,66.24,0
2020-03-13T02:43:00-05:00,84.49,12.25,734.43,-0.79,1.86,64.48,0
2020-03-13T02:44:00-05:00,84.78,12.26,734.43,-1.82,1.01,58.44,0
2020-03-13T02:45:00-05:00,84.78,12.25,733.66,-1.67,1.01,72.17,0
2020-03-13T02:46:00-05:00,84.07,12.28,734.43,-2.11,0.81,7.41,0
2020-03-13T02:47:00-05:00,84.5,12.27,734.76,-2.11,0.83,60.25,0
2020-03-13T02:48:00-05:00,84.78,12.28,733.76,-1.52,0.88,43.59,0
2020-03-13T02:49:00-05:00,84.55,12.27,733.02,-2.85,0.64,76.62,0
2020-03-13T02:50:00-05:00,84.24,12.28,733.89,-1.52,1.06,47.63,0
2020-03-13T02:51:00-05:00,84.36,12.3,733.72,-1.23,0.57,27.11,0
2020-03-13T02:52:00-05:00,84.63,12.29,733.59,-2.55,0.57,68.04,0
2020-03-13T02:53:00-05:00,84.59,12.29,733.49,-0.49,0.78,54.74,0
2020-03-13T02:54:00-05:00,84.49,12.32,734.13,-2.26,0.86,355.47,0
2020-03-13T02:55:00-05:00,84.67,12.31,735.06,-1.52,0.62,44.47,0
2020-03-13T02:56:00-05:00,84.63,12.33,733.72,-0.49,0.59,63.79,0
2020-03-13T02:57:00-05:00,84.69,12.33,734.16,-2.55,1.06,66.91,0
2020-03-13T02:58:00-05:00,84.94,12.33,733.62,-1.67,1.77,80.36,0
2020-03-13T02:59:00-05:00,84.69,12.32,734.9,-2.11,1.02,81.39,0
2020-03-13T03:00:00-05:00,84.28,12.34,734.59,-0.64,1.27,66.04,0
2020-03-13T03:01:00-05:00,83.19,12.43,734.93,-2.26,1.9,57.29,0
2020-03-13T03:02:00-05:00,82.53,12.5,735.7,-1.97,0.63,34.31,0
2020-03-13T03:03:00-05:00,82.18,12.55,735.67,-0.05,0.65,51.02,0
2020-03-13T03:04:00-05:00,82.33,12.59,735.2,-2.26,0.63,113.59,0
2020-03-13T03:05:00-05:00,82.2,12.59,735.1,-2.55,1.43,34.37,0
2020-03-13T03:06:00-05:00,81.97,12.65,735.06,0.09,0.71,6.09,0
2020-03-13T03:07:00-05:00,81.87,12.67,734.73,-0.05,0.76,229.18,0
2020-03-13T03:08:00-05:00,82.36,12.69,734.26,-0.49,0.69,153.15,0
2020-03-13T03:09:00-05:00,83.42,12.65,734.26,-0.79,0.61,191.01,0
2020-03-13T03:10:00-05:00,83.01,12.6,734.16,-2.41,0.71,153.15,0
2020-03-13T03:11:00-05:00,83.44,12.57,735.2,-1.23,0.53,74.78,0
2020-03-13T03:12:00-05:00,84.12,12.51,735.6,-2.85,1.42,80.07,0
2020-03-13T03:13:00-05:00,83.88,12.53,735.16,-1.82,0.74,30.21,0
2020-03-13T03:14:00-05:00,83.19,12.53,734.19,-1.67,0.15,310.64,0
2020-03-13T03:15:00-05:00,82.76,12.55,734.46,-1.67,0.46,326.58,0
2020-03-13T03:16:00-05:00,82.8,12.55,734.19,-0.64,0.92,148.23,0
2020-03-13T03:17:00-05:00,82.13,12.55,734.69,-1.67,0.88,190.01,0
2020-03-13T03:18:00-05:00,80.87,12.59,735.36,1.12,1.44,301.01,0
2020-03-13T03:19:00-05:00,81.34,12.67,734.76,0.39,2.55,189.02,0
2020-03-13T03:20:00-05:00,80.94,12.67,735.43,0.98,0.64,251.13,0
2020-03-13T03:21:00-05:00,81.74,12.69,735.06,-1.08,1.3,162.21,0
2020-03-13T03:22:00-05:00,80.35,12.67,736.07,0.83,0.68,227.21,0
2020-03-13T03:23:00-05:00,80.69,12.71,735.4,-0.94,0.32,117.18,0
2020-03-13T03:24:00-05:00,79.67,12.77,736.43,-0.79,0.81,142.27,0
2020-03-13T03:25:00-05:00,79.02,12.86,735.73,1.27,0.86,271.7,0
2020-03-13T03:26:00-05:00,78.83,12.91,735.33,0.24,1.27,97.61,0
2020-03-13T03:27:00-05:00,78.87,12.94,736.03,-0.79,0.47,131.99,0
2020-03-13T03:28:00-05:00,79.06,12.97,737.2,-0.94,0.21,98.78,0
2020-03-13T03:29:00-05:00,79.62,13.01,736.97,-0.79,0.94,135.99,0
2020-03-13T03:30:00-05:00,79.42,13,736.33,-1.38,0.67,83.94,0
2020-03-13T03:31:00-05:00,79.44,13.01,737,-1.52,0.62,183.04,0
2020-03-13T03:32:00-05:00,78.77,13.02,737.1,0.09,0.84,67.25,0
2020-03-13T03:33:00-05:00,79.25,13.05,737.04,-1.52,0.37,125.98,0
2020-03-13T03:34:00-05:00,77.96,13.08,736.33,-1.38,0.69,336.54,0
2020-03-13T03:35:00-05:00,78.6,13.12,736.5,-1.23,0.35,168.13,0
2020-03-13T03:36:00-05:00,78.09,13.1,736.67,-0.79,1.3,138.47,0
2020-03-13T03:37:00-05:00,77.66,13.11,736.84,0.39,0.83,129.08,0
2020-03-13T03:38:00-05:00,78.65,13.11,737.71,-1.38,0.29,265.11,0
2020-03-13T03:39:00-05:00,79.06,13.1,736.7,-0.94,0.86,109.9,0
2020-03-13T03:40:00-05:00,78.78,13.09,736.7,-1.38,0.26,216.9,0
2020-03-13T03:41:00-05:00,78.24,13.05,736.97,-0.05,1.31,299.13,0
2020-03-13T03:42:00-05:00,78.36,13.06,736.6,-2.41,0.56,235.81,0
2020-03-13T03:43:00-05:00,79.12,13.05,736.43,-1.97,0.6,177.39,0
2020-03-13T03:44:00-05:00,80,12.99,735.77,0.24,0.48,246.71,0
2020-03-13T03:45:00-05:00,81.55,12.95,737.1,-3.14,0.51,214.26,0
2020-03-13T03:46:00-05:00,82.04,12.89,735.53,-1.23,0.51,191.97,0
2020-03-13T03:47:00-05:00,83.08,12.83,736.5,-2.55,0.57,198.03,0
2020-03-13T03:48:00-05:00,84.13,12.77,737.14,-1.52,0.18,237.79,0
2020-03-13T03:49:00-05:00,84.69,12.71,735.4,-1.52,0.2,36.61,0
2020-03-13T03:50:00-05:00,85.37,12.67,734.9,-2.55,0.13,92.08,0
2020-03-13T03:51:00-05:00,85.69,12.62,735.23,-3.14,0.41,100.76,0
2020-03-13T03:52:00-05:00,86.05,12.59,736.07,-2.85,0.24,41.44,0
2020-03-13T03:53:00-05:00,85.98,12.57,735.73,-1.82,0.11,113.23,0
2020-03-13T03:54:00-05:00,86.04,12.54,735.2,-1.38,0.63,115.93,0
2020-03-13T03:55:00-05:00,86.07,12.5,736.33,-1.97,0.23,186.01,0
2020-03-13T03:56:00-05:00,86.1,12.5,734.63,-3.14,0.13,3.06,0
2020-03-13T03:57:00-05:00,86.06,12.45,734.43,-0.35,0.62,6.05,0
2020-03-13T03:58:00-05:00,86.21,12.45,736.3,-2.26,0.58,68.74,0
2020-03-13T03:59:00-05:00,86.77,12.47,735.67,-2.55,0.21,199,0
2020-03-13T04:00:00-05:00,87.14,12.47,735.5,-2.7,0.11,355.83,0
2020-03-13T04:01:00-05:00,87.16,12.45,735.6,-1.38,0.23,282.7,0
2020-03-13T04:02:00-05:00,86.95,12.43,735.53,-1.82,0.14,315.88,0
2020-03-13T04:03:00-05:00,87.16,12.43,734.39,-0.2,0.19,43.15,0
2020-03-13T04:04:00-05:00,87.24,12.41,734.93,-2.11,0.52,50.03,0
2020-03-13T04:05:00-05:00,87.54,12.42,735.43,-0.49,0.57,25.7,0
2020-03-13T04:06:00-05:00,87.59,12.42,735.4,-1.97,0.7,69.33,0
2020-03-13T04:07:00-05:00,87.77,12.42,734.9,-1.82,0.49,55.71,0
2020-03-13T04:08:00-05:00,87.82,12.42,734.86,-1.08,0.57,41.67,0
2020-03-13T04:09:00-05:00,87.6,12.39,734.96,-1.08,0.57,49.09,0
2020-03-13T04:10:00-05:00,87.65,12.37,735.67,-0.79,0.58,75.43,0
2020-03-13T04:11:00-05:00,87.31,12.34,734.39,0.24,0.59,61.09,0
2020-03-13T04:12:00-05:00,87.41,12.33,734.9,-2.7,0.41,52.66,0
2020-03-13T04:13:00-05:00,87.05,12.31,735.26,-0.94,0.62,56.99,0
2020-03-13T04:14:00-05:00,87.6,12.3,734.73,-1.08,0.54,75.98,0
2020-03-13T04:15:00-05:00,87.31,12.29,734.83,0.24,0.32,111.25,0
2020-03-13T04:16:00-05:00,87.37,12.28,735.63,0.09,0.52,98.12,0
2020-03-13T04:17:00-05:00,87.2,12.27,733.82,-1.38,0.23,110.53,0
2020-03-13T04:18:00-05:00,87.31,12.27,734.46,-1.97,0.63,157.2,0
2020-03-13T04:19:00-05:00,88.01,12.27,734.46,-2.26,0.62,145.67,0
2020-03-13T04:20:00-05:00,87.79,12.26,735.13,0.68,0.36,135.02,0
2020-03-13T04:21:00-05:00,87.88,12.25,735.2,-1.38,0.32,103.64,0
2020-03-13T04:22:00-05:00,87.77,12.24,734.43,-1.08,0.59,106.3,0
2020-03-13T04:23:00-05:00,87.43,12.23,735.87,-2.41,0.48,104.22,0
2020-03-13T04:24:00-05:00,86.96,12.22,734.16,-1.08,0.2,45.53,0
2020-03-13T04:25:00-05:00,86.7,12.19,734.33,-0.2,0.59,114.14,0
2020-03-13T04:26:00-05:00,85.86,12.19,735.56,-1.38,0.39,95.8,0
2020-03-13T04:27:00-05:00,85.94,12.22,735.53,-1.23,0.55,119.13,0
2020-03-13T04:28:00-05:00,86.46,12.21,734.93,-2.26,0.53,141.06,0
2020-03-13T04:29:00-05:00,86.8,12.22,734.9,-2.85,0.51,137.32,0
2020-03-13T04:30:00-05:00,87.02,12.23,733.89,-3.14,0.61,125.28,0
2020-03-13T04:31:00-05:00,87.06,12.22,733.79,-0.94,0.55,103.07,0
2020-03-13T04:32:00-05:00,87.16,12.21,735.2,-0.64,0.56,124.19,0
2020-03-13T04:33:00-05:00,87.29,12.21,735.4,-3.29,0.56,122.39,0
2020-03-13T04:34:00-05:00,87.35,12.21,735.1,-2.11,0.12,34.93,0
2020-03-13T04:35:00-05:00,87.55,12.22,734.02,-1.82,0.1,125.02,0
2020-03-13T04:36:00-05:00,87.89,12.21,734.63,-0.35,0.21,155.59,0
2020-03-13T04:37:00-05:00,88.33,12.22,734.83,-0.79,0.42,170.09,0
2020-03-13T04:38:00-05:00,88.86,12.27,733.76,-0.2,0.3,162.52,0
2020-03-13T04:39:00-05:00,89.07,12.27,735.4,-1.38,0.6,144.17,0
2020-03-13T04:40:00-05:00,89.2,12.27,735.26,-0.79,0.59,172.47,0
2020-03-13T04:41:00-05:00,89.34,12.29,734.66,0.53,0.39,142.09,0
2020-03-13T04:42:00-05:00,89.55,12.28,735.56,-0.2,0.58,148.55,0
2020-03-13T04:43:00-05:00,89.56,12.3,735.53,-1.23,0.26,144.19,0
2020-03-13T04:44:00-05:00,89.53,12.31,734.33,-1.67,0.23,148.24,0
2020-03-13T04:45:00-05:00,89.79,12.29,734.23,-0.2,0.34,122.79,0
2020-03-13T04:46:00-05:00,89.72,12.33,735.46,-1.82,0.5,116.91,0
2020-03-13T04:47:00-05:00,89.82,12.34,735.73,-1.67,0.31,141.24,0
2020-03-13T04:48:00-05:00,89.88,12.35,735.97,0.68,0.55,118.54,0
2020-03-13T04:49:00-05:00,89.99,12.35,735.36,-0.79,0.24,147.24,0
2020-03-13T04:50:00-05:00,89.88,12.35,735.36,-0.64,0.42,146.23,0
2020-03-13T04:51:00-05:00,90.04,12.36,736.03,-1.08,0.34,142.23,0
2020-03-13T04:52:00-05:00,89.91,12.37,736.07,-0.2,0.62,164.16,0
2020-03-13T04:53:00-05:00,90.05,12.37,735.1,-0.94,0.57,145.68,0
2020-03-13T04:54:00-05:00,90.02,12.37,734.66,0.39,0.57,149.18,0
2020-03-13T04:55:00-05:00,90.04,12.39,735.26,-0.94,0.58,147.64,0
2020-03-13T04:56:00-05:00,90.15,12.39,734.63,-1.23,0.39,135.19,0
2020-03-13T04:57:00-05:00,90.06,12.42,734.56,-2.11,0.44,116.89,0
2020-03-13T04:58:00-05:00,89.93,12.41,734.23,-0.2,0.27,128.76,0
2020-03-13T04:59:00-05:00,89.83,12.41,735.1,-0.79,0.31,95.7,0
2020-03-13T05:00:00-05:00,90.03,12.42,734.93,-1.82,0.18,144.17,0
2020-03-13T05:01:00-05:00,89.91,12.43,734.56,-0.35,0.31,143.5,0
2020-03-13T05:02:00-05:00,89.87,12.43,735.33,-1.67,0.55,165.15,0
2020-03-13T05:03:00-05:00,89.94,12.43,734.83,-0.49,0.49,150.18,0
2020-03-13T05:04:00-05:00,90.06,12.42,733.86,-2.55,0.49,154.24,0
2020-03-13T05:05:00-05:00,89.91,12.41,735.46,-0.05,0.56,174.12,0
2020-03-13T05:06:00-05:00,90.04,12.44,735.26,-0.49,0.54,150.22,0
2020-03-13T05:07:00-05:00,89.98,12.42,735.26,-0.05,0.39,141.24,0
2020-03-13T05:08:00-05:00,90.15,12.43,734.66,-0.05,0.48,122.24,0
2020-03-13T05:09:00-05:00,90.33,12.41,735.36,-1.52,0.56,90.3,0
2020-03-13T05:10:00-05:00,90.29,12.41,734.96,-0.49,0.52,106.18,0
2020-03-13T05:11:00-05:00,90.18,12.4,734.79,-1.38,0.53,83.21,0
2020-03-13T05:12:00-05:00,90.32,12.43,734.96,0.83,0.56,54.48,0
2020-03-13T05:13:00-05:00,90.65,12.43,735,-0.64,0.46,37.79,0
2020-03-13T05:14:00-05:00,90.81,12.44,734.76,0.98,0.35,72,0
2020-03-13T05:15:00-05:00,90.76,12.45,735.23,-0.05,0.57,90.18,0
2020-03-13T05:16:00-05:00,90.71,12.43,734.56,-1.52,0.44,84.58,0
2020-03-13T05:17:00-05:00,90.63,12.4,735.63,0.09,0.58,36.82,0
2020-03-13T05:18:00-05:00,90.81,12.41,736,-1.97,0.3,48.14,0
2020-03-13T05:19:00-05:00,90.96,12.41,735.13,-1.38,0.36,39.53,0
2020-03-13T05:20:00-05:00,90.99,12.4,734.43,-1.52,0.29,100.19,0
2020-03-13T05:21:00-05:00,90.97,12.4,734.43,-2.26,0.24,38.35,0
2020-03-13T05:22:00-05:00,90.99,12.41,735.26,-1.82,0.23,84.96,0
2020-03-13T05:23:00-05:00,90.77,12.37,734.26,-1.82,0.18,69.27,0
2020-03-13T05:24:00-05:00,90.58,12.39,735.13,-1.67,0.51,129.36,0
2020-03-13T05:25:00-05:00,90.56,12.37,735.1,-1.67,0.34,175.08,0
2020-03-13T05:26:00-05:00,90.48,12.37,734.43,0.24,0.56,155.26,0
2020-03-13T05:27:00-05:00,90.37,12.35,735.4,-0.79,0.31,129.99,0
2020-03-13T05:28:00-05:00,90.31,12.37,735.23,-0.05,0.23,108.64,0
2020-03-13T05:29:00-05:00,90.3,12.35,734.86,-0.49,0.27,139.06,0
2020-03-13T05:30:00-05:00,90.23,12.36,734.93,-1.82,0.24,119.1,0
2020-03-13T05:31:00-05:00,90.11,12.36,735,-0.79,0.27,125.31,0
2020-03-13T05:32:00-05:00,89.7,12.37,735.97,0.09,0.28,98.2,0
2020-03-13T05:33:00-05:00,89.36,12.35,735.63,-1.52,0.35,134.53,0
2020-03-13T05:34:00-05:00,89.31,12.36,733.76,-0.2,0.36,92.9,0
2020-03-13T05:35:00-05:00,89.02,12.37,734.02,-1.38,0.39,102.66,0
2020-03-13T05:36:00-05:00,88.88,12.38,735.3,0.68,0.47,75.88,0
2020-03-13T05:37:00-05:00,88.72,12.39,734.59,0.09,0.58,120.59,0
2020-03-13T05:38:00-05:00,88.2,12.4,735.46,-1.82,0.28,95.22,0
2020-03-13T05:39:00-05:00,88.35,12.42,734.43,-1.38,0.65,122.28,0
2020-03-13T05:40:00-05:00,88.22,12.42,734.83,-1.97,0.29,104.22,0
2020-03-13T05:41:00-05:00,87.98,12.47,735.63,-1.97,0.51,98.35,0
2020-03-13T05:42:00-05:00,87.55,12.47,735.8,-1.23,0.34,94.04,0
2020-03-13T05:43:00-05:00,87.68,12.48,735.8,0.68,0.22,120.14,0
2020-03-13T05:44:00-05:00,87.89,12.49,735.26,-0.35,0.19,158.15,0
2020-03-13T05:45:00-05:00,88.1,12.53,735.46,-1.97,0.19,151.2,0
2020-03-13T05:46:00-05:00,88.02,12.51,735.63,0.39,0.22,79.65,0
2020-03-13T05:47:00-05:00,87.66,12.54,736.1,-0.64,0.29,65.51,0
2020-03-13T05:48:00-05:00,87.99,12.53,735.23,-0.35,0.31,78.91,0
2020-03-13T05:49:00-05:00,87.97,12.53,735.46,-0.05,0.23,114.18,0
2020-03-13T05:50:00-05:00,87.97,12.54,735.53,-2.26,0.53,127.87,0
2020-03-13T05:51:00-05:00,88.13,12.53,735.93,-1.67,0.39,144.19,0
2020-03-13T05:52:00-05:00,87.75,12.53,736.13,-0.79,0.57,156.52,0
2020-03-13T05:53:00-05:00,87.48,12.55,736.3,-2.41,0.56,166.41,0
2020-03-13T05:54:00-05:00,87.42,12.53,735,-1.67,0.56,140.6,0
2020-03-13T05:55:00-05:00,87.75,12.55,735.23,-1.08,0.46,138.31,0
2020-03-13T05:56:00-05:00,88.13,12.54,735.67,-1.52,0.31,115,0
2020-03-13T05:57:00-05:00,88.39,12.54,736.03,-0.64,0.5,83.42,0
2020-03-13T05:58:00-05:00,88.42,12.52,735.23,0.09,0.6,114.77,0
2020-03-13T05:59:00-05:00,88.5,12.51,735.77,-1.52,0.23,101.22,0
2020-03-13T06:00:00-05:00,88.54,12.51,735.83,-1.08,0.24,112,0
2020-03-13T06:01:00-05:00,88.55,12.5,734.79,0.09,0.43,160.12,0
2020-03-13T06:02:00-05:00,88.77,12.5,736,-1.08,0.2,166.14,0
2020-03-13T06:03:00-05:00,88.74,12.49,735.4,-0.94,0.24,93.14,0
2020-03-13T06:04:00-05:00,88.23,12.47,735.4,0.24,0.33,65.82,0
2020-03-13T06:05:00-05:00,88.58,12.48,735.23,1.56,0.23,76.1,0
2020-03-13T06:06:00-05:00,88.2,12.48,735.1,3.47,0.21,146.29,0
2020-03-13T06:07:00-05:00,88.01,12.45,735.5,3.62,0.37,73.73,0
2020-03-13T06:08:00-05:00,87.99,12.47,734.33,3.47,0.53,44.93,0
2020-03-13T06:09:00-05:00,89.12,12.49,735.83,1.56,0.55,41.38,0
2020-03-13T06:10:00-05:00,89.2,12.48,734.46,2.59,0.56,124.98,0
2020-03-13T06:11:00-05:00,89.02,12.44,736.2,3.47,0.22,138.23,0
2020-03-13T06:12:00-05:00,88.86,12.46,735.53,4.36,0.63,101.75,0
2020-03-13T06:13:00-05:00,88.48,12.44,735.7,6.56,0.46,76.12,0
2020-03-13T06:14:00-05:00,88.12,12.45,734.96,5.53,0.58,78.99,0
2020-03-13T06:15:00-05:00,88.07,12.47,734.59,7.15,0.6,9.24,0
2020-03-13T06:16:00-05:00,88.89,12.49,734.9,9.21,0.68,37.19,0
2020-03-13T06:17:00-05:00,88.97,12.51,736.17,11.27,0.62,108.42,0
2020-03-13T06:18:00-05:00,88.14,12.49,734.46,12.3,0.59,113.46,0
2020-03-13T06:19:00-05:00,87.87,12.51,735.4,14.06,0.55,78.01,0
2020-03-13T06:20:00-05:00,87.85,12.52,735.6,16.56,0.23,148.22,0
2020-03-13T06:21:00-05:00,88.07,12.53,735.67,19.06,0.43,138.31,0
2020-03-13T06:22:00-05:00,87.83,12.55,735.9,21.26,0.43,165.15,0
2020-03-13T06:23:00-05:00,87.61,12.55,736.07,22.88,0.52,179.12,0
2020-03-13T06:24:00-05:00,87.71,12.57,735.56,24.65,0.43,176.08,0
2020-03-13T06:25:00-05:00,87.45,12.57,735.6,28.47,0.29,181.09,0
2020-03-13T06:26:00-05:00,87.69,12.59,736.27,29.79,0.29,184.29,0
2020-03-13T06:27:00-05:00,87.85,12.61,735.63,32.44,0.28,185.28,0
2020-03-13T06:28:00-05:00,87.83,12.61,736.97,31.85,0.22,162.52,0
2020-03-13T06:29:00-05:00,87.91,12.62,736.57,28.91,0.22,117.21,0
2020-03-13T06:30:00-05:00,88.27,12.64,736.07,26.56,0.33,130.17,0
2020-03-13T06:31:00-05:00,88.15,12.65,737.04,23.62,0.43,132.07,0
2020-03-13T06:32:00-05:00,88.15,12.65,737.07,17.88,0.29,102.86,0
2020-03-13T06:33:00-05:00,88.19,12.68,736.13,16.27,0.61,131.26,0
2020-03-13T06:34:00-05:00,88.27,12.69,737.47,17.74,0.7,100.37,0
2020-03-13T06:35:00-05:00,88.43,12.7,736,15.68,0.51,142.02,0
2020-03-13T06:36:00-05:00,88.29,12.73,736.57,15.53,0.55,135.48,0
2020-03-13T06:37:00-05:00,88.45,12.73,737.87,15.97,0.67,75.2,0
2020-03-13T06:38:00-05:00,88.46,12.75,737.41,16.85,0.21,182.1,0
2020-03-13T06:39:00-05:00,88.67,12.76,737.51,16.56,0.22,190.06,0
2020-03-13T06:40:00-05:00,88.7,12.77,737.51,15.97,0.19,133.87,0
2020-03-13T06:41:00-05:00,88.94,12.78,736.47,15.38,0.27,77.47,0
2020-03-13T06:42:00-05:00,89,12.77,737.34,15.97,0.23,10.93,0
2020-03-13T06:43:00-05:00,88.91,12.79,736.54,16.12,0.38,21.66,0
2020-03-13T06:44:00-05:00,88.88,12.79,737.57,16.12,0.18,54.78,0
2020-03-13T06:45:00-05:00,88.74,12.81,737.27,19.5,0.84,34.94,0
2020-03-13T06:46:00-05:00,88.31,12.79,736.7,22.29,0.65,68.73,0
2020-03-13T06:47:00-05:00,88.57,12.79,736.64,25.82,0.83,52.41,0
2020-03-13T06:48:00-05:00,88.75,12.81,736.6,28.17,0.68,65.31,0
2020-03-13T06:49:00-05:00,89.18,12.83,737.61,30.82,0.55,73.92,0
2020-03-13T06:50:00-05:00,89.38,12.83,737.67,33.91,0.43,70.22,0
2020-03-13T06:51:00-05:00,89.24,12.83,737.24,39.79,0.25,82.75,0
2020-03-13T06:52:00-05:00,89.02,12.82,737.24,42.73,0.23,59.31,0
2020-03-13T06:53:00-05:00,89.02,12.85,737.77,48.02,0.23,82.53,0
2020-03-13T06:54:00-05:00,89.29,12.86,737.54,54.05,0.14,174.12,0
2020-03-13T06:55:00-05:00,89.36,12.9,737,56.26,0.22,188.34,0
2020-03-13T06:56:00-05:00,89.34,12.92,737.77,60.37,0.12,26.63,0
2020-03-13T06:57:00-05:00,89.39,12.93,737.57,63.9,0.59,53.97,0
2020-03-13T06:58:00-05:00,88.98,12.93,737.61,67.58,0.75,38.4,0
2020-03-13T06:59:00-05:00,87.66,12.92,737.47,71.55,0.58,46.35,0
2020-03-13T07:00:00-05:00,87.12,12.94,738.51,72.43,0.14,26.81,0
2020-03-13T07:01:00-05:00,87.93,12.99,738.98,73.75,0.19,177.32,0
2020-03-13T07:02:00-05:00,88.5,13.05,738.14,80.51,0.1,120.23,0
2020-03-13T07:03:00-05:00,88.89,13.09,738.91,83.9,0.28,171.16,0
2020-03-13T07:04:00-05:00,88.09,13.09,737.77,83.75,0.39,142.37,0
2020-03-13T07:05:00-05:00,87.54,13.09,738.34,90.07,0.22,143.21,0
2020-03-13T07:06:00-05:00,87.16,13.13,739.51,90.95,0.31,151.49,0
2020-03-13T07:07:00-05:00,87.11,13.16,739.38,83.75,0.37,145.3,0
2020-03-13T07:08:00-05:00,87.55,13.2,739.28,81.1,0.33,147.6,0
2020-03-13T07:09:00-05:00,87.49,13.24,739.15,83.9,0.13,109.19,0
2020-03-13T07:10:00-05:00,87.03,13.27,740.15,87.13,0.27,2.12,0
2020-03-13T07:11:00-05:00,86.88,13.33,739.18,91.84,0.21,69.74,0
2020-03-13T07:12:00-05:00,87.12,13.36,739.41,99.78,0.22,87.63,0
2020-03-13T07:13:00-05:00,87.15,13.41,739.05,106.1,0.22,87.92,0
2020-03-13T07:14:00-05:00,87.04,13.44,739.65,116.39,0.56,60.83,0
2020-03-13T07:15:00-05:00,86.65,13.44,740.45,124.92,0.11,11.48,0
2020-03-13T07:16:00-05:00,86.36,13.48,737.47,130.94,0.56,42.59,0
2020-03-13T07:17:00-05:00,86.06,13.52,738.71,124.92,0.35,36.78,0
2020-03-13T07:18:00-05:00,86.05,13.56,738.24,130.21,0.52,73.15,0
2020-03-13T07:19:00-05:00,86.67,13.6,738.14,134.33,0.22,58.02,0
2020-03-13T07:20:00-05:00,85.73,13.67,737.54,136.82,0.43,4.7,0
2020-03-13T07:21:00-05:00,84.42,13.68,738.34,134.18,0.29,349.43,0
2020-03-13T07:22:00-05:00,83.75,13.72,738.14,129.33,0.35,318.6,0
2020-03-13T07:23:00-05:00,84.59,13.76,737.91,135.21,0.37,301.2,0
2020-03-13T07:24:00-05:00,86.22,13.84,738.61,135.94,0.25,276.75,0
2020-03-13T07:25:00-05:00,86.08,13.9,738.61,127.27,0.24,327.91,0
2020-03-13T07:26:00-05:00,86.13,13.96,738.58,119.18,0.19,259.75,0
2020-03-13T07:27:00-05:00,85.77,14,737.67,115.21,0.53,187.3,0
2020-03-13T07:28:00-05:00,83.36,13.97,738.21,107.13,0.11,317.6,0
2020-03-13T07:29:00-05:00,83.21,14.01,738.34,103.3,0.09,188.41,0
2020-03-13T07:30:00-05:00,83.12,14.03,739.15,99.19,0.53,263.69,0
2020-03-13T07:31:00-05:00,85.03,14.07,739.28,95.51,0.62,222.3,0
2020-03-13T07:32:00-05:00,85.17,14.1,738.71,95.81,0.53,208.95,0
2020-03-13T07:33:00-05:00,84.35,14.09,738.88,94.78,0.2,266.79,0
2020-03-13T07:34:00-05:00,83.91,14.08,739.88,91.69,0.25,242.11,0
2020-03-13T07:35:00-05:00,84.16,14.12,738.74,93.16,0.41,246.13,0
2020-03-13T07:36:00-05:00,83.67,14.08,738.74,93.45,0.5,206.99,0
2020-03-13T07:37:00-05:00,83.11,14.09,740.05,93.89,0.52,211.92,0
2020-03-13T07:38:00-05:00,83.7,14.09,739.18,95.07,0.28,245.76,0
2020-03-13T07:39:00-05:00,83.53,14.09,739.98,101.1,0.29,259.77,0
2020-03-13T07:40:00-05:00,83.28,14.08,739.08,111.83,0.43,185.99,0
2020-03-13T07:41:00-05:00,83.56,14.07,739.72,121.09,0.49,263.7,0
2020-03-13T07:42:00-05:00,83.01,14.04,739.95,131.09,0.59,235.18,0
2020-03-13T07:43:00-05:00,83.6,14.04,739.08,142.27,0.46,217.91,0
2020-03-13T07:44:00-05:00,83.92,14.04,739.58,152.56,0.64,228.23,0
2020-03-13T07:45:00-05:00,82.93,14.04,739.68,171.08,0.55,316.6,0
2020-03-13T07:46:00-05:00,83.79,14.06,739.95,167.7,0.6,204.25,0
2020-03-13T07:47:00-05:00,83.15,14.08,740.12,175.49,0.29,249.84,0
2020-03-13T07:48:00-05:00,83.21,14.12,740.42,188.43,0.28,251.13,0
2020-03-13T07:49:00-05:00,82.77,14.16,741.46,214.01,0.28,236.8,0
2020-03-13T07:50:00-05:00,82.57,14.2,742.46,242.68,0.63,233.11,0
2020-03-13T07:51:00-05:00,82.37,14.27,742.59,297.37,0.44,222.9,0
2020-03-13T07:52:00-05:00,83.58,14.37,738.34,316.05,0.25,307.68,0
2020-03-13T07:53:00-05:00,82.03,14.46,738.58,279.14,0.6,231.9,0
2020-03-13T07:54:00-05:00,81.5,14.55,739.11,268.56,0.53,269.7,0
2020-03-13T07:55:00-05:00,81.85,14.65,738.28,212.1,0.12,190,0
2020-03-13T07:56:00-05:00,81.3,14.73,738.44,191.22,0.61,185.97,0
2020-03-13T07:57:00-05:00,79.7,14.75,738.04,171.08,0.33,243.8,0
2020-03-13T07:58:00-05:00,80.16,14.8,738.81,145.5,0.29,198.96,0
2020-03-13T07:59:00-05:00,79.52,14.81,738.31,131.83,0.56,174.12,0
2020-03-13T08:00:00-05:00,79.95,14.82,738.54,120.65,0.34,200.96,0
2020-03-13T08:01:00-05:00,79.36,14.82,738.44,112.71,0.27,258.1,0
2020-03-13T08:02:00-05:00,79.71,14.84,738.04,113.89,0.28,174.14,0
2020-03-13T08:03:00-05:00,79.4,14.82,738.41,114.04,0.58,231.22,0
2020-03-13T08:04:00-05:00,79.85,14.8,737.44,122.86,0.5,184.03,0
2020-03-13T08:05:00-05:00,81.31,14.81,738.64,137.56,0.63,191.35,0
2020-03-13T08:06:00-05:00,81.03,14.81,738.88,153.44,0.5,263.7,0
2020-03-13T08:07:00-05:00,81.14,14.81,739.31,173.87,0.66,211.18,0
2020-03-13T08:08:00-05:00,80.97,14.78,738.14,200.63,0.52,224.17,0
2020-03-13T08:09:00-05:00,81.92,14.78,739.72,225.48,0.64,254.73,0
2020-03-13T08:10:00-05:00,81.66,14.79,739.28,240.18,0.56,191.01,0
2020-03-13T08:11:00-05:00,81.55,14.82,739.58,248.71,0.23,233.83,0
2020-03-13T08:12:00-05:00,81.57,14.83,740.42,239.59,0.82,236.8,0
2020-03-13T08:13:00-05:00,80.14,14.85,739.28,221.51,0.61,219.86,0
2020-03-13T08:14:00-05:00,80.07,14.88,740.59,208.28,0.49,2.72,0
2020-03-13T08:15:00-05:00,79.45,14.82,740.02,206.22,0.32,346.48,0
2020-03-13T08:16:00-05:00,79.79,14.83,740.35,213.42,0.71,3.97,0
2020-03-13T08:17:00-05:00,78.88,14.79,741.46,221.8,0.93,27.59,0
2020-03-13T08:18:00-05:00,78.65,14.72,740.65,236.21,0.6,2.18,0
2020-03-13T08:19:00-05:00,79.11,14.66,740.55,247.68,0.61,357.44,0
2020-03-13T08:20:00-05:00,79.69,14.67,741.69,263.27,0.62,336.9,0
2020-03-13T08:21:00-05:00,None,None,None,None,None,None,None
2020-03-13T08:22:00-05:00,None,None,None,None,None,None,None
2020-03-13T08:23:00-05:00,None,None,None,None,None,None,None
2020-03-13T08:24:00-05:00,None,None,None,None,None,None,None
2020-03-13T08:25:00-05:00,None,None,None,None,None,None,None
2020-03-13T08:26:00-05:00,None,None,None,None,None,None,None
2020-03-13T08:27:00-05:00,None,None,None,None,None,None,None
2020-03-13T08:28:00-05:00,None,None,None,None,None,None,None
2020-03-13T08:29:00-05:00,None,None,None,None,None,None,None
2020-03-13T08:30:00-05:00,79.36,14.78,737.61,217.25,0.57,59.3,0
2020-03-13T08:31:00-05:00,79.06,14.8,736.74,218.86,0.93,59.01,0
2020-03-13T08:32:00-05:00,79.7,14.79,737.54,215.63,0.62,26.47,0
2020-03-13T08:33:00-05:00,79.45,14.83,737.94,214.75,0.68,25.38,0
2020-03-13T08:34:00-05:00,79.77,14.84,737.24,213.13,0.55,18.36,0
2020-03-13T08:35:00-05:00,79.19,14.85,737.91,214.45,0.22,51.08,0
2020-03-13T08:36:00-05:00,79.57,14.87,737.87,214.45,0.55,21.29,0
2020-03-13T08:37:00-05:00,79.46,14.9,736.97,211.95,0.87,355.83,0
2020-03-13T08:38:00-05:00,78.74,14.93,737.41,211.95,0.53,269.69,0
2020-03-13T08:39:00-05:00,79.13,15,738.18,213.28,0.65,348.8,0
2020-03-13T08:40:00-05:00,78.77,15.05,737.2,217.25,0.74,10.89,0
2020-03-13T08:41:00-05:00,78.56,15.05,738.04,218.72,1.26,26.62,0
2020-03-13T08:42:00-05:00,78.15,15.05,738.01,219.6,0.7,354.49,0
2020-03-13T08:43:00-05:00,77.9,15.03,737.04,223.86,0.81,7.87,0
2020-03-13T08:44:00-05:00,77.59,15.03,737.77,225.33,0.61,17.59,0
2020-03-13T08:45:00-05:00,78.56,15.05,737.31,227.98,0.91,34.92,0
2020-03-13T08:46:00-05:00,79.49,15.15,738.04,230.48,0.82,354.47,0
2020-03-13T08:47:00-05:00,79.03,15.21,737.41,233.57,0.8,21.15,0
2020-03-13T08:48:00-05:00,77.13,15.25,737.97,237.1,0.69,20.82,0
2020-03-13T08:49:00-05:00,77.17,15.3,738.54,240.48,0.8,329.55,0
2020-03-13T08:50:00-05:00,78.7,15.37,738.08,243.86,0.61,228.09,0
2020-03-13T08:51:00-05:00,76.41,15.39,738.71,247.83,0.89,49.36,0
2020-03-13T08:52:00-05:00,76.28,15.43,738.74,247.83,0.75,319.57,0
2020-03-13T08:53:00-05:00,76.35,15.42,737.81,248.12,0.82,53.48,0
2020-03-13T08:54:00-05:00,76.78,15.45,738.81,244.01,0.16,355.48,0
2020-03-13T08:55:00-05:00,77.56,15.5,738.41,244.74,1.12,44.5,0
2020-03-13T08:56:00-05:00,76.1,15.54,739.28,245.03,1.75,15.67,0
2020-03-13T08:57:00-05:00,75.96,15.53,739.51,248.56,0.66,30.5,0
2020-03-13T08:58:00-05:00,75.55,15.56,738.51,251.21,0.58,91.26,0
2020-03-13T08:59:00-05:00,75.34,15.57,739.21,251.06,0.7,33.5,0
2020-03-13T09:00:00-05:00,75.26,15.59,739.98,256.21,1.02,5.95,0
2020-03-13T09:01:00-05:00,76.5,15.61,740.08,261.35,0.97,12.37,0
2020-03-13T09:02:00-05:00,75.63,15.67,738.81,267.53,1.55,66.88,0
2020-03-13T09:03:00-05:00,76.19,15.69,740.15,272.38,0.61,42.33,0
2020-03-13T09:04:00-05:00,75.59,15.76,740.28,277.82,0.53,296.88,0
2020-03-13T09:05:00-05:00,75.52,15.82,740.08,281.79,0.57,147.7,0
2020-03-13T09:06:00-05:00,75.24,15.89,739.68,286.94,0.52,351.51,0
2020-03-13T09:07:00-05:00,73.45,15.92,740.72,291.64,1.6,310.63,0
2020-03-13T09:08:00-05:00,75,15.92,741.02,291.64,0.55,265.78,0
2020-03-13T09:09:00-05:00,74.89,15.95,740.15,290.32,1.31,40.18,0
2020-03-13T09:10:00-05:00,75.37,15.99,737.77,289.44,0.7,201.95,0
2020-03-13T09:11:00-05:00,75.6,16.01,738.14,282.67,0.72,299.69,0
2020-03-13T09:12:00-05:00,75.08,16.06,737.64,273.56,0.67,188.07,0
2020-03-13T09:13:00-05:00,73.09,16.1,737.44,272.38,0.21,6.04,0
2020-03-13T09:14:00-05:00,71.82,16.11,736.9,277.38,0.67,44.26,0
2020-03-13T09:15:00-05:00,71.24,16.12,737.1,290.91,0.62,12.18,0
2020-03-13T09:16:00-05:00,71.49,16.14,737.67,323.54,0.49,200.97,0
2020-03-13T09:17:00-05:00,71.78,16.18,737.07,341.04,0.67,204.26,0
2020-03-13T09:18:00-05:00,73.08,16.19,736.9,353.1,0.71,305.6,0
2020-03-13T09:19:00-05:00,72.42,16.24,737.74,375.44,0.13,199.32,0
2020-03-13T09:20:00-05:00,74.19,16.32,737.41,411.61,0.49,228.83,0
2020-03-13T09:21:00-05:00,75.24,16.42,736.8,451.16,0.54,286.97,0
2020-03-13T09:22:00-05:00,74.06,16.52,737.67,537.91,1.22,26.37,0
2020-03-13T09:23:00-05:00,71.32,16.5,737.61,644.2,0.59,17.23,0
2020-03-13T09:24:00-05:00,71.05,16.6,737.37,871.06,1.06,36.61,0
2020-03-13T09:25:00-05:00,69.87,16.68,737.41,751.09,1.66,36.86,0
2020-03-13T09:26:00-05:00,71.05,16.68,737,588.92,0.92,1.75,0
2020-03-13T09:27:00-05:00,70.88,16.82,737.34,505.71,1.02,49.16,0
2020-03-13T09:28:00-05:00,71.15,16.9,738.21,449.84,0.55,261.72,0
2020-03-13T09:29:00-05:00,71.13,17.02,737.94,426.61,0.64,7.05,0
2020-03-13T09:30:00-05:00,69.9,16.98,738.54,413.38,0.74,351.55,0
2020-03-13T09:31:00-05:00,68.88,16.96,737.54,406.76,0.85,319.56,0
2020-03-13T09:32:00-05:00,70.07,16.88,738.81,397.5,0.76,225.2,0
2020-03-13T09:33:00-05:00,70.2,16.94,738.58,391.91,0.5,63.07,0
2020-03-13T09:34:00-05:00,70.24,17.02,739.78,383.53,1.19,29.68,0
2020-03-13T09:35:00-05:00,69.9,17.11,739.75,369.12,0.26,17.49,0
2020-03-13T09:36:00-05:00,73.62,17.23,739.28,362.07,0.4,171.56,0
2020-03-13T09:37:00-05:00,73.26,17.3,739.85,351.33,0.43,243.79,0
2020-03-13T09:38:00-05:00,71.13,17.38,740.55,340.6,0.38,22.61,0
2020-03-13T09:39:00-05:00,69.25,17.43,736.74,328.98,0.68,64.58,0
2020-03-13T09:40:00-05:00,67.98,17.39,736.77,316.63,0.52,100.55,0
2020-03-13T09:41:00-05:00,68.62,17.35,736.9,311.93,0.76,46.19,0
2020-03-13T09:42:00-05:00,69.13,17.32,736.7,311.49,1.08,34.06,0
2020-03-13T09:43:00-05:00,69.98,17.25,737.87,311.34,1.78,74.8,0
2020-03-13T09:44:00-05:00,70,17.19,736.8,321.05,1.15,355.45,0
2020-03-13T09:45:00-05:00,69.48,17.17,737.74,321.19,1.13,339.5,0
2020-03-13T09:46:00-05:00,69.84,17.13,736.74,315.61,0.69,280.62,0
2020-03-13T09:47:00-05:00,73.89,17.19,737.67,310.31,0.26,0.86,0
2020-03-13T09:48:00-05:00,70.38,17.23,736.74,306.93,0.56,208.97,0
2020-03-13T09:49:00-05:00,69.82,17.21,737.2,303.55,1.15,289.62,0
2020-03-13T09:50:00-05:00,69.24,17.17,737.94,301.05,0.24,38.92,0
2020-03-13T09:51:00-05:00,69.13,17.19,736.67,304.28,0.51,295.95,0
2020-03-13T09:52:00-05:00,69.98,17.22,737.07,308.25,0.91,226.85,0
2020-03-13T09:53:00-05:00,68.82,17.15,737.81,308.25,2.22,231.22,0
2020-03-13T09:54:00-05:00,68.25,17,737.07,307.96,1.39,229.77,0
2020-03-13T09:55:00-05:00,69.31,16.88,737,303.84,0.57,221.21,0
2020-03-13T09:56:00-05:00,70.04,16.85,737.61,298.4,0.81,228.84,0
2020-03-13T09:57:00-05:00,69.77,16.86,737.51,290.76,0.59,56.74,0
2020-03-13T09:58:00-05:00,69.16,16.86,737.2,276.64,0.36,170.34,0
2020-03-13T09:59:00-05:00,69.64,16.88,736.87,264.59,0.56,215.21,0
2020-03-13T10:00:00-05:00,70.79,16.85,736.8,253.41,1.01,250.79,0
2020-03-13T10:01:00-05:00,70.44,16.82,736.57,249.3,0.22,275.72,0
2020-03-13T10:02:00-05:00,72.64,16.87,736.9,247.39,0.06,268.72,0
2020-03-13T10:03:00-05:00,72.26,16.92,737.51,248.12,0.24,291.69,0
2020-03-13T10:04:00-05:00,70.6,16.96,737.74,255.62,0.6,270.69,0
2020-03-13T10:05:00-05:00,72.19,17,737.61,264,0.69,242.8,0
2020-03-13T10:06:00-05:00,68.84,17,737.2,272.53,0.45,294.63,0
2020-03-13T10:07:00-05:00,70.55,17,737.17,264.88,0.77,207.99,0
2020-03-13T10:08:00-05:00,69.5,16.92,736.17,255.77,1.49,226.19,0
2020-03-13T10:09:00-05:00,68.25,16.8,736.3,254,0.58,126.21,0
2020-03-13T10:10:00-05:00,69.68,16.76,736.5,252.24,0.19,299.02,0
2020-03-13T10:11:00-05:00,70.62,16.83,737,255.18,0.25,291.69,0
2020-03-13T10:12:00-05:00,68.71,16.84,736.8,271.06,0.65,243.14,0
2020-03-13T10:13:00-05:00,69.85,16.86,736.27,288.99,0.21,184.99,0
2020-03-13T10:14:00-05:00,71.54,16.91,736.4,328.84,0.59,111.8,0
2020-03-13T10:15:00-05:00,70.11,16.94,735.97,379.41,0.62,147.91,0
2020-03-13T10:16:00-05:00,71.89,16.98,737.51,427.78,0.66,201.32,0
2020-03-13T10:17:00-05:00,69.61,17.02,736.84,478.21,0.68,208.93,0
2020-03-13T10:18:00-05:00,69.36,17.04,737.57,482.77,0.61,253.73,0
2020-03-13T10:19:00-05:00,71.37,17.15,738.85,500.56,0.75,224.9,0
2020-03-13T10:20:00-05:00,70.04,17.27,738.61,687.87,0.54,232.86,0
2020-03-13T10:21:00-05:00,69.45,17.33,739.31,483.21,0.64,240.86,0
2020-03-13T10:22:00-05:00,67.69,17.39,739.01,457.63,0.59,259.77,0
2020-03-13T10:23:00-05:00,66.29,17.44,739.11,446.6,0.52,223.9,0
2020-03-13T10:24:00-05:00,65.7,17.47,736.87,421.61,0.54,326.56,0
2020-03-13T10:25:00-05:00,66.1,17.53,737.31,402.94,0.59,307.63,0
2020-03-13T10:26:00-05:00,68.52,17.6,737.51,304.14,0.56,209.93,0
2020-03-13T10:27:00-05:00,68.57,17.66,736.64,241.06,0.74,268.06,0
2020-03-13T10:28:00-05:00,65.75,17.61,737.2,223.72,0.56,296.59,0
2020-03-13T10:29:00-05:00,67.45,17.65,736.54,229.16,0.63,213.2,0
2020-03-13T10:30:00-05:00,68.04,17.65,737.87,226.22,0.34,258.77,0
2020-03-13T10:31:00-05:00,68.01,17.69,737.37,250.47,0.1,78.27,0
2020-03-13T10:32:00-05:00,69.22,17.72,736.54,333.98,0.49,96.45,0
2020-03-13T10:33:00-05:00,71.24,17.73,736.54,358.54,1.03,250.16,0
2020-03-13T10:34:00-05:00,70.03,17.74,736.8,803.28,0.44,207.97,0
2020-03-13T10:35:00-05:00,69.98,17.77,737.04,630.53,0.79,261.01,0
2020-03-13T10:36:00-05:00,69.93,17.81,736.9,649.5,1.2,213.98,0
2020-03-13T10:37:00-05:00,72.66,17.91,736.37,1078.66,1.64,216.95,0
2020-03-13T10:38:00-05:00,70.16,18.08,737.51,1016.32,1.17,250.75,0
2020-03-13T10:39:00-05:00,70.2,18.21,737.17,1100.71,2.52,212.89,0
2020-03-13T10:40:00-05:00,67.6,18.29,737,1075.42,2.62,232.81,0
2020-03-13T10:41:00-05:00,69.51,18.33,736.43,1103.06,1.02,218.89,0
2020-03-13T10:42:00-05:00,69.02,18.39,736.03,1121.29,2.67,232.86,0
2020-03-13T10:43:00-05:00,70.2,18.41,736.57,1127.03,1.87,257.8,0
2020-03-13T10:44:00-05:00,67.83,18.41,737.17,1131.15,0.91,227.86,0
2020-03-13T10:45:00-05:00,72.07,18.51,736.5,1114.24,0.22,212.87,0
2020-03-13T10:46:00-05:00,72.09,18.74,736.27,1095.27,1.02,273,0
2020-03-13T10:47:00-05:00,68.77,18.93,736.54,1098.95,2.21,263.69,0
2020-03-13T10:48:00-05:00,67.15,19.02,736,1078.66,2.03,242.18,0
2020-03-13T10:49:00-05:00,67.14,19.02,736.77,1070.72,0.59,252.75,0
2020-03-13T10:50:00-05:00,70.35,19.12,736.77,689.49,0.48,134.39,0
2020-03-13T10:51:00-05:00,68.77,19.26,736.37,799.9,1.15,226.86,0
2020-03-13T10:52:00-05:00,67.42,19.37,736.43,1043.52,1.4,263.07,0
2020-03-13T10:53:00-05:00,66.21,19.42,735.9,1043.37,1.03,272.65,0
2020-03-13T10:54:00-05:00,66.91,19.46,736.07,1026.32,0.55,142.83,0
2020-03-13T10:55:00-05:00,65.48,19.53,736.47,541.29,0.95,210.94,0
2020-03-13T10:56:00-05:00,64.33,19.39,736,384.12,0.36,263.7,0
2020-03-13T10:57:00-05:00,64.21,19.33,736.87,985,0.65,104.67,0
2020-03-13T10:58:00-05:00,66.66,19.36,736.77,1031.32,1.3,279.62,0
2020-03-13T10:59:00-05:00,63.82,19.38,736.03,1044.99,0.69,246.75,0
2020-03-13T11:00:00-05:00,66.55,19.44,736.67,1043.22,0.8,219.87,0
2020-03-13T11:01:00-05:00,65.87,19.5,736.4,1051.9,0.73,253.75,0
2020-03-13T11:02:00-05:00,65.01,19.54,737.44,1013.38,0.84,217.9,0
2020-03-13T11:03:00-05:00,64.88,19.59,736.33,1016.32,1.09,247.11,0
2020-03-13T11:04:00-05:00,64.51,19.59,736.4,1016.17,1.13,220.83,0
2020-03-13T11:05:00-05:00,61.84,19.55,736.6,1041.02,0.84,174.41,0
2020-03-13T11:06:00-05:00,64.3,19.52,735.6,1032.49,0.57,253.04,0
2020-03-13T11:07:00-05:00,66.18,19.62,736.84,1046.31,1.59,235.13,0
2020-03-13T11:08:00-05:00,64,19.66,736.5,783.58,0.71,277.66,0
2020-03-13T11:09:00-05:00,65.83,19.74,735.83,699.63,0.95,189.39,0
2020-03-13T11:10:00-05:00,69.48,19.87,736.27,240.62,0.94,180.08,0
2020-03-13T11:11:00-05:00,63.61,19.91,736.9,192.55,0.6,268.72,0
2020-03-13T11:12:00-05:00,63.72,19.88,735.97,193.87,1.12,209.92,0
2020-03-13T11:13:00-05:00,62.14,19.72,735,224.3,0.62,211.89,0
2020-03-13T11:14:00-05:00,62.9,19.5,734.06,232.24,0.6,197,0
2020-03-13T11:15:00-05:00,62.87,19.37,732.08,273.56,0.6,227.82,0
2020-03-13T11:16:00-05:00,61.9,19.23,731.92,336.48,0.27,263.69,0
2020-03-13T11:17:00-05:00,61.72,19.08,731.35,489.09,1.17,236.79,0
2020-03-13T11:18:00-05:00,65.49,19,731.92,1145.41,0.54,235.79,0
2020-03-13T11:19:00-05:00,61.44,18.99,732.15,1142.17,0.59,169.07,0
2020-03-13T11:20:00-05:00,62.54,19.02,731.92,1136.14,0.66,176.41,0
2020-03-13T11:21:00-05:00,66.19,19.19,732.28,1103.8,1.24,229.79,0
2020-03-13T11:22:00-05:00,65.37,19.37,734.02,243.56,0.56,18.98,0
2020-03-13T11:23:00-05:00,61.26,19.48,733.39,221.8,0.29,212.89,0
2020-03-13T11:24:00-05:00,61.34,19.54,733.12,270.32,0.62,351.87,0
2020-03-13T11:25:00-05:00,62.7,19.59,733.02,1137.47,0.62,258.74,0
2020-03-13T11:26:00-05:00,63.04,19.67,733.82,1184.37,0.91,271.05,0
2020-03-13T11:27:00-05:00,61.15,19.69,734.53,1196.57,0.62,261.72,0
2020-03-13T11:28:00-05:00,None,None,None,None,None,None,None
2020-03-13T11:29:00-05:00,None,None,None,None,None,None,None
2020-03-13T11:30:00-05:00,None,None,None,None,None,None,None
2020-03-13T11:31:00-05:00,None,None,None,None,None,None,None
2020-03-13T11:32:00-05:00,62.32,20.13,738.31,769.17,0.49,270.68,0
2020-03-13T11:33:00-05:00,61.83,20.21,738.64,400.14,1.03,256.79,0
2020-03-13T11:34:00-05:00,59.28,20.25,737.47,736.68,1.41,234.82,0
2020-03-13T11:35:00-05:00,58.52,20.11,737.41,1055.43,0.55,237.81,0
2020-03-13T11:36:00-05:00,60.47,20.13,738.18,493.06,0.52,301.62,0
2020-03-13T11:37:00-05:00,59.49,20.18,739.01,382.35,0.77,253.17,0
2020-03-13T11:38:00-05:00,58.96,20.22,739.08,325.9,0.43,243.77,0
2020-03-13T11:39:00-05:00,None,None,None,None,None,None,None
2020-03-13T11:40:00-05:00,59.93,20.21,736.13,271.35,1,259.99,0
2020-03-13T11:41:00-05:00,59.95,20.11,735.5,297.37,1.35,179.46,0
2020-03-13T11:42:00-05:00,60.02,19.97,736.64,241.36,0.69,249.8,0
2020-03-13T11:43:00-05:00,59.72,19.91,735.67,221.22,0.67,238.13,0
2020-03-13T11:44:00-05:00,60.52,19.87,736.5,214.45,0.25,190.99,0
2020-03-13T11:45:00-05:00,62.28,19.84,736.33,214.01,0.62,191.97,0
2020-03-13T11:46:00-05:00,64.01,19.76,736.4,219.45,0.55,191.94,0
2020-03-13T11:47:00-05:00,None,None,None,None,None,None,None
2020-03-13T11:48:00-05:00,63.42,19.72,736.2,236.21,0.71,287.61,0
2020-03-13T11:49:00-05:00,59.46,19.66,736.03,214.01,0.62,267.73,0
2020-03-13T11:50:00-05:00,59.98,19.58,735.56,193.14,0.56,230.85,0
2020-03-13T11:51:00-05:00,61.33,19.52,734.43,170.93,0.62,176.03,0
2020-03-13T11:52:00-05:00,61.89,19.48,733.69,147.26,0.56,210.95,0
2020-03-13T11:53:00-05:00,61.92,19.42,734.29,136.38,1.07,190.98,0
2020-03-13T11:54:00-05:00,62.67,19.31,731.82,126.83,0.59,228.15,0
2020-03-13T11:55:00-05:00,63.79,19.24,732.02,122.86,0.53,230.91,0
2020-03-13T11:56:00-05:00,62.49,19.19,730.58,123.3,0.61,237.14,0
2020-03-13T11:57:00-05:00,61.6,19.16,730.68,130.5,0.22,242.8,0
2020-03-13T11:58:00-05:00,62.5,19.15,730.04,139.91,0.25,183.38,0
2020-03-13T11:59:00-05:00,62.37,19.14,730.28,148.88,0.47,270.7,0
2020-03-13T12:00:00-05:00,61.13,19.16,730.71,166.23,0.38,209.33,0
2020-03-13T12:01:00-05:00,62.1,19.13,736.17,172.4,0.42,182.04,0
2020-03-13T12:02:00-05:00,61.96,19.05,735.73,173.73,0.53,157.2,0
2020-03-13T12:03:00-05:00,61.94,19,736.37,178.87,0.58,175.09,0
2020-03-13T12:04:00-05:00,62.79,18.94,735.8,178.43,0.67,220.85,0
2020-03-13T12:05:00-05:00,63.93,18.86,735.46,184.31,0.96,106.92,0
2020-03-13T12:06:00-05:00,63.53,18.79,735.67,186.81,0.64,165.12,0
2020-03-13T12:07:00-05:00,65.34,18.76,734.93,182.11,0.59,229.79,0
2020-03-13T12:08:00-05:00,65.05,18.73,734.19,188.87,0.58,183.03,0
2020-03-13T12:09:00-05:00,61.87,18.72,734.16,196.22,0.46,199.95,0
2020-03-13T12:10:00-05:00,60.39,18.72,735.6,192.69,0.23,332.47,0
2020-03-13T12:11:00-05:00,60.89,18.74,734.49,180.34,0.1,221.16,0
2020-03-13T12:12:00-05:00,62.9,18.78,735.3,168.88,0.23,231.9,0
2020-03-13T12:13:00-05:00,63.17,18.84,735.8,163.88,0.59,179.47,0
2020-03-13T12:14:00-05:00,63.4,18.88,734.79,163.29,0.54,137.54,0
2020-03-13T12:15:00-05:00,62.55,18.92,735.13,164.47,0.26,110.19,0
2020-03-13T12:16:00-05:00,63.49,18.96,735.23,167.41,0.24,209.94,0
2020-03-13T12:17:00-05:00,65.83,19.03,735.03,193.14,0.36,167.47,0
2020-03-13T12:18:00-05:00,62.93,19.02,735.7,192.99,0.48,181.06,0
2020-03-13T12:19:00-05:00,62.86,19.01,735.06,176.67,0.73,292.95,0
2020-03-13T12:20:00-05:00,60.75,19,734.56,181.96,0.5,287.61,0
2020-03-13T12:21:00-05:00,63.35,19,735.2,168.44,0.44,184.01,0
2020-03-13T12:22:00-05:00,65.53,19,733.89,149.76,0.58,209.94,0
2020-03-13T12:23:00-05:00,63.49,18.95,733.46,129.77,0.26,348.73,0
2020-03-13T12:24:00-05:00,62.63,18.92,732.69,112.86,0.56,208.95,0
2020-03-13T12:25:00-05:00,61.92,18.86,733.56,94.04,0.5,176.07,0
2020-03-13T12:26:00-05:00,64.14,18.83,733.05,80.96,0.28,194.92,0
2020-03-13T12:27:00-05:00,64.69,18.84,733.25,72.43,0.19,16.31,0
2020-03-13T12:28:00-05:00,65.85,18.86,732.08,70.66,0.44,290.72,0
2020-03-13T12:29:00-05:00,66.19,18.87,731.78,68.31,0.34,257.8,0
2020-03-13T12:30:00-05:00,64.9,18.82,732.42,68.16,0.35,296.94,0
2020-03-13T12:31:00-05:00,63.41,18.68,730.61,71.11,1.05,226.86,0
2020-03-13T12:32:00-05:00,65.04,18.55,735.7,70.81,0.56,246.12,0
2020-03-13T12:33:00-05:00,65.9,18.44,735.06,67.28,0.8,86.15,0
2020-03-13T12:34:00-05:00,65.19,18.39,735.4,64.64,0.56,138.53,0
2020-03-13T12:35:00-05:00,64.37,18.27,735.56,64.93,0.91,186.97,0
2020-03-13T12:36:00-05:00,65.3,18.15,736.37,67.28,0.83,114.85,0
2020-03-13T12:37:00-05:00,66.48,18.08,735.63,67.14,0.77,126.17,0
2020-03-13T12:38:00-05:00,67.16,18.03,735.77,70.08,0.56,23.27,0
2020-03-13T12:39:00-05:00,67.26,18,735.1,67.43,0.61,192.98,0
2020-03-13T12:40:00-05:00,67.93,17.92,735.03,70.81,0.67,175.1,0
2020-03-13T12:41:00-05:00,69.92,17.87,734.79,68.9,0.61,139.24,0
2020-03-13T12:42:00-05:00,70.2,17.78,734.13,65.08,0.46,98.61,0
2020-03-13T12:43:00-05:00,70.93,17.75,734.39,64.78,0.8,185,0
2020-03-13T12:44:00-05:00,71.7,17.67,734.16,64.78,0.1,101.86,0
2020-03-13T12:45:00-05:00,71.07,17.62,734.26,65.37,1.01,124.23,0
2020-03-13T12:46:00-05:00,72.52,17.59,733.32,69.49,0.57,211.9,0
2020-03-13T12:47:00-05:00,70.36,17.58,733.36,70.22,0.12,170.38,0
2020-03-13T12:48:00-05:00,69.99,17.51,733.05,72.28,0.96,72.9,0
2020-03-13T12:49:00-05:00,72.26,17.51,733.15,79.78,0.58,204.23,0
2020-03-13T12:50:00-05:00,72.13,17.47,732.65,87.72,0.53,206.02,0
2020-03-13T12:51:00-05:00,72.5,17.43,732.79,99.48,0.4,151.55,0
2020-03-13T12:52:00-05:00,73.56,17.43,733.52,113.15,0.28,115.69,0
2020-03-13T12:53:00-05:00,73.09,17.42,733.19,123.74,0.68,82.62,0
2020-03-13T12:54:00-05:00,73.68,17.43,733.22,137.56,0.56,332.47,0
2020-03-13T12:55:00-05:00,73.56,17.45,733.69,151.97,0.18,128.57,0
2020-03-13T12:56:00-05:00,72.05,17.48,734.13,161.38,0.27,114.46,0
2020-03-13T12:57:00-05:00,70.66,17.53,735.23,167.85,0.53,250.1,0
2020-03-13T12:58:00-05:00,72.16,17.56,734.73,167.55,0.35,182.02,0
2020-03-13T12:59:00-05:00,73.02,17.57,734.86,158.58,0.56,93.21,0
2020-03-13T13:00:00-05:00,72.88,17.57,734.96,145.65,0.52,198.95,0
2020-03-13T13:01:00-05:00,71.48,17.59,734.96,133.3,0.57,178.01,0
2020-03-13T13:02:00-05:00,73.57,17.63,735.67,122.86,0.11,251.77,0
2020-03-13T13:03:00-05:00,71.43,17.65,735.4,119.77,0.26,227.78,0
2020-03-13T13:04:00-05:00,71.06,17.67,735.1,112.13,0.55,232.85,0
2020-03-13T13:05:00-05:00,71.24,17.69,735.53,103.45,0.84,226.82,0
2020-03-13T13:06:00-05:00,69.54,17.71,735.33,97.28,0.65,231.26,0
2020-03-13T13:07:00-05:00,69.94,17.72,735.67,93.89,0.47,241.85,0
2020-03-13T13:08:00-05:00,69.33,17.73,735.53,95.07,0.17,37.18,0
2020-03-13T13:09:00-05:00,69.96,17.75,734.56,94.78,0.24,200.94,0
2020-03-13T13:10:00-05:00,70.32,17.73,735.03,102.27,0.35,267.12,0
2020-03-13T13:11:00-05:00,71.44,17.73,735.33,102.42,0.51,216.88,0
2020-03-13T13:12:00-05:00,73.69,17.73,734.86,95.81,0.13,332.86,0
2020-03-13T13:13:00-05:00,72.06,17.75,735.16,78.02,0.54,183.04,0
2020-03-13T13:14:00-05:00,72.2,17.73,734.93,65.22,0.54,202.18,0
2020-03-13T13:15:00-05:00,72.48,17.7,734.43,55.52,0.34,266.73,0
2020-03-13T13:16:00-05:00,73.26,17.69,735.23,51.7,0.7,189.02,0
2020-03-13T13:17:00-05:00,71.82,17.66,733.46,47.88,1.52,199.96,0
2020-03-13T13:18:00-05:00,71.17,17.6,734.63,46.7,1.14,193.93,0
2020-03-13T13:19:00-05:00,71.82,17.49,734.49,38.02,0.92,241.82,0
2020-03-13T13:20:00-05:00,71.14,17.38,732.69,33.47,1.71,266.77,0
2020-03-13T13:21:00-05:00,72.07,17.27,731.98,32,0.75,191.95,0
2020-03-13T13:22:00-05:00,73.64,17.2,732.95,27.73,0.64,208.95,0
2020-03-13T13:23:00-05:00,73.97,17.15,732.02,26.41,0.66,231.86,0
2020-03-13T13:24:00-05:00,73.51,17.07,731.31,23.47,1.97,197,0
2020-03-13T13:25:00-05:00,74.57,17.02,730.51,22.44,0.59,201.28,0
2020-03-13T13:26:00-05:00,74.82,16.94,730.48,22.29,0.58,218.87,0
2020-03-13T13:27:00-05:00,75.6,16.88,730.58,24.2,0.69,191.36,0
2020-03-13T13:28:00-05:00,76.64,16.84,730.58,25.68,0.95,236.79,0
2020-03-13T13:29:00-05:00,74.3,16.74,730.48,31.85,0.22,209.33,0
2020-03-13T13:30:00-05:00,74.93,16.72,735.9,37.29,0.88,215.23,0
2020-03-13T13:31:00-05:00,75.96,16.67,735.16,39.2,0.6,218.25,0
2020-03-13T13:32:00-05:00,75.75,16.65,735.43,43.47,0.69,173.13,0
2020-03-13T13:33:00-05:00,76.43,16.6,735.53,41.55,0.97,176.33,0
2020-03-13T13:34:00-05:00,76.59,16.54,735,35.53,0.64,191.01,0
2020-03-13T13:35:00-05:00,76.45,16.49,734.46,34.64,0.58,226.87,0
2020-03-13T13:36:00-05:00,77.53,16.45,734.06,32.59,0.69,190.98,0
2020-03-13T13:37:00-05:00,77.35,16.4,734.39,34.2,0.38,194.93,0
2020-03-13T13:38:00-05:00,76.95,16.33,733.76,30.53,0.57,219.88,0
2020-03-13T13:39:00-05:00,77.29,16.27,733.62,26.85,0.54,258.74,0
2020-03-13T13:40:00-05:00,77.8,16.22,733.86,24.65,0.65,218.89,0
2020-03-13T13:41:00-05:00,78.04,16.18,733.02,21.41,1.09,211.89,0
2020-03-13T13:42:00-05:00,78.82,16.14,732.99,23.03,0.82,227.81,0
2020-03-13T13:43:00-05:00,78.82,16.08,732.32,25.53,1.03,235.81,0
2020-03-13T13:44:00-05:00,78.88,16.03,732.25,29.79,0.53,221.21,0
2020-03-13T13:45:00-05:00,79.35,16,732.69,34.06,1.09,222.91,0
2020-03-13T13:46:00-05:00,79.75,15.98,732.02,38.61,0.68,209.33,0
2020-03-13T13:47:00-05:00,80.41,15.94,732.65,39.35,1.13,216.95,0
2020-03-13T13:48:00-05:00,79.53,15.92,731.88,41.26,1.55,228.18,0
2020-03-13T13:49:00-05:00,80.2,15.91,731.75,43.91,2.7,233.85,0
2020-03-13T13:50:00-05:00,79.53,15.84,731.78,48.46,1.16,235.2,0
2020-03-13T13:51:00-05:00,80.63,15.83,732.28,55.23,0.67,215.92,0
2020-03-13T13:52:00-05:00,81.4,15.8,730.61,62.73,0.95,212.14,0
2020-03-13T13:53:00-05:00,81,15.77,730.81,67.28,0.72,251.76,0
2020-03-13T13:54:00-05:00,80.96,15.72,730.95,78.9,1.59,198.97,0
2020-03-13T13:55:00-05:00,81.32,15.73,732.22,91.84,0.87,207.97,0
2020-03-13T13:56:00-05:00,81.5,15.72,730.31,95.66,0.79,199.96,0
2020-03-13T13:57:00-05:00,80.75,15.71,731.72,93.75,2.65,220.85,0
2020-03-13T13:58:00-05:00,81.16,15.71,732.08,89.04,0.66,227.82,0
2020-03-13T13:59:00-05:00,80.47,15.68,731.98,86.98,2.61,215.89,0
2020-03-13T14:00:00-05:00,80.42,15.66,731.65,82.28,1.84,276.67,0
2020-03-13T14:01:00-05:00,80.56,15.66,730.84,77.57,1.4,193.95,0
2020-03-13T14:02:00-05:00,81.48,15.67,730.51,86.84,0.94,232.85,0
2020-03-13T14:03:00-05:00,81.53,15.66,732.02,99.63,0.8,219.25,0
2020-03-13T14:04:00-05:00,81.55,15.66,731.31,109.04,1.02,228.12,0
2020-03-13T14:05:00-05:00,80.69,15.65,732.32,110.21,0.66,205.41,0
2020-03-13T14:06:00-05:00,81.35,15.66,731.28,101.1,0.61,215.9,0
2020-03-13T14:07:00-05:00,80.29,15.67,732.75,93.75,1.19,226.23,0
2020-03-13T14:08:00-05:00,79.95,15.67,731.72,90.22,0.6,221.93,0
2020-03-13T14:09:00-05:00,80.94,15.7,732.02,87.72,0.79,247.1,0
2020-03-13T14:10:00-05:00,80.86,15.73,731.75,82.72,0.55,198.01,0
2020-03-13T14:11:00-05:00,80.66,15.72,731.48,77.28,1.29,216.24,0
2020-03-13T14:12:00-05:00,79.7,15.73,732.15,77.13,1.53,225.87,0
2020-03-13T14:13:00-05:00,79.7,15.71,732.79,79.49,0.65,177.06,0
2020-03-13T14:14:00-05:00,80.34,15.73,731.55,81.4,0.87,274.74,0
2020-03-13T14:15:00-05:00,80.31,15.74,731.38,85.22,0.77,235.81,0
2020-03-13T14:16:00-05:00,79.29,15.74,732.28,86.54,0.68,211.91,0
2020-03-13T14:17:00-05:00,78.91,15.73,732.85,84.63,0.65,201.93,0
2020-03-13T14:18:00-05:00,79.83,15.71,732.52,82.87,0.22,291.71,0
2020-03-13T14:19:00-05:00,79.53,15.73,732.75,80.51,0.49,232.85,0
2020-03-13T14:20:00-05:00,79.79,15.74,731.82,81.25,0.46,254.73,0
2020-03-13T14:21:00-05:00,80.7,15.79,733.15,77.43,0.77,242.85,0
2020-03-13T14:22:00-05:00,81.16,15.82,733.02,69.64,1.75,226.22,0
2020-03-13T14:23:00-05:00,79.81,15.8,733.09,60.37,0.25,276.69,0
2020-03-13T14:24:00-05:00,80.13,15.83,732.45,51.11,0.26,272.04,0
2020-03-13T14:25:00-05:00,80.03,15.84,731.78,44.49,0.85,301.64,0
2020-03-13T14:26:00-05:00,80.53,15.86,732.99,38.32,0.59,207.32,0
2020-03-13T14:27:00-05:00,81.15,15.86,732.35,33.61,0.74,269.72,0
2020-03-13T14:28:00-05:00,80.58,15.86,731.65,33.61,0.46,216.31,0
2020-03-13T14:29:00-05:00,80.31,15.85,731.38,30.53,0.61,242.8,0
2020-03-13T14:30:00-05:00,80.21,15.82,732.65,29.5,0.83,194.27,0
2020-03-13T14:31:00-05:00,80.09,15.8,733.12,25.68,0.34,252.76,0
2020-03-13T14:32:00-05:00,80.73,15.8,732.42,23.03,0.27,312.6,0
2020-03-13T14:33:00-05:00,80.35,15.77,732.05,21.56,0.65,202.9,0
2020-03-13T14:34:00-05:00,80.94,15.73,731.95,18.32,0.99,258.76,0
2020-03-13T14:35:00-05:00,80.76,15.7,730.58,19.79,0.62,246.72,0
2020-03-13T14:36:00-05:00,81.18,15.65,730.74,22.88,0.62,192.96,0
2020-03-13T14:37:00-05:00,81.34,15.63,731.25,22.15,0.55,200.26,0
2020-03-13T14:38:00-05:00,81.71,15.6,730.31,21.56,0.6,158.48,0
2020-03-13T14:39:00-05:00,81.82,15.57,729.97,21.71,0.95,222.94,0
2020-03-13T14:40:00-05:00,81.52,15.5,729.84,23.76,1,229.8,0
2020-03-13T14:41:00-05:00,81.84,15.47,730.48,25.82,0.71,252.15,0
2020-03-13T14:42:00-05:00,82.11,15.45,730.61,25.09,0.53,252.74,0
2020-03-13T14:43:00-05:00,82.55,15.45,729.94,28.62,0.59,213.26,0
2020-03-13T14:44:00-05:00,82.39,15.42,730.31,28.17,0.54,205.03,0
2020-03-13T14:45:00-05:00,82.72,15.41,730.48,24.06,0.59,225.22,0
2020-03-13T14:46:00-05:00,82.51,15.4,730.18,22.29,0.64,224.86,0
2020-03-13T14:47:00-05:00,82.37,15.38,730.74,21.56,0.52,245.14,0
2020-03-13T14:48:00-05:00,82.12,15.35,728.43,21.12,0.29,256.84,0
2020-03-13T14:49:00-05:00,82.1,15.32,729.17,18.77,0.62,209.3,0
2020-03-13T14:50:00-05:00,82.34,15.3,733.72,17.88,0.2,280.63,0
2020-03-13T14:51:00-05:00,83.13,15.29,735.1,15.53,0.48,198.02,0
2020-03-13T14:52:00-05:00,83.11,15.27,734.96,12.74,0.06,185.97,0
2020-03-13T14:53:00-05:00,83.25,15.23,734.96,10.24,0.23,182.07,0
2020-03-13T14:54:00-05:00,83.82,15.21,734.79,10.68,0.47,152.17,0
2020-03-13T14:55:00-05:00,84.08,15.19,734.36,8.33,0.35,231.89,0
2020-03-13T14:56:00-05:00,83.61,15.19,734.13,8.77,1.1,95.63,0
2020-03-13T14:57:00-05:00,83.53,15.15,733.86,9.8,0.45,179.14,0
2020-03-13T14:58:00-05:00,83.87,15.13,733.96,11.71,0.5,147.24,0
2020-03-13T14:59:00-05:00,84.34,15.11,733.46,12.88,0.6,189.99,0
2020-03-13T15:00:00-05:00,84.34,15.11,734.13,11.86,0.12,334.9,0
2020-03-13T15:01:00-05:00,84.24,15.09,733.15,14.35,0.49,193.95,0
2020-03-13T15:02:00-05:00,84.23,15.07,733.25,14.65,0.56,212.21,0
2020-03-13T15:03:00-05:00,84.5,15.06,733.32,17.74,0.54,217.91,0
2020-03-13T15:04:00-05:00,84.88,15.06,732.89,18.47,0.65,180.45,0
2020-03-13T15:05:00-05:00,85.19,15.03,733.56,21.41,0.61,198,0
2020-03-13T15:06:00-05:00,85.79,15.01,733.32,25.97,1.05,220.22,0
2020-03-13T15:07:00-05:00,85.68,14.98,733.42,30.23,0.53,254.71,0
2020-03-13T15:08:00-05:00,84.83,14.94,732.28,37,0.61,233.26,0
2020-03-13T15:09:00-05:00,84.4,14.92,733.32,45.08,0.61,182.05,0
2020-03-13T15:10:00-05:00,83.97,14.93,732.75,58.17,0.77,235.84,0
2020-03-13T15:11:00-05:00,83.07,14.95,733.66,69.78,0.91,214.26,0
2020-03-13T15:12:00-05:00,82.83,14.97,733.69,81.1,0.6,266.83,0
2020-03-13T15:13:00-05:00,82.28,14.99,733.32,93.75,0.65,186.97,0
2020-03-13T15:14:00-05:00,82.74,15.05,733.99,102.57,0.57,222.94,0
2020-03-13T15:15:00-05:00,82.97,15.09,734.56,111.24,0.56,192.95,0
2020-03-13T15:16:00-05:00,82.59,15.11,734.29,125.06,1.49,179.14,0
2020-03-13T15:17:00-05:00,82.05,15.14,735.2,132.12,0.96,217.91,0
2020-03-13T15:18:00-05:00,81.42,15.15,734.26,139.47,0.67,193.01,0
2020-03-13T15:19:00-05:00,81.98,15.19,735.56,131.24,0.81,191.42,0
2020-03-13T15:20:00-05:00,82.45,15.24,735.83,124.03,0.73,243.81,0
2020-03-13T15:21:00-05:00,82.27,15.26,735.53,108.74,0.69,222.27,0
2020-03-13T15:22:00-05:00,81.87,15.28,735.9,90.51,0.83,226.86,0
2020-03-13T15:23:00-05:00,81.52,15.29,735.8,83.31,0.69,203.27,0
2020-03-13T15:24:00-05:00,81.03,15.29,735.46,81.4,0.99,212.87,0
2020-03-13T15:25:00-05:00,80.52,15.28,735.77,88.31,0.79,237.14,0
2020-03-13T15:26:00-05:00,80.78,15.26,736.13,102.57,0.67,206.01,0
2020-03-13T15:27:00-05:00,80.66,15.26,736.07,116.68,0.6,194.27,0
2020-03-13T15:28:00-05:00,81.29,15.25,735.43,130.94,0.75,245.74,0
2020-03-13T15:29:00-05:00,80.7,15.26,735.77,120.51,0.48,194.93,0
2020-03-13T15:30:00-05:00,81.22,15.28,736.9,94.04,1.54,291.7,0
2020-03-13T15:31:00-05:00,80.05,15.29,735.97,80.22,1.03,254.73,0
2020-03-13T15:32:00-05:00,79.82,15.26,736.43,72.72,1.12,227.86,0
2020-03-13T15:33:00-05:00,80.05,15.26,736.54,69.49,1.21,267.74,0
2020-03-13T15:34:00-05:00,80.27,15.25,736.7,69.78,0.64,268.75,0
2020-03-13T15:35:00-05:00,80.34,15.26,736.1,74.78,0.62,208.97,0
2020-03-13T15:36:00-05:00,81.14,15.25,736.33,90.51,1.04,222.94,0
2020-03-13T15:37:00-05:00,80.8,15.21,735.6,113.01,1.06,228.82,0
2020-03-13T15:38:00-05:00,80.3,15.17,736.54,120.65,1.3,236.11,0
2020-03-13T15:39:00-05:00,80.9,15.14,736.27,113.15,0.81,201.94,0
2020-03-13T15:40:00-05:00,81.36,15.14,736.1,99.63,2.33,240.17,0
2020-03-13T15:41:00-05:00,80.9,15.13,736.2,86.98,0.82,227.84,0
2020-03-13T15:42:00-05:00,80.6,15.12,736.1,74.19,0.24,205.36,0
2020-03-13T15:43:00-05:00,80.46,15.12,735.33,67.28,0.33,216.9,0
2020-03-13T15:44:00-05:00,81.04,15.11,735.46,68.9,0.82,222.27,0
2020-03-13T15:45:00-05:00,81.7,15.09,736.4,71.25,1,145.3,0
2020-03-13T15:46:00-05:00,81.86,15.08,736.2,74.78,0.59,187.3,0
2020-03-13T15:47:00-05:00,81.44,15.08,735.77,74.34,0.49,197,0
2020-03-13T15:48:00-05:00,81.46,15.08,736.07,73.9,0.52,201.98,0
2020-03-13T15:49:00-05:00,81.64,15.09,735.8,71.25,0.22,163.2,0
2020-03-13T15:50:00-05:00,82.01,15.11,736.37,67.28,0.56,191.99,0
2020-03-13T15:51:00-05:00,81.2,15.11,735.67,69.34,0.09,285.66,0
2020-03-13T15:52:00-05:00,81.52,15.11,736.1,69.64,0.39,263.72,0
2020-03-13T15:53:00-05:00,81.76,15.13,735.23,67.43,0.39,242.83,0
2020-03-13T15:54:00-05:00,81.91,15.15,735.63,59.05,0.26,312.57,0
2020-03-13T15:55:00-05:00,81.84,15.19,736.07,51.26,0.95,20.42,0
2020-03-13T15:56:00-05:00,82.17,15.2,736.13,47.88,0.18,176.05,0
2020-03-13T15:57:00-05:00,81.69,15.19,735.33,43.91,0.35,221.18,0
2020-03-13T15:58:00-05:00,81.93,15.21,735.1,44.94,0.56,209.94,0
2020-03-13T15:59:00-05:00,81.62,15.2,735.7,44.79,0.14,231.22,0
2020-03-13T16:00:00-05:00,80.99,15.2,735.87,46.26,0.6,185.97,0
2020-03-13T16:01:00-05:00,81.93,15.2,735.53,43.17,0.61,219.25,0
2020-03-13T16:02:00-05:00,82.92,15.19,735.3,43.76,0.61,230.9,0
2020-03-13T16:03:00-05:00,83.42,15.17,735.33,37.58,0.57,203.27,0
2020-03-13T16:04:00-05:00,82.77,15.18,735.6,35.38,0.57,267.73,0
2020-03-13T16:05:00-05:00,82.15,15.15,735.6,37.14,0.58,206.34,0
2020-03-13T16:06:00-05:00,81.91,15.14,735.9,36.26,0.58,237.77,0
2020-03-13T16:07:00-05:00,82.09,15.14,735.4,34.5,0.39,189.04,0
2020-03-13T16:08:00-05:00,82.81,15.15,735.8,34.2,0.16,223.94,0
2020-03-13T16:09:00-05:00,83.05,15.17,735.3,34.06,0.19,251.8,0
2020-03-13T16:10:00-05:00,82.95,15.18,734.19,34.2,0.11,229.82,0
2020-03-13T16:11:00-05:00,82.03,15.17,735.13,31.85,0.53,263.73,0
2020-03-13T16:12:00-05:00,80.61,15.13,733.89,27.44,0.23,38.81,0
2020-03-13T16:13:00-05:00,80.93,15.13,734.59,21.85,0.17,126.22,0
2020-03-13T16:14:00-05:00,81.3,15.13,734.26,19.35,0.23,243.79,0
2020-03-13T16:15:00-05:00,81.85,15.17,733.92,17.88,0.37,256.8,0
2020-03-13T16:16:00-05:00,81.86,15.15,734.29,18.62,0.22,253.1,0
2020-03-13T16:17:00-05:00,81.78,15.13,734.13,22.88,0.24,274.74,0
2020-03-13T16:18:00-05:00,81.77,15.13,734.26,23.91,0.26,222.27,0
2020-03-13T16:19:00-05:00,82.28,15.12,734.56,22.44,0.23,187.32,0
2020-03-13T16:20:00-05:00,82.14,15.11,734.49,17,0.29,225.25,0
2020-03-13T16:21:00-05:00,82.3,15.11,733.96,11.71,0.53,53.89,0
2020-03-13T16:22:00-05:00,82.91,15.08,733.76,9.5,0.94,219.25,0
2020-03-13T16:23:00-05:00,83.15,15.03,733.25,11.12,0.95,227.84,0
2020-03-13T16:24:00-05:00,83.39,15.01,733.46,15.68,1.79,229.18,0
2020-03-13T16:25:00-05:00,83.08,14.97,732.75,17.74,0.57,220.91,0
2020-03-13T16:26:00-05:00,83.5,14.95,732.99,19.94,0.55,176.04,0
2020-03-13T16:27:00-05:00,83.95,14.93,732.72,21.26,0.62,199.97,0
2020-03-13T16:28:00-05:00,84.22,14.91,732.89,18.77,0.51,200.97,0
2020-03-13T16:29:00-05:00,84.53,14.92,732.62,22.29,0.56,186.01,0
2020-03-13T16:30:00-05:00,84.97,14.91,733.66,22.15,0.56,205.03,0
2020-03-13T16:31:00-05:00,85.29,14.89,733.19,25.23,0.72,208.02,0
2020-03-13T16:32:00-05:00,84.85,14.86,733.39,23.18,0.3,212.84,0
2020-03-13T16:33:00-05:00,85.06,14.84,731.58,22.73,0.5,235.79,0
2020-03-13T16:34:00-05:00,85.31,14.83,732.89,21.41,0.27,261.73,0
2020-03-13T16:35:00-05:00,84.94,14.83,732.25,26.26,0.51,95.51,0
2020-03-13T16:36:00-05:00,85.65,14.84,732.08,30.53,0.61,184.04,0
2020-03-13T16:37:00-05:00,85.68,14.83,732.69,36.41,0.82,118.42,0
2020-03-13T16:38:00-05:00,86,14.79,732.45,35.08,2.28,141.24,0
2020-03-13T16:39:00-05:00,87.16,14.74,731.65,36.55,2.09,150.56,0
2020-03-13T16:40:00-05:00,87.77,14.69,732.08,29.64,0.76,260.76,0
2020-03-13T16:41:00-05:00,87.95,14.65,731.45,19.65,0.16,203.27,0
2020-03-13T16:42:00-05:00,88.23,14.64,731.58,16.85,0.69,33.3,0
2020-03-13T16:43:00-05:00,88.66,14.62,730.78,15.82,0.58,60.93,0
2020-03-13T16:44:00-05:00,88.59,14.59,731.18,16.71,0.08,357.45,0
2020-03-13T16:45:00-05:00,88.94,14.61,731.61,19.94,0.28,127.57,0
2020-03-13T16:46:00-05:00,88.64,14.59,732.18,21.12,0.67,96.74,0
2020-03-13T16:47:00-05:00,89.1,14.6,731.88,22.44,0.8,133.77,0
2020-03-13T16:48:00-05:00,88.87,14.55,731.51,25.82,0.79,178.03,0
2020-03-13T16:49:00-05:00,88.96,14.51,731.48,27.73,0.85,122.23,0
2020-03-13T16:50:00-05:00,89.38,14.5,730.91,24.94,0.29,260.72,0
2020-03-13T16:51:00-05:00,89,14.47,729.77,27.59,0.39,320.56,0
2020-03-13T16:52:00-05:00,89.04,14.46,730.04,26.85,1.18,53.63,0
2020-03-13T16:53:00-05:00,89.26,14.43,729.54,18.62,1.1,302.88,0
2020-03-13T16:54:00-05:00,88.9,14.43,730.07,11.41,2.23,154.6,0
2020-03-13T16:55:00-05:00,89.03,14.42,730.51,7.59,0.57,135.35,0
2020-03-13T16:56:00-05:00,89.36,14.41,729.61,7,0.48,72.93,0
2020-03-13T16:57:00-05:00,89.05,14.39,729.44,2.3,0.23,140.86,0
2020-03-13T16:58:00-05:00,89.02,14.37,730.44,-0.35,0.49,199.33,0
2020-03-13T16:59:00-05:00,89.03,14.38,730.61,0.83,0.54,239.85,0
2020-03-13T17:00:00-05:00,89.28,14.37,730.64,-2.26,0.49,72.53,0
2020-03-13T17:01:00-05:00,89.71,14.37,729.67,-0.49,0.6,197.01,0
2020-03-13T17:02:00-05:00,88.8,14.33,728.6,-0.2,1.34,52.01,0
2020-03-13T17:03:00-05:00,89.12,14.31,729.41,-2.85,0.61,97.99,0
2020-03-13T17:04:00-05:00,89.11,14.3,730.07,-2.7,0.96,126.27,0
2020-03-13T17:05:00-05:00,88.94,14.3,729.41,-2.7,0.56,201.93,0
2020-03-13T17:06:00-05:00,89.45,14.3,730.07,-2.99,0.23,93.19,0
2020-03-13T17:07:00-05:00,89.68,14.31,729.04,-0.94,0.21,172.13,0
2020-03-13T17:08:00-05:00,89.34,14.28,735.16,-0.94,0.65,32.98,0
2020-03-13T17:09:00-05:00,89.36,14.28,735.43,-1.82,0.56,277.7,0
2020-03-13T17:10:00-05:00,89.34,14.27,734.46,-2.41,1.09,38.61,0
2020-03-13T17:11:00-05:00,89.58,14.27,734.96,-3.73,0.52,264.81,0.1
2020-03-13T17:12:00-05:00,89.77,14.26,734.16,-3.29,0.13,97.33,0.1
2020-03-13T17:13:00-05:00,89.98,14.26,733.89,-3.44,0.71,58.53,0.2
2020-03-13T17:14:00-05:00,90.25,14.24,734.02,-0.64,0.78,74.35,0.2
2020-03-13T17:15:00-05:00,90.59,14.23,733.69,0.24,0.6,49.57,0.1
2020-03-13T17:16:00-05:00,90.47,14.18,733.86,0.09,0.89,158.17,0.1
2020-03-13T17:17:00-05:00,90.59,14.12,734.19,0.39,0.91,210.26,0.1
2020-03-13T17:18:00-05:00,90.63,14.04,733.52,-0.64,0.68,112.19,0.1
2020-03-13T17:19:00-05:00,90.55,13.97,732.95,0.83,0.64,136.5,0.1
2020-03-13T17:20:00-05:00,90.75,13.9,733.36,1.42,0.53,57.55,0.1
2020-03-13T17:21:00-05:00,91.48,13.9,732.59,1.42,0.69,142.58,0.2
2020-03-13T17:22:00-05:00,91.56,13.87,733.25,-0.94,0.61,108.18,0
2020-03-13T17:23:00-05:00,91.67,13.84,732.79,0.98,0.95,166.13,0
2020-03-13T17:24:00-05:00,91.94,13.78,732.35,1.56,0.67,180.09,0
2020-03-13T17:25:00-05:00,92.18,13.73,732.52,1.27,0.95,160.14,0.1
2020-03-13T17:26:00-05:00,92.49,13.66,731.85,0.83,0.56,130.31,0.1
2020-03-13T17:27:00-05:00,92.7,13.61,732.99,-1.08,0.91,222.21,0.2
2020-03-13T17:28:00-05:00,93.14,13.58,731.78,-0.64,0.09,344.5,0.2
2020-03-13T17:29:00-05:00,93.66,13.58,732.79,0.24,1.61,48.48,0.2
2020-03-13T17:30:00-05:00,93.71,13.56,732.42,-0.79,0.58,81.02,0.3
2020-03-13T17:31:00-05:00,94.1,13.56,731.78,-0.35,0.61,182.04,0.5
2020-03-13T17:32:00-05:00,93.89,13.55,732.72,-0.79,0.7,125.43,0.4
2020-03-13T17:33:00-05:00,93.85,13.51,732.55,0.39,0.73,74.07,0.3
2020-03-13T17:34:00-05:00,93.89,13.5,732.28,0.24,1.03,187.32,0.4
2020-03-13T17:35:00-05:00,93.93,13.43,731.38,-0.49,0.55,189.39,0.4
2020-03-13T17:36:00-05:00,94.18,13.41,731.51,0.83,0.89,185.34,0.2
2020-03-13T17:37:00-05:00,94.37,13.36,731.72,-1.08,0.62,193.96,0.1
2020-03-13T17:38:00-05:00,94.34,13.32,730.68,0.09,0.6,204.29,0.1
2020-03-13T17:39:00-05:00,94.48,13.28,731.35,-0.35,0.65,295.63,0
2020-03-13T17:40:00-05:00,94.77,13.25,732.28,-0.64,0.63,205.33,0
2020-03-13T17:41:00-05:00,94.94,13.24,731.41,-0.64,0.54,329.55,0.1
2020-03-13T17:42:00-05:00,95.04,13.23,730.74,-0.05,1.08,67.56,0
2020-03-13T17:43:00-05:00,95.54,13.26,731.68,1.42,0.61,347.48,0
2020-03-13T17:44:00-05:00,95.43,13.26,732.35,0.53,0.61,151.16,0
2020-03-13T17:45:00-05:00,95.48,13.27,731.08,-0.79,0.85,53.73,0
2020-03-13T17:46:00-05:00,95.56,13.27,731.65,0.68,1.04,76.15,0
2020-03-13T17:47:00-05:00,95.79,13.28,731.15,0.24,0.81,62.8,0
2020-03-13T17:48:00-05:00,95.63,13.29,732.32,0.09,0.46,264.82,0
2020-03-13T17:49:00-05:00,95.71,13.28,732.59,0.83,0.61,237.78,0
2020-03-13T17:50:00-05:00,95.76,13.29,731.28,1.12,0.25,32.14,0
2020-03-13T17:51:00-05:00,95.5,13.28,732.12,1.27,1.66,82.94,0
2020-03-13T17:52:00-05:00,95.67,13.27,732.65,0.39,0.27,337.53,0
2020-03-13T17:53:00-05:00,95.66,13.28,731.65,-0.49,0.62,214.3,0
2020-03-13T17:54:00-05:00,95.63,13.28,732.05,-1.08,0.58,48.32,0
2020-03-13T17:55:00-05:00,95.36,13.26,731.92,-0.49,1.09,44.92,0
2020-03-13T17:56:00-05:00,95.52,13.26,731.28,-0.94,0.71,58.95,0
2020-03-13T17:57:00-05:00,95.72,13.28,732.28,0.83,0.76,20.99,0
2020-03-13T17:58:00-05:00,95.54,13.3,731.55,1.42,0.57,312.6,0
2020-03-13T17:59:00-05:00,95.5,13.3,731.95,0.98,0.6,75.15,0
2020-03-13T18:00:00-05:00,95.49,13.31,731.11,-0.49,0.66,49.6,0
2020-03-13T18:01:00-05:00,95.44,13.31,731.05,1.71,0.94,31.66,0
2020-03-13T18:02:00-05:00,95.18,13.31,731.35,0.53,1.7,51.52,0
2020-03-13T18:03:00-05:00,95.07,13.29,730.51,-1.23,0.67,15.35,0
2020-03-13T18:04:00-05:00,94.91,13.26,731.55,0.39,1.09,114.48,0
2020-03-13T18:05:00-05:00,94.74,13.25,731.78,-0.2,0.13,223.92,0
2020-03-13T18:06:00-05:00,94.6,13.25,730.58,-0.79,1.1,32.73,0
2020-03-13T18:07:00-05:00,94.61,13.27,731.48,-0.64,0.78,346.53,0
2020-03-13T18:08:00-05:00,94.6,13.28,731.35,1.27,0.81,49.91,0
2020-03-13T18:09:00-05:00,94.42,13.25,730.31,0.39,1.33,27.96,0
2020-03-13T18:10:00-05:00,94.15,13.21,731.31,-0.35,0.8,7.43,0
2020-03-13T18:11:00-05:00,94.07,13.2,730.61,0.68,0.63,135.17,0
2020-03-13T18:12:00-05:00,93.7,13.22,734.83,0.53,1.07,40.49,0
2020-03-13T18:13:00-05:00,93.65,13.19,734.46,0.53,0.57,34.77,0
2020-03-13T18:14:00-05:00,93.83,13.2,734.26,-0.94,0.34,158.53,0
2020-03-13T18:15:00-05:00,93.73,13.2,734.66,-0.79,0.56,160.14,0
2020-03-13T18:16:00-05:00,93.74,13.17,734.43,-0.94,0.62,160.47,0
2020-03-13T18:17:00-05:00,93.89,13.16,733.69,-0.35,0.46,121.41,0
2020-03-13T18:18:00-05:00,94.03,13.16,734.13,-1.23,0.59,46.66,0
2020-03-13T18:19:00-05:00,93.93,13.14,734.02,0.39,0.64,192.96,0
2020-03-13T18:20:00-05:00,93.89,13.14,733.32,0.98,0.53,171.42,0
2020-03-13T18:21:00-05:00,94.05,13.13,733.59,-0.49,0.39,115.21,0
2020-03-13T18:22:00-05:00,93.9,13.09,733.56,-0.94,0.51,137.3,0
2020-03-13T18:23:00-05:00,93.67,13.08,734.13,0.68,0.42,199.96,0
2020-03-13T18:24:00-05:00,93.72,13.06,733.99,1.27,1.07,176.09,0
2020-03-13T18:25:00-05:00,93.63,13.04,733.72,1.27,0.61,143.19,0
2020-03-13T18:26:00-05:00,93.63,13.02,734.36,1.12,0.21,176.09,0
2020-03-13T18:27:00-05:00,93.8,13,733.42,1.42,0.75,186.01,0
2020-03-13T18:28:00-05:00,93.79,13,733.22,0.09,0.48,176.07,0
2020-03-13T18:29:00-05:00,94.11,12.99,733.39,-1.08,0.73,163.17,0
2020-03-13T18:30:00-05:00,94.08,12.97,734.9,1.27,0.6,165.15,0
2020-03-13T18:31:00-05:00,94.22,12.99,733.52,-0.94,0.59,173.44,0
2020-03-13T18:32:00-05:00,94.26,12.96,733.32,-0.79,0.6,142.48,0
2020-03-13T18:33:00-05:00,94.6,12.96,733.79,-0.49,0.29,32.31,0
2020-03-13T18:34:00-05:00,94.58,12.95,733.02,-0.2,0.44,170.06,0
2020-03-13T18:35:00-05:00,94.4,12.93,734.39,0.68,0.6,165.52,0
2020-03-13T18:36:00-05:00,94.45,12.91,734.33,-0.64,1.17,159.13,0
2020-03-13T18:37:00-05:00,94.7,12.89,734.86,-0.79,0.58,181.48,0.1
2020-03-13T18:38:00-05:00,94.88,12.87,733.72,-0.35,0.22,110.88,0
2020-03-13T18:39:00-05:00,94.88,12.91,734.23,-1.08,0.34,222.19,0
2020-03-13T18:40:00-05:00,94.99,12.89,733.22,-0.64,0.75,171.16,0
2020-03-13T18:41:00-05:00,94.82,12.87,733.99,-1.23,0.9,148.24,0
2020-03-13T18:42:00-05:00,94.74,12.84,732.99,1.12,0.38,115.76,0
2020-03-13T18:43:00-05:00,94.84,12.86,734.06,0.68,0.79,183.36,0
2020-03-13T18:44:00-05:00,94.84,12.83,733.46,0.53,0.26,266.78,0
2020-03-13T18:45:00-05:00,94.7,12.85,733.72,1.12,0.84,181.08,0
2020-03-13T18:46:00-05:00,94.56,12.83,733.05,0.83,0.76,183.04,0
2020-03-13T18:47:00-05:00,94.55,12.81,733.29,0.09,0.57,120.27,0
2020-03-13T18:48:00-05:00,94.86,12.83,734.26,-0.94,0.67,155.21,0
2020-03-13T18:49:00-05:00,94.65,12.82,733.05,-1.23,0.6,211.89,0
2020-03-13T18:50:00-05:00,94.63,12.82,732.92,0.24,0.58,156.55,0
2020-03-13T18:51:00-05:00,94.32,12.83,732.59,0.39,0.71,154.24,0
2020-03-13T18:52:00-05:00,94.35,12.83,733.29,-0.2,0.5,156.55,0
2020-03-13T18:53:00-05:00,94.37,12.83,733.62,-1.52,0.56,182.07,0
2020-03-13T18:54:00-05:00,94.25,12.85,732.72,-0.64,0.56,191.35,0
2020-03-13T18:55:00-05:00,94.27,12.86,733.56,0.98,0.37,186.01,0
2020-03-13T18:56:00-05:00,94.2,12.85,732.65,-1.52,0.82,151.52,0
2020-03-13T18:57:00-05:00,94.44,12.85,732.45,-1.67,0.97,156.19,0
2020-03-13T18:58:00-05:00,94.43,12.84,733.52,1.27,0.59,168.37,0
2020-03-13T18:59:00-05:00,94.76,12.83,732.45,0.83,0.41,39.33,0.1
2020-03-13T19:00:00-05:00,94.7,12.85,733.72,1.12,0.66,101.73,0
2020-03-13T19:01:00-05:00,94.5,12.81,732.45,0.83,0.51,97.29,0
2020-03-13T19:02:00-05:00,94.72,12.81,732.85,0.53,0.58,63.29,0
2020-03-13T19:03:00-05:00,94.56,12.81,732.62,0.83,0.73,80.83,0
2020-03-13T19:04:00-05:00,94.46,12.79,732.62,-0.79,0.27,84,0
2020-03-13T19:05:00-05:00,94.54,12.81,732.75,-1.08,0.43,100.52,0
2020-03-13T19:06:00-05:00,94.6,12.81,732.95,-1.52,0.07,82.51,0
2020-03-13T19:07:00-05:00,94.63,12.82,733.15,1.27,0.21,52.83,0.1
2020-03-13T19:08:00-05:00,94.77,12.83,732.48,0.53,0.2,89.58,0
2020-03-13T19:09:00-05:00,94.8,12.87,733.76,0.83,0.06,164.52,0
2020-03-13T19:10:00-05:00,94.93,12.87,732.55,-1.52,0.06,169.1,0
2020-03-13T19:11:00-05:00,94.72,12.89,733.62,-1.38,0.25,200.33,0
2020-03-13T19:12:00-05:00,94.68,12.88,734.36,-0.2,0.55,221.93,0
2020-03-13T19:13:00-05:00,94.44,12.84,732.62,-1.38,0.25,185.34,0
2020-03-13T19:14:00-05:00,94.5,12.8,732.65,0.24,0.39,142.2,0
2020-03-13T19:15:00-05:00,94.66,12.79,733.46,-0.49,0.62,134.27,0.1
2020-03-13T19:16:00-05:00,94.64,12.77,732.75,-1.82,0.56,149.49,0
2020-03-13T19:17:00-05:00,94.96,12.75,733.66,-0.49,0.28,134.7,0
2020-03-13T19:18:00-05:00,95.21,12.77,733.76,-0.49,0.57,74.75,0
2020-03-13T19:19:00-05:00,95.2,12.77,733.82,-0.64,0.59,106.52,0
2020-03-13T19:20:00-05:00,95.07,12.74,732.55,0.09,0.67,113.68,0
2020-03-13T19:21:00-05:00,95.06,12.74,732.25,0.39,0.69,98.49,0
2020-03-13T19:22:00-05:00,94.94,12.73,733.59,-0.2,0.53,102.3,0
2020-03-13T19:23:00-05:00,95.01,12.73,733.15,0.24,0.33,81.07,0
2020-03-13T19:24:00-05:00,95.21,12.71,733.86,0.53,0.68,99.14,0
2020-03-13T19:25:00-05:00,95.08,12.71,733.59,-1.08,0.53,91.06,0
2020-03-13T19:26:00-05:00,95.22,12.74,732.45,-1.08,0.27,131.26,0
2020-03-13T19:27:00-05:00,95.32,12.73,733.72,-1.38,0.13,266.78,0
2020-03-13T19:28:00-05:00,95.18,12.73,733.76,0.83,0.57,165.46,0
2020-03-13T19:29:00-05:00,95.16,12.71,732.52,-1.08,0.54,169.09,0
2020-03-13T19:30:00-05:00,95.29,12.71,732.95,-0.35,0.59,162.52,0
2020-03-13T19:31:00-05:00,95.4,12.71,732.35,0.53,0.35,161.11,0
2020-03-13T19:32:00-05:00,95.2,12.71,733.99,-0.49,0.69,161.45,0
2020-03-13T19:33:00-05:00,95.28,12.69,733.59,0.53,0.61,173.17,0
2020-03-13T19:34:00-05:00,95.14,12.66,732.65,0.83,0.7,147.63,0
2020-03-13T19:35:00-05:00,95.27,12.64,733.56,-0.64,0.25,183.05,0
2020-03-13T19:36:00-05:00,95.28,12.65,733.59,-0.49,0.66,167.37,0
2020-03-13T19:37:00-05:00,95.34,12.65,733.59,0.83,0.21,132.59,0
2020-03-13T19:38:00-05:00,95.38,12.65,732.22,0.09,0.55,0.73,0
2020-03-13T19:39:00-05:00,95.56,12.65,732.22,-1.67,0.49,20.61,0.1
2020-03-13T19:40:00-05:00,95.76,12.69,732.45,-0.05,0.58,161.15,0
2020-03-13T19:41:00-05:00,95.73,12.71,733.79,0.53,0.2,127.21,0
2020-03-13T19:42:00-05:00,95.63,12.7,733.89,1.71,0.51,71.86,0
2020-03-13T19:43:00-05:00,95.72,12.71,733.25,-0.79,0.43,141.25,0
2020-03-13T19:44:00-05:00,95.93,12.73,732.89,-0.64,0.62,154.25,0
2020-03-13T19:45:00-05:00,95.76,12.71,732.62,0.83,0.56,154.24,0
2020-03-13T19:46:00-05:00,95.5,12.68,733.82,0.39,0.56,164.2,0
2020-03-13T19:47:00-05:00,95.36,12.65,733.56,-1.52,0.45,154.58,0
2020-03-13T19:48:00-05:00,95.53,12.66,732.48,-1.67,0.7,89,0
2020-03-13T19:49:00-05:00,95.57,12.67,733.12,0.68,0.46,54.72,0.1
2020-03-13T19:50:00-05:00,95.61,12.67,733.59,0.39,0.19,157.49,0
2020-03-13T19:51:00-05:00,95.65,12.69,733.12,-0.94,0.26,39.91,0
2020-03-13T19:52:00-05:00,95.84,12.69,732.72,0.53,0.56,150.18,0
2020-03-13T19:53:00-05:00,95.49,12.67,733.09,-0.49,0.25,132.57,0.1
2020-03-13T19:54:00-05:00,95.52,12.67,733.39,-1.52,0.22,161.14,0
2020-03-13T19:55:00-05:00,95.63,12.69,732.65,-1.08,0.19,143.48,0
2020-03-13T19:56:00-05:00,95.77,12.7,732.79,-1.52,0.21,44.43,0
2020-03-13T19:57:00-05:00,95.8,12.72,732.62,0.39,0.13,127.06,0
2020-03-13T19:58:00-05:00,95.99,12.71,733.22,0.98,0.25,174.13,0
2020-03-13T19:59:00-05:00,95.83,12.71,733.19,0.53,0.27,164.18,0
2020-03-13T20:00:00-05:00,95.34,12.68,732.72,0.53,0.23,98.36,0.1
2020-03-13T20:01:00-05:00,95.28,12.63,733.42,-1.52,0.51,149.23,0
2020-03-13T20:02:00-05:00,95.2,12.61,732.35,-1.23,0.46,154.24,0
2020-03-13T20:03:00-05:00,95.14,12.57,732.02,-2.26,0.27,148.24,0
2020-03-13T20:04:00-05:00,95.22,12.53,731.31,-0.05,0.16,152.16,0.1
2020-03-13T20:05:00-05:00,95.46,12.55,732.72,-1.38,0.14,103.84,0.1
2020-03-13T20:06:00-05:00,95.4,12.55,732.55,-1.38,0.7,73.54,0.1
2020-03-13T20:07:00-05:00,95.26,12.54,733.09,-1.52,0.58,100.45,0
2020-03-13T20:08:00-05:00,95.24,12.49,731.98,-1.67,0.63,52.06,0.1
2020-03-13T20:09:00-05:00,95.73,12.51,733.25,-1.08,0.56,24.65,0.1
2020-03-13T20:10:00-05:00,95.72,12.54,733.15,-0.64,0.2,7.7,0
2020-03-13T20:11:00-05:00,95.54,12.53,732.89,-1.38,0.49,63.76,0.1
2020-03-13T20:12:00-05:00,95.65,12.5,732.12,1.42,0.57,156.58,0.1
2020-03-13T20:13:00-05:00,95.54,12.51,731.78,0.83,0.58,129.41,0.2
2020-03-13T20:14:00-05:00,95.4,12.48,732.72,-1.52,0.81,157.47,0.2
2020-03-13T20:15:00-05:00,95.43,12.45,732.42,0.53,0.63,156.22,0.1
2020-03-13T20:16:00-05:00,95.3,12.41,731.78,0.98,0.61,183.04,0.1
2020-03-13T20:17:00-05:00,95.54,12.4,731.98,-0.94,0.42,79.34,0.1
2020-03-13T20:18:00-05:00,95.82,12.41,731.82,1.12,0.6,88.97,0
2020-03-13T20:19:00-05:00,95.79,12.4,731.58,1.12,0.06,306.58,0.1
2020-03-13T20:20:00-05:00,95.83,12.4,731.82,-1.52,0.26,120.87,0.1
2020-03-13T20:21:00-05:00,95.56,12.37,732.65,0.53,0.58,136.21,0.1
2020-03-13T20:22:00-05:00,95.67,12.33,732.15,-1.67,0.22,163.2,0
2020-03-13T20:23:00-05:00,95.65,12.33,732.12,-1.08,0.09,34.88,0.1
2020-03-13T20:24:00-05:00,95.87,12.3,732.62,-1.23,0.23,324.87,0
2020-03-13T20:25:00-05:00,95.94,12.32,731.61,0.83,0.19,180.47,0
2020-03-13T20:26:00-05:00,95.79,12.31,732.08,-1.38,0.22,184.01,0.1
2020-03-13T20:27:00-05:00,95.57,12.29,732.28,-1.38,0.61,185.34,0
2020-03-13T20:28:00-05:00,95.54,12.25,732.62,-0.64,0.54,200.94,0
2020-03-13T20:29:00-05:00,95.63,12.22,733.05,-1.52,0.62,201.31,0
2020-03-13T20:30:00-05:00,95.65,12.18,731.75,-0.05,0.59,176.35,0.1
2020-03-13T20:31:00-05:00,95.78,12.17,731.95,-1.82,0.37,196.3,0
2020-03-13T20:32:00-05:00,95.87,12.16,736,-1.67,0.22,166.12,0.1
2020-03-13T20:33:00-05:00,95.97,12.17,735.06,-2.26,0.57,166.45,0
2020-03-13T20:34:00-05:00,96.1,12.15,735.5,1.42,0.19,117.47,0
2020-03-13T20:35:00-05:00,96.07,12.15,734.9,-0.94,0.08,97.88,0.1
2020-03-13T20:36:00-05:00,96.23,12.17,736.37,-1.23,0.1,43.03,0
2020-03-13T20:37:00-05:00,96.44,12.19,735.23,-0.79,0.57,87.22,0
2020-03-13T20:38:00-05:00,96.38,12.21,735.6,-0.79,0.17,133.22,0.1
2020-03-13T20:39:00-05:00,96.38,12.21,735.33,-0.94,0.22,111.36,0
2020-03-13T20:40:00-05:00,96.54,12.22,736.13,0.68,0.07,354.47,0.1
2020-03-13T20:41:00-05:00,96.49,12.21,735.16,-0.79,0.22,186.97,0
2020-03-13T20:42:00-05:00,96.36,12.2,735.5,-1.52,0.55,178.09,0.1
2020-03-13T20:43:00-05:00,96.23,12.17,735,-0.49,0.58,162.24,0
2020-03-13T20:44:00-05:00,96.1,12.15,736.27,-1.52,0.32,182.44,0
2020-03-13T20:45:00-05:00,96.19,12.15,734.96,0.53,0.26,164.2,0
2020-03-13T20:46:00-05:00,96.3,12.14,734.63,0.53,0.49,181.49,0
2020-03-13T20:47:00-05:00,96.23,12.12,734.69,-0.94,0.22,191.97,0.1
2020-03-13T20:48:00-05:00,96.35,12.1,735.13,-0.94,0.52,179.5,0
2020-03-13T20:49:00-05:00,96.45,12.1,735.56,0.39,0.5,195.91,0
2020-03-13T20:50:00-05:00,96.31,12.11,734.96,-1.38,0.49,181.43,0
2020-03-13T20:51:00-05:00,96.46,12.11,736.03,-1.67,0.06,207.01,0
2020-03-13T20:52:00-05:00,96.53,12.08,735.13,0.53,0.33,197.29,0.1
2020-03-13T20:53:00-05:00,96.47,12.1,734.76,0.53,0.43,191.02,0
2020-03-13T20:54:00-05:00,96.53,12.08,735.06,0.83,0.27,164.2,0
2020-03-13T20:55:00-05:00,96.62,12.07,735.4,-0.2,0.57,181.09,0
2020-03-13T20:56:00-05:00,96.47,12.07,736.03,-0.35,0.49,144.17,0
2020-03-13T20:57:00-05:00,96.67,12.07,735.03,-0.35,0.55,166.41,0
2020-03-13T20:58:00-05:00,96.6,12.09,736.23,-1.38,0.59,179.44,0
2020-03-13T20:59:00-05:00,96.65,12.07,735.56,0.53,0.5,176.04,0
2020-03-13T21:00:00-05:00,96.7,12.06,734.66,-1.82,0.56,179.12,0.1
2020-03-13T21:01:00-05:00,96.55,12.07,735.87,-0.79,0.58,177.06,0
2020-03-13T21:02:00-05:00,96.55,12.06,735.46,0.39,0.45,167.11,0
2020-03-13T21:03:00-05:00,96.71,12.07,734.93,-1.08,0.14,84.4,0
2020-03-13T21:04:00-05:00,96.76,12.09,735.93,0.83,0.36,183.02,0
2020-03-13T21:05:00-05:00,96.8,12.09,735.33,-1.67,0.4,1.09,0
2020-03-13T21:06:00-05:00,96.91,12.09,734.86,0.83,0.49,183.05,0
2020-03-13T21:07:00-05:00,97.01,12.11,734.73,-0.94,0.26,173.44,0
2020-03-13T21:08:00-05:00,96.67,12.1,736.67,-1.67,0.61,185.99,0
2020-03-13T21:09:00-05:00,96.75,12.09,736.07,0.24,0.6,185.34,0
2020-03-13T21:10:00-05:00,96.64,12.08,735.56,-0.49,0.57,193.96,0
2020-03-13T21:11:00-05:00,96.47,12.05,735.73,-1.38,0.64,229.18,0
2020-03-13T21:12:00-05:00,96.5,12.04,734.56,-1.23,0.93,222.91,0
2020-03-13T21:13:00-05:00,96.67,12.03,735.33,-2.11,0.6,207.01,0
2020-03-13T21:14:00-05:00,96.79,12.01,735.6,0.53,0.71,209.93,0
2020-03-13T21:15:00-05:00,96.95,12.04,734.56,-1.08,0.62,185,0
2020-03-13T21:16:00-05:00,96.93,12.05,735.46,-0.64,0.52,182.07,0
2020-03-13T21:17:00-05:00,96.94,12.03,734.96,0.68,0.56,184.98,0.1
2020-03-13T21:18:00-05:00,97.05,12.02,734.93,-1.52,0.31,186.96,0
2020-03-13T21:19:00-05:00,96.96,12.02,735.43,-0.79,0.58,190.06,0
2020-03-13T21:20:00-05:00,97.02,12.03,734.59,-0.64,0.56,170.06,0
2020-03-13T21:21:00-05:00,96.9,12.01,735.83,0.09,0.45,176.09,0
2020-03-13T21:22:00-05:00,97.09,12.03,735.73,-1.38,0.55,177.34,0
2020-03-13T21:23:00-05:00,97.12,12.02,736,-1.38,0.66,173.17,0
2020-03-13T21:24:00-05:00,97.1,12.02,734.53,-1.38,0.59,171.48,0
2020-03-13T21:25:00-05:00,97.12,12.03,734.63,0.53,0.57,184.04,0
2020-03-13T21:26:00-05:00,97.04,12.02,735.36,0.24,0.62,163.53,0
2020-03-13T21:27:00-05:00,97.06,12.01,734.59,-1.23,0.42,176.07,0
2020-03-13T21:28:00-05:00,97.15,12.02,735.16,-1.08,0.57,176.45,0
2020-03-13T21:29:00-05:00,97.02,12,734.59,-0.05,0.43,173.12,0
2020-03-13T21:30:00-05:00,97.08,12.01,734.33,0.83,0.41,42.56,0
2020-03-13T21:31:00-05:00,96.98,12.01,734.29,0.39,0.21,87.97,0
2020-03-13T21:32:00-05:00,97.14,12.03,734.76,0.83,0.26,70.51,0
2020-03-13T21:33:00-05:00,97.28,12.04,735.8,1.27,0.18,70.7,0
2020-03-13T21:34:00-05:00,97.3,12.04,735.77,-0.2,0.19,180.11,0
2020-03-13T21:35:00-05:00,97.16,12.04,736.37,1.42,0.55,189.04,0
2020-03-13T21:36:00-05:00,97,12.04,735.2,-1.23,0.55,185.01,0
2020-03-13T21:37:00-05:00,97.01,12.02,734.83,0.39,0.58,175.1,0
2020-03-13T21:38:00-05:00,97.07,12.02,735.77,0.24,0.54,180.09,0
2020-03-13T21:39:00-05:00,97.07,12.03,735,-1.38,0.29,149.24,0
2020-03-13T21:40:00-05:00,97.01,12.02,734.69,-1.23,0.17,152.16,0
2020-03-13T21:41:00-05:00,97.14,12.02,733.92,-0.64,0.08,121.6,0
2020-03-13T21:42:00-05:00,97.18,12.03,734.79,-1.23,0.57,84.89,0
2020-03-13T21:43:00-05:00,97.12,12.03,734.69,1.27,0.58,104.77,0
2020-03-13T21:44:00-05:00,97.04,12.07,734.29,0.24,0.21,42.92,0
2020-03-13T21:45:00-05:00,97.18,12.06,735.23,-0.35,0.54,90.93,0
2020-03-13T21:46:00-05:00,97.18,12.06,734.79,-0.05,0.49,117.35,0
2020-03-13T21:47:00-05:00,97.25,12.07,734.56,1.27,0.63,99.71,0
2020-03-13T21:48:00-05:00,97.07,12.1,735.67,-0.64,0.48,96.35,0
2020-03-13T21:49:00-05:00,97.02,12.08,734.69,-0.49,0.25,81.68,0
2020-03-13T21:50:00-05:00,97.12,12.11,735.4,-1.23,0.17,101.15,0
2020-03-13T21:51:00-05:00,97.14,12.1,734.36,-1.23,0.49,149.23,0
2020-03-13T21:52:00-05:00,97.16,12.09,735.77,-0.64,0.23,102.78,0
2020-03-13T21:53:00-05:00,97,12.11,736.64,-0.94,0.44,96.01,0
2020-03-13T21:54:00-05:00,97.03,12.12,734.93,-0.35,0.29,71.18,0
2020-03-13T21:55:00-05:00,97.02,12.12,735.1,-0.05,0.56,55.33,0
2020-03-13T21:56:00-05:00,96.92,12.12,734.49,-0.05,0.55,90.48,0
2020-03-13T21:57:00-05:00,97,12.12,735,-0.05,0.61,92.27,0
2020-03-13T21:58:00-05:00,96.69,12.11,734.79,0.39,0.47,86.5,0
2020-03-13T21:59:00-05:00,96.94,12.15,734.93,0.98,0.5,137.28,0
2020-03-13T22:00:00-05:00,96.75,12.16,735,-0.05,0.56,103.16,0
2020-03-13T22:01:00-05:00,96.85,12.16,735.5,-0.64,0.06,11.15,0
2020-03-13T22:02:00-05:00,96.77,12.19,734.63,0.83,0.31,37.72,0
2020-03-13T22:03:00-05:00,96.63,12.17,734.93,0.83,0.49,86.77,0
2020-03-13T22:04:00-05:00,96.81,12.17,734.86,-1.52,0.36,155.59,0
2020-03-13T22:05:00-05:00,96.62,12.18,734.66,0.68,0.28,154.47,0
2020-03-13T22:06:00-05:00,96.61,12.2,734.83,-1.38,0.53,154.59,0
2020-03-13T22:07:00-05:00,96.41,12.17,734.79,-1.38,0.45,134.19,0
2020-03-13T22:08:00-05:00,96.47,12.17,735.06,-0.64,0.66,162.54,0
2020-03-13T22:09:00-05:00,96.49,12.17,735.77,0.39,0.38,146.64,0
2020-03-13T22:10:00-05:00,96.51,12.15,735.63,0.98,0.58,165.16,0
2020-03-13T22:11:00-05:00,96.36,12.16,736.17,0.09,0.44,140.28,0
2020-03-13T22:12:00-05:00,96.35,12.17,735,0.39,0.22,156.21,0
2020-03-13T22:13:00-05:00,96.5,12.15,735.77,-1.08,0.51,148.23,0
2020-03-13T22:14:00-05:00,96.31,12.17,735.9,-0.49,0.19,120.24,0
2020-03-13T22:15:00-05:00,96.57,12.17,735.67,-0.35,0.11,154.2,0
2020-03-13T22:16:00-05:00,96.57,12.18,735.87,-0.2,0.47,163.2,0
2020-03-13T22:17:00-05:00,96.49,12.19,736.03,0.09,0.32,173.12,0
2020-03-13T22:18:00-05:00,96.38,12.18,733.96,0.68,0.3,175.07,0
2020-03-13T22:19:00-05:00,96.39,12.17,735.43,-0.94,0.27,158.58,0
2020-03-13T22:20:00-05:00,96.23,12.17,734.9,-1.38,0.23,136.2,0
2020-03-13T22:21:00-05:00,96.42,12.17,735.63,0.83,0.24,155.54,0
2020-03-13T22:22:00-05:00,96.55,12.19,734.79,1.12,0.12,34.4,0
2020-03-13T22:23:00-05:00,96.66,12.21,735.53,-1.08,0.34,102.35,0
2020-03-13T22:24:00-05:00,96.57,12.22,736,0.68,0.61,106.79,0
2020-03-13T22:25:00-05:00,96.57,12.23,735.46,-1.08,0.32,105.35,0
2020-03-13T22:26:00-05:00,96.55,12.23,735.06,0.24,0.57,102.4,0
2020-03-13T22:27:00-05:00,96.3,12.22,735.1,0.24,0.6,115.96,0
2020-03-13T22:28:00-05:00,96.27,12.21,735.5,-0.64,0.21,102.06,0
2020-03-13T22:29:00-05:00,96.31,12.21,735.4,0.53,0.1,19.56,0
2020-03-13T22:30:00-05:00,96.39,12.23,736.13,-1.08,0.15,67.33,0
2020-03-13T22:31:00-05:00,96.59,12.25,735,-1.38,0.16,131.49,0
2020-03-13T22:32:00-05:00,96.41,12.25,735.03,-0.79,0.33,160.14,0
2020-03-13T22:33:00-05:00,96.43,12.25,735.53,0.83,0.3,156.22,0
2020-03-13T22:34:00-05:00,96.36,12.25,734.86,-1.08,0.08,144.35,0
2020-03-13T22:35:00-05:00,96.42,12.26,736.17,-1.23,0.37,144.48,0
2020-03-13T22:36:00-05:00,96.57,12.25,735.67,-0.49,0.38,98,0
2020-03-13T22:37:00-05:00,96.57,12.29,735.6,0.39,0.22,124.92,0
2020-03-13T22:38:00-05:00,96.53,12.29,734.49,0.24,0.3,168.44,0
2020-03-13T22:39:00-05:00,96.51,12.28,736,-0.05,0.34,142.49,0
2020-03-13T22:40:00-05:00,96.33,12.27,736,-1.08,0.2,147.59,0
2020-03-13T22:41:00-05:00,96.35,12.27,735.8,-1.23,0.15,110.08,0
2020-03-13T22:42:00-05:00,96.49,12.29,736.2,1.12,0.59,103.58,0
2020-03-13T22:43:00-05:00,96.39,12.27,735.33,0.39,0.56,113.08,0
2020-03-13T22:44:00-05:00,96.31,12.27,735.3,0.09,0.42,95.89,0
2020-03-13T22:45:00-05:00,96.19,12.26,735.1,0.68,0.56,93.16,0
2020-03-13T22:46:00-05:00,96.33,12.25,735.67,-1.08,0.54,97.19,0
2020-03-13T22:47:00-05:00,96.33,12.27,735.33,-1.38,0.49,95.08,0
2020-03-13T22:48:00-05:00,96.28,12.29,736.03,-0.35,0.31,64.95,0
2020-03-13T22:49:00-05:00,96.35,12.29,736.37,1.12,0.38,71.99,0
2020-03-13T22:50:00-05:00,96.33,12.29,735,-1.23,0.55,66.23,0
2020-03-13T22:51:00-05:00,96.26,12.31,735.87,-0.2,0.27,95.99,0.1
2020-03-13T22:52:00-05:00,96.25,12.27,735.83,0.53,0.36,57.74,0
2020-03-13T22:53:00-05:00,96.31,12.29,735.73,-0.79,0.47,125.31,0
2020-03-13T22:54:00-05:00,96.35,12.29,734.93,-0.64,0.55,94.76,0
2020-03-13T22:55:00-05:00,96.41,12.29,735.63,-1.52,0.52,115.18,0
2020-03-13T22:56:00-05:00,96.39,12.29,735.16,-0.94,0.25,116.12,0.1
2020-03-13T22:57:00-05:00,96.37,12.29,735.56,-1.08,0.21,109.89,0
2020-03-13T22:58:00-05:00,96.47,12.29,736.4,-1.08,0.19,169.1,0
2020-03-13T22:59:00-05:00,96.31,12.3,736.33,1.42,0.2,154.6,0
2020-03-13T23:00:00-05:00,96.46,12.29,735.73,-0.05,0.19,165.13,0.1
2020-03-13T23:01:00-05:00,96.48,12.31,735,0.68,0.12,113.93,0
2020-03-13T23:02:00-05:00,96.41,12.29,735.06,0.53,0.29,102.26,0
2020-03-13T23:03:00-05:00,96.29,12.29,736.43,-1.67,0.15,165.52,0.1
2020-03-13T23:04:00-05:00,96.4,12.27,734.93,0.39,0.16,185.05,0
2020-03-13T23:05:00-05:00,96.23,12.29,735.87,-0.79,0.33,154.6,0
2020-03-13T23:06:00-05:00,96.34,12.25,735.1,-1.52,0.24,142.25,0.1
2020-03-13T23:07:00-05:00,96.2,12.25,736.37,-1.97,0.29,132.82,0
2020-03-13T23:08:00-05:00,96.45,12.25,736.3,-1.08,0.08,141.05,0
2020-03-13T23:09:00-05:00,96.33,12.23,735.26,-0.64,0.3,116.22,0
2020-03-13T23:10:00-05:00,96.45,12.22,736.17,-0.05,0.57,87.7,0
2020-03-13T23:11:00-05:00,96.33,12.21,735,0.53,0.46,81.91,0
2020-03-13T23:12:00-05:00,96.21,12.21,735.13,-1.08,0.45,67.83,0
2020-03-13T23:13:00-05:00,96.19,12.21,735.93,-1.08,0.51,91.18,0
2020-03-13T23:14:00-05:00,96.43,12.2,734.73,-1.82,0.41,85.73,0
2020-03-13T23:15:00-05:00,96.35,12.19,735.93,-0.64,0.25,148.24,0
2020-03-13T23:16:00-05:00,96.35,12.18,735.1,-1.08,0.18,147.63,0
2020-03-13T23:17:00-05:00,96.4,12.18,735.97,0.39,0.24,154.23,0
2020-03-13T23:18:00-05:00,96.22,12.17,735.56,-1.52,0.5,29.64,0
2020-03-13T23:19:00-05:00,96.23,12.18,736.07,-1.38,0.22,216.91,0
2020-03-13T23:20:00-05:00,96.16,12.19,735.73,-0.35,0.61,112.61,0
2020-03-13T23:21:00-05:00,96.34,12.2,734.76,-0.05,0.23,151.19,0.1
2020-03-13T23:22:00-05:00,96.15,12.2,735.3,0.83,0.22,174.47,0
2020-03-13T23:23:00-05:00,96.01,12.2,735.87,-2.26,0.3,176.07,0
2020-03-13T23:24:00-05:00,96.05,12.21,735.7,0.24,0.09,13.67,0
2020-03-13T23:25:00-05:00,96.1,12.21,735.03,-0.49,0.07,65.33,0
2020-03-13T23:26:00-05:00,96.09,12.21,735.73,-0.2,0.21,168.09,0
2020-03-13T23:27:00-05:00,96.17,12.23,735.43,0.53,0.49,153.17,0
2020-03-13T23:28:00-05:00,96.14,12.21,735.06,0.09,0.41,145.65,0
2020-03-13T23:29:00-05:00,96.09,12.19,734.63,-0.2,0.57,157.17,0
2020-03-13T23:30:00-05:00,95.97,12.18,734.86,-1.08,0.35,163.17,0
2020-03-13T23:31:00-05:00,95.99,12.17,735.06,-0.2,0.53,182.07,0
2020-03-13T23:32:00-05:00,96.03,12.17,734.79,-0.05,0.66,153.16,0
2020-03-13T23:33:00-05:00,96.15,12.17,735.43,0.83,0.28,141.25,0
2020-03-13T23:34:00-05:00,96.05,12.17,735.83,-0.35,0.17,174.12,0
2020-03-13T23:35:00-05:00,96.1,12.17,734.53,-1.38,0.11,131.6,0
2020-03-13T23:36:00-05:00,96.25,12.16,735.7,-0.79,0.31,107.9,0
2020-03-13T23:37:00-05:00,96.37,12.17,734.69,1.27,0.51,138.31,0
2020-03-13T23:38:00-05:00,96.11,12.17,734.43,-1.67,0.21,128.41,0
2020-03-13T23:39:00-05:00,96.31,12.15,735.6,-0.05,0.34,180.44,0
2020-03-13T23:40:00-05:00,96.11,12.15,734.93,-1.97,0.21,138.34,0
2020-03-13T23:41:00-05:00,96.35,12.15,735.33,0.24,0.22,117.54,0
2020-03-13T23:42:00-05:00,96.39,12.15,735.06,-0.79,0.56,86.77,0
2020-03-13T23:43:00-05:00,96.41,12.17,735.26,-1.67,0.11,176.44,0
2020-03-13T23:44:00-05:00,96.19,12.16,734.56,-0.2,0.58,158.2,0
2020-03-13T23:45:00-05:00,96.11,12.14,735.13,0.68,0.62,162.24,0.1
2020-03-13T23:46:00-05:00,96.13,12.11,735.9,-1.38,0.62,169.36,0
2020-03-13T23:47:00-05:00,96.19,12.09,735.06,-0.49,0.59,172.43,0
2020-03-13T23:48:00-05:00,96.16,12.08,735.67,-1.97,0.58,166.14,0
2020-03-13T23:49:00-05:00,96.05,12.07,734.76,-1.23,0.43,174.12,0
2020-03-13T23:50:00-05:00,96.2,12.05,734.43,0.39,0.24,173.11,0
2020-03-13T23:51:00-05:00,96.09,12.05,735.53,-0.64,0.56,180.13,0
2020-03-13T23:52:00-05:00,96.29,12.03,734.29,-0.64,0.62,186.01,0
2020-03-13T23:53:00-05:00,96.05,12.03,735.77,-1.52,0.56,188.05,0
2020-03-13T23:54:00-05:00,96.09,12,734.13,-1.38,0.66,180.45,0
2020-03-13T23:55:00-05:00,96.19,11.99,733.89,0.53,0.58,174.12,0
2020-03-13T23:56:00-05:00,96.34,11.99,734.49,1.27,0.57,195.27,0
2020-03-13T23:57:00-05:00,96.43,11.98,734.59,-1.38,0.62,181.07,0
2020-03-13T23:58:00-05:00,96.29,11.99,735.8,0.24,0.6,160.47,0.1
2020-03-13T23:59:00-05:00,96.41,11.96,735.43,-0.79,0.71,191.05,0
