time,[HUME],[TEMP],[PRES],[RADI],[RAPV],[DIRV],[PREC]
2020-03-09T00:00:00-05:00,69.03,13.09,735.56,-0.35,1.45,77.44,0
2020-03-09T00:01:00-05:00,68.94,13.09,736.9,-1.97,0.54,281.01,0
2020-03-09T00:02:00-05:00,68.7,13.05,737.47,-0.2,1.71,40.28,0
2020-03-09T00:03:00-05:00,70.51,13.04,736.64,-1.97,0.77,89.47,0
2020-03-09T00:04:00-05:00,69.71,12.97,736.07,-1.08,3.05,352.5,0
2020-03-09T00:05:00-05:00,69.15,12.96,737.1,-1.38,1.09,64.16,0
2020-03-09T00:06:00-05:00,68.77,12.95,735.73,-0.64,2.3,356.44,0
2020-03-09T00:07:00-05:00,68.94,12.96,736.74,-1.67,3.94,47.67,0
2020-03-09T00:08:00-05:00,69.32,12.95,737,-0.49,1.43,278.67,0
2020-03-09T00:09:00-05:00,69.63,12.93,736.77,-1.82,2.6,317.61,0
2020-03-09T00:10:00-05:00,70.13,12.87,736.97,-0.35,0.7,7.21,0
2020-03-09T00:11:00-05:00,70.52,12.84,735.97,-2.41,1.25,55.07,0
2020-03-09T00:12:00-05:00,71.01,12.81,736.54,-1.08,2.59,45.49,0
2020-03-09T00:13:00-05:00,70.62,12.78,736.97,-0.49,3.93,19.05,0
2020-03-09T00:14:00-05:00,70.16,12.8,735.6,-0.79,1.7,341.89,0
2020-03-09T00:15:00-05:00,70.64,12.78,736.47,-2.41,4.32,353.48,0
2020-03-09T00:16:00-05:00,70.34,12.76,736.84,-1.82,1.01,69.99,0
2020-03-09T00:17:00-05:00,70.44,12.77,735.33,-2.26,1.76,6.51,0
2020-03-09T00:18:00-05:00,71.51,12.77,735.63,-1.23,1.46,62.93,0
2020-03-09T00:19:00-05:00,70.5,12.75,735.93,-1.38,1.09,295.64,0
2020-03-09T00:20:00-05:00,70.58,12.75,735.06,-0.64,0.09,134.61,0
2020-03-09T00:21:00-05:00,70.79,12.74,735.4,1.12,1.49,53.72,0
2020-03-09T00:22:00-05:00,70.68,12.75,736.8,-1.23,0.58,253.09,0
2020-03-09T00:23:00-05:00,71.29,12.75,736.27,-1.38,0.48,173.13,0
2020-03-09T00:24:00-05:00,71.41,12.74,736.37,0.68,0.84,22.38,0
2020-03-09T00:25:00-05:00,70.87,12.73,735.13,-0.05,0.33,0.84,0
2020-03-09T00:26:00-05:00,71.13,12.73,736.33,-1.38,1.52,294.66,0
2020-03-09T00:27:00-05:00,71.3,12.73,735.8,-0.49,0.37,206.03,0
2020-03-09T00:28:00-05:00,72.4,12.7,735.23,0.39,0.51,188.04,0
2020-03-09T00:29:00-05:00,72.82,12.67,734.93,-2.26,0.19,335.82,0
2020-03-09T00:30:00-05:00,73,12.67,735.97,-0.64,0.63,153.3,0
2020-03-09T00:31:00-05:00,73.3,12.65,734.93,-0.49,0.58,127.47,0
2020-03-09T00:32:00-05:00,74.02,12.61,736.4,-1.08,0.85,208.97,0
2020-03-09T00:33:00-05:00,74.68,12.53,735.73,-0.49,0.86,275.25,0
2020-03-09T00:34:00-05:00,73.31,12.49,735.97,-0.94,0.26,199.97,0
2020-03-09T00:35:00-05:00,73.77,12.49,735.46,-0.2,0.22,249.14,0
2020-03-09T00:36:00-05:00,74.67,12.5,735.67,-0.05,0.15,324.61,0
2020-03-09T00:37:00-05:00,74.76,12.49,735.6,-0.35,0.23,326.92,0
2020-03-09T00:38:00-05:00,75.37,12.48,735.4,-1.38,0.35,333.57,0
2020-03-09T00:39:00-05:00,75.22,12.47,734.43,0.09,0.64,222.27,0
2020-03-09T00:40:00-05:00,75.6,12.43,734.19,-0.35,0.61,137.84,0
2020-03-09T00:41:00-05:00,74.67,12.4,735.56,-1.38,2.09,122.17,0
2020-03-09T00:42:00-05:00,74.78,12.43,735.36,-1.82,0.86,287.66,0
2020-03-09T00:43:00-05:00,75.24,12.44,734.56,-0.35,0.65,346.47,0
2020-03-09T00:44:00-05:00,74.77,12.43,734.33,0.09,0.61,318.61,0
2020-03-09T00:45:00-05:00,74.99,12.46,734.56,-1.52,1.48,47.55,0
2020-03-09T00:46:00-05:00,74.95,12.48,735.33,-1.08,0.93,43.8,0
2020-03-09T00:47:00-05:00,74.5,12.49,735.3,0.24,0.59,330.54,0
2020-03-09T00:48:00-05:00,74.95,12.51,735.73,-1.38,0.55,292.67,0
2020-03-09T00:49:00-05:00,74.8,12.52,735.46,1.27,0.57,33.02,0
2020-03-09T00:50:00-05:00,74.45,12.52,736.07,-1.23,0.62,351.52,0
2020-03-09T00:51:00-05:00,74.11,12.56,734.53,-0.79,1.09,338.52,0
2020-03-09T00:52:00-05:00,75.13,12.59,734.79,-1.08,0.63,187.97,0
2020-03-09T00:53:00-05:00,76.7,12.54,734.19,-1.23,0.67,195.93,0
2020-03-09T00:54:00-05:00,75.25,12.47,734.26,-1.52,0.66,289.95,0
2020-03-09T00:55:00-05:00,74.68,12.47,735.6,-1.82,0.3,331.54,0
2020-03-09T00:56:00-05:00,75.12,12.47,735.26,-0.2,0.26,338.87,0
2020-03-09T00:57:00-05:00,75.34,12.49,735.2,-1.52,2.15,48.31,0
2020-03-09T00:58:00-05:00,74.65,12.51,734.43,-1.38,3.26,32.63,0
2020-03-09T00:59:00-05:00,74.14,12.54,735.2,0.83,3.09,47.41,0
2020-03-09T01:00:00-05:00,74.13,12.6,734.26,-0.94,2.65,93.92,0
2020-03-09T01:01:00-05:00,73.64,12.65,734.69,-0.79,1.11,337.51,0
2020-03-09T01:02:00-05:00,73.24,12.69,735.83,-1.67,1.16,156.21,0
2020-03-09T01:03:00-05:00,73.2,12.7,735.16,-1.38,0.71,147.53,0
2020-03-09T01:04:00-05:00,73.02,12.75,735.67,-0.64,1.11,59.28,0
2020-03-09T01:05:00-05:00,73.27,12.75,735.63,-0.94,1.74,323.53,0
2020-03-09T01:06:00-05:00,73.71,12.77,736.6,0.53,1.91,35.34,0
2020-03-09T01:07:00-05:00,73.66,12.74,735.03,-0.2,1.08,6.54,0
2020-03-09T01:08:00-05:00,74,12.74,736.2,0.68,0.32,68.45,0
2020-03-09T01:09:00-05:00,73.96,12.74,736.5,-1.97,1.36,133.4,0
2020-03-09T01:10:00-05:00,73.83,12.74,735.8,-1.82,2.37,3.73,0
2020-03-09T01:11:00-05:00,73.77,12.73,735.93,-2.41,0.59,119.29,0
2020-03-09T01:12:00-05:00,74.43,12.73,734.53,0.24,0.43,184.95,0
2020-03-09T01:13:00-05:00,73.97,12.72,735.87,-0.79,2.8,227.17,0
2020-03-09T01:14:00-05:00,74.76,12.69,736.23,-2.11,0.66,177.09,0
2020-03-09T01:15:00-05:00,74.2,12.66,736.07,-0.2,0.48,92.15,0
2020-03-09T01:16:00-05:00,74.68,12.65,735.46,-2.11,0.54,156.18,0
2020-03-09T01:17:00-05:00,74.33,12.65,736.07,-0.2,0.69,12.79,0
2020-03-09T01:18:00-05:00,74.13,12.66,735.3,0.39,1.51,22.82,0
2020-03-09T01:19:00-05:00,74.65,12.67,734.56,0.09,0.59,145.64,0
2020-03-09T01:20:00-05:00,74.06,12.67,735.03,-1.52,4.46,2.77,0
2020-03-09T01:21:00-05:00,74.23,12.66,736.23,-1.38,2.17,13.67,0
2020-03-09T01:22:00-05:00,74.21,12.67,734.86,-1.08,1.33,30.73,0
2020-03-09T01:23:00-05:00,73.84,12.67,735.83,-0.64,1.47,36.01,0
2020-03-09T01:24:00-05:00,73.27,12.68,735.73,-1.97,0.28,282.69,0
2020-03-09T01:25:00-05:00,73.68,12.71,735.3,-0.79,0.3,44.55,0
2020-03-09T01:26:00-05:00,74.05,12.71,735.5,-0.79,0.7,15.7,0
2020-03-09T01:27:00-05:00,74.41,12.71,734.73,-1.08,0.15,26.59,0
2020-03-09T01:28:00-05:00,75.15,12.71,735.1,-2.85,0.68,324.62,0
2020-03-09T01:29:00-05:00,75.08,12.69,735.36,-0.94,0.57,349.44,0
2020-03-09T01:30:00-05:00,74.84,12.67,735.7,-1.82,0.65,18.08,0
2020-03-09T01:31:00-05:00,74.4,12.67,735.3,-1.08,0.63,35.1,0
2020-03-09T01:32:00-05:00,74.38,12.67,734.49,-2.55,0.7,30.5,0
2020-03-09T01:33:00-05:00,74.09,12.68,734.73,-0.94,0.49,329.59,0
2020-03-09T01:34:00-05:00,75.04,12.69,735.5,0.39,0.23,344.88,0
2020-03-09T01:35:00-05:00,75.87,12.69,734.59,-0.94,0.58,66.14,0
2020-03-09T01:36:00-05:00,74.87,12.67,735.5,-1.52,2.96,51.09,0
2020-03-09T01:37:00-05:00,74.27,12.68,735.83,0.24,1.48,70.83,0
2020-03-09T01:38:00-05:00,74.43,12.69,734.66,-0.64,1.06,46.98,0
2020-03-09T01:39:00-05:00,74.06,12.71,735,-0.49,0.8,71.34,0
2020-03-09T01:40:00-05:00,74.43,12.71,735.8,-2.11,1.72,1.75,0
2020-03-09T01:41:00-05:00,75.18,12.7,734.76,-1.38,1.51,64.73,0
2020-03-09T01:42:00-05:00,74.96,12.68,734.93,-1.08,2.37,43.51,0
2020-03-09T01:43:00-05:00,74.1,12.67,736.1,-1.82,0.26,304.61,0
2020-03-09T01:44:00-05:00,74.07,12.67,735.73,-2.41,0.41,348.47,0
2020-03-09T01:45:00-05:00,74.53,12.69,734.93,-0.49,0.51,14.68,0
2020-03-09T01:46:00-05:00,75.05,12.67,735.23,-1.38,0.56,28.97,0
2020-03-09T01:47:00-05:00,75.76,12.65,735.56,0.83,0.7,27.04,0
2020-03-09T01:48:00-05:00,75.24,12.64,736.07,-1.67,0.82,36.83,0
2020-03-09T01:49:00-05:00,75.25,12.6,735.06,-0.2,0.89,1.77,0
2020-03-09T01:50:00-05:00,75.62,12.6,735.67,0.09,0.84,354.48,0
2020-03-09T01:51:00-05:00,75.08,12.57,735.77,-0.2,0.54,28.33,0
2020-03-09T01:52:00-05:00,75.36,12.57,734.46,0.68,0.55,45.18,0
2020-03-09T01:53:00-05:00,76.07,12.57,734.39,-0.94,0.25,349.8,0
2020-03-09T01:54:00-05:00,76.4,12.55,735.53,0.39,0.22,173.13,0
2020-03-09T01:55:00-05:00,76.7,12.53,734.53,-0.2,0.31,159.49,0
2020-03-09T01:56:00-05:00,77.45,12.51,735.06,-1.52,1.15,90.12,0
2020-03-09T01:57:00-05:00,78,12.45,734.13,-2.55,0.76,107.51,0
2020-03-09T01:58:00-05:00,79.09,12.41,733.96,-1.52,0.63,124.63,0
2020-03-09T01:59:00-05:00,79.15,12.37,734.09,-1.82,0.36,131.25,0
2020-03-09T02:00:00-05:00,78.84,12.35,734.06,-1.97,0.57,96.36,0
2020-03-09T02:01:00-05:00,78.51,12.28,733.76,-2.26,0.64,117.2,0
2020-03-09T02:02:00-05:00,78.86,12.26,735.26,0.24,0.57,146.3,0
2020-03-09T02:03:00-05:00,79.43,12.22,733.56,-0.79,0.57,175.09,0
2020-03-09T02:04:00-05:00,78.94,12.19,733.72,-1.82,0.57,258.77,0
2020-03-09T02:05:00-05:00,80.13,12.15,734.83,-2.55,0.22,78.05,0
2020-03-09T02:06:00-05:00,80.8,12.11,734.13,-0.35,0.56,113.66,0
2020-03-09T02:07:00-05:00,80.18,12.06,734.33,-0.79,0.57,135.23,0
2020-03-09T02:08:00-05:00,79.39,12.03,734.13,-1.97,0.2,167.12,0
2020-03-09T02:09:00-05:00,79.54,12.02,733.49,-2.11,0.57,236.82,0
2020-03-09T02:10:00-05:00,78.5,12.01,733.49,-1.67,0.29,295.95,0
2020-03-09T02:11:00-05:00,78.29,12.02,733.12,0.83,0.6,256.06,0
2020-03-09T02:12:00-05:00,78.89,12.05,733.29,-1.23,0.23,153.48,0
2020-03-09T02:13:00-05:00,78.72,12.04,733.39,-1.38,0.62,9.19,0
2020-03-09T02:14:00-05:00,78.8,12.09,733.52,-1.23,0.19,29.82,0
2020-03-09T02:15:00-05:00,78.26,12.09,734.36,-0.79,0.2,174.1,0
2020-03-09T02:16:00-05:00,78.11,12.13,734.33,-0.35,0.16,334.93,0
2020-03-09T02:17:00-05:00,78.26,12.13,733.59,0.39,0.28,7.44,0
2020-03-09T02:18:00-05:00,79.08,12.15,734.59,-0.94,0.53,67.79,0
2020-03-09T02:19:00-05:00,78.5,12.15,733.69,0.09,0.26,35.97,0
2020-03-09T02:20:00-05:00,78.74,12.15,733.25,-0.2,0.12,183.05,0
2020-03-09T02:21:00-05:00,78.98,12.17,733.99,0.39,0.16,194.94,0
2020-03-09T02:22:00-05:00,78.68,12.15,733.86,0.39,0.73,221.94,0
2020-03-09T02:23:00-05:00,78.88,12.13,733.89,-1.52,0.68,234.86,0
2020-03-09T02:24:00-05:00,78.34,12.13,734.39,-2.11,0.73,214.95,0
2020-03-09T02:25:00-05:00,77.8,12.14,733.39,-0.79,0.56,116.82,0
2020-03-09T02:26:00-05:00,78.61,12.17,733.19,4.21,1.58,74.66,0
2020-03-09T02:27:00-05:00,78.09,12.21,733.42,-1.67,1.99,66.66,0
2020-03-09T02:28:00-05:00,78.9,12.23,733.52,0.39,1.16,73.37,0
2020-03-09T02:29:00-05:00,78.56,12.23,734.36,-1.52,0.71,57.22,0
2020-03-09T02:30:00-05:00,78.61,12.23,734.43,-0.94,0.48,43.34,0
2020-03-09T02:31:00-05:00,79.08,12.23,732.92,0.24,0.7,144.56,0
2020-03-09T02:32:00-05:00,78.92,12.21,734.29,0.39,0.55,141.24,0
2020-03-09T02:33:00-05:00,79.36,12.2,734.39,-0.94,0.68,111.83,0
2020-03-09T02:34:00-05:00,79.17,12.19,734.16,-0.94,1.94,1.76,0
2020-03-09T02:35:00-05:00,77.82,12.22,734.29,-0.64,1.61,43.44,0
2020-03-09T02:36:00-05:00,77.79,12.26,733.92,0.24,0.8,55.62,0
2020-03-09T02:37:00-05:00,77.52,12.29,733.36,-1.67,0.61,104.26,0
2020-03-09T02:38:00-05:00,77.73,12.3,733.25,0.53,0.65,55.43,0
2020-03-09T02:39:00-05:00,78.48,12.3,732.42,-0.49,0.71,93.14,0
2020-03-09T02:40:00-05:00,79.55,12.29,733.76,-2.11,0.56,54.34,0
2020-03-09T02:41:00-05:00,80.31,12.27,733.05,-0.49,0.12,96.45,0
2020-03-09T02:42:00-05:00,80.25,12.25,733.19,-3.73,0.53,120.88,0
2020-03-09T02:43:00-05:00,79.85,12.19,733.82,-3.58,0.6,130.45,0
2020-03-09T02:44:00-05:00,79.51,12.14,733.46,-3.88,0.6,168.37,0
2020-03-09T02:45:00-05:00,79.13,12.12,732.85,-4.46,0.36,142.53,0
2020-03-09T02:46:00-05:00,79,12.1,733.72,-3.73,0.41,156.2,0
2020-03-09T02:47:00-05:00,78.99,12.09,733.22,-4.61,0.61,219.9,0
2020-03-09T02:48:00-05:00,78.76,12.09,733.66,-4.76,0.54,227.2,0
2020-03-09T02:49:00-05:00,79.63,12.05,733.09,-5.2,0.91,125.91,0
2020-03-09T02:50:00-05:00,81.42,11.97,732.92,-3.44,0.62,86.59,0
2020-03-09T02:51:00-05:00,82.17,11.89,731.51,-4.76,0.86,111.27,0
2020-03-09T02:52:00-05:00,82.65,11.83,731.35,-6.38,0.55,121.8,0
2020-03-09T02:53:00-05:00,82.92,11.78,730.71,-6.23,0.28,153.15,0
2020-03-09T02:54:00-05:00,81.81,11.71,730.44,-6.82,0.71,217.27,0
2020-03-09T02:55:00-05:00,81.38,11.66,730.24,-5.35,0.2,28.67,0
2020-03-09T02:56:00-05:00,81.7,11.6,730.48,-4.32,0.36,235.12,0
2020-03-09T02:57:00-05:00,81.56,11.56,730.64,-6.23,0.6,87.92,0
2020-03-09T02:58:00-05:00,82.63,11.5,730.07,-5.49,0.73,86.71,0
2020-03-09T02:59:00-05:00,82.96,11.46,729.84,-5.2,0.6,84.88,0
2020-03-09T03:00:00-05:00,83.56,11.42,735.36,-5.05,0.36,102.86,0
2020-03-09T03:01:00-05:00,83.33,11.36,735.87,-4.02,0.4,102.26,0
2020-03-09T03:02:00-05:00,83.45,11.34,734.69,-3.14,0.57,84.43,0
2020-03-09T03:03:00-05:00,83.14,11.3,733.66,-4.91,0.61,92.32,0
2020-03-09T03:04:00-05:00,83.04,11.3,734.33,-2.99,0.6,18.21,0
2020-03-09T03:05:00-05:00,82.91,11.32,733.96,-4.46,0.58,12.7,0
2020-03-09T03:06:00-05:00,83.4,11.28,733.56,-4.91,0.65,30.66,0
2020-03-09T03:07:00-05:00,83.88,11.25,733.02,-4.61,0.24,14.26,0
2020-03-09T03:08:00-05:00,84.32,11.25,733.62,-2.55,2.4,48.65,0
2020-03-09T03:09:00-05:00,82.86,11.33,733.29,-1.82,2.44,89.82,0
2020-03-09T03:10:00-05:00,82.09,11.44,734.9,-0.05,2.82,163.21,0
2020-03-09T03:11:00-05:00,81.66,11.52,735.6,-2.7,0.73,137.45,0
2020-03-09T03:12:00-05:00,81.12,11.57,733.66,-2.99,1.01,125.2,0
2020-03-09T03:13:00-05:00,80.33,11.64,733.19,-2.7,0.94,159.48,0
2020-03-09T03:14:00-05:00,80.04,11.71,735.77,-3.44,1.01,71.39,0
2020-03-09T03:15:00-05:00,79.77,11.77,735.43,-3.14,0.25,289.88,0
2020-03-09T03:16:00-05:00,79.47,11.83,736.07,-1.38,0.99,300.66,0
2020-03-09T03:17:00-05:00,79.33,11.85,732.95,-1.38,0.13,244.81,0
2020-03-09T03:18:00-05:00,79.55,11.87,736.03,-1.82,0.72,106,0
2020-03-09T03:19:00-05:00,79.95,11.85,734.76,-3.29,0.59,136.88,0
2020-03-09T03:20:00-05:00,80.35,11.81,732.85,-1.23,0.79,136.2,0
2020-03-09T03:21:00-05:00,80.4,11.76,736.33,-2.85,0.68,156.21,0
2020-03-09T03:22:00-05:00,80.94,11.69,733.25,-2.99,0.65,152.15,0
2020-03-09T03:23:00-05:00,81.32,11.63,736.37,-2.55,0.57,139.24,0
2020-03-09T03:24:00-05:00,81.33,11.57,733.32,-1.97,0.73,147.29,0
2020-03-09T03:25:00-05:00,81.43,11.53,733.79,-4.02,0.75,137.28,0
2020-03-09T03:26:00-05:00,81.78,11.47,734.06,-4.02,0.61,130.65,0
2020-03-09T03:27:00-05:00,82.59,11.47,736.37,-4.02,0.47,115.95,0
2020-03-09T03:28:00-05:00,82.92,11.41,733.52,-3.44,0.72,114.5,0
2020-03-09T03:29:00-05:00,83.25,11.38,735.2,-4.17,0.63,109.95,0
2020-03-09T03:30:00-05:00,83.02,11.35,736,-1.08,0.96,103.55,0
2020-03-09T03:31:00-05:00,82.73,11.34,734.59,-1.52,0.56,91.36,0
2020-03-09T03:32:00-05:00,83.02,11.32,736.1,-1.08,0.71,103.55,0
2020-03-09T03:33:00-05:00,83.11,11.32,734.16,-2.85,0.67,107.01,0
2020-03-09T03:34:00-05:00,83.04,11.3,735.9,-0.64,0.62,119.63,0
2020-03-09T03:35:00-05:00,82.97,11.31,734.73,0.09,0.59,148.23,0
2020-03-09T03:36:00-05:00,82.48,11.32,734.16,-0.35,0.51,120.28,0
2020-03-09T03:37:00-05:00,82.78,11.32,734.29,-0.2,0.52,143.21,0
2020-03-09T03:38:00-05:00,82.99,11.33,735.16,-1.97,0.57,137.3,0
2020-03-09T03:39:00-05:00,82.93,11.33,733.52,-1.82,0.62,127.47,0
2020-03-09T03:40:00-05:00,82.78,11.34,735.16,0.39,0.9,103,0
2020-03-09T03:41:00-05:00,83.26,11.34,735.87,-1.38,0.4,107.94,0
2020-03-09T03:42:00-05:00,83.26,11.34,733.59,-2.26,0.61,114.71,0
2020-03-09T03:43:00-05:00,82.99,11.34,733.89,-1.38,0.89,113.03,0
2020-03-09T03:44:00-05:00,83.26,11.34,736.5,-1.82,0.56,114.03,0
2020-03-09T03:45:00-05:00,83.34,11.32,733.62,-0.49,0.65,137.83,0
2020-03-09T03:46:00-05:00,83.16,11.33,733.25,-1.38,0.61,115.25,0
2020-03-09T03:47:00-05:00,83.58,11.32,736,-1.08,0.59,117,0
2020-03-09T03:48:00-05:00,83.44,11.33,733.46,-2.41,0.57,119.25,0
2020-03-09T03:49:00-05:00,83.48,11.32,736.64,-2.11,0.78,127.38,0
2020-03-09T03:50:00-05:00,83.48,11.32,733.92,-1.38,0.67,133.89,0
2020-03-09T03:51:00-05:00,83.74,11.31,733.32,-2.26,0.62,144.5,0
2020-03-09T03:52:00-05:00,82.83,11.29,736.37,-0.35,0.17,314.82,0
2020-03-09T03:53:00-05:00,81.52,11.36,735.77,-1.38,0.84,34.23,0
2020-03-09T03:54:00-05:00,82.15,11.46,736.4,-0.64,0.65,56.8,0
2020-03-09T03:55:00-05:00,83.72,11.49,735.93,-1.82,0.73,80.6,0
2020-03-09T03:56:00-05:00,83.38,11.47,735.83,-0.94,0.59,68.13,0
2020-03-09T03:57:00-05:00,83.48,11.46,733.62,-2.85,0.58,120.26,0
2020-03-09T03:58:00-05:00,82.28,11.44,736.6,-2.11,0.59,137.52,0
2020-03-09T03:59:00-05:00,82.1,11.44,736.7,-0.35,0.35,95.41,0
2020-03-09T04:00:00-05:00,82.24,11.44,735.87,0.09,0.53,114.24,0
2020-03-09T04:01:00-05:00,82.09,11.46,736.4,-0.35,0.59,87.56,0
2020-03-09T04:02:00-05:00,81.87,11.47,733.49,-0.49,0.56,101.28,0
2020-03-09T04:03:00-05:00,81.98,11.46,733.69,-1.08,0.75,118.8,0
2020-03-09T04:04:00-05:00,82.63,11.46,736.57,-0.94,0.57,126.58,0
2020-03-09T04:05:00-05:00,82.93,11.44,735.13,-0.49,0.33,120.29,0
2020-03-09T04:06:00-05:00,82.08,11.42,733.82,-1.38,0.5,121.95,0
2020-03-09T04:07:00-05:00,82.27,11.43,734.09,-2.11,0.59,95.67,0
2020-03-09T04:08:00-05:00,81.62,11.45,734.96,-0.64,0.59,111,0
2020-03-09T04:09:00-05:00,81.66,11.48,735.23,-0.05,0.49,66.5,0
2020-03-09T04:10:00-05:00,81.43,11.49,734.86,-1.97,0.22,62.13,0
2020-03-09T04:11:00-05:00,81.68,11.51,733.46,-2.41,0.68,74.97,0
2020-03-09T04:12:00-05:00,81.44,11.51,736.47,-1.23,0.82,67.83,0
2020-03-09T04:13:00-05:00,80.81,11.54,735.43,-1.52,0.57,59.17,0
2020-03-09T04:14:00-05:00,80.92,11.58,732.95,-1.82,0.57,112.25,0
2020-03-09T04:15:00-05:00,81.05,11.59,733.76,-1.08,0.56,96.25,0
2020-03-09T04:16:00-05:00,81.26,11.56,735.56,-3.14,0.61,61.67,0
2020-03-09T04:17:00-05:00,82.51,11.58,736.67,-2.99,0.22,241.84,0
2020-03-09T04:18:00-05:00,82.81,11.52,733.96,-3.73,0.32,213.97,0
2020-03-09T04:19:00-05:00,81.55,11.5,732.82,-2.55,0.78,110.06,0
2020-03-09T04:20:00-05:00,81.25,11.49,736.07,-2.7,0.57,98.56,0
2020-03-09T04:21:00-05:00,81.49,11.48,733.15,-1.08,0.58,148.26,0
2020-03-09T04:22:00-05:00,81.82,11.47,736.6,-0.94,0.53,130.75,0
2020-03-09T04:23:00-05:00,81.95,11.46,733.36,-0.79,0.45,155.56,0
2020-03-09T04:24:00-05:00,81.66,11.46,733.05,-0.94,0.58,117.23,0
2020-03-09T04:25:00-05:00,81.75,11.44,736.8,-1.82,0.6,81.27,0
2020-03-09T04:26:00-05:00,81.45,11.45,733.62,-2.26,0.64,54.19,0
2020-03-09T04:27:00-05:00,82.22,11.47,733.39,-2.7,0.59,50.9,0
2020-03-09T04:28:00-05:00,81.64,11.44,735.36,-1.67,0.73,37.74,0
2020-03-09T04:29:00-05:00,81.46,11.46,735.63,-1.52,0.64,105.51,0
2020-03-09T04:30:00-05:00,81.07,11.49,734.26,-2.41,0.61,83.62,0
2020-03-09T04:31:00-05:00,82.45,11.5,734.33,-1.23,0.59,56.22,0
2020-03-09T04:32:00-05:00,81.98,11.46,736.74,-1.82,0.41,97.59,0
2020-03-09T04:33:00-05:00,81.72,11.44,733.46,-1.82,0.45,91.69,0
2020-03-09T04:34:00-05:00,81.83,11.43,736.64,-2.55,0.35,112.37,0
2020-03-09T04:35:00-05:00,81.87,11.43,733.96,-2.7,0.58,127.23,0
2020-03-09T04:36:00-05:00,82.01,11.42,736.23,-0.35,0.6,86.53,0
2020-03-09T04:37:00-05:00,82.29,11.39,734.73,-1.97,0.59,66.94,0
2020-03-09T04:38:00-05:00,83.68,11.38,736.47,-1.67,0.64,108.18,0
2020-03-09T04:39:00-05:00,83.87,11.35,734.26,-2.11,0.71,81.78,0
2020-03-09T04:40:00-05:00,82.89,11.29,733.59,-0.49,0.74,105.59,0
2020-03-09T04:41:00-05:00,82.51,11.3,733.39,-2.11,0.56,144.04,0
2020-03-09T04:42:00-05:00,82.25,11.3,735.6,-0.94,0.17,131.12,0
2020-03-09T04:43:00-05:00,82.95,11.32,734.53,-1.82,0.35,163.17,0
2020-03-09T04:44:00-05:00,82.41,11.29,736.3,-1.23,0.34,155.56,0
2020-03-09T04:45:00-05:00,83.3,11.3,735.3,-2.11,0.63,113.25,0
2020-03-09T04:46:00-05:00,83.08,11.31,733.76,-2.7,0.27,115.34,0
2020-03-09T04:47:00-05:00,83.17,11.3,735.8,-1.23,0.38,312.6,0
2020-03-09T04:48:00-05:00,83.13,11.3,736.3,-0.49,0.25,255.08,0
2020-03-09T04:49:00-05:00,82.98,11.28,736.07,-1.08,0.17,149.21,0
2020-03-09T04:50:00-05:00,83.32,11.28,734.13,-1.38,0.15,167.36,0
2020-03-09T04:51:00-05:00,83.26,11.28,734.49,-3.14,0.28,156.21,0
2020-03-09T04:52:00-05:00,83.24,11.28,733.82,-1.97,0.65,147.23,0
2020-03-09T04:53:00-05:00,82.99,11.29,733.32,-2.85,0.56,135.1,0
2020-03-09T04:54:00-05:00,83.3,11.29,733.92,-1.38,0.55,155.23,0
2020-03-09T04:55:00-05:00,83.58,11.28,735.3,-2.55,0.65,147.24,0
2020-03-09T04:56:00-05:00,83.36,11.26,734.69,-2.7,0.56,134.19,0
2020-03-09T04:57:00-05:00,83.29,11.24,736.07,-1.67,0.58,126.46,0
2020-03-09T04:58:00-05:00,83.56,11.24,733.99,-1.82,0.56,99.98,0
2020-03-09T04:59:00-05:00,83.74,11.23,733.52,-2.11,0.59,135.73,0
2020-03-09T05:00:00-05:00,84.04,11.23,736.5,-0.2,0.55,140.57,0
2020-03-09T05:01:00-05:00,84.35,11.21,733.52,-0.79,0.41,136.55,0
2020-03-09T05:02:00-05:00,84.32,11.2,735.43,-1.97,0.68,136.96,0
2020-03-09T05:03:00-05:00,84.59,11.18,733.59,-0.49,0.65,112.34,0
2020-03-09T05:04:00-05:00,84.42,11.19,736.5,0.24,0.57,89.93,0
2020-03-09T05:05:00-05:00,84.2,11.15,736.47,-1.97,0.59,70.55,0
2020-03-09T05:06:00-05:00,84.21,11.16,733.69,-2.55,0.24,47.35,0
2020-03-09T05:07:00-05:00,85.16,11.18,736.7,-1.38,0.63,77.21,0
2020-03-09T05:08:00-05:00,85.33,11.17,733.15,-1.67,0.57,36.86,0
2020-03-09T05:09:00-05:00,85.59,11.16,733.02,-1.67,0.4,53.83,0
2020-03-09T05:10:00-05:00,85.23,11.14,733.46,-0.35,0.58,142.61,0
2020-03-09T05:11:00-05:00,84.64,11.13,733.19,-1.38,0.23,176.11,0
2020-03-09T05:12:00-05:00,84.35,11.14,735.56,-0.64,0.53,255.71,0
2020-03-09T05:13:00-05:00,84.76,11.12,735.7,-1.38,0.52,179.13,0
2020-03-09T05:14:00-05:00,85.17,11.1,733.82,-2.99,0.63,207.98,0
2020-03-09T05:15:00-05:00,85.43,11.06,734.76,-2.55,0.59,205.01,0
2020-03-09T05:16:00-05:00,85.67,11.02,736.07,-2.11,0.56,185.01,0
2020-03-09T05:17:00-05:00,85.74,10.98,735.36,0.24,0.33,150.2,0
2020-03-09T05:18:00-05:00,85.85,10.96,734.56,-2.7,0.59,117.36,0
2020-03-09T05:19:00-05:00,86.01,10.96,736.03,-0.64,0.61,117.76,0
2020-03-09T05:20:00-05:00,86.4,10.96,734.83,-1.08,0.68,111.5,0
2020-03-09T05:21:00-05:00,86.11,10.94,734.96,-0.94,0.56,129.52,0
2020-03-09T05:22:00-05:00,85.71,10.96,735.16,-0.79,0.71,166.46,0
2020-03-09T05:23:00-05:00,85.57,10.96,735.43,-2.41,0.54,188.07,0
2020-03-09T05:24:00-05:00,85.89,10.95,735.83,-1.38,0.71,170.41,0
2020-03-09T05:25:00-05:00,86.63,10.9,734.69,-0.79,0.43,170.09,0
2020-03-09T05:26:00-05:00,86.98,10.88,733.02,-3.73,0.64,118.53,0
2020-03-09T05:27:00-05:00,86.96,10.86,732.52,-2.85,0.79,99.69,0
2020-03-09T05:28:00-05:00,87.13,10.86,734.86,-0.49,0.64,71.59,0
2020-03-09T05:29:00-05:00,87.16,10.86,733.82,-1.82,0.58,106.61,0
2020-03-09T05:30:00-05:00,86.72,10.89,733.56,-2.26,0.54,125.15,0
2020-03-09T05:31:00-05:00,86.32,10.9,734.49,-0.35,0.57,137.27,0
2020-03-09T05:32:00-05:00,85.82,10.91,734.59,-1.82,0.58,177.06,0
2020-03-09T05:33:00-05:00,85.63,10.92,735.43,-1.52,0.59,139.54,0
2020-03-09T05:34:00-05:00,85.85,10.96,734.66,-2.99,0.57,122.51,0
2020-03-09T05:35:00-05:00,85.83,10.96,732.65,-0.2,0.68,104.78,0
2020-03-09T05:36:00-05:00,85.65,10.98,736,-0.94,0.64,90.11,0
2020-03-09T05:37:00-05:00,85.93,10.98,735.63,-2.26,0.6,97.6,0
2020-03-09T05:38:00-05:00,86.14,10.98,732.92,-1.52,0.48,142.21,0
2020-03-09T05:39:00-05:00,85.9,10.98,732.92,-0.79,0.53,132.81,0
2020-03-09T05:40:00-05:00,85.67,10.98,732.99,0.09,0.53,142.25,0
2020-03-09T05:41:00-05:00,85.45,10.98,732.82,-1.97,0.68,130.62,0
2020-03-09T05:42:00-05:00,85.39,11.02,733.15,-0.79,0.69,108.22,0
2020-03-09T05:43:00-05:00,85.23,11,735.87,-2.7,0.59,110.16,0
2020-03-09T05:44:00-05:00,85.37,11.01,733.36,-1.97,0.21,121.27,0
2020-03-09T05:45:00-05:00,85.51,11.01,732.42,-0.49,0.58,103.88,0
2020-03-09T05:46:00-05:00,85.27,11.02,734.39,-2.99,0.56,115.25,0
2020-03-09T05:47:00-05:00,85.02,11.02,734.46,-0.35,0.65,120.23,0
2020-03-09T05:48:00-05:00,84.5,11.06,733.76,0.24,0.56,172.16,0
2020-03-09T05:49:00-05:00,84.19,11.08,736.2,-0.05,0.52,292.71,0
2020-03-09T05:50:00-05:00,84.68,11.09,733.72,0.53,0.59,159.15,0
2020-03-09T05:51:00-05:00,85.15,11.08,732.85,-1.97,0.35,8.06,0
2020-03-09T05:52:00-05:00,85.51,11.06,734.86,-2.11,0.21,142.2,0
2020-03-09T05:53:00-05:00,85.6,11.05,735.4,-0.64,0.47,163.17,0
2020-03-09T05:54:00-05:00,85.45,11.03,734.56,-1.97,0.36,168.12,0
2020-03-09T05:55:00-05:00,85.57,11,732.35,-2.26,0.54,107.8,0
2020-03-09T05:56:00-05:00,85.55,10.99,733.02,-0.05,0.16,50.09,0
2020-03-09T05:57:00-05:00,85.74,10.97,734.56,-1.08,0.24,294.67,0
2020-03-09T05:58:00-05:00,86.14,10.95,732.45,-2.26,0.62,135.55,0
2020-03-09T05:59:00-05:00,86.43,10.91,734.49,-0.49,0.43,123.23,0
2020-03-09T06:00:00-05:00,86.6,10.91,734.26,0.09,0.59,91.93,0
2020-03-09T06:01:00-05:00,86.29,10.9,732.72,-0.35,0.58,130.42,0
2020-03-09T06:02:00-05:00,86.31,10.9,732.82,1.12,0.83,110.89,0
2020-03-09T06:03:00-05:00,85.97,10.92,733.72,0.53,0.65,108.33,0
2020-03-09T06:04:00-05:00,85.83,10.92,734.06,-1.52,0.8,82.17,0
2020-03-09T06:05:00-05:00,85.42,10.96,733.25,2.3,0.81,110.16,0
2020-03-09T06:06:00-05:00,85.58,11,735.5,0.53,0.83,71.58,0
2020-03-09T06:07:00-05:00,86.21,10.98,734.83,2.45,0.73,79.22,0
2020-03-09T06:08:00-05:00,86.58,10.97,733.86,0.68,0.6,86.5,0
2020-03-09T06:09:00-05:00,86.57,10.96,733.56,2.74,0.48,92.29,0
2020-03-09T06:10:00-05:00,86.63,10.93,735.23,4.5,0.32,140.28,0
2020-03-09T06:11:00-05:00,85.71,10.93,735.87,5.39,0.6,151.19,0
2020-03-09T06:12:00-05:00,85.17,10.94,732.62,7.74,0.56,148.25,0
2020-03-09T06:13:00-05:00,85.09,10.98,735.8,7.3,0.58,138.28,0
2020-03-09T06:14:00-05:00,85.05,10.99,736.6,10.97,0.55,127.57,0
2020-03-09T06:15:00-05:00,85.32,11,732.48,11.27,0.63,125.26,0
2020-03-09T06:16:00-05:00,85.18,11,735.43,14.94,0.74,127.83,0
2020-03-09T06:17:00-05:00,84.87,11,735.1,16.71,0.68,139.59,0
2020-03-09T06:18:00-05:00,84.67,11.02,736.23,15.68,0.63,134.21,0
2020-03-09T06:19:00-05:00,84.38,11.03,733.66,16.12,0.84,167.46,0
2020-03-09T06:20:00-05:00,84.4,11.04,735.93,16.56,0.67,165.17,0
2020-03-09T06:21:00-05:00,84.67,11.04,736.27,17,0.42,159.52,0
2020-03-09T06:22:00-05:00,84.45,11.04,734.96,16.56,0.57,139.24,0
2020-03-09T06:23:00-05:00,84.14,11.07,736.37,17.15,0.8,98.7,0
2020-03-09T06:24:00-05:00,84.03,11.1,736.54,19.21,0.56,108.32,0
2020-03-09T06:25:00-05:00,83.7,11.13,733.66,18.32,0.63,97.17,0
2020-03-09T06:26:00-05:00,83.52,11.18,733.99,21.26,0.32,157.19,0
2020-03-09T06:27:00-05:00,83.38,11.2,734.39,22.44,0.41,192.98,0
2020-03-09T06:28:00-05:00,83.19,11.22,737.17,22.29,0.2,224.9,0
2020-03-09T06:29:00-05:00,83.23,11.26,734.09,25.68,0.08,185.04,0
2020-03-09T06:30:00-05:00,83.61,11.27,734.9,26.26,0.41,164.16,0
2020-03-09T06:31:00-05:00,83.92,11.25,737.07,27.44,0.5,136.18,0
2020-03-09T06:32:00-05:00,84.19,11.24,733.42,29.64,0.57,111.73,0
2020-03-09T06:33:00-05:00,84.29,11.22,734.33,31.7,0.57,97.52,0
2020-03-09T06:34:00-05:00,83.89,11.26,734.83,34.5,0.57,64.79,0
2020-03-09T06:35:00-05:00,83.56,11.28,733.59,33.91,0.61,55.32,0
2020-03-09T06:36:00-05:00,84.63,11.32,735.87,35.82,0.21,318.91,0
2020-03-09T06:37:00-05:00,84.58,11.32,736.97,35.97,0.58,96.36,0
2020-03-09T06:38:00-05:00,84.61,11.33,735.26,37.29,0.35,134.48,0
2020-03-09T06:39:00-05:00,84.99,11.34,737.41,40.08,0.34,88.86,0
2020-03-09T06:40:00-05:00,85.19,11.36,736.17,42.14,0.68,56.92,0
2020-03-09T06:41:00-05:00,85.39,11.37,735,46.11,0.67,53.76,0
2020-03-09T06:42:00-05:00,85.75,11.38,737.24,51.55,1.2,63.79,0
2020-03-09T06:43:00-05:00,85.38,11.38,734.56,57.14,1.14,32.91,0
2020-03-09T06:44:00-05:00,84.84,11.4,734.53,64.34,0.75,55.26,0
2020-03-09T06:45:00-05:00,85.47,11.45,737.47,71.11,0.56,28.76,0
2020-03-09T06:46:00-05:00,85.36,11.47,733.39,74.78,0.33,31.03,0
2020-03-09T06:47:00-05:00,85.77,11.5,734.06,81.25,0.13,259.76,0
2020-03-09T06:48:00-05:00,85.55,11.54,737.31,85.95,0.49,104.22,0
2020-03-09T06:49:00-05:00,85.57,11.56,733.89,93.01,0.34,182.08,0
2020-03-09T06:50:00-05:00,85.22,11.58,737.37,98.01,0.49,330.54,0
2020-03-09T06:51:00-05:00,85.45,11.62,734.06,105.36,0.67,13.45,0
2020-03-09T06:52:00-05:00,83.13,11.67,737.54,113.01,0.75,327.56,0
2020-03-09T06:53:00-05:00,83.17,11.73,737.1,122.56,0.63,329.58,0
2020-03-09T06:54:00-05:00,83.51,11.78,735.8,130.8,0.43,54.08,0
2020-03-09T06:55:00-05:00,84.45,11.87,736.94,135.65,0.48,194.27,0
2020-03-09T06:56:00-05:00,84.61,11.91,737.2,142.85,0.16,286.61,0
2020-03-09T06:57:00-05:00,85.15,11.99,736.84,143.44,0.44,95.99,0
2020-03-09T06:58:00-05:00,84.36,12.03,734.83,145.94,0.32,352.5,0
2020-03-09T06:59:00-05:00,83.07,12.09,736.6,149.32,0.81,68.27,0
2020-03-09T07:00:00-05:00,82.79,12.13,735.93,150.06,0.94,52.83,0
2020-03-09T07:01:00-05:00,82.91,12.19,735.77,151.09,0.71,66.24,0
2020-03-09T07:02:00-05:00,82.81,12.23,734.46,150.65,0.8,47.61,0
2020-03-09T07:03:00-05:00,81.97,12.25,736.07,150.5,0.65,50.66,0
2020-03-09T07:04:00-05:00,82.14,12.28,736.1,151.38,0.21,352.53,0
2020-03-09T07:05:00-05:00,82.43,12.35,736.47,155.94,0.06,330.5,0
2020-03-09T07:06:00-05:00,82.67,12.41,735.97,157.56,0.62,96.29,0
2020-03-09T07:07:00-05:00,81.12,12.46,736.47,152.26,0.67,56.15,0
2020-03-09T07:08:00-05:00,80.33,12.47,736.43,150.94,0.61,74.29,0
2020-03-09T07:09:00-05:00,80.48,12.54,737,148.59,0.57,80.03,0
2020-03-09T07:10:00-05:00,80.8,12.55,736.84,153.88,0.64,101.26,0
2020-03-09T07:11:00-05:00,81.27,12.61,737.07,165.05,0.25,333.61,0
2020-03-09T07:12:00-05:00,81.36,12.67,737.74,176.23,0.16,113.53,0
2020-03-09T07:13:00-05:00,81.28,12.73,737.94,187.55,0.24,14.33,0
2020-03-09T07:14:00-05:00,81,12.82,738.31,195.63,0.59,347.84,0
2020-03-09T07:15:00-05:00,80.05,12.85,738.64,194.75,0.59,51.41,0
2020-03-09T07:16:00-05:00,78.96,12.87,738.61,187.99,0.64,102.92,0
2020-03-09T07:17:00-05:00,78.68,12.91,739.05,181.37,0.56,95.38,0
2020-03-09T07:18:00-05:00,78.89,12.96,737.91,170.64,0.35,82.96,0
2020-03-09T07:19:00-05:00,79.27,13.04,738.38,159.61,0.67,36.57,0
2020-03-09T07:20:00-05:00,79.48,13.12,739.65,159.17,0.79,55.45,0
2020-03-09T07:21:00-05:00,78.6,13.15,739.72,245.62,1.05,73.62,0
2020-03-09T07:22:00-05:00,79.44,13.23,740.42,298.4,0.21,132.97,0
2020-03-09T07:23:00-05:00,80.15,13.38,740.75,296.05,0.15,281.71,0
2020-03-09T07:24:00-05:00,79.67,13.51,737,309.28,0.66,238.87,0
2020-03-09T07:25:00-05:00,78.58,13.6,737.14,313.55,0.22,182.08,0
2020-03-09T07:26:00-05:00,77.09,13.69,737.94,306.49,0.48,159.16,0
2020-03-09T07:27:00-05:00,77.17,13.84,738.68,296.64,0.32,13.46,0
2020-03-09T07:28:00-05:00,75.48,14.03,738.68,300.17,0.56,32.16,0
2020-03-09T07:29:00-05:00,76.36,14.2,740.45,308.25,0.56,30.44,0
2020-03-09T07:30:00-05:00,75.61,14.41,740.15,308.84,1.35,102.7,0
2020-03-09T07:31:00-05:00,75.18,14.5,741.39,319.72,0.68,129.34,0
2020-03-09T07:32:00-05:00,74.61,14.58,740.28,319.58,0.57,125.24,0
2020-03-09T07:33:00-05:00,73.48,14.61,740.72,311.49,0.61,137.61,0
2020-03-09T07:34:00-05:00,72.48,14.69,741.56,293.85,0.14,113.28,0
2020-03-09T07:35:00-05:00,71.93,14.89,742.06,292.52,0.1,110.46,0
2020-03-09T07:36:00-05:00,71.35,15.06,742.13,174.02,0.55,56.12,0
2020-03-09T07:37:00-05:00,71.67,15.22,743.06,129.62,0.36,146.32,0
2020-03-09T07:38:00-05:00,71.46,15.28,743.23,266.79,0.21,278.65,0
2020-03-09T07:39:00-05:00,71.96,15.34,742.83,158.88,0.55,193.95,0
2020-03-09T07:40:00-05:00,73.08,15.23,743,121.09,0.15,106.61,0
2020-03-09T07:41:00-05:00,73.47,15.17,742.76,321.93,0.52,133.82,0
2020-03-09T07:42:00-05:00,74.39,15.13,743.16,275.47,0.65,110.08,0
2020-03-09T07:43:00-05:00,74.77,15.05,742.16,220.48,0.43,109.1,0
2020-03-09T07:44:00-05:00,75.62,15.01,742.39,348.39,0.48,40.42,0
2020-03-09T07:45:00-05:00,75.97,15.07,743.63,122.27,0.56,88.78,0
2020-03-09T07:46:00-05:00,75.14,15.03,742.53,182.7,0.57,61.36,0
2020-03-09T07:47:00-05:00,75.82,15.07,743.4,375.74,0.31,7.02,0
2020-03-09T07:48:00-05:00,74.01,15.11,743.13,378.53,0.48,128.72,0
2020-03-09T07:49:00-05:00,74.65,15.16,743.23,382.21,0.55,206.98,0
2020-03-09T07:50:00-05:00,76.4,15.15,744.7,371.18,0.61,213.25,0
2020-03-09T07:51:00-05:00,74.21,15.09,743.13,384.41,0.61,193.96,0
2020-03-09T07:52:00-05:00,74.58,15.07,744.07,386.03,0.63,214.3,0
2020-03-09T07:53:00-05:00,74.84,15.06,743.93,378.53,0.55,207.98,0
2020-03-09T07:54:00-05:00,74.61,15.09,739.48,393.53,0.62,203.28,0
2020-03-09T07:55:00-05:00,74.55,15.18,738.58,393.38,0.54,161.13,0
2020-03-09T07:56:00-05:00,74.41,15.29,738.88,352.21,1.06,197.02,0
2020-03-09T07:57:00-05:00,73.61,15.35,739.05,373.83,0.59,268.01,0
2020-03-09T07:58:00-05:00,70.34,15.37,738.08,390.59,0.58,265.77,0
2020-03-09T07:59:00-05:00,69.15,15.42,737.47,424.11,0.58,266.72,0
2020-03-09T08:00:00-05:00,69.64,15.5,738.21,423.96,0.55,354.47,0
2020-03-09T08:01:00-05:00,70.48,15.63,737.71,407.35,0.69,297.59,0
2020-03-09T08:02:00-05:00,68.83,15.72,738.01,454.69,0.65,189.04,0
2020-03-09T08:03:00-05:00,69.78,15.77,737.07,442.78,0.49,242.77,0
2020-03-09T08:04:00-05:00,67.72,15.76,737.37,495.71,1.98,286.62,0
2020-03-09T08:05:00-05:00,67.45,15.74,737.47,254.3,0.57,69.78,0
2020-03-09T08:06:00-05:00,66.89,15.74,737.14,193.72,0.81,350.54,0
2020-03-09T08:07:00-05:00,67.81,15.74,737.1,181.23,0.4,320.85,0
2020-03-09T08:08:00-05:00,68.72,15.73,738.44,215.04,0.5,255.66,0
2020-03-09T08:09:00-05:00,66.3,15.66,737.27,280.61,0.67,277,0
2020-03-09T08:10:00-05:00,67.12,15.59,737.27,356.48,0.46,302.64,0
2020-03-09T08:11:00-05:00,68.85,15.55,738.24,268.41,0.61,262.07,0
2020-03-09T08:12:00-05:00,67.95,15.45,737.61,250.33,0.76,216.9,0
2020-03-09T08:13:00-05:00,67.97,15.33,737.61,485.12,1.25,254.04,0
2020-03-09T08:14:00-05:00,68.19,15.31,737.91,495.12,0.77,337.5,0
2020-03-09T08:15:00-05:00,67.17,15.32,737.61,618.92,1.93,0.86,0
2020-03-09T08:16:00-05:00,68.29,15.3,737.94,621.71,0.48,340.45,0
2020-03-09T08:17:00-05:00,68.33,15.41,736.97,574.22,0.91,240.82,0
2020-03-09T08:18:00-05:00,69.74,15.5,738.54,280.61,0.53,186.95,0
2020-03-09T08:19:00-05:00,68.99,15.53,738.28,280.03,0.54,202.9,0
2020-03-09T08:20:00-05:00,69.22,15.55,738.34,220.04,0.18,269.7,0
2020-03-09T08:21:00-05:00,67.44,15.44,737.1,238.57,1.13,28.14,0
2020-03-09T08:22:00-05:00,67.46,15.3,738.48,218.72,0.65,39.09,0
2020-03-09T08:23:00-05:00,68.5,15.11,737.31,185.64,1.74,36.32,0
2020-03-09T08:24:00-05:00,68.81,14.99,737.97,206.66,1.34,178.4,0
2020-03-09T08:25:00-05:00,70.18,14.89,738.21,204.9,0.21,355.45,0
2020-03-09T08:26:00-05:00,72.09,14.89,738.34,231.95,0.57,181.4,0
2020-03-09T08:27:00-05:00,72.2,14.91,737.44,223.86,1.34,343.51,0
2020-03-09T08:28:00-05:00,72.28,14.87,738.21,215.04,1.3,4.02,0
2020-03-09T08:29:00-05:00,72.42,14.8,738.24,223.27,0.64,27.3,0
2020-03-09T08:30:00-05:00,72.74,14.78,737.44,222.69,0.6,195.18,0
2020-03-09T08:31:00-05:00,72.8,14.79,739.08,225.77,0.66,255.96,0
2020-03-09T08:32:00-05:00,72.01,14.74,738.31,227.54,2.64,252.03,0
2020-03-09T08:33:00-05:00,71.88,14.67,738.21,226.8,0.21,306.56,0
2020-03-09T08:34:00-05:00,72.07,14.65,737.91,224.74,0.98,16.25,0
2020-03-09T08:35:00-05:00,74.98,14.63,737.94,220.19,0.27,292.66,0
2020-03-09T08:36:00-05:00,73.76,14.63,737.57,216.51,0.66,202.92,0
2020-03-09T08:37:00-05:00,72.84,14.59,737.67,210.92,0.82,231.89,0
2020-03-09T08:38:00-05:00,73.71,14.56,737.91,206.07,0.25,58.51,0
2020-03-09T08:39:00-05:00,72.99,14.51,737.41,202.54,1.32,191.97,0
2020-03-09T08:40:00-05:00,76.37,14.48,738.51,196.52,0.85,217.86,0
2020-03-09T08:41:00-05:00,74.23,14.44,738.04,194.61,0.55,352.32,0
2020-03-09T08:42:00-05:00,72.43,14.41,737.94,193.58,1.63,345.5,0
2020-03-09T08:43:00-05:00,72.72,14.38,737.61,188.87,0.69,319.92,0
2020-03-09T08:44:00-05:00,73.82,14.37,737.71,184.61,0.58,207.97,0
2020-03-09T08:45:00-05:00,73.89,14.34,738.98,183.14,0.27,174.44,0
2020-03-09T08:46:00-05:00,75.01,14.37,737.64,183.28,0.15,174.12,0
2020-03-09T08:47:00-05:00,75.16,14.43,738.54,181.08,0.2,152.5,0
2020-03-09T08:48:00-05:00,75.11,14.45,737.61,181.96,0.67,297.59,0
2020-03-09T08:49:00-05:00,74.22,14.5,737.94,182.26,0.46,236.12,0
2020-03-09T08:50:00-05:00,74.49,14.55,739.35,184.02,0.98,227.82,0
2020-03-09T08:51:00-05:00,74.32,14.55,737.77,184.46,0.28,228.82,0
2020-03-09T08:52:00-05:00,75.03,14.59,737.67,184.17,0.61,238.87,0
2020-03-09T08:53:00-05:00,74.63,14.6,739.11,185.05,0.21,264.76,0
2020-03-09T08:54:00-05:00,75.39,14.65,738.91,187.4,0.18,218.87,0
2020-03-09T08:55:00-05:00,75.37,14.68,738.81,187.69,0.63,291.65,0
2020-03-09T08:56:00-05:00,75.78,14.75,739.21,114.77,0.78,286.62,0
2020-03-09T08:57:00-05:00,73.61,14.74,737.97,196.08,0.55,33.83,0
2020-03-09T08:58:00-05:00,74.69,14.79,739.45,200.05,0.21,265.75,0
2020-03-09T08:59:00-05:00,73.47,14.83,738.51,203.72,0.19,256.78,0
2020-03-09T09:00:00-05:00,72.51,14.9,739.45,208.43,0.23,300.67,0
2020-03-09T09:01:00-05:00,72.32,14.95,739.72,210.63,0.53,32.33,0
2020-03-09T09:02:00-05:00,70.4,14.99,739.18,217.54,0.59,182.38,0
2020-03-09T09:03:00-05:00,69.68,15.03,740.05,221.95,0.62,328.55,0
2020-03-09T09:04:00-05:00,70.73,15.04,739.72,224.89,0.61,325.92,0
2020-03-09T09:05:00-05:00,71.93,15.08,739.51,233.71,0.36,321.82,0
2020-03-09T09:06:00-05:00,70.94,15.13,740.25,241.06,1.07,282.08,0
2020-03-09T09:07:00-05:00,71.93,15.14,739.58,250.62,0.56,302.62,0
2020-03-09T09:08:00-05:00,73.5,15.18,740.89,261.94,0.49,234.19,0
2020-03-09T09:09:00-05:00,72.53,15.21,741.12,277.97,1.12,296.59,0
2020-03-09T09:10:00-05:00,72.07,15.23,740.28,291.64,0.61,345.49,0
2020-03-09T09:11:00-05:00,70.6,15.29,740.38,307.23,0.3,255.68,0
2020-03-09T09:12:00-05:00,69.21,15.33,740.99,324.43,0.58,311.61,0
2020-03-09T09:13:00-05:00,68.51,15.36,741.29,340.31,0.21,83.74,0
2020-03-09T09:14:00-05:00,69.76,15.46,741.82,357.36,0.6,283.69,0
2020-03-09T09:15:00-05:00,71.6,15.55,742.73,373.68,0.56,264.79,0
2020-03-09T09:16:00-05:00,71.09,15.67,742.8,393.38,0.76,304.6,0
2020-03-09T09:17:00-05:00,69.58,15.71,743.8,410.58,0.71,272.67,0
2020-03-09T09:18:00-05:00,69.25,15.8,744.77,426.31,0.5,66.61,0
2020-03-09T09:19:00-05:00,69.6,15.9,745.67,432.64,0.53,307.27,0
2020-03-09T09:20:00-05:00,67.54,15.99,745.57,438.66,1.02,326.58,0
2020-03-09T09:21:00-05:00,67.77,16.02,738.95,433.52,0.77,293,0
2020-03-09T09:22:00-05:00,68.53,16.09,737.81,422.93,0.57,214.93,0
2020-03-09T09:23:00-05:00,68.13,16.15,737.61,418.96,1,225.21,0
2020-03-09T09:24:00-05:00,67.94,16.17,738.88,427.05,0.61,124.18,0
2020-03-09T09:25:00-05:00,67.73,16.2,737.64,437.05,0.24,227.17,0
2020-03-09T09:26:00-05:00,66.48,16.28,738.14,453.81,0.22,101.05,0
2020-03-09T09:27:00-05:00,68.21,16.36,738.04,478.8,0.5,242.17,0
2020-03-09T09:28:00-05:00,66.6,16.46,738.68,499.24,0.55,28.46,0
2020-03-09T09:29:00-05:00,66.83,16.54,738.74,516.44,0.12,2.74,0
2020-03-09T09:30:00-05:00,69.43,16.7,738.58,535.11,0.56,311.6,0
2020-03-09T09:31:00-05:00,67.3,16.78,737.61,483.95,0.57,253.75,0
2020-03-09T09:32:00-05:00,65.29,16.76,737.51,464.1,0.88,50.55,0
2020-03-09T09:33:00-05:00,65.74,16.74,738.21,451.6,1.18,7.69,0
2020-03-09T09:34:00-05:00,65.75,16.78,738.85,440.13,1.17,317.59,0
2020-03-09T09:35:00-05:00,66.5,16.8,737.94,435.58,0.58,242.8,0
2020-03-09T09:36:00-05:00,66.32,16.85,737.94,440.28,0.55,38.74,0
2020-03-09T09:37:00-05:00,65.79,16.96,738.41,467.04,0.78,344.48,0
2020-03-09T09:38:00-05:00,64.72,17.04,737.64,470.86,0.59,333.94,0
2020-03-09T09:39:00-05:00,67.88,17.09,737.81,471.3,0.63,291.95,0
2020-03-09T09:40:00-05:00,67.22,17.19,738.44,463.95,0.51,272.99,0
2020-03-09T09:41:00-05:00,66.32,17.29,738.81,504.97,0.65,231.86,0
2020-03-09T09:42:00-05:00,65.81,17.33,737.67,696.54,0.75,266.16,0
2020-03-09T09:43:00-05:00,67.04,17.47,739.38,889.88,1.01,273.72,0
2020-03-09T09:44:00-05:00,64.28,17.56,739.72,818.43,0.67,276.04,0
2020-03-09T09:45:00-05:00,63.01,17.67,739.88,872.09,0.64,203.93,0
2020-03-09T09:46:00-05:00,63.04,17.74,740.45,772.41,0.93,238.02,0
2020-03-09T09:47:00-05:00,65.24,17.8,737.27,708.01,0.57,263.69,0
2020-03-09T09:48:00-05:00,64.65,17.82,738.74,668.17,0.21,291.71,0
2020-03-09T09:49:00-05:00,68.21,17.92,738.85,681.25,0.64,247.79,0
2020-03-09T09:50:00-05:00,65.17,18.03,737.17,838.57,0.21,255.71,0
2020-03-09T09:51:00-05:00,63.24,18.18,737.37,843.71,0.21,2.75,0
2020-03-09T09:52:00-05:00,63.39,18.35,737.81,687.28,0.81,301.62,0
2020-03-09T09:53:00-05:00,62.95,18.5,736.94,931.93,0.93,228.78,0
2020-03-09T09:54:00-05:00,65.48,18.62,738.38,684.63,1.03,267.73,0
2020-03-09T09:55:00-05:00,61.6,18.75,737.2,952.66,0.77,201.32,0
2020-03-09T09:56:00-05:00,61.89,18.87,738.51,750.21,0.58,213.94,0
2020-03-09T09:57:00-05:00,61.48,19.02,738.14,542.76,0.55,274.09,0
2020-03-09T09:58:00-05:00,62.14,19.17,737.74,612.59,1.61,269.69,0
2020-03-09T09:59:00-05:00,60.52,19.21,737.24,1016.91,0.6,163.52,0
2020-03-09T10:00:00-05:00,59.55,19.26,737.81,1054.1,2.52,225.82,0
2020-03-09T10:01:00-05:00,58.62,19.21,738.21,482.92,0.58,198.32,0
2020-03-09T10:02:00-05:00,58.61,19.21,737.41,1117.03,0.06,352.48,0
2020-03-09T10:03:00-05:00,58.92,19.26,737.74,993.38,2.33,260.04,0
2020-03-09T10:04:00-05:00,57.69,19.2,738.04,1085.27,1.71,223.89,0
2020-03-09T10:05:00-05:00,61.64,19.06,737.67,1167.75,0.45,262.71,0
2020-03-09T10:06:00-05:00,61.8,19.15,736.8,1160.84,0.85,173.11,0
2020-03-09T10:07:00-05:00,58.74,19.28,737.64,478.51,0.88,245.76,0
2020-03-09T10:08:00-05:00,60.67,19.33,737.87,381.33,0.84,181.08,0
2020-03-09T10:09:00-05:00,56.32,19.22,737.17,335.6,1.3,60.36,0
2020-03-09T10:10:00-05:00,56.87,18.96,738.51,308.99,0.96,124.89,0
2020-03-09T10:11:00-05:00,58.24,18.82,738.11,286.94,0.13,310.59,0
2020-03-09T10:12:00-05:00,61.44,18.8,738.54,263.85,0.66,207.28,0
2020-03-09T10:13:00-05:00,63.77,18.74,737.1,243.27,0.83,214.27,0
2020-03-09T10:14:00-05:00,60.83,18.59,738.21,231.8,1.14,211.25,0
2020-03-09T10:15:00-05:00,59.55,18.43,737.47,219.01,0.49,127.5,0
2020-03-09T10:16:00-05:00,58.33,18.27,738.11,212.25,0.57,243.15,0
2020-03-09T10:17:00-05:00,60.77,18.24,737.74,203.13,0.37,271.65,0
2020-03-09T10:18:00-05:00,59.72,18.2,738.11,202.84,0.76,236.15,0
2020-03-09T10:19:00-05:00,59.8,18.13,737.17,206.22,0.82,285.64,0
2020-03-09T10:20:00-05:00,58.81,18.05,737.1,204.31,0.7,277.06,0
2020-03-09T10:21:00-05:00,59.74,18.01,736.87,205.49,0.55,283.67,0
2020-03-09T10:22:00-05:00,59.44,17.95,737.17,209.31,0.58,283.68,0
2020-03-09T10:23:00-05:00,61.19,17.93,737.54,221.8,0.73,272.69,0
2020-03-09T10:24:00-05:00,59.78,17.85,737.64,225.04,0.91,270.69,0
2020-03-09T10:25:00-05:00,60.35,17.82,737.71,230.77,0.63,178.01,0
2020-03-09T10:26:00-05:00,61.56,17.73,738.31,246.65,0.63,122.08,0
2020-03-09T10:27:00-05:00,60.77,17.67,738.11,280.61,0.55,256.79,0
2020-03-09T10:28:00-05:00,64.77,17.72,737.17,330.6,0.2,54.42,0
2020-03-09T10:29:00-05:00,64.18,17.75,737.2,398.09,0.62,96.83,0
2020-03-09T10:30:00-05:00,62.05,17.79,737.17,529.52,0.26,151.19,0
2020-03-09T10:31:00-05:00,65.23,17.9,737.2,1358,0.31,141.59,0
2020-03-09T10:32:00-05:00,62.58,18.05,738.04,727.12,0.56,206.98,0
2020-03-09T10:33:00-05:00,62.36,18.19,738.21,556.14,0.97,236.15,0
2020-03-09T10:34:00-05:00,62.33,18.29,738.14,719.04,0.26,283.68,0
2020-03-09T10:35:00-05:00,62.97,18.42,737.87,855.77,0.7,149.57,0
2020-03-09T10:36:00-05:00,60.77,18.58,736.8,880.62,0.89,300.66,0
2020-03-09T10:37:00-05:00,61.56,18.7,738.61,877.09,0.64,277.05,0
2020-03-09T10:38:00-05:00,58.11,18.77,737,764.62,0.17,151.28,0
2020-03-09T10:39:00-05:00,60.94,18.88,738.18,695.07,0.86,236.8,0
2020-03-09T10:40:00-05:00,59.63,19,737.54,664.64,0.57,155.25,0
2020-03-09T10:41:00-05:00,60.45,19.08,737.94,669.64,0.6,274.74,0
2020-03-09T10:42:00-05:00,60.11,19.1,738.38,781.82,0.63,233.82,0
2020-03-09T10:43:00-05:00,59.38,19.16,736.84,844.16,0.64,231.85,0
2020-03-09T10:44:00-05:00,59.53,19.22,737.84,647,0.57,263.69,0
2020-03-09T10:45:00-05:00,56.89,19.21,738.11,610.24,4.41,37.86,0
2020-03-09T10:46:00-05:00,58.28,19.03,737.34,593.33,0.41,227.14,0
2020-03-09T10:47:00-05:00,59.54,19.02,737,603.77,0.61,179.44,0
2020-03-09T10:48:00-05:00,59.95,19.07,737.2,597.16,0.21,212.25,0
2020-03-09T10:49:00-05:00,57.87,19.09,737.81,591.13,1.72,301.64,0
2020-03-09T10:50:00-05:00,58.43,19.13,736.84,586.86,2.24,19.4,0
2020-03-09T10:51:00-05:00,56.6,19.06,737.97,589.51,2.07,287.61,0
2020-03-09T10:52:00-05:00,57.35,18.98,737.27,623.33,2.32,44.09,0
2020-03-09T10:53:00-05:00,57.89,18.89,738.21,640.09,0.13,142.21,0
2020-03-09T10:54:00-05:00,57.96,18.91,736.8,664.64,0.63,252.12,0
2020-03-09T10:55:00-05:00,57.51,18.88,737.61,673.76,0.56,176.09,0
2020-03-09T10:56:00-05:00,58.34,18.85,737.57,651.41,0.63,152.14,0
2020-03-09T10:57:00-05:00,58.81,18.87,736.97,611.56,0.7,274.73,0
2020-03-09T10:58:00-05:00,59.1,18.92,737.87,597.45,0.61,278.66,0
2020-03-09T10:59:00-05:00,58.93,19,737.87,594.07,0.76,263.69,0
2020-03-09T11:00:00-05:00,60.85,18.98,736.87,595.39,0.63,339.5,0
2020-03-09T11:01:00-05:00,59.79,19.05,738.18,604.65,0.58,191.99,0
2020-03-09T11:02:00-05:00,59.34,19.04,737.04,614.65,0.59,198.97,0
2020-03-09T11:03:00-05:00,59.64,19.04,737.27,634.06,1.64,275.74,0
2020-03-09T11:04:00-05:00,58.42,18.98,736.87,632.15,0.58,194.9,0
2020-03-09T11:05:00-05:00,58.68,19.02,737.94,604.95,0.55,205.36,0
2020-03-09T11:06:00-05:00,57.17,19.08,736.64,595.39,0.12,121.17,0
2020-03-09T11:07:00-05:00,59.72,19.18,737.74,589.95,0.66,249.18,0
2020-03-09T11:08:00-05:00,58.15,19.25,737.07,594.8,0.41,324.57,0
2020-03-09T11:09:00-05:00,60.24,19.26,736.6,599.21,0.6,222.27,0
2020-03-09T11:10:00-05:00,58.13,19.19,737.31,600.98,0.26,326.55,0
2020-03-09T11:11:00-05:00,59.96,19.18,736.8,615.09,0.62,116.66,0
2020-03-09T11:12:00-05:00,60.07,19.23,737.87,639.2,0.62,231.85,0
2020-03-09T11:13:00-05:00,58.56,19.32,737.1,658.76,0.59,171.13,0
2020-03-09T11:14:00-05:00,59.12,19.4,737.41,675.81,0.6,165.12,0
2020-03-09T11:15:00-05:00,58.78,19.47,737.1,707.42,0.19,132.63,0
2020-03-09T11:16:00-05:00,57.82,19.5,737,709.63,1.4,154.22,0
2020-03-09T11:17:00-05:00,54.92,19.33,736.94,878.85,0.54,43.13,0
2020-03-09T11:18:00-05:00,56.61,19.23,736.1,800.78,0.76,247.81,0
2020-03-09T11:19:00-05:00,58.45,19.32,737.24,814.02,0.89,200.96,0
2020-03-09T11:20:00-05:00,58.5,19.37,736.8,824.75,2.29,196.16,0
2020-03-09T11:21:00-05:00,56.86,19.37,736.3,1191.72,1.44,229.12,0
2020-03-09T11:22:00-05:00,56.3,19.42,737.54,940.46,1.58,40.22,0
2020-03-09T11:23:00-05:00,59.03,19.44,737.64,687.58,1.66,257.8,0
2020-03-09T11:24:00-05:00,57.43,19.45,736.3,642.88,1.2,282.08,0
2020-03-09T11:25:00-05:00,58.33,19.34,737.24,637.29,0.67,298.7,0
2020-03-09T11:26:00-05:00,60.17,19.33,736.17,573.34,2.07,275.13,0
2020-03-09T11:27:00-05:00,59.93,19.29,736.43,567.6,0.67,294.62,0
2020-03-09T11:28:00-05:00,59.06,19.01,737.54,549.67,2.86,5.98,0
2020-03-09T11:29:00-05:00,60.98,18.72,737.94,524.53,3.01,332.47,0
2020-03-09T11:30:00-05:00,61.44,18.39,736.87,513.35,4.24,336.59,0
2020-03-09T11:31:00-05:00,61.96,18.15,737.74,498.21,2.3,55.68,0
2020-03-09T11:32:00-05:00,62.72,17.91,737.47,510.85,3.26,51.5,0
2020-03-09T11:33:00-05:00,63.47,17.71,737.24,573.93,3.05,31.5,0
2020-03-09T11:34:00-05:00,64.23,17.66,737,596.86,1.02,357.45,0
2020-03-09T11:35:00-05:00,64.83,17.61,736.87,575.1,2.25,25.74,0
2020-03-09T11:36:00-05:00,64.96,17.66,738.08,549.23,1.16,345.47,0
2020-03-09T11:37:00-05:00,64.02,17.66,736.47,522.03,0.81,0.75,0
2020-03-09T11:38:00-05:00,63.62,17.72,737.77,506,4.51,32.67,0
2020-03-09T11:39:00-05:00,63.79,17.67,737.1,622.74,0.69,60.7,0
2020-03-09T11:40:00-05:00,63.01,17.63,736.2,660.67,2.62,180.07,0
2020-03-09T11:41:00-05:00,62.49,17.6,736.67,783.88,2.52,163.51,0
2020-03-09T11:42:00-05:00,64.24,17.72,736.87,1148.05,0.78,5.56,0
2020-03-09T11:43:00-05:00,64.68,17.95,736.47,544.37,0.62,139.42,0
2020-03-09T11:44:00-05:00,64.16,18.09,737.57,553.78,1.73,357.46,0
2020-03-09T11:45:00-05:00,60.91,18.17,736.13,1010,2.21,77.99,0
2020-03-09T11:46:00-05:00,61.44,18.09,737.57,868.86,2.86,56.91,0
2020-03-09T11:47:00-05:00,60.24,18.04,736.13,501.59,2.76,69.87,0
2020-03-09T11:48:00-05:00,60.77,17.77,736.13,777.41,2.69,47.58,0
2020-03-09T11:49:00-05:00,62.65,17.77,737.14,1217.15,2.36,66.65,0
2020-03-09T11:50:00-05:00,61.7,17.81,737.64,939.87,0.55,329.5,0
2020-03-09T11:51:00-05:00,61.03,17.89,737.77,806.08,2.01,16.79,0
2020-03-09T11:52:00-05:00,60.55,17.87,736.47,1432.69,0.99,316.61,0
2020-03-09T11:53:00-05:00,61.76,18.04,736.9,1387.41,1.23,287.63,0
2020-03-09T11:54:00-05:00,61.83,18.31,736.94,1370.21,0.94,194.23,0
2020-03-09T11:55:00-05:00,59.7,18.54,736.27,1368.73,0.75,318.85,0
2020-03-09T11:56:00-05:00,60.38,18.77,737.67,1407.11,1.91,354.49,0
2020-03-09T11:57:00-05:00,57.83,18.66,736.3,748.59,3.07,3.73,0
2020-03-09T11:58:00-05:00,59.61,18.59,736.67,979.71,0.6,337.85,0
2020-03-09T11:59:00-05:00,59.67,18.73,737.31,1373.44,2.27,146.27,0
2020-03-09T12:00:00-05:00,56.67,18.78,736.17,1368,2.88,203.29,0
2020-03-09T12:01:00-05:00,58.18,18.76,736.33,1363.44,2.34,19.5,0
2020-03-09T12:02:00-05:00,62.89,19,737.71,1392.55,1.58,355.78,0
2020-03-09T12:03:00-05:00,58.94,19.33,736.03,1444.45,0.87,280.62,0
2020-03-09T12:04:00-05:00,58.5,19.64,736.64,1407.55,3.13,346.84,0
2020-03-09T12:05:00-05:00,54.49,19.66,737.27,1398.73,0.59,211.89,0
2020-03-09T12:06:00-05:00,56.48,19.62,736.7,1396.38,1.65,64.65,0
2020-03-09T12:07:00-05:00,56.52,19.67,736.13,1432.98,0.19,262.68,0
2020-03-09T12:08:00-05:00,55.23,19.9,736.4,1350.65,1.65,321.57,0
2020-03-09T12:09:00-05:00,54.34,20.07,736.43,991.62,0.39,212.89,0
2020-03-09T12:10:00-05:00,56.79,20.36,736,578.04,0.75,313.55,0
2020-03-09T12:11:00-05:00,56.15,20.52,737.1,491.15,2.44,10.37,0
2020-03-09T12:12:00-05:00,54.24,20.45,735.83,466.6,2.77,16.3,0
2020-03-09T12:13:00-05:00,55.19,20.28,736.17,473.36,2.62,45.4,0
2020-03-09T12:14:00-05:00,54.89,20.07,735.9,488.21,5.4,80.38,0
2020-03-09T12:15:00-05:00,55.41,19.77,737.2,463.51,1.55,60.8,0
2020-03-09T12:16:00-05:00,56.7,19.54,736.87,508.21,1.78,351.56,0
2020-03-09T12:17:00-05:00,59.22,19.48,735.87,596.86,0.85,216.26,0
2020-03-09T12:18:00-05:00,58.72,19.46,735.53,432.64,0.26,133.53,0
2020-03-09T12:19:00-05:00,58.83,19.35,736.77,419.26,0.88,275.07,0
2020-03-09T12:20:00-05:00,59.47,19.36,735.93,428.23,0.49,243.79,0
2020-03-09T12:21:00-05:00,59.74,19.42,736.47,437.19,0.96,253.1,0
2020-03-09T12:22:00-05:00,56.91,19.45,737.14,453.66,1.08,302.64,0
2020-03-09T12:23:00-05:00,58.18,19.46,736.43,471.16,0.85,185.28,0
2020-03-09T12:24:00-05:00,58.8,19.52,737.14,482.62,0.25,115.1,0
2020-03-09T12:25:00-05:00,58.34,19.53,736.07,488.8,2.21,171.13,0
2020-03-09T12:26:00-05:00,56.77,19.4,735.97,490.56,1.42,285.65,0
2020-03-09T12:27:00-05:00,57.01,19.34,736.9,508.35,1.85,301.63,0
2020-03-09T12:28:00-05:00,57.93,19.3,735.97,589.07,1.81,274.03,0
2020-03-09T12:29:00-05:00,59.16,19.26,737.41,697.72,0.65,291,0
2020-03-09T12:30:00-05:00,57.86,19.35,737.31,729.92,0.65,292.66,0
2020-03-09T12:31:00-05:00,61.71,19.41,735.36,729.33,0.97,201.94,0
2020-03-09T12:32:00-05:00,59.13,19.48,736.5,811.81,2.41,238.07,0
2020-03-09T12:33:00-05:00,57.16,19.46,737.2,713.01,0.93,290.69,0
2020-03-09T12:34:00-05:00,61.08,19.55,736.37,653.61,2.02,352.82,0
2020-03-09T12:35:00-05:00,58.38,19.67,736.8,617.15,1.34,344.48,0
2020-03-09T12:36:00-05:00,58.58,19.68,735.8,613.77,0.89,226.22,0
2020-03-09T12:37:00-05:00,59.08,19.72,736.94,592.16,0.1,223.9,0
2020-03-09T12:38:00-05:00,58.76,19.85,736.17,607.59,0.67,25.98,0
2020-03-09T12:39:00-05:00,57.96,19.79,736.5,568.49,0.48,283.68,0
2020-03-09T12:40:00-05:00,56.37,19.8,736.7,554.37,0.84,336.78,0
2020-03-09T12:41:00-05:00,55.84,19.79,735.7,553.34,1.59,17.23,0
2020-03-09T12:42:00-05:00,57.64,19.62,736.37,549.96,0.65,102.5,0
2020-03-09T12:43:00-05:00,56.2,19.58,737.2,549.37,2.35,5.59,0
2020-03-09T12:44:00-05:00,56.66,19.28,736.8,546.87,2.09,49.36,0
2020-03-09T12:45:00-05:00,57.69,19.18,736.23,557.75,0.65,1.74,0
2020-03-09T12:46:00-05:00,57.53,19.14,736.47,550.7,0.49,158.17,0
2020-03-09T12:47:00-05:00,58.53,19.18,735.5,540.7,0.91,78.6,0
2020-03-09T12:48:00-05:00,57.51,19.24,736.47,520.12,0.55,14.72,0
2020-03-09T12:49:00-05:00,58.5,19.28,736.13,489.09,0.67,231.87,0
2020-03-09T12:50:00-05:00,59.01,19.36,735.73,472.77,0.97,67.8,0
2020-03-09T12:51:00-05:00,56.4,19.24,736.07,471.89,3.69,27.44,0
2020-03-09T12:52:00-05:00,57.99,19.09,735.53,456.45,2.31,47.47,0
2020-03-09T12:53:00-05:00,56.68,18.87,736.54,443.07,3.41,63.93,0
2020-03-09T12:54:00-05:00,56.84,18.63,736,422.49,0.98,117.13,0
2020-03-09T12:55:00-05:00,57.73,18.5,736.74,401.76,1.88,120.32,0
2020-03-09T12:56:00-05:00,58.88,18.43,735.87,386.47,0.58,178.05,0
2020-03-09T12:57:00-05:00,60.91,18.47,735.73,378.97,2.06,39.17,0
2020-03-09T12:58:00-05:00,60.94,18.55,737.17,374.56,0.65,39.32,0
2020-03-09T12:59:00-05:00,58.08,18.44,736.2,374.42,2.28,127.17,0
2020-03-09T13:00:00-05:00,58.64,18.37,737.27,371.77,2.15,38.11,0
2020-03-09T13:01:00-05:00,58.75,18.33,735.67,368.83,1.19,100.93,0
2020-03-09T13:02:00-05:00,58.58,18.28,736.23,371.92,0.8,144.2,0
2020-03-09T13:03:00-05:00,58.72,18.24,736.13,377.94,1.72,9.12,0
2020-03-09T13:04:00-05:00,58.58,18.08,736,387.06,2.7,105.25,0
2020-03-09T13:05:00-05:00,58.5,17.91,736.64,394.26,2.19,49.28,0
2020-03-09T13:06:00-05:00,59.42,17.73,736.07,403.82,2.34,70.3,0
2020-03-09T13:07:00-05:00,59.82,17.67,736.07,415.88,0.99,83.91,0
2020-03-09T13:08:00-05:00,60.8,17.69,736,431.02,1.68,354.81,0
2020-03-09T13:09:00-05:00,60.31,17.73,735.67,465.42,3.84,35.59,0
2020-03-09T13:10:00-05:00,59.29,17.66,736.97,556.28,4.01,46.23,0
2020-03-09T13:11:00-05:00,59.84,17.57,736.64,746.68,2.69,28.61,0
2020-03-09T13:12:00-05:00,60.02,17.59,736.6,702.28,2.51,34.55,0
2020-03-09T13:13:00-05:00,62.1,17.63,735.67,618.77,1.87,127.21,0
2020-03-09T13:14:00-05:00,61.6,17.76,737.04,583.92,3.23,50.57,0
2020-03-09T13:15:00-05:00,58.43,17.88,736.87,595.24,1.72,24.56,0
2020-03-09T13:16:00-05:00,58.72,17.91,735.77,681.84,1.12,348.72,0
2020-03-09T13:17:00-05:00,58.09,17.99,735.56,1010.73,1.12,116.2,0
2020-03-09T13:18:00-05:00,58.68,18.13,735.73,1148.79,1.09,36.63,0
2020-03-09T13:19:00-05:00,58.07,18.39,736.2,1322.13,2.93,53.04,0
2020-03-09T13:20:00-05:00,56.26,18.64,735.56,1514.73,2.68,351.51,0
2020-03-09T13:21:00-05:00,55.64,18.77,735.5,1113.65,0.94,332.49,0
2020-03-09T13:22:00-05:00,55.04,18.92,735.93,839.3,0.54,319.56,0
2020-03-09T13:23:00-05:00,53.94,19.16,735.63,1574.27,0.71,239.83,0
2020-03-09T13:24:00-05:00,55.9,19.4,735.6,1376.09,0.58,249.12,0
2020-03-09T13:25:00-05:00,55.07,19.82,735.53,1168.49,0.53,142.25,0
2020-03-09T13:26:00-05:00,54.57,20.18,736.47,1040.14,1.31,287.62,0
2020-03-09T13:27:00-05:00,51.81,20.35,736.74,1073.36,1.25,271.07,0
2020-03-09T13:28:00-05:00,52.15,20.47,735.23,771.82,1.99,276.71,0
2020-03-09T13:29:00-05:00,50.8,20.57,736.27,721.39,2.26,294.99,0
2020-03-09T13:30:00-05:00,51.77,20.65,735.23,626.71,1.53,260.73,0
2020-03-09T13:31:00-05:00,50.21,20.61,735,545.11,0.61,234.21,0
2020-03-09T13:32:00-05:00,50.94,20.6,735.87,488.51,0.3,231.86,0
2020-03-09T13:33:00-05:00,50.48,20.64,736.2,438.81,0.73,236.18,0
2020-03-09T13:34:00-05:00,51.14,20.61,734.46,416.02,1.68,235.83,0
2020-03-09T13:35:00-05:00,52.55,20.57,735.33,411.32,0.54,226.85,0
2020-03-09T13:36:00-05:00,51.26,20.55,735.33,412.2,2.05,212.89,0
2020-03-09T13:37:00-05:00,52.59,20.45,736.1,388.38,0.86,211.91,0
2020-03-09T13:38:00-05:00,51.63,20.31,735.26,353.54,1.27,260.72,0
2020-03-09T13:39:00-05:00,52.23,20.2,734.19,331.19,0.69,278.67,0
2020-03-09T13:40:00-05:00,52.49,20.14,736.13,278.11,0.69,263.66,0
2020-03-09T13:41:00-05:00,52.46,20.12,736.07,251.36,0.7,316.61,0
2020-03-09T13:42:00-05:00,53.06,20.12,735.06,237.1,0.63,25.8,0
2020-03-09T13:43:00-05:00,52.73,20.11,735.7,232.83,0.85,270.73,0
2020-03-09T13:44:00-05:00,53.92,20.02,735.87,231.51,1.12,132.58,0
2020-03-09T13:45:00-05:00,53.96,19.87,736.13,231.07,1.08,295.89,0
2020-03-09T13:46:00-05:00,55.23,19.73,735.6,230.04,0.98,205.37,0
2020-03-09T13:47:00-05:00,54.76,19.57,736.13,229.16,0.77,242.82,0
2020-03-09T13:48:00-05:00,54.17,19.44,735.33,229.3,1.2,8.86,0
2020-03-09T13:49:00-05:00,54.08,19.36,735.26,230.63,0.28,52.68,0
2020-03-09T13:50:00-05:00,56.43,19.33,735.1,236.51,2.02,75.81,0
2020-03-09T13:51:00-05:00,55.65,19.17,736.43,239.89,2.7,48.08,0
2020-03-09T13:52:00-05:00,56.64,18.84,736.13,237.98,0.58,143.2,0
2020-03-09T13:53:00-05:00,57.05,18.65,736.3,241.65,0.7,122.18,0
2020-03-09T13:54:00-05:00,57.94,18.58,735.6,246.8,1.59,18.61,0
2020-03-09T13:55:00-05:00,59.42,18.5,736.6,255.18,0.69,269.72,0
2020-03-09T13:56:00-05:00,58.37,18.43,735.23,269.15,0.65,44.44,0
2020-03-09T13:57:00-05:00,59.38,18.31,735.67,283.41,1.6,316.57,0
2020-03-09T13:58:00-05:00,59.34,18.18,736.27,313.4,0.7,289.59,0
2020-03-09T13:59:00-05:00,59.66,17.96,735.56,339.42,4.19,155.24,0
2020-03-09T14:00:00-05:00,60.75,17.83,735.73,358.98,0.14,171.15,0
2020-03-09T14:01:00-05:00,61.5,17.79,735.46,373.97,1.47,164.5,0
2020-03-09T14:02:00-05:00,60.93,17.81,734.93,397.64,2.55,44.88,0
2020-03-09T14:03:00-05:00,60.06,17.69,736.2,425.58,0.92,7.69,0
2020-03-09T14:04:00-05:00,60.57,17.54,734.83,434.4,2.09,6.12,0
2020-03-09T14:05:00-05:00,62.56,17.46,735.13,409.55,2.39,7.7,0
2020-03-09T14:06:00-05:00,62.25,17.47,736.77,372.21,5.3,43.67,0
2020-03-09T14:07:00-05:00,61.66,17.45,734.86,350.01,2.13,35.93,0
2020-03-09T14:08:00-05:00,62.3,17.39,736.3,342.51,0.62,156.18,0
2020-03-09T14:09:00-05:00,63.93,17.41,735.06,341.48,2.42,62.08,0
2020-03-09T14:10:00-05:00,63.98,17.47,735.53,340.01,3.46,7.1,0
2020-03-09T14:11:00-05:00,62.42,17.41,735.1,330.01,2.39,40.71,0
2020-03-09T14:12:00-05:00,63.98,17.41,736.1,316.93,1.81,354.5,0
2020-03-09T14:13:00-05:00,62.67,17.38,735.16,304.14,3.82,57.81,0
2020-03-09T14:14:00-05:00,62.4,17.3,736.6,288.99,0.81,46.3,0
2020-03-09T14:15:00-05:00,62.48,17.22,736.64,279.44,4.94,46.92,0
2020-03-09T14:16:00-05:00,63.01,17.11,735.87,266.35,2.46,343.55,0
2020-03-09T14:17:00-05:00,65.02,17.05,736.1,252.97,1.91,86.59,0
2020-03-09T14:18:00-05:00,64.4,17.04,735.73,240.62,2.76,37.89,0
2020-03-09T14:19:00-05:00,64.78,16.99,735.53,224.3,2.39,22.16,0
2020-03-09T14:20:00-05:00,65.16,16.94,736.4,212.84,3.62,27.83,0
2020-03-09T14:21:00-05:00,65.27,16.83,735.1,206.51,0.49,324.61,0
2020-03-09T14:22:00-05:00,65.53,16.81,735.46,206.51,1.02,63.14,0
2020-03-09T14:23:00-05:00,65.3,16.77,736.5,207.98,1.17,50.54,0
2020-03-09T14:24:00-05:00,65.81,16.78,736.37,214.16,4.22,26.37,0
2020-03-09T14:25:00-05:00,65.24,16.72,735.03,223.57,2.6,28.9,0
2020-03-09T14:26:00-05:00,66.94,16.7,735.16,229.74,0.6,13.01,0
2020-03-09T14:27:00-05:00,65.12,16.73,736.4,235.77,2.41,19.31,0
2020-03-09T14:28:00-05:00,65.22,16.72,736.57,235.62,0.71,180.36,0
2020-03-09T14:29:00-05:00,65.47,16.72,736.2,233.71,2.12,354.49,0
2020-03-09T14:30:00-05:00,65.57,16.74,735.03,223.86,3.94,60.25,0
2020-03-09T14:31:00-05:00,65.19,16.7,736.5,215.63,2.26,23.7,0
2020-03-09T14:32:00-05:00,66.15,16.66,735.23,209.6,0.38,225.86,0
2020-03-09T14:33:00-05:00,65.57,16.68,735.36,206.37,3.29,54.35,0
2020-03-09T14:34:00-05:00,65.65,16.65,736.07,206.22,0.75,3.67,0
2020-03-09T14:35:00-05:00,65.71,16.65,736.37,208.87,2.98,31.43,0
2020-03-09T14:36:00-05:00,65.22,16.62,735.4,218.86,2.55,111.89,0
2020-03-09T14:37:00-05:00,65.54,16.6,735.33,229.74,1.03,96.72,0
2020-03-09T14:38:00-05:00,65.85,16.6,735.9,238.27,0.92,116.54,0
2020-03-09T14:39:00-05:00,65.07,16.61,736.37,246.95,1.49,57.28,0
2020-03-09T14:40:00-05:00,65.35,16.63,735.83,254.44,2.37,102.48,0
2020-03-09T14:41:00-05:00,65.85,16.66,735.4,260.32,2.37,356.79,0
2020-03-09T14:42:00-05:00,65.37,16.67,736.3,264.44,3.2,67.31,0
2020-03-09T14:43:00-05:00,65.45,16.67,735.23,279,1.9,87.37,0
2020-03-09T14:44:00-05:00,66.31,16.68,735.2,293.26,0.95,0.81,0
2020-03-09T14:45:00-05:00,66.52,16.76,735.77,301.34,0.65,209.28,0
2020-03-09T14:46:00-05:00,65.12,16.78,735.9,305.31,0.95,85.13,0
2020-03-09T14:47:00-05:00,65.12,16.78,736.64,307.23,1.79,72.07,0
2020-03-09T14:48:00-05:00,64.75,16.76,735.87,319.28,2.64,133.29,0
2020-03-09T14:49:00-05:00,65.34,16.77,735.6,333.4,1.88,146.29,0
2020-03-09T14:50:00-05:00,64.73,16.78,735,347.36,0.76,135.41,0
2020-03-09T14:51:00-05:00,65.23,16.82,736.17,363.39,0.54,268.73,0
2020-03-09T14:52:00-05:00,65.43,16.88,734.66,379.12,2.54,53.1,0
2020-03-09T14:53:00-05:00,63.85,16.87,735.56,391.03,2.05,26.69,0
2020-03-09T14:54:00-05:00,64.42,16.9,736,396.32,2.37,33.17,0
2020-03-09T14:55:00-05:00,63.65,16.97,735.83,391.62,1.28,31.39,0
2020-03-09T14:56:00-05:00,63.39,16.93,736.3,386.18,1.64,35.84,0
2020-03-09T14:57:00-05:00,64.33,16.92,735.83,391.91,0.25,22.88,0
2020-03-09T14:58:00-05:00,65.07,17.04,736.13,400.73,1.15,349.73,0
2020-03-09T14:59:00-05:00,64.16,17.17,736.33,399.26,1.4,39.08,0
2020-03-09T15:00:00-05:00,64.21,17.24,735.1,401.47,3.13,34.53,0
2020-03-09T15:01:00-05:00,63.41,17.27,734.9,409.55,3.44,25.81,0
2020-03-09T15:02:00-05:00,63.39,17.23,735.6,409.41,2.59,32.32,0
2020-03-09T15:03:00-05:00,63.86,17.22,734.93,405.73,0.65,125.69,0
2020-03-09T15:04:00-05:00,63.31,17.24,735.8,400.44,2.99,33.92,0
2020-03-09T15:05:00-05:00,63.47,17.22,734.69,398.97,3.45,43.91,0
2020-03-09T15:06:00-05:00,63.93,17.2,734.56,397.06,4.23,31.03,0
2020-03-09T15:07:00-05:00,63.82,17.13,735.2,393.53,1.42,30.6,0
2020-03-09T15:08:00-05:00,64.94,17.19,734.9,390.88,2.14,24.71,0
2020-03-09T15:09:00-05:00,63.47,17.13,734.59,384.71,2.41,71.45,0
2020-03-09T15:10:00-05:00,64.49,17.04,735.16,375.89,1.57,21.03,0
2020-03-09T15:11:00-05:00,64.26,17.04,735.67,352.21,4.33,31.25,0
2020-03-09T15:12:00-05:00,64.38,16.98,735.77,323.54,2.5,53.17,0
2020-03-09T15:13:00-05:00,64.77,16.92,735.83,292.08,1.09,34.35,0
2020-03-09T15:14:00-05:00,64.64,16.96,734.66,265.03,3.37,39.87,0
2020-03-09T15:15:00-05:00,62.86,16.87,735.23,234.74,1.66,72.05,0
2020-03-09T15:16:00-05:00,63.77,16.82,736.13,208.43,1.21,49.69,0
2020-03-09T15:17:00-05:00,65.02,16.83,735.5,181.37,1.05,12.2,0
2020-03-09T15:18:00-05:00,63.4,16.84,734.9,164.02,4.68,46.13,0
2020-03-09T15:19:00-05:00,63.22,16.74,734.79,145.79,0.54,213.25,0
2020-03-09T15:20:00-05:00,63.69,16.71,735.97,135.65,5.05,50.07,0
2020-03-09T15:21:00-05:00,63.81,16.58,734.56,129.47,2.46,59.34,0
2020-03-09T15:22:00-05:00,65.36,16.54,735.6,124.47,0.85,134.37,0
2020-03-09T15:23:00-05:00,65.92,16.57,734.79,124.03,2.36,51.58,0
2020-03-09T15:24:00-05:00,67.64,16.61,735.3,125.06,0.58,66.99,0
2020-03-09T15:25:00-05:00,65.16,16.64,734.93,123,3.15,69.68,0
2020-03-09T15:26:00-05:00,64.66,16.59,735.3,120.51,2.27,55.55,0
2020-03-09T15:27:00-05:00,65.02,16.53,735.63,118.59,2.49,42.39,0
2020-03-09T15:28:00-05:00,66.22,16.53,735.53,112.71,2.31,105.91,0
2020-03-09T15:29:00-05:00,65.19,16.49,734.69,104.33,1.09,104.29,0
2020-03-09T15:30:00-05:00,65.79,16.45,735.6,97.57,1.43,67.53,0
2020-03-09T15:31:00-05:00,66.05,16.46,735.53,91.39,0.22,114.42,0
2020-03-09T15:32:00-05:00,65.61,16.45,735.7,90.51,2.64,5.59,0
2020-03-09T15:33:00-05:00,67,16.42,734.96,87.13,1.57,13.59,0
2020-03-09T15:34:00-05:00,66.51,16.43,734.66,85.81,2.73,72.12,0
2020-03-09T15:35:00-05:00,64.61,16.39,736.2,85.51,0.57,41.42,0
2020-03-09T15:36:00-05:00,65.9,16.38,735,83.6,0.61,133.54,0
2020-03-09T15:37:00-05:00,65.47,16.4,736.17,82.43,2.63,17.19,0
2020-03-09T15:38:00-05:00,63.98,16.32,736.33,80.66,2.7,50.87,0
2020-03-09T15:39:00-05:00,65.24,16.26,735.53,79.78,0.85,74.86,0
2020-03-09T15:40:00-05:00,65.1,16.22,736.37,81.25,1.02,64.65,0
2020-03-09T15:41:00-05:00,65.96,16.2,736.33,79.78,1.76,93.33,0
2020-03-09T15:42:00-05:00,65.33,16.16,735,81.25,2.33,89.48,0
2020-03-09T15:43:00-05:00,63.89,16.11,736.3,80.37,2.62,21.27,0
2020-03-09T15:44:00-05:00,63.84,16.11,735.73,83.6,1.94,27.92,0
2020-03-09T15:45:00-05:00,63.81,16.11,734.93,83.6,1.26,86.67,0
2020-03-09T15:46:00-05:00,63.8,16.07,736.07,87.87,2.89,63.47,0
2020-03-09T15:47:00-05:00,64.3,16.05,736.43,87.72,3.37,31.96,0
2020-03-09T15:48:00-05:00,62.95,16.01,735.36,90.37,2.61,19.63,0
2020-03-09T15:49:00-05:00,63.77,15.99,736.07,92.72,3.88,79.02,0
2020-03-09T15:50:00-05:00,62.67,15.94,736.33,91.39,2.78,104.79,0
2020-03-09T15:51:00-05:00,62.9,15.9,735.46,91.69,1.05,130.24,0
2020-03-09T15:52:00-05:00,63.31,15.9,734.9,89.92,2.61,63.63,0
2020-03-09T15:53:00-05:00,62.88,15.84,736.1,91.25,3.44,36.55,0
2020-03-09T15:54:00-05:00,63.71,15.84,735.56,94.19,2.65,32.04,0
2020-03-09T15:55:00-05:00,63.25,15.82,735.26,98.75,3.7,51.85,0
2020-03-09T15:56:00-05:00,62.89,15.85,735.43,101.69,3.01,43.56,0
2020-03-09T15:57:00-05:00,63.01,15.86,734.73,106.98,1.92,74.59,0
2020-03-09T15:58:00-05:00,63.48,15.86,734.83,114.33,0.19,128.07,0
2020-03-09T15:59:00-05:00,63.25,15.86,735.6,123.15,3.13,55.09,0
2020-03-09T16:00:00-05:00,62.83,15.84,735.73,133.59,2.44,48.72,0
2020-03-09T16:01:00-05:00,63.36,15.82,735.03,143.15,4.52,118.48,0
2020-03-09T16:02:00-05:00,62.93,15.84,736.07,149.47,1.36,22.1,0
2020-03-09T16:03:00-05:00,62.61,15.84,734.9,156.82,3.06,37.32,0
2020-03-09T16:04:00-05:00,62.81,15.82,735.06,161.08,2.33,52.94,0
2020-03-09T16:05:00-05:00,62.69,15.79,734.86,161.67,2.82,73.05,0
2020-03-09T16:06:00-05:00,62.48,15.82,736.4,163.73,0.65,86.88,0
2020-03-09T16:07:00-05:00,63.23,15.82,735.03,163.44,2.41,48.31,0
2020-03-09T16:08:00-05:00,63.59,15.82,734.96,163.44,0.65,144.56,0
2020-03-09T16:09:00-05:00,64.78,15.86,736.6,160.79,0.72,83.2,0
2020-03-09T16:10:00-05:00,63.09,15.86,735.5,161.82,0.62,184.98,0
2020-03-09T16:11:00-05:00,62.83,15.86,735.77,163,0.72,130.53,0
2020-03-09T16:12:00-05:00,63.73,15.87,735.46,166.23,2.92,35.38,0
2020-03-09T16:13:00-05:00,63.4,15.88,735,165.94,1.61,42.79,0
2020-03-09T16:14:00-05:00,63.56,15.89,736.03,165.49,1.39,139.62,0
2020-03-09T16:15:00-05:00,64.02,15.9,734.9,165.94,4.39,40.59,0
2020-03-09T16:16:00-05:00,62.6,15.91,736.7,163.88,1.01,91.49,0
2020-03-09T16:17:00-05:00,63.27,15.88,736.33,163,2.9,175.05,0
2020-03-09T16:18:00-05:00,63.75,15.89,736.37,160.64,2.63,57.68,0
2020-03-09T16:19:00-05:00,63.23,15.89,735.46,157.41,2.93,46.69,0
2020-03-09T16:20:00-05:00,63.38,15.94,736,151.82,1.49,54.67,0
2020-03-09T16:21:00-05:00,62.51,15.94,735.36,148.29,1.2,109.13,0
2020-03-09T16:22:00-05:00,61.86,15.94,735.06,144.47,0.68,134.25,0
2020-03-09T16:23:00-05:00,62.89,16,735.8,139.77,2.49,26.2,0
2020-03-09T16:24:00-05:00,62.56,15.98,736.47,138.74,1.53,104.37,0
2020-03-09T16:25:00-05:00,62.29,15.91,735.1,138.88,2.91,215.94,0
2020-03-09T16:26:00-05:00,62.75,15.85,736.27,137.56,0.52,270.7,0
2020-03-09T16:27:00-05:00,63.12,15.84,735.97,135.94,2.63,52.92,0
2020-03-09T16:28:00-05:00,63.47,15.78,735.1,126.83,1.39,123.26,0
2020-03-09T16:29:00-05:00,64.96,15.8,736.47,133.3,0.58,129.36,0
2020-03-09T16:30:00-05:00,65.95,15.82,736.03,133.74,1.28,117.37,0
2020-03-09T16:31:00-05:00,63.93,15.84,736.13,131.53,0.88,59.33,0
2020-03-09T16:32:00-05:00,63.67,15.86,736.27,130.36,2.51,37.55,0
2020-03-09T16:33:00-05:00,62.99,15.82,736.64,126.39,3.84,353.82,0
2020-03-09T16:34:00-05:00,62.89,15.79,735.5,122.27,2.31,142,0
2020-03-09T16:35:00-05:00,62.48,15.8,736.2,117.27,0.25,245.14,0
2020-03-09T16:36:00-05:00,62.89,15.78,735.73,116.39,2.9,19.44,0
2020-03-09T16:37:00-05:00,63.05,15.8,736.3,113.01,1.28,34.12,0
2020-03-09T16:38:00-05:00,62.94,15.78,735.97,111.1,0.58,338.49,0
2020-03-09T16:39:00-05:00,63.59,15.76,735.43,108.45,2.4,52.71,0
2020-03-09T16:40:00-05:00,63.89,15.76,736.54,105.95,3.24,87.16,0
2020-03-09T16:41:00-05:00,64.3,15.76,735.13,102.13,1.95,69.52,0
2020-03-09T16:42:00-05:00,64.08,15.78,735.56,99.92,2.75,351.53,0
2020-03-09T16:43:00-05:00,63.69,15.8,735.36,97.57,2.89,12.62,0
2020-03-09T16:44:00-05:00,63.42,15.82,736.37,93.75,0.78,113.99,0
2020-03-09T16:45:00-05:00,63.95,15.84,735.46,90.37,1.64,11.54,0
2020-03-09T16:46:00-05:00,63.75,15.84,735.33,87.28,2.01,40.12,0
2020-03-09T16:47:00-05:00,65.02,15.84,734.73,85.95,2.29,71.03,0
2020-03-09T16:48:00-05:00,63.73,15.84,735.4,84.63,3.63,34.24,0
2020-03-09T16:49:00-05:00,63.45,15.86,736.13,79.34,0.68,326.58,0
2020-03-09T16:50:00-05:00,63.05,15.86,735.13,75.52,1.36,66.38,0
2020-03-09T16:51:00-05:00,64.41,15.87,734.96,70.52,0.85,51.11,0
2020-03-09T16:52:00-05:00,65.28,15.9,735.3,65.67,0.61,60.79,0
2020-03-09T16:53:00-05:00,64.94,15.88,735.5,61.4,1.98,59.19,0
2020-03-09T16:54:00-05:00,66.78,15.91,735.8,54.79,0.63,348.79,0
2020-03-09T16:55:00-05:00,64.18,15.92,735.03,50.67,1.23,90.05,0
2020-03-09T16:56:00-05:00,65.63,15.94,736.27,44.64,0.64,32.34,0
2020-03-09T16:57:00-05:00,65.99,15.96,735.1,41.41,0.73,44.33,0
2020-03-09T16:58:00-05:00,65.99,15.98,736.17,36.55,0.7,70.18,0
2020-03-09T16:59:00-05:00,68.23,15.96,736.07,31.85,0.34,104.22,0
2020-03-09T17:00:00-05:00,67.3,15.91,735.77,29.64,0.79,54.84,0
2020-03-09T17:01:00-05:00,66.27,15.82,735.8,27.29,1.16,50.25,0
2020-03-09T17:02:00-05:00,67.93,15.79,735.5,26.56,0.73,80.85,0
2020-03-09T17:03:00-05:00,68.75,15.78,735.46,23.76,0.12,6.48,0
2020-03-09T17:04:00-05:00,69.54,15.79,736.4,22.44,0.58,80.3,0
2020-03-09T17:05:00-05:00,69.98,15.78,735.8,21.26,0.54,104.16,0
2020-03-09T17:06:00-05:00,68.71,15.75,735.8,19.79,0.6,97.95,0
2020-03-09T17:07:00-05:00,69.96,15.74,735.93,19.06,0.57,75.48,0
2020-03-09T17:08:00-05:00,69.53,15.74,735.46,18.32,0.57,95.05,0
2020-03-09T17:09:00-05:00,68.34,15.72,736.23,18.47,0.32,93.32,0
2020-03-09T17:10:00-05:00,66.65,15.71,735.4,16.71,0.19,75.73,0
2020-03-09T17:11:00-05:00,67.24,15.71,735.2,17.59,0.39,91.05,0
2020-03-09T17:12:00-05:00,68.13,15.71,735.36,14.8,0.26,133.88,0
2020-03-09T17:13:00-05:00,67.76,15.71,736.17,14.21,0.61,111.49,0
2020-03-09T17:14:00-05:00,67.43,15.67,735.13,12.88,0.54,111.91,0
2020-03-09T17:15:00-05:00,69.35,15.68,736.27,12,0.14,102,0
2020-03-09T17:16:00-05:00,68.64,15.67,735.16,10.97,0.2,313.88,0
2020-03-09T17:17:00-05:00,69.47,15.68,736.33,9.06,0.25,306.93,0
2020-03-09T17:18:00-05:00,68.83,15.66,736.87,8.77,0.19,239.85,0
2020-03-09T17:19:00-05:00,68.79,15.65,736.23,9.06,0.19,177.06,0
2020-03-09T17:20:00-05:00,70.04,15.61,737,6.86,0.12,64.23,0
2020-03-09T17:21:00-05:00,70.61,15.59,735.97,9.5,0.56,100.68,0
2020-03-09T17:22:00-05:00,69.55,15.53,736.47,9.06,0.56,62.86,0
2020-03-09T17:23:00-05:00,69.8,15.51,735.43,9.8,1.36,60.16,0
2020-03-09T17:24:00-05:00,71.27,15.47,736.54,11.12,0.61,83.23,0
2020-03-09T17:25:00-05:00,72.05,15.45,736.27,9.21,0.76,82.04,0
2020-03-09T17:26:00-05:00,70.62,15.38,736.23,11.56,0.84,51.2,0
2020-03-09T17:27:00-05:00,71.06,15.35,735.16,10.97,0.73,64.36,0
2020-03-09T17:28:00-05:00,70.73,15.34,735.26,13.91,0.77,99.93,0
2020-03-09T17:29:00-05:00,70.54,15.31,736.5,13.62,0.3,159.13,0
2020-03-09T17:30:00-05:00,71.37,15.31,735.03,16.12,0.61,88.45,0
2020-03-09T17:31:00-05:00,70.65,15.31,736.3,18.62,0.57,33.22,0
2020-03-09T17:32:00-05:00,71.99,15.28,735.7,20.38,0.24,280.94,0
2020-03-09T17:33:00-05:00,71.32,15.28,735.56,21.85,0.9,24.53,0
2020-03-09T17:34:00-05:00,71.27,15.25,735.16,21.56,0.5,4.02,0
2020-03-09T17:35:00-05:00,71.03,15.27,736.5,23.32,0.99,20.68,0
2020-03-09T17:36:00-05:00,71.1,15.27,736.3,27,0.71,41.17,0
2020-03-09T17:37:00-05:00,71.19,15.27,734.96,29.35,0.55,9.93,0
2020-03-09T17:38:00-05:00,71.39,15.27,736.4,28.91,0.62,45.11,0
2020-03-09T17:39:00-05:00,71.05,15.27,736.4,32.29,1.03,37.79,0
2020-03-09T17:40:00-05:00,71.3,15.21,735.33,31.26,0.59,11.65,0
2020-03-09T17:41:00-05:00,71.86,15.19,735.16,37.88,0.3,51.28,0
2020-03-09T17:42:00-05:00,72.56,15.17,736.67,33.47,0.48,273.77,0
2020-03-09T17:43:00-05:00,72.72,15.17,735.73,32.29,0.79,59.81,0
2020-03-09T17:44:00-05:00,73.33,15.18,735.93,30.82,0.5,282.73,0
2020-03-09T17:45:00-05:00,73.46,15.16,735.23,28.17,0.23,135.47,0
2020-03-09T17:46:00-05:00,73.56,15.16,736.67,28.76,0.28,40.4,0
2020-03-09T17:47:00-05:00,73.39,15.15,736.4,25.38,0.55,346.54,0
2020-03-09T17:48:00-05:00,72.62,15.15,737,26.56,0.2,332.51,0
2020-03-09T17:49:00-05:00,73.16,15.15,735.93,22.59,0.27,316.94,0
2020-03-09T17:50:00-05:00,74.24,15.13,736.7,21.56,0.58,114.63,0
2020-03-09T17:51:00-05:00,74.77,15.15,735.23,21.85,0.88,58.95,0
2020-03-09T17:52:00-05:00,74.61,15.17,737.2,20.38,0.24,296.64,0
2020-03-09T17:53:00-05:00,74.81,15.2,736.84,22,0.59,56.61,0
2020-03-09T17:54:00-05:00,75.34,15.18,735.16,22.15,0.49,320.57,0
2020-03-09T17:55:00-05:00,75.5,15.19,737.07,20.82,0.14,262.07,0
2020-03-09T17:56:00-05:00,75.45,15.17,735.87,20.38,0.75,42.77,0
2020-03-09T17:57:00-05:00,75.44,15.17,735.16,17.88,0.61,19.5,0
2020-03-09T17:58:00-05:00,75.78,15.19,736.07,13.77,0.43,38.69,0
2020-03-09T17:59:00-05:00,75.67,15.19,735.6,12.59,0.73,85.96,0
2020-03-09T18:00:00-05:00,76.04,15.17,736.84,14.06,0.63,279.67,0
2020-03-09T18:01:00-05:00,76.27,15.17,735.4,10.38,0.06,208.95,0
2020-03-09T18:02:00-05:00,75.81,15.15,736.27,9.36,0.34,55.66,0
2020-03-09T18:03:00-05:00,76.15,15.15,735.36,7.15,0.26,13.47,0
2020-03-09T18:04:00-05:00,76.1,15.13,735.36,3.33,0.59,24.51,0
2020-03-09T18:05:00-05:00,77,15.14,736.4,0.68,0.52,269.73,0
2020-03-09T18:06:00-05:00,76.69,15.11,736.5,1.56,0.57,290.72,0
2020-03-09T18:07:00-05:00,76.3,15.09,736.67,-0.49,0.52,59.69,0
2020-03-09T18:08:00-05:00,77.01,15.07,735.77,-0.64,0.55,85.24,0
2020-03-09T18:09:00-05:00,77.27,15.07,735.77,1.71,0.37,222.93,0
2020-03-09T18:10:00-05:00,77.11,15.05,735.46,0.09,0.72,93.98,0
2020-03-09T18:11:00-05:00,77.47,15.05,735.77,0.98,0.63,126.19,0
2020-03-09T18:12:00-05:00,77.19,15.03,735.56,-0.94,0.65,263.04,0
2020-03-09T18:13:00-05:00,77.47,15.04,736.13,-1.52,0.24,209.94,0
2020-03-09T18:14:00-05:00,77.63,15.03,736.74,-0.05,0.46,180.44,0
2020-03-09T18:15:00-05:00,78.14,15.01,736.47,-1.97,0.64,115.25,0
2020-03-09T18:16:00-05:00,77.33,14.97,736.77,-2.41,0.71,109.11,0
2020-03-09T18:17:00-05:00,77.65,14.97,735.8,-2.85,0.26,131.37,0
2020-03-09T18:18:00-05:00,77.83,14.93,735.46,-1.97,0.22,150.16,0
2020-03-09T18:19:00-05:00,77.35,14.93,736.8,-2.26,0.61,171.17,0
2020-03-09T18:20:00-05:00,77.89,14.89,737,-1.23,0.55,137.55,0
2020-03-09T18:21:00-05:00,77.82,14.87,735.8,-2.11,0.45,84.22,0
2020-03-09T18:22:00-05:00,78.48,14.86,736.7,-2.55,0.41,134,0
2020-03-09T18:23:00-05:00,78.75,14.84,736.13,-3.29,0.58,87.24,0
2020-03-09T18:24:00-05:00,78.68,14.83,737.1,-2.55,0.27,53.33,0
2020-03-09T18:25:00-05:00,78.33,14.83,736.97,-3.44,0.23,216.89,0
2020-03-09T18:26:00-05:00,79.05,14.81,736.87,-3.29,0.31,110.77,0
2020-03-09T18:27:00-05:00,78.78,14.78,737.27,-0.79,0.57,132.62,0
2020-03-09T18:28:00-05:00,78.41,14.77,737.04,-2.7,0.34,127.24,0
2020-03-09T18:29:00-05:00,78.69,14.79,736.3,-1.67,0.65,120.58,0
2020-03-09T18:30:00-05:00,79.13,14.78,736.97,-2.41,0.39,87.08,0
2020-03-09T18:31:00-05:00,79.26,14.79,736.13,-3.14,0.25,192.3,0
2020-03-09T18:32:00-05:00,78.91,14.76,737.2,-1.82,0.22,190.99,0
2020-03-09T18:33:00-05:00,78.74,14.76,737,-2.55,0.39,148.56,0
2020-03-09T18:34:00-05:00,78.86,14.73,736.6,-0.2,0.65,75.22,0
2020-03-09T18:35:00-05:00,79.46,14.71,736.23,-1.08,0.81,27.71,0
2020-03-09T18:36:00-05:00,79.97,14.71,737.31,-1.67,0.3,0.85,0
2020-03-09T18:37:00-05:00,80.15,14.7,736.8,-2.41,0.6,30.62,0
2020-03-09T18:38:00-05:00,80.41,14.66,736.23,-1.52,0.26,87.9,0
2020-03-09T18:39:00-05:00,80.44,14.67,736.57,-2.55,0.28,162.22,0
2020-03-09T18:40:00-05:00,80.32,14.65,736.77,-1.38,0.33,154.23,0
2020-03-09T18:41:00-05:00,80.3,14.64,737.14,-0.35,0.31,233.86,0
2020-03-09T18:42:00-05:00,80.27,14.64,737.2,-0.05,0.46,180.08,0
2020-03-09T18:43:00-05:00,80.28,14.62,736.4,-1.82,0.2,181.09,0
2020-03-09T18:44:00-05:00,80.03,14.61,735.97,-1.97,0.21,165.17,0
2020-03-09T18:45:00-05:00,80.12,14.59,736.4,-2.26,0.32,234.83,0
2020-03-09T18:46:00-05:00,80.32,14.58,736.2,-0.2,0.3,145.64,0
2020-03-09T18:47:00-05:00,80.43,14.56,735.93,-2.41,0.62,85.25,0
2020-03-09T18:48:00-05:00,80.5,14.58,736.33,-2.11,0.62,107.67,0
2020-03-09T18:49:00-05:00,80.19,14.55,736.6,-0.05,0.53,74.32,0
2020-03-09T18:50:00-05:00,80.01,14.57,736.27,-1.82,0.63,72.37,0
2020-03-09T18:51:00-05:00,80.18,14.58,737.31,-1.82,0.57,103.54,0
2020-03-09T18:52:00-05:00,80.18,14.6,736.77,-0.2,0.22,147.59,0
2020-03-09T18:53:00-05:00,80.58,14.6,737,-1.82,0.53,162.21,0
2020-03-09T18:54:00-05:00,80.21,14.59,737.2,-1.67,0.39,92.09,0
2020-03-09T18:55:00-05:00,80.03,14.57,736.43,0.24,0.61,97.26,0
2020-03-09T18:56:00-05:00,80.4,14.59,737.17,-0.64,1.77,73,0
2020-03-09T18:57:00-05:00,79.55,14.58,737.71,0.68,0.53,22.06,0
2020-03-09T18:58:00-05:00,79.46,14.61,736.17,-1.67,0.5,65.82,0
2020-03-09T18:59:00-05:00,79.56,14.61,736.33,-1.52,0.29,264.77,0
2020-03-09T19:00:00-05:00,80.31,14.62,736.77,0.83,0.19,323.5,0
2020-03-09T19:01:00-05:00,80.03,14.63,736.47,-1.23,0.59,48.41,0
2020-03-09T19:02:00-05:00,81,14.63,735.97,-1.82,0.89,62.81,0
2020-03-09T19:03:00-05:00,80.9,14.65,736.2,0.09,0.28,64.41,0
2020-03-09T19:04:00-05:00,80.56,14.63,737.24,-2.11,0.62,139.28,0
2020-03-09T19:05:00-05:00,79.57,14.64,736.2,-1.08,0.55,164.5,0
2020-03-09T19:06:00-05:00,79.66,14.63,737.04,-1.38,0.51,126.02,0
2020-03-09T19:07:00-05:00,79.85,14.62,737.1,-2.26,0.59,83.02,0
2020-03-09T19:08:00-05:00,79.99,14.61,737.54,-1.82,0.53,53.04,0
2020-03-09T19:09:00-05:00,80.61,14.62,737.1,-1.23,0.35,38.39,0
2020-03-09T19:10:00-05:00,81.7,14.65,736.97,-2.41,0.55,210.94,0
2020-03-09T19:11:00-05:00,81.31,14.61,737.44,-2.26,0.73,178.41,0
2020-03-09T19:12:00-05:00,80.61,14.57,736.6,-0.49,0.75,179.14,0
2020-03-09T19:13:00-05:00,80.79,14.53,736.37,-0.94,0.6,198.01,0
2020-03-09T19:14:00-05:00,81.98,14.51,736.3,-2.7,0.6,209.92,0
2020-03-09T19:15:00-05:00,82.3,14.48,737.51,-2.7,0.58,166.14,0
2020-03-09T19:16:00-05:00,81.34,14.43,737.71,-1.23,0.6,144.28,0
2020-03-09T19:17:00-05:00,81.79,14.41,736.8,-4.02,0.79,169.1,0
2020-03-09T19:18:00-05:00,82.05,14.38,737.1,-1.67,0.92,187,0
2020-03-09T19:19:00-05:00,81.65,14.37,736.64,-3.88,1.05,133.53,0
2020-03-09T19:20:00-05:00,82.34,14.34,737,-3.73,0.53,240.87,0
2020-03-09T19:21:00-05:00,81.87,14.32,736.8,-3.58,0.78,173.12,0
2020-03-09T19:22:00-05:00,82.08,14.3,736.43,-4.46,0.76,153.15,0
2020-03-09T19:23:00-05:00,81.92,14.29,736.54,-4.17,0.71,130.51,0
2020-03-09T19:24:00-05:00,82.79,14.29,737.1,-2.7,0.54,99.99,0
2020-03-09T19:25:00-05:00,83.1,14.3,736.64,-1.23,0.57,113.2,0
2020-03-09T19:26:00-05:00,82.1,14.28,737.17,-2.99,0.26,89.32,0
2020-03-09T19:27:00-05:00,81.46,14.29,737.54,-2.99,0.83,102.41,0
2020-03-09T19:28:00-05:00,81.19,14.3,736.1,-0.64,0.93,87.45,0
2020-03-09T19:29:00-05:00,81.3,14.32,736.54,-1.38,0.77,98.13,0
2020-03-09T19:30:00-05:00,82.03,14.32,736.43,-1.08,0.68,97.65,0
2020-03-09T19:31:00-05:00,81.91,14.32,736.27,-0.64,0.64,112.75,0
2020-03-09T19:32:00-05:00,82.55,14.32,737.04,-2.7,0.78,57.69,0
2020-03-09T19:33:00-05:00,82.44,14.3,736.77,-2.7,0.45,110.67,0
2020-03-09T19:34:00-05:00,82.2,14.28,736.4,-0.64,0.53,132.25,0
2020-03-09T19:35:00-05:00,82.87,14.28,736.74,-2.99,0.28,178.04,0
2020-03-09T19:36:00-05:00,83.26,14.29,736.6,-0.64,0.41,54.23,0
2020-03-09T19:37:00-05:00,83.05,14.28,737.47,-2.55,0.63,92.94,0
2020-03-09T19:38:00-05:00,82.84,14.27,736.54,-2.55,0.57,123.26,0
2020-03-09T19:39:00-05:00,82.39,14.23,737.1,-1.08,0.25,125.49,0
2020-03-09T19:40:00-05:00,82.73,14.24,736.4,-2.11,0.54,119.15,0
2020-03-09T19:41:00-05:00,82.62,14.22,737.77,-2.99,0.6,113.94,0
2020-03-09T19:42:00-05:00,82.77,14.21,737.51,-2.55,0.41,179.16,0
2020-03-09T19:43:00-05:00,82.63,14.2,736.84,-1.97,0.57,160.47,0
2020-03-09T19:44:00-05:00,82.89,14.19,737.74,-0.79,0.28,134.75,0
2020-03-09T19:45:00-05:00,83.37,14.19,736.54,-0.94,0.19,153.48,0
2020-03-09T19:46:00-05:00,83.32,14.16,737.77,-2.55,0.41,128.29,0
2020-03-09T19:47:00-05:00,83.66,14.13,737.07,-1.23,0.21,118.75,0
2020-03-09T19:48:00-05:00,83.17,14.14,737.74,-0.64,0.61,118.14,0
2020-03-09T19:49:00-05:00,83.46,14.12,737,-0.2,0.31,176.43,0
2020-03-09T19:50:00-05:00,84.17,14.14,737.94,-0.35,0.28,157.2,0
2020-03-09T19:51:00-05:00,83.45,14.11,736.74,-1.08,0.38,146.29,0
2020-03-09T19:52:00-05:00,83.44,14.1,736.97,-1.38,0.29,143.22,0
2020-03-09T19:53:00-05:00,83.73,14.1,736.57,0.09,0.23,125.57,0
2020-03-09T19:54:00-05:00,83.85,14.1,736.84,-2.85,0.23,98.68,0
2020-03-09T19:55:00-05:00,83.65,14.08,737.94,-1.97,0.42,77.81,0
2020-03-09T19:56:00-05:00,83.81,14.09,737.97,-2.55,0.21,129.3,0
2020-03-09T19:57:00-05:00,83.48,14.08,737.71,-2.11,0.47,87.4,0
2020-03-09T19:58:00-05:00,83.15,14.05,736.67,-2.99,0.64,94.88,0
2020-03-09T19:59:00-05:00,82.46,14.04,737.87,-3.88,0.59,88.28,0
2020-03-09T20:00:00-05:00,82.57,14.02,736.84,-2.7,0.55,88.38,0
2020-03-09T20:01:00-05:00,82.83,14.03,737.41,-2.85,0.56,70.97,0
2020-03-09T20:02:00-05:00,83.56,14.02,737.81,-4.32,0.58,59.21,0
2020-03-09T20:03:00-05:00,83.54,14.01,737.27,-4.17,0.57,91.2,0
2020-03-09T20:04:00-05:00,83.66,14,737.61,-3.58,0.58,91.36,0
2020-03-09T20:05:00-05:00,84.18,14,736.7,-3.58,0.57,85.23,0
2020-03-09T20:06:00-05:00,84.99,13.98,737.74,-3.73,0.6,134.52,0
2020-03-09T20:07:00-05:00,85,13.96,737.44,-5.79,0.55,133.48,0
2020-03-09T20:08:00-05:00,85.98,13.93,737.61,-5.49,0.31,146.89,0
2020-03-09T20:09:00-05:00,85.7,13.92,736.77,-4.02,0.31,121.81,0
2020-03-09T20:10:00-05:00,86.52,13.92,737.37,-2.99,0.61,89.75,0
2020-03-09T20:11:00-05:00,85.85,13.87,736.87,-4.32,0.67,103.06,0
2020-03-09T20:12:00-05:00,85.67,13.81,737.37,-3.88,0.72,70.74,0
2020-03-09T20:13:00-05:00,85.55,13.78,736.94,-4.32,0.67,49.38,0
2020-03-09T20:14:00-05:00,85.76,13.73,736.67,-5.2,0.6,102.11,0
2020-03-09T20:15:00-05:00,85.89,13.68,736.77,-3.29,0.35,42.64,0
2020-03-09T20:16:00-05:00,86.82,13.69,737.57,-5.35,0.6,106.34,0
2020-03-09T20:17:00-05:00,87.11,13.68,736.27,-4.32,0.3,91.06,0
2020-03-09T20:18:00-05:00,87.43,13.66,737.34,-3.73,0.63,36.9,0
2020-03-09T20:19:00-05:00,87.99,13.68,737.24,-3.14,0.59,100.28,0.1
2020-03-09T20:20:00-05:00,87.96,13.65,737.51,-4.17,1.33,52.59,0
2020-03-09T20:21:00-05:00,88.39,13.64,737.71,-4.46,0.58,59.89,0
2020-03-09T20:22:00-05:00,88.07,13.6,737.24,-4.02,0.6,83.68,0.1
2020-03-09T20:23:00-05:00,88.8,13.57,736.87,-4.02,0.6,124.55,0.1
2020-03-09T20:24:00-05:00,89.07,13.52,737.1,-2.55,0.58,93.54,0
2020-03-09T20:25:00-05:00,89.2,13.46,737.91,-2.11,0.81,92.03,0.1
2020-03-09T20:26:00-05:00,89.66,13.4,737.81,-3.73,0.32,101.69,0
2020-03-09T20:27:00-05:00,90.02,13.35,737.74,-4.02,0.59,100.8,0
2020-03-09T20:28:00-05:00,90.42,13.31,737.61,-2.99,0.65,105.05,0
2020-03-09T20:29:00-05:00,90.74,13.27,737.84,-2.55,0.68,56.37,0
2020-03-09T20:30:00-05:00,90.98,13.22,736.9,-2.7,0.6,66.73,0
2020-03-09T20:31:00-05:00,91.37,13.21,737.31,-0.79,0.57,59.05,0
2020-03-09T20:32:00-05:00,91.43,13.18,737.37,-0.64,0.52,100.38,0
2020-03-09T20:33:00-05:00,91.43,13.15,738.51,-2.85,0.54,92.77,0
2020-03-09T20:34:00-05:00,91.43,13.12,737.04,-2.7,0.56,44.54,0
2020-03-09T20:35:00-05:00,91.89,13.12,736.74,-1.82,1.06,34.25,0
2020-03-09T20:36:00-05:00,92.22,13.14,737.74,-1.67,0.67,64.21,0
2020-03-09T20:37:00-05:00,92.56,13.13,738.01,-2.41,0.81,72.19,0
2020-03-09T20:38:00-05:00,92.54,13.11,736.84,-0.05,0.64,59.07,0
2020-03-09T20:39:00-05:00,92.57,13.1,737.67,-2.85,0.74,60.58,0
2020-03-09T20:40:00-05:00,92.45,13.08,737.74,-2.41,0.14,58.64,0
2020-03-09T20:41:00-05:00,92.46,13.06,738.01,-0.64,0.57,87.04,0
2020-03-09T20:42:00-05:00,92.23,13.02,738.08,-2.7,0.69,125.55,0
2020-03-09T20:43:00-05:00,91.95,13,737.81,-0.79,0.57,59.79,0
2020-03-09T20:44:00-05:00,92.18,13.01,738.18,-0.79,0.6,185.35,0
2020-03-09T20:45:00-05:00,91.75,13,736.84,-1.08,0.74,150.19,0
2020-03-09T20:46:00-05:00,91.48,12.96,738.24,-2.99,0.56,179.47,0
2020-03-09T20:47:00-05:00,91.58,12.95,737.74,-1.97,0.78,145.27,0
2020-03-09T20:48:00-05:00,91.79,12.93,737.61,-0.49,0.47,141.25,0
2020-03-09T20:49:00-05:00,91.98,12.93,737.77,-3.14,0.64,117.15,0
2020-03-09T20:50:00-05:00,92.15,12.92,738.21,-1.52,0.3,72.63,0
2020-03-09T20:51:00-05:00,92.16,12.93,737.57,-0.05,0.36,122.24,0
2020-03-09T20:52:00-05:00,92.6,12.93,738.44,-0.35,0.36,79.6,0
2020-03-09T20:53:00-05:00,92.54,12.93,737.87,-1.23,0.6,70.23,0
2020-03-09T20:54:00-05:00,92.35,12.91,737.71,-2.41,0.73,94.97,0
2020-03-09T20:55:00-05:00,92.11,12.87,737.87,-2.11,0.53,93.02,0
2020-03-09T20:56:00-05:00,92.29,12.85,738.14,-2.99,0.15,139.26,0
2020-03-09T20:57:00-05:00,91.94,12.83,738.38,-1.52,0.67,155.25,0
2020-03-09T20:58:00-05:00,91.77,12.82,737.1,-1.97,0.56,184.04,0
2020-03-09T20:59:00-05:00,91.55,12.81,738.31,-1.23,0.69,195.26,0
2020-03-09T21:00:00-05:00,91.74,12.77,737.74,-0.64,0.35,215.92,0
2020-03-09T21:01:00-05:00,91.68,12.77,738.38,-1.82,0.17,317.94,0
2020-03-09T21:02:00-05:00,91.86,12.77,738.24,-3.44,0.57,76.39,0
2020-03-09T21:03:00-05:00,91.98,12.77,738.21,-2.7,0.9,136.56,0
2020-03-09T21:04:00-05:00,91.9,12.77,737.91,-0.64,0.73,147.25,0.1
2020-03-09T21:05:00-05:00,91.4,12.76,737.37,-0.94,0.84,145.5,0
2020-03-09T21:06:00-05:00,91.16,12.79,737.31,-0.79,0.8,164.17,0
2020-03-09T21:07:00-05:00,90.83,12.83,738.58,-1.97,0.69,182.32,0
2020-03-09T21:08:00-05:00,90.75,12.87,737.24,-2.85,0.61,165.15,0
2020-03-09T21:09:00-05:00,90.71,12.85,738.38,-0.79,0.87,143.19,0
2020-03-09T21:10:00-05:00,90.67,12.87,737.07,-0.64,0.75,129.28,0
2020-03-09T21:11:00-05:00,90.85,12.89,738.08,-0.49,0.82,130.94,0
2020-03-09T21:12:00-05:00,91.09,12.91,738.68,-1.08,0.51,130.53,0
2020-03-09T21:13:00-05:00,91.19,12.91,738.64,-0.49,0.36,139.42,0
2020-03-09T21:14:00-05:00,91.17,12.91,738.24,-2.85,0.5,138.29,0
2020-03-09T21:15:00-05:00,91.17,12.89,738.54,-1.67,0.24,125.22,0
2020-03-09T21:16:00-05:00,91.21,12.91,737.71,-1.23,0.7,144.21,0
2020-03-09T21:17:00-05:00,90.91,12.89,737.77,-2.55,0.88,136.15,0
2020-03-09T21:18:00-05:00,90.81,12.88,737.41,-2.55,0.84,146.59,0
2020-03-09T21:19:00-05:00,91.07,12.88,738.21,-2.55,0.25,140.27,0
2020-03-09T21:20:00-05:00,91.29,12.9,739.31,-2.26,0.78,138.61,0
2020-03-09T21:21:00-05:00,91,12.89,738.61,-2.7,0.71,143.18,0
2020-03-09T21:22:00-05:00,91.07,12.89,737.91,-0.79,0.26,120.49,0
2020-03-09T21:23:00-05:00,91.29,12.92,738.71,-0.49,0.56,141.26,0
2020-03-09T21:24:00-05:00,91.25,12.94,737.91,-0.94,0.62,134.58,0
2020-03-09T21:25:00-05:00,91.28,12.95,738.71,-2.11,0.24,108.2,0
2020-03-09T21:26:00-05:00,91.46,12.97,738.91,-0.2,0.64,122.46,0
2020-03-09T21:27:00-05:00,91.21,12.97,738.08,-1.67,0.64,76.71,0
2020-03-09T21:28:00-05:00,91.27,13,737.57,-2.26,0.68,102.78,0
2020-03-09T21:29:00-05:00,90.97,13.04,738.44,-0.05,0.7,87.51,0
2020-03-09T21:30:00-05:00,90.79,13.06,738.31,-2.41,0.55,76.83,0
2020-03-09T21:31:00-05:00,90.87,13.1,738.64,-2.11,0.28,104.68,0
2020-03-09T21:32:00-05:00,90.73,13.1,739.38,-1.38,0.53,86.07,0
2020-03-09T21:33:00-05:00,90.84,13.12,737.67,-0.94,0.37,65.11,0
2020-03-09T21:34:00-05:00,91.05,13.12,737.94,-1.38,0.48,78.51,0
2020-03-09T21:35:00-05:00,91.04,13.12,738.51,-2.11,0.5,108.11,0
2020-03-09T21:36:00-05:00,91.12,13.11,738.24,-0.94,0.56,136.83,0
2020-03-09T21:37:00-05:00,90.95,13.09,739.31,-0.64,0.59,136.88,0
2020-03-09T21:38:00-05:00,90.95,13.1,738.04,-0.64,0.63,135.25,0
2020-03-09T21:39:00-05:00,91.01,13.1,737.67,-0.79,0.72,123.59,0
2020-03-09T21:40:00-05:00,90.5,13.11,738.61,-1.52,0.76,106.21,0
2020-03-09T21:41:00-05:00,90.69,13.14,738.08,-2.11,0.67,136.54,0
2020-03-09T21:42:00-05:00,90.31,13.14,739.21,-1.52,0.63,84.95,0
2020-03-09T21:43:00-05:00,90.24,13.14,739.01,-0.64,0.61,69.62,0
2020-03-09T21:44:00-05:00,90.08,13.15,738.31,-0.79,0.57,113.49,0
2020-03-09T21:45:00-05:00,90.29,13.17,738.01,-2.11,0.7,134.23,0
2020-03-09T21:46:00-05:00,90.32,13.17,737.47,-3.44,0.29,128.58,0
2020-03-09T21:47:00-05:00,90.69,13.16,739.68,-2.41,0.79,110.84,0
2020-03-09T21:48:00-05:00,90.2,13.16,738.98,-0.49,0.77,110.65,0
2020-03-09T21:49:00-05:00,90.16,13.14,739.05,-0.35,0.74,123.9,0
2020-03-09T21:50:00-05:00,89.9,13.14,738.34,-3.44,0.71,102.36,0
2020-03-09T21:51:00-05:00,89.29,13.17,738.81,-0.35,0.57,98.91,0
2020-03-09T21:52:00-05:00,89.14,13.2,738.71,-0.79,0.62,145.29,0
2020-03-09T21:53:00-05:00,89.41,13.21,739.28,-2.99,0.3,176.1,0
2020-03-09T21:54:00-05:00,89.77,13.22,738.31,-2.55,0.61,160.16,0
2020-03-09T21:55:00-05:00,89.01,13.22,738.54,-1.23,0.96,194.96,0
2020-03-09T21:56:00-05:00,88.76,13.22,737.41,-3.58,0.73,197.31,0
2020-03-09T21:57:00-05:00,88.6,13.22,738.04,-3.14,0.52,266.77,0
2020-03-09T21:58:00-05:00,89.16,13.18,737.61,-2.85,0.25,181.42,0
2020-03-09T21:59:00-05:00,89.7,13.19,738.51,-2.26,0.29,150.2,0
2020-03-09T22:00:00-05:00,89.94,13.17,739.28,-2.26,0.85,82.93,0
2020-03-09T22:01:00-05:00,89.97,13.15,739.15,-1.38,0.91,127.32,0
2020-03-09T22:02:00-05:00,89.96,13.15,739.25,-2.85,0.61,103.3,0
2020-03-09T22:03:00-05:00,89.69,13.12,738.61,-1.82,0.54,130.39,0
2020-03-09T22:04:00-05:00,88.55,13.11,739.08,-0.94,0.56,176.09,0
2020-03-09T22:05:00-05:00,87.79,13.13,739.11,-2.7,0.6,98.11,0
2020-03-09T22:06:00-05:00,87.43,13.14,737.91,-3.73,0.23,221.95,0
2020-03-09T22:07:00-05:00,85.59,13.12,738.24,-2.11,0.43,89.91,0
2020-03-09T22:08:00-05:00,85.73,13.17,738.01,-3.58,0.65,37.15,0
2020-03-09T22:09:00-05:00,87.35,13.25,739.55,-3.44,0.59,69.45,0
2020-03-09T22:10:00-05:00,87.41,13.26,738.24,-3.58,0.79,136.9,0
2020-03-09T22:11:00-05:00,86.05,13.23,738.88,-3.44,0.74,17.62,0
2020-03-09T22:12:00-05:00,86.9,13.26,739.48,-1.97,0.85,173.12,0
2020-03-09T22:13:00-05:00,86.25,13.22,739.08,-2.26,1.03,151.05,0
2020-03-09T22:14:00-05:00,83.73,13.18,739.28,-1.82,0.91,47.57,0
2020-03-09T22:15:00-05:00,80.83,13.22,739.21,-1.82,1.21,192.31,0
2020-03-09T22:16:00-05:00,79.4,13.34,739.31,-3.14,0.6,297.59,0
2020-03-09T22:17:00-05:00,81.77,13.42,737.97,-2.85,0.9,93.54,0
2020-03-09T22:18:00-05:00,83.11,13.42,738.21,-1.52,0.64,69.43,0
2020-03-09T22:19:00-05:00,83.81,13.38,738.04,-4.02,1.08,36.95,0
2020-03-09T22:20:00-05:00,84.85,13.34,739.25,-0.64,0.95,61.49,0
2020-03-09T22:21:00-05:00,84.99,13.29,739.18,-3.14,1.49,54.52,0
2020-03-09T22:22:00-05:00,84.83,13.25,738.21,-1.97,1.17,66.93,0
2020-03-09T22:23:00-05:00,85.69,13.23,739.21,-2.26,0.6,73.74,0
2020-03-09T22:24:00-05:00,87.09,13.19,738.61,-1.08,0.9,48.18,0
2020-03-09T22:25:00-05:00,87.53,13.16,738.18,-3.29,0.21,115.23,0
2020-03-09T22:26:00-05:00,87.8,13.13,737.54,-1.08,0.55,59.88,0
2020-03-09T22:27:00-05:00,88.35,13.09,737.74,-1.97,0.57,35.49,0
2020-03-09T22:28:00-05:00,88.09,13.03,738.01,-1.52,0.6,46.56,0
2020-03-09T22:29:00-05:00,86.49,13,738.78,-3.58,1.81,20.15,0
2020-03-09T22:30:00-05:00,83.64,13.02,738.48,-3.44,2.54,354.52,0
2020-03-09T22:31:00-05:00,82.09,13.15,738.54,-2.26,0.52,354.47,0
2020-03-09T22:32:00-05:00,82.33,13.23,738.74,-2.99,0.59,310.02,0
2020-03-09T22:33:00-05:00,80.68,13.28,738.48,-1.82,0.83,354.46,0
2020-03-09T22:34:00-05:00,80.72,13.36,738.88,-3.29,2.24,37.2,0
2020-03-09T22:35:00-05:00,79.53,13.37,738.21,-4.02,1.26,11.72,0
2020-03-09T22:36:00-05:00,80.04,13.36,738.68,-3.14,3.77,50.03,0
2020-03-09T22:37:00-05:00,79.77,13.4,739.25,-3.58,1.29,32.26,0
2020-03-09T22:38:00-05:00,79.23,13.42,738.08,-2.55,0.74,105.67,0
2020-03-09T22:39:00-05:00,78.98,13.46,739.28,-1.67,0.63,39.39,0
2020-03-09T22:40:00-05:00,79.42,13.46,738.24,-3.58,0.62,257.19,0
2020-03-09T22:41:00-05:00,79.69,13.44,738.78,-2.99,0.97,207.03,0
2020-03-09T22:42:00-05:00,81.28,13.4,738.78,-1.38,0.13,186,0
2020-03-09T22:43:00-05:00,81.82,13.36,737.84,-2.99,0.43,85.97,0
2020-03-09T22:44:00-05:00,82.57,13.28,739.11,-1.82,0.75,109.51,0
2020-03-09T22:45:00-05:00,82.91,13.17,738.81,-0.49,2.22,224.89,0
2020-03-09T22:46:00-05:00,81.87,13.13,739.15,-0.79,0.81,314.56,0
2020-03-09T22:47:00-05:00,81.86,13.11,738.11,-3.14,0.51,61.27,0
2020-03-09T22:48:00-05:00,82.11,13.1,739.25,-0.79,0.87,182.07,0
2020-03-09T22:49:00-05:00,82.65,13.07,738.48,-1.82,0.49,180.12,0
2020-03-09T22:50:00-05:00,83.33,13.04,738.21,-2.11,0.51,52.38,0
2020-03-09T22:51:00-05:00,83.43,13.03,738.18,-1.38,0.65,146.53,0
2020-03-09T22:52:00-05:00,83.66,12.95,738.44,-1.67,0.57,150.2,0
2020-03-09T22:53:00-05:00,82.15,12.95,739.45,-1.08,0.83,111.56,0
2020-03-09T22:54:00-05:00,82.51,12.98,739.28,0.24,1.13,53.76,0
2020-03-09T22:55:00-05:00,83.32,13.01,738.21,-1.67,0.82,47.66,0
2020-03-09T22:56:00-05:00,83.09,12.98,739.25,-2.85,3.14,42.68,0
2020-03-09T22:57:00-05:00,82.15,13,738.28,-0.79,0.59,356.83,0
2020-03-09T22:58:00-05:00,82.15,13.01,739.41,-2.85,0.64,180.11,0
2020-03-09T22:59:00-05:00,83.14,13,738.31,-3.29,0.63,179.49,0
2020-03-09T23:00:00-05:00,83.44,12.95,738.24,-3.29,0.56,167.11,0
2020-03-09T23:01:00-05:00,83.38,12.91,738.95,-1.08,0.26,130.31,0
2020-03-09T23:02:00-05:00,83.98,12.89,738.64,-3.14,0.51,159.15,0
2020-03-09T23:03:00-05:00,84.34,12.87,738.54,-1.52,0.58,148.23,0
2020-03-09T23:04:00-05:00,84.97,12.82,739.28,-1.23,0.53,139.26,0
2020-03-09T23:05:00-05:00,84.93,12.79,739.58,-1.52,0.13,216.91,0
2020-03-09T23:06:00-05:00,85.01,12.76,739.11,-1.82,0.21,27.64,0
2020-03-09T23:07:00-05:00,85.73,12.73,738.31,-2.41,1.12,182.08,0
2020-03-09T23:08:00-05:00,86.67,12.65,739.72,-2.26,0.45,272.67,0
2020-03-09T23:09:00-05:00,86.74,12.56,738.71,-1.38,1.23,223.94,0
2020-03-09T23:10:00-05:00,85.72,12.51,738.54,-1.97,0.5,237.09,0
2020-03-09T23:11:00-05:00,86.1,12.51,739.08,-0.64,1.92,193,0
2020-03-09T23:12:00-05:00,86.17,12.52,739.35,0.39,1.21,183.35,0
2020-03-09T23:13:00-05:00,86.36,12.51,738.31,-1.38,1.3,211.91,0
2020-03-09T23:14:00-05:00,86.74,12.49,738.68,0.68,0.28,155.59,0
2020-03-09T23:15:00-05:00,86.7,12.47,738.85,-2.26,0.77,129.73,0
2020-03-09T23:16:00-05:00,86.85,12.47,739.45,-1.82,1.2,314.87,0
2020-03-09T23:17:00-05:00,86.72,12.46,739.38,-1.23,2.14,40.71,0
2020-03-09T23:18:00-05:00,86.66,12.49,740.12,1.27,0.72,61.3,0
2020-03-09T23:19:00-05:00,86.54,12.51,738.98,-0.2,4.43,44.79,0
2020-03-09T23:20:00-05:00,86.47,12.51,738.34,0.68,3.49,72.58,0
2020-03-09T23:21:00-05:00,86.62,12.51,738.51,1.27,0.96,80.09,0
2020-03-09T23:22:00-05:00,86.01,12.53,739.25,1.12,2.27,68.72,0
2020-03-09T23:23:00-05:00,85.59,12.57,738.38,0.53,2.56,79.53,0
2020-03-09T23:24:00-05:00,85.63,12.59,739.31,-1.23,2.93,38.69,0
2020-03-09T23:25:00-05:00,85.43,12.62,738.64,0.53,0.98,143.2,0
2020-03-09T23:26:00-05:00,85.25,12.68,738.71,1.12,2.29,63.63,0
2020-03-09T23:27:00-05:00,84.5,12.7,739.05,-0.79,2.81,112.12,0
2020-03-09T23:28:00-05:00,83.98,12.75,739.11,1.12,2.17,66.14,0
2020-03-09T23:29:00-05:00,83.84,12.79,738.41,-1.23,0.86,46.81,0
2020-03-09T23:30:00-05:00,83.74,12.83,738.68,-1.08,0.66,350.56,0
2020-03-09T23:31:00-05:00,84.06,12.84,739.58,0.98,0.87,176.4,0
2020-03-09T23:32:00-05:00,84.16,12.84,739.18,0.53,3.47,252.76,0
2020-03-09T23:33:00-05:00,84.67,12.8,737.94,-0.64,0.96,317.96,0
2020-03-09T23:34:00-05:00,85.06,12.77,739.05,0.83,3.48,277.69,0
2020-03-09T23:35:00-05:00,85.47,12.72,739.11,1.12,1.25,195.26,0
2020-03-09T23:36:00-05:00,85.89,12.7,738.78,-0.94,0.34,103.55,0
2020-03-09T23:37:00-05:00,86.16,12.65,739.18,-0.35,1.5,261.07,0
2020-03-09T23:38:00-05:00,86.35,12.63,738.44,-2.26,1.7,284.68,0
2020-03-09T23:39:00-05:00,86.63,12.58,739.08,-0.94,1,264.83,0
2020-03-09T23:40:00-05:00,86.72,12.55,738.58,0.68,0.81,223.92,0
2020-03-09T23:41:00-05:00,86.88,12.53,737.51,-0.2,1.91,236.79,0
2020-03-09T23:42:00-05:00,86.84,12.51,738.54,0.68,0.57,199.01,0
2020-03-09T23:43:00-05:00,86.97,12.49,738.61,-1.52,1.03,269.69,0
2020-03-09T23:44:00-05:00,87.28,12.49,738.11,0.24,0.93,234.84,0
2020-03-09T23:45:00-05:00,87.45,12.49,739.15,-1.82,0.6,191.01,0
2020-03-09T23:46:00-05:00,87.83,12.45,738.85,-1.08,0.12,20.8,0
2020-03-09T23:47:00-05:00,88.01,12.44,739.25,-0.2,0.14,185.01,0
2020-03-09T23:48:00-05:00,88.17,12.43,738.98,0.24,0.43,348.76,0
2020-03-09T23:49:00-05:00,88.24,12.41,738.71,-1.67,0.21,137.31,0
2020-03-09T23:50:00-05:00,88.13,12.42,739.31,0.09,0.93,317.95,0
2020-03-09T23:51:00-05:00,87.89,12.39,737.94,0.68,0.33,277.69,0
2020-03-09T23:52:00-05:00,87.79,12.39,738.81,-1.08,0.44,105.15,0
2020-03-09T23:53:00-05:00,88.12,12.41,738.51,-1.38,0.07,115.19,0
2020-03-09T23:54:00-05:00,87.62,12.41,738.34,0.09,2.39,39.62,0
2020-03-09T23:55:00-05:00,87.18,12.43,738.01,-1.67,1.25,264.81,0
2020-03-09T23:56:00-05:00,86.96,12.45,738.81,-0.35,3.04,212.22,0
2020-03-09T23:57:00-05:00,86.76,12.45,739.08,-0.2,0.98,223.91,0
2020-03-09T23:58:00-05:00,86.72,12.47,738.58,-0.35,0.79,232.88,0
2020-03-09T23:59:00-05:00,86.78,12.49,738.41,1.12,1.88,191.01,0
